{"fingerprint": ["ConnectToControllers"], "dependent_labels": [], "time": [1402358774, 967805], "timeout_disallowed": true, "prunable": false, "class": "ConnectToControllers", "timed_out": false, "round": 0, "label": "e1"}
{"legacy_invariant_check": false, "class": "CheckInvariants", "fingerprint": "N/A", "timed_out": false, "label": "e185", "dependent_labels": [], "invariant_name": "check_for_file", "invariant_check_name": "check_for_file", "time": [1402358928, 518364], "invariant_check": null, "round": 35, "prunable": true}
{"fingerprint": ["ControllerFailure", "c1"], "dependent_labels": ["e220"], "prunable": true, "time": [1402358932, 428637], "class": "ControllerFailure", "label": "e194", "controller_id": "c1", "round": 36, "timed_out": false}
{"fingerprint": ["ControllerRecovery", "c1"], "dependent_labels": [], "prunable": true, "time": [1402358957, 825084], "class": "ControllerRecovery", "label": "e220", "controller_id": "c1", "round": 44, "timed_out": false}
{"class": "InvariantViolation", "fingerprint": ["InvariantViolation"], "persistent": true, "timed_out": false, "dependent_labels": [], "time": [1402359026, 386768], "violations": ["bug_file_detected"], "label": "e308", "round": 55, "prunable": true}
{"wait_time": 1.0, "dependent_labels": [], "fingerprint": ["WaitTime"], "time": [1402359026, 386768], "class": "WaitTime", "prunable": true, "timed_out": false, "round": -1, "label": "e312"}
