{"name": null, "timeout_disallowed": false, "fingerprint": ["ControllerStateChange", "%s going up...", "c1", "c1"], "controller_id": "c1", "value": ["('POX 0.0.0',)"], "timed_out": false, "dependent_labels": [], "time": [1372281870, 115978], "label": "i1", "class": "ControllerStateChange", "round": -1, "prunable": true}
{"name": null, "timeout_disallowed": false, "fingerprint": ["ControllerStateChange", "Running on %s", "c1", "c1"], "controller_id": "c1", "value": ["('CPython (2.7.2+/Jul 20 2012 22:15:08)',)"], "timed_out": false, "dependent_labels": [], "time": [1372281870, 117139], "label": "i2", "class": "ControllerStateChange", "round": -1, "prunable": true}
{"name": null, "timeout_disallowed": false, "fingerprint": ["ControllerStateChange", "%s is up.", "c1", "c1"], "controller_id": "c1", "value": ["('POX 0.0.0',)"], "timed_out": false, "dependent_labels": [], "time": [1372281870, 118187], "label": "i3", "class": "ControllerStateChange", "round": -1, "prunable": true}
{"name": null, "timeout_disallowed": false, "fingerprint": ["ControllerStateChange", "Listening for connections on ('127.0.0.1', 6633)", "c1", "c1"], "controller_id": "c1", "value": ["()"], "timed_out": false, "dependent_labels": [], "time": [1372281870, 120502], "label": "i4", "class": "ControllerStateChange", "round": -1, "prunable": true}
{"fingerprint": ["ConnectToControllers"], "dependent_labels": [], "time": [1372281870, 122556], "timeout_disallowed": false, "prunable": true, "class": "ConnectToControllers", "timed_out": false, "round": -1, "label": "i5"}
{"timeout_disallowed": false, "time": [1372281870, 124434], "controller_id": "c1", "fingerprint": ["ControlMessageReceive", {"class": "ofp_hello"}, 1, ["c", "1"]], "timed_out": false, "dependent_labels": [], "dpid": 1, "label": "i6", "class": "ControlMessageReceive", "round": -1, "prunable": true}
{"timeout_disallowed": false, "time": [1372281870, 124779], "controller_id": "c1", "fingerprint": ["ControlMessageSend", {"class": "ofp_hello"}, 1, ["c", "1"]], "timed_out": false, "dependent_labels": [], "dpid": 1, "label": "i7", "class": "ControlMessageSend", "round": -1, "prunable": true}
{"timeout_disallowed": false, "time": [1372281870, 163578], "controller_id": "c1", "fingerprint": ["ControlMessageReceive", {"class": "ofp_hello"}, 2, ["c", "1"]], "timed_out": false, "dependent_labels": [], "dpid": 2, "label": "i8", "class": "ControlMessageReceive", "round": -1, "prunable": true}
{"timeout_disallowed": false, "time": [1372281870, 164116], "controller_id": "c1", "fingerprint": ["ControlMessageReceive", {"class": "ofp_features_request"}, 1, ["c", "1"]], "timed_out": false, "dependent_labels": [], "dpid": 1, "label": "i9", "class": "ControlMessageReceive", "round": -1, "prunable": true}
{"timeout_disallowed": false, "time": [1372281870, 164524], "controller_id": "c1", "fingerprint": ["ControlMessageSend", {"class": "ofp_hello"}, 2, ["c", "1"]], "timed_out": false, "dependent_labels": [], "dpid": 2, "label": "i10", "class": "ControlMessageSend", "round": -1, "prunable": true}
{"timeout_disallowed": false, "time": [1372281870, 164976], "controller_id": "c1", "fingerprint": ["ControlMessageSend", {"datapath_id": 1, "class": "ofp_features_reply"}, 1, ["c", "1"]], "timed_out": false, "dependent_labels": [], "dpid": 1, "label": "i11", "class": "ControlMessageSend", "round": -1, "prunable": true}
{"timeout_disallowed": false, "time": [1372281870, 166261], "controller_id": "c1", "fingerprint": ["ControlMessageReceive", {"class": "ofp_features_request"}, 2, ["c", "1"]], "timed_out": false, "dependent_labels": [], "dpid": 2, "label": "i12", "class": "ControlMessageReceive", "round": -1, "prunable": true}
{"timeout_disallowed": false, "time": [1372281870, 168950], "controller_id": "c1", "fingerprint": ["ControlMessageReceive", {"class": "ofp_set_config"}, 1, ["c", "1"]], "timed_out": false, "dependent_labels": [], "dpid": 1, "label": "i13", "class": "ControlMessageReceive", "round": -1, "prunable": true}
{"timeout_disallowed": false, "time": [1372281870, 208322], "controller_id": "c1", "fingerprint": ["ControlMessageReceive", {"class": "ofp_barrier_request"}, 1, ["c", "1"]], "timed_out": false, "dependent_labels": [], "dpid": 1, "label": "i14", "class": "ControlMessageReceive", "round": -1, "prunable": true}
{"timeout_disallowed": false, "time": [1372281870, 209031], "controller_id": "c1", "fingerprint": ["ControlMessageReceive", {"hard_timeout": 0, "actions": [], "priority": 32768, "idle_timeout": 0, "command": "delete", "out_port": 65535, "flags": 0, "class": "ofp_flow_mod", "match": "x^L"}, 1, ["c", "1"]], "timed_out": false, "dependent_labels": [], "dpid": 1, "label": "i15", "class": "ControlMessageReceive", "round": -1, "prunable": true}
{"timeout_disallowed": false, "time": [1372281870, 209846], "controller_id": "c1", "fingerprint": ["ControlMessageSend", {"datapath_id": 2, "class": "ofp_features_reply"}, 2, ["c", "1"]], "timed_out": false, "dependent_labels": [], "dpid": 2, "label": "i16", "class": "ControlMessageSend", "round": -1, "prunable": true}
{"timeout_disallowed": false, "time": [1372281870, 210277], "controller_id": "c1", "fingerprint": ["ControlMessageSend", {"class": "ofp_barrier_reply"}, 1, ["c", "1"]], "timed_out": false, "dependent_labels": [], "dpid": 1, "label": "i17", "class": "ControlMessageSend", "round": -1, "prunable": true}
{"name": null, "timeout_disallowed": false, "fingerprint": ["ControllerStateChange", "of_01 %s Connected to %s", "c1", "c1"], "controller_id": "c1", "value": ["('[Con 1/1]', '00-00-00-00-00-01')"], "timed_out": false, "dependent_labels": [], "time": [1372281870, 215414], "label": "i18", "class": "ControllerStateChange", "round": -1, "prunable": true}
{"name": null, "timeout_disallowed": false, "fingerprint": ["ControllerStateChange", "Connect %s", "c1", "c1"], "controller_id": "c1", "value": ["(<pox.openflow.of_01.Connection object at 0x299a450>,)"], "timed_out": false, "dependent_labels": [], "time": [1372281870, 218011], "label": "i19", "class": "ControllerStateChange", "round": -1, "prunable": true}
{"name": null, "timeout_disallowed": false, "fingerprint": ["ControllerStateChange", "Installing flow for %s", "c1", "c1"], "controller_id": "c1", "value": ["('00-00-00-00-00-01',)"], "timed_out": false, "dependent_labels": [], "time": [1372281870, 220334], "label": "i20", "class": "ControllerStateChange", "round": -1, "prunable": true}
{"timeout_disallowed": false, "time": [1372281870, 252528], "controller_id": "c1", "fingerprint": ["ControlMessageReceive", {"hard_timeout": 0, "actions": ["output(65533)"], "priority": 32768, "idle_timeout": 0, "command": "add", "out_port": 65535, "flags": 0, "class": "ofp_flow_mod", "match": "dl_dst:01:23:20:00:00:01,dl_type:35020"}, 1, ["c", "1"]], "timed_out": false, "dependent_labels": [], "dpid": 1, "label": "i21", "class": "ControlMessageReceive", "round": -1, "prunable": true}
{"timeout_disallowed": false, "time": [1372281870, 253568], "controller_id": "c1", "fingerprint": ["ControlMessageReceive", {"hard_timeout": 0, "actions": [], "priority": 32768, "idle_timeout": 0, "command": "delete", "out_port": 65535, "flags": 0, "class": "ofp_flow_mod", "match": "x^L"}, 2, ["c", "1"]], "timed_out": false, "dependent_labels": [], "dpid": 2, "label": "i22", "class": "ControlMessageReceive", "round": -1, "prunable": true}
{"timeout_disallowed": false, "time": [1372281870, 254371], "controller_id": "c1", "fingerprint": ["ControlMessageReceive", {"class": "ofp_set_config"}, 2, ["c", "1"]], "timed_out": false, "dependent_labels": [], "dpid": 2, "label": "i23", "class": "ControlMessageReceive", "round": -1, "prunable": true}
{"timeout_disallowed": false, "time": [1372281870, 254884], "controller_id": "c1", "fingerprint": ["ControlMessageReceive", {"class": "ofp_barrier_request"}, 2, ["c", "1"]], "timed_out": false, "dependent_labels": [], "dpid": 2, "label": "i24", "class": "ControlMessageReceive", "round": -1, "prunable": true}
{"timeout_disallowed": false, "time": [1372281870, 255339], "controller_id": "c1", "fingerprint": ["ControlMessageSend", {"class": "ofp_barrier_reply"}, 2, ["c", "1"]], "timed_out": false, "dependent_labels": [], "dpid": 2, "label": "i25", "class": "ControlMessageSend", "round": -1, "prunable": true}
{"name": null, "timeout_disallowed": false, "fingerprint": ["ControllerStateChange", "of_01 %s Connected to %s", "c1", "c1"], "controller_id": "c1", "value": ["('[Con 2/2]', '00-00-00-00-00-02')"], "timed_out": false, "dependent_labels": [], "time": [1372281870, 257954], "label": "i26", "class": "ControllerStateChange", "round": -1, "prunable": true}
{"name": null, "timeout_disallowed": false, "fingerprint": ["ControllerStateChange", "Connect %s", "c1", "c1"], "controller_id": "c1", "value": ["(<pox.openflow.of_01.Connection object at 0x299a490>,)"], "timed_out": false, "dependent_labels": [], "time": [1372281870, 260590], "label": "i27", "class": "ControllerStateChange", "round": -1, "prunable": true}
{"name": null, "timeout_disallowed": false, "fingerprint": ["ControllerStateChange", "Installing flow for %s", "c1", "c1"], "controller_id": "c1", "value": ["('00-00-00-00-00-02',)"], "timed_out": false, "dependent_labels": [], "time": [1372281870, 262790], "label": "i28", "class": "ControllerStateChange", "round": -1, "prunable": true}
{"timeout_disallowed": false, "time": [1372281870, 263455], "controller_id": "c1", "fingerprint": ["ControlMessageReceive", {"hard_timeout": 0, "actions": ["output(65533)"], "priority": 32768, "idle_timeout": 0, "command": "add", "out_port": 65535, "flags": 0, "class": "ofp_flow_mod", "match": "dl_dst:01:23:20:00:00:01,dl_type:35020"}, 2, ["c", "1"]], "timed_out": false, "dependent_labels": [], "dpid": 2, "label": "i29", "class": "ControlMessageReceive", "round": -1, "prunable": true}
{"dependent_labels": [], "class": "TrafficInjection", "fingerprint": ["TrafficInjection", {"interface": {"hw_addr": "12:34:56:78:02:02", "ips": ["123.123.2.2"], "name": "eth2"}, "packet": "////////EjRWeAICCAYAAQgABgQAARI0VngCAnt7AgIAAAAAAAB7ewEC"}, 2], "timed_out": false, "label": "e30", "dp_event": {"interface": {"hw_addr": "12:34:56:78:02:02", "ips": ["123.123.2.2"], "name": "eth2"}, "packet": "////////EjRWeAICCAYAAQgABgQAARI0VngCAnt7AgIAAAAAAAB7ewEC"}, "time": [1372281870, 264683], "host_id": 2, "round": -1, "prunable": true}
{"timeout_disallowed": false, "fingerprint": ["DataplanePermit", {"class": "arp"}, "host:[IPAddr('123.123.2.2')]", "12:34:56:78:02:02"], "timed_out": false, "label": "i31", "passive": false, "dependent_labels": [], "time": [1372281870, 265861], "class": "DataplanePermit", "round": -1, "prunable": true}
{"timeout_disallowed": false, "time": [1372281870, 266360], "controller_id": "c1", "fingerprint": ["ControlMessageSend", {"data": {"class": "arp"}, "class": "ofp_packet_in", "in_port": 2}, 2, ["c", "1"]], "timed_out": false, "dependent_labels": [], "dpid": 2, "label": "i32", "class": "ControlMessageSend", "round": -1, "prunable": true}
{"name": null, "timeout_disallowed": false, "fingerprint": ["ControllerStateChange", "Learned %s at %s.%i", "c1", "c1"], "controller_id": "c1", "value": ["(EthAddr('12:34:56:78:02:02'), 00-00-00-00-00-02, 2)"], "timed_out": false, "dependent_labels": [], "time": [1372281870, 272266], "label": "i33", "class": "ControllerStateChange", "round": -1, "prunable": true}
{"name": null, "timeout_disallowed": false, "fingerprint": ["ControllerStateChange", "Flood multicast from %s", "c1", "c1"], "controller_id": "c1", "value": ["(EthAddr('12:34:56:78:02:02'),)"], "timed_out": false, "dependent_labels": [], "time": [1372281870, 274012], "label": "i34", "class": "ControllerStateChange", "round": -1, "prunable": true}
{"timeout_disallowed": false, "time": [1372281870, 274710], "controller_id": "c1", "fingerprint": ["ControlMessageReceive", {"in_port": 2, "data": [], "class": "ofp_packet_out", "actions": ["output(65531)"]}, 2, ["c", "1"]], "timed_out": false, "dependent_labels": [], "dpid": 2, "label": "i35", "class": "ControlMessageReceive", "round": -1, "prunable": true}
{"timeout_disallowed": false, "fingerprint": ["DataplanePermit", {"class": "arp"}, 2, 1], "timed_out": false, "label": "i36", "passive": false, "dependent_labels": [], "time": [1372281870, 275679], "class": "DataplanePermit", "round": -1, "prunable": true}
{"timeout_disallowed": false, "time": [1372281870, 276153], "controller_id": "c1", "fingerprint": ["ControlMessageSend", {"data": {"class": "arp"}, "class": "ofp_packet_in", "in_port": 1}, 1, ["c", "1"]], "timed_out": false, "dependent_labels": [], "dpid": 1, "label": "i37", "class": "ControlMessageSend", "round": -1, "prunable": true}
{"name": null, "timeout_disallowed": false, "fingerprint": ["ControllerStateChange", "%s moved from %s.%i to %s.%i?", "c1", "c1"], "controller_id": "c1", "value": ["(EthAddr('12:34:56:78:02:02'), '00-00-00-00-00-02', 2, '00-00-00-00-00-01', 1)"], "timed_out": false, "dependent_labels": [], "time": [1372281870, 280170], "label": "i38", "class": "ControllerStateChange", "round": -1, "prunable": true}
{"name": null, "timeout_disallowed": false, "fingerprint": ["ControllerStateChange", "Learned %s at %s.%i", "c1", "c1"], "controller_id": "c1", "value": ["(EthAddr('12:34:56:78:02:02'), 00-00-00-00-00-01, 1)"], "timed_out": false, "dependent_labels": [], "time": [1372281870, 281756], "label": "i39", "class": "ControllerStateChange", "round": -1, "prunable": true}
{"name": null, "timeout_disallowed": false, "fingerprint": ["ControllerStateChange", "Flood multicast from %s", "c1", "c1"], "controller_id": "c1", "value": ["(EthAddr('12:34:56:78:02:02'),)"], "timed_out": false, "dependent_labels": [], "time": [1372281870, 283407], "label": "i40", "class": "ControllerStateChange", "round": -1, "prunable": true}
{"timeout_disallowed": false, "time": [1372281870, 283894], "controller_id": "c1", "fingerprint": ["ControlMessageReceive", {"in_port": 1, "data": [], "class": "ofp_packet_out", "actions": ["output(65531)"]}, 1, ["c", "1"]], "timed_out": false, "dependent_labels": [], "dpid": 1, "label": "i41", "class": "ControlMessageReceive", "round": -1, "prunable": true}
{"timeout_disallowed": false, "fingerprint": ["DataplanePermit", {"class": "arp"}, 1, 2], "timed_out": false, "label": "i42", "passive": false, "dependent_labels": [], "time": [1372281870, 284621], "class": "DataplanePermit", "round": -1, "prunable": true}
{"timeout_disallowed": false, "time": [1372281870, 319942], "controller_id": "c1", "fingerprint": ["ControlMessageReceive", {"in_port": 65535, "data": {"class": "lldp"}, "class": "ofp_packet_out", "actions": ["output(1)"]}, 1, ["c", "1"]], "timed_out": false, "dependent_labels": [], "dpid": 1, "label": "i43", "class": "ControlMessageReceive", "round": -1, "prunable": true}
{"class": "DataplaneDrop", "fingerprint": ["DataplaneDrop", {"class": "lldp"}, 1, 1], "timed_out": false, "label": "e44", "passive": false, "dependent_labels": [], "time": [1372281870, 320441], "round": -1, "prunable": true}
{"legacy_invariant_check": false, "class": "CheckInvariants", "fingerprint": "N/A", "timed_out": false, "label": "e45", "dependent_labels": [], "invariant_name": "check_for_loops_or_connectivity", "invariant_check_name": "check_for_loops_or_connectivity", "time": [1372281870, 322034], "invariant_check": null, "round": -1, "prunable": true}
{"dependent_labels": [], "class": "TrafficInjection", "fingerprint": ["TrafficInjection", {"interface": {"hw_addr": "12:34:56:78:01:02", "ips": ["123.123.1.2"], "name": "eth1"}, "packet": "EjRWeAICEjRWeAECCAYAAQgABgQAAhI0VngBAnt7AQISNFZ4AgJ7ewIC"}, 1], "timed_out": false, "label": "e46", "dp_event": {"interface": {"hw_addr": "12:34:56:78:01:02", "ips": ["123.123.1.2"], "name": "eth1"}, "packet": "EjRWeAICEjRWeAECCAYAAQgABgQAAhI0VngBAnt7AQISNFZ4AgJ7ewIC"}, "time": [1372281870, 322584], "host_id": 1, "round": -1, "prunable": true}
{"timeout_disallowed": false, "fingerprint": ["DataplanePermit", {"class": "arp"}, "host:[IPAddr('123.123.1.2')]", "12:34:56:78:01:02"], "timed_out": false, "label": "i47", "passive": false, "dependent_labels": [], "time": [1372281870, 323617], "class": "DataplanePermit", "round": -1, "prunable": true}
{"timeout_disallowed": false, "time": [1372281870, 324058], "controller_id": "c1", "fingerprint": ["ControlMessageSend", {"data": {"class": "arp"}, "class": "ofp_packet_in", "in_port": 2}, 1, ["c", "1"]], "timed_out": false, "dependent_labels": [], "dpid": 1, "label": "i48", "class": "ControlMessageSend", "round": -1, "prunable": true}
{"name": null, "timeout_disallowed": false, "fingerprint": ["ControllerStateChange", "Learned %s at %s.%i", "c1", "c1"], "controller_id": "c1", "value": ["(EthAddr('12:34:56:78:01:02'), 00-00-00-00-00-01, 2)"], "timed_out": false, "dependent_labels": [], "time": [1372281870, 328155], "label": "i49", "class": "ControllerStateChange", "round": -1, "prunable": true}
{"name": null, "timeout_disallowed": false, "fingerprint": ["ControllerStateChange", "Installing path for %s -> %s %04x (%i hops)", "c1", "c1"], "controller_id": "c1", "value": ["(EthAddr('12:34:56:78:01:02'), EthAddr('12:34:56:78:02:02'), 2054, 1)"], "timed_out": false, "dependent_labels": [], "time": [1372281870, 329779], "label": "i50", "class": "ControllerStateChange", "round": -1, "prunable": true}
{"timeout_disallowed": false, "time": [1372281870, 330551], "controller_id": "c1", "fingerprint": ["ControlMessageReceive", {"hard_timeout": 30, "actions": ["output(1)"], "priority": 32768, "idle_timeout": 10, "command": "add", "out_port": 65535, "flags": 0, "class": "ofp_flow_mod", "match": "dl_src:12:34:56:78:01:02,dl_dst:12:34:56:78:02:02,dl_vlan:65535,dl_vlan_pcp:0,dl_type:2054,nw_proto:2,nw_src:123.123.1.2/32,nw_dst:123.123.2.2/32"}, 1, ["c", "1"]], "timed_out": false, "dependent_labels": [], "dpid": 1, "label": "i51", "class": "ControlMessageReceive", "round": -1, "prunable": true}
{"timeout_disallowed": false, "fingerprint": ["DataplanePermit", {"class": "arp"}, 1, 1], "timed_out": false, "label": "i52", "passive": false, "dependent_labels": [], "time": [1372281870, 331755], "class": "DataplanePermit", "round": -1, "prunable": true}
{"timeout_disallowed": false, "time": [1372281870, 332261], "controller_id": "c1", "fingerprint": ["ControlMessageSend", {"data": {"class": "arp"}, "class": "ofp_packet_in", "in_port": 1}, 2, ["c", "1"]], "timed_out": false, "dependent_labels": [], "dpid": 2, "label": "i53", "class": "ControlMessageSend", "round": -1, "prunable": true}
{"new_ingress_port_no": 3, "class": "HostMigration", "fingerprint": ["HostMigration", 2, 2, 1, 3, 2], "timed_out": false, "label": "e54", "dependent_labels": [], "new_ingress_dpid": 1, "time": [1372281870, 333001], "old_ingress_port_no": 2, "host_id": 2, "old_ingress_dpid": 2, "round": -1, "prunable": true}
{"dependent_labels": [], "class": "TrafficInjection", "fingerprint": ["TrafficInjection", {"interface": {"hw_addr": "12:34:56:78:02:02", "ips": ["123.123.2.2"], "name": "eth2"}, "packet": "EjRWeAICEjRWeAICCABFAABIVV0AAEABKl57ewICe3sCAgAADjdQaW5nUGluZ1BpbmdQaW5nUGluZ1BpbmdQaW5nUGluZ1BpbmdQaW5nUGluZ1Bpbmc="}, 2], "timed_out": false, "label": "e55", "dp_event": {"interface": {"hw_addr": "12:34:56:78:02:02", "ips": ["123.123.2.2"], "name": "eth2"}, "packet": "EjRWeAICEjRWeAICCABFAABIVV0AAEABKl57ewICe3sCAgAADjdQaW5nUGluZ1BpbmdQaW5nUGluZ1BpbmdQaW5nUGluZ1BpbmdQaW5nUGluZ1Bpbmc="}, "time": [1372281870, 333697], "host_id": 2, "round": -1, "prunable": true}
{"name": null, "timeout_disallowed": false, "fingerprint": ["ControllerStateChange", "%s moved from %s.%i to %s.%i?", "c1", "c1"], "controller_id": "c1", "value": ["(EthAddr('12:34:56:78:01:02'), '00-00-00-00-00-01', 2, '00-00-00-00-00-02', 1)"], "timed_out": false, "dependent_labels": [], "time": [1372281870, 337968], "label": "i56", "class": "ControllerStateChange", "round": -1, "prunable": true}
{"name": null, "timeout_disallowed": false, "fingerprint": ["ControllerStateChange", "Learned %s at %s.%i", "c1", "c1"], "controller_id": "c1", "value": ["(EthAddr('12:34:56:78:01:02'), 00-00-00-00-00-02, 1)"], "timed_out": false, "dependent_labels": [], "time": [1372281870, 339567], "label": "i57", "class": "ControllerStateChange", "round": -1, "prunable": true}
{"name": null, "timeout_disallowed": false, "fingerprint": ["ControllerStateChange", "Can't get from %s to %s", "c1", "c1"], "controller_id": "c1", "value": ["(EthAddr('12:34:56:78:01:02'), EthAddr('12:34:56:78:02:02'))"], "timed_out": false, "dependent_labels": [], "time": [1372281870, 341078], "label": "i58", "class": "ControllerStateChange", "round": -1, "prunable": true}
{"timeout_disallowed": false, "fingerprint": ["DataplanePermit", {"dl_dst": "12:34:56:78:02:02", "nw_src": "123.123.2.2", "dl_src": "12:34:56:78:02:02", "nw_dst": "123.123.2.2"}, "host:[IPAddr('123.123.2.2')]", "12:34:56:78:02:02"], "timed_out": false, "label": "i59", "passive": false, "dependent_labels": [], "time": [1372281870, 342100], "class": "DataplanePermit", "round": -1, "prunable": true}
{"timeout_disallowed": false, "time": [1372281870, 342721], "controller_id": "c1", "fingerprint": ["ControlMessageSend", {"reason": 0, "class": "ofp_port_status", "desc": [3, "00:00:00:00:02:02"]}, 1, ["c", "1"]], "timed_out": false, "dependent_labels": [], "dpid": 1, "label": "i60", "class": "ControlMessageSend", "round": -1, "prunable": true}
{"timeout_disallowed": false, "time": [1372281870, 343311], "controller_id": "c1", "fingerprint": ["ControlMessageSend", {"reason": 1, "class": "ofp_port_status", "desc": [2, "00:00:00:00:02:02"]}, 2, ["c", "1"]], "timed_out": false, "dependent_labels": [], "dpid": 2, "label": "i61", "class": "ControlMessageSend", "round": -1, "prunable": true}
{"timeout_disallowed": false, "time": [1372281870, 343913], "controller_id": "c1", "fingerprint": ["ControlMessageSend", {"data": {"dl_dst": "12:34:56:78:02:02", "nw_src": "123.123.2.2", "dl_src": "12:34:56:78:02:02", "nw_dst": "123.123.2.2"}, "class": "ofp_packet_in", "in_port": 3}, 1, ["c", "1"]], "timed_out": false, "dependent_labels": [], "dpid": 1, "label": "i62", "class": "ControlMessageSend", "round": -1, "prunable": true}
{"name": null, "timeout_disallowed": false, "fingerprint": ["ControllerStateChange", "%s moved from %s.%i to %s.%i?", "c1", "c1"], "controller_id": "c1", "value": ["(EthAddr('12:34:56:78:02:02'), '00-00-00-00-00-01', 1, '00-00-00-00-00-01', 3)"], "timed_out": false, "dependent_labels": [], "time": [1372281870, 376720], "label": "i63", "class": "ControllerStateChange", "round": -1, "prunable": true}
{"name": null, "timeout_disallowed": false, "fingerprint": ["ControllerStateChange", "Learned %s at %s.%i", "c1", "c1"], "controller_id": "c1", "value": ["(EthAddr('12:34:56:78:02:02'), 00-00-00-00-00-01, 3)"], "timed_out": false, "dependent_labels": [], "time": [1372281870, 379641], "label": "i64", "class": "ControllerStateChange", "round": -1, "prunable": true}
{"name": null, "timeout_disallowed": false, "fingerprint": ["ControllerStateChange", "Installing path for %s -> %s %04x (%i hops)", "c1", "c1"], "controller_id": "c1", "value": ["(EthAddr('12:34:56:78:02:02'), EthAddr('12:34:56:78:02:02'), 2048, 1)"], "timed_out": false, "dependent_labels": [], "time": [1372281870, 381212], "label": "i65", "class": "ControllerStateChange", "round": -1, "prunable": true}
{"timeout_disallowed": false, "time": [1372281870, 382068], "controller_id": "c1", "fingerprint": ["ControlMessageReceive", {"hard_timeout": 30, "actions": ["output(3)"], "priority": 32768, "idle_timeout": 10, "command": "add", "out_port": 65535, "flags": 0, "class": "ofp_flow_mod", "match": "dl_src:12:34:56:78:02:02,dl_dst:12:34:56:78:02:02,dl_vlan:65535,dl_vlan_pcp:0,dl_type:2048,nw_tos:0,nw_proto:1,nw_src:123.123.2.2/32,nw_dst:123.123.2.2/32,tp_src:0,tp_dst:0"}, 1, ["c", "1"]], "timed_out": false, "dependent_labels": [], "dpid": 1, "label": "i66", "class": "ControlMessageReceive", "round": -1, "prunable": true}
{"dependent_labels": [], "class": "TrafficInjection", "fingerprint": ["TrafficInjection", {"interface": {"hw_addr": "12:34:56:78:02:02", "ips": ["123.123.2.2"], "name": "eth2"}, "packet": "EjRWeAECEjRWeAICCABFAAAcISgAAEABX797ewICe3sBAggAGS9waW5n"}, 2], "timed_out": false, "label": "e67", "dp_event": {"interface": {"hw_addr": "12:34:56:78:02:02", "ips": ["123.123.2.2"], "name": "eth2"}, "packet": "EjRWeAECEjRWeAICCABFAAAcISgAAEABX797ewICe3sBAggAGS9waW5n"}, "time": [1372281870, 383086], "host_id": 2, "round": -1, "prunable": true}
{"class": "DataplaneDrop", "fingerprint": ["DataplaneDrop", {"dl_dst": "12:34:56:78:01:02", "nw_src": "123.123.2.2", "dl_src": "12:34:56:78:02:02", "nw_dst": "123.123.1.2"}, "host:[IPAddr('123.123.2.2')]", "12:34:56:78:02:02"], "timed_out": false, "label": "e68", "passive": false, "dependent_labels": [], "time": [1372281870, 383675], "round": -1, "prunable": true}
{"new_ingress_port_no": 3, "class": "HostMigration", "fingerprint": ["HostMigration", 1, 2, 2, 3, 1], "timed_out": false, "label": "e69", "dependent_labels": [], "new_ingress_dpid": 2, "time": [1372281870, 384375], "old_ingress_port_no": 2, "host_id": 1, "old_ingress_dpid": 1, "round": -1, "prunable": true}
{"dependent_labels": [], "class": "TrafficInjection", "fingerprint": ["TrafficInjection", {"interface": {"hw_addr": "12:34:56:78:01:02", "ips": ["123.123.1.2"], "name": "eth1"}, "packet": "EjRWeAECEjRWeAECCABFAABIVV8AAEABLFx7ewECe3sBAgAADjdQaW5nUGluZ1BpbmdQaW5nUGluZ1BpbmdQaW5nUGluZ1BpbmdQaW5nUGluZ1Bpbmc="}, 1], "timed_out": false, "label": "e70", "dp_event": {"interface": {"hw_addr": "12:34:56:78:01:02", "ips": ["123.123.1.2"], "name": "eth1"}, "packet": "EjRWeAECEjRWeAECCABFAABIVV8AAEABLFx7ewECe3sBAgAADjdQaW5nUGluZ1BpbmdQaW5nUGluZ1BpbmdQaW5nUGluZ1BpbmdQaW5nUGluZ1Bpbmc="}, "time": [1372281870, 384999], "host_id": 1, "round": -1, "prunable": true}
{"timeout_disallowed": false, "fingerprint": ["DataplanePermit", {"dl_dst": "12:34:56:78:01:02", "nw_src": "123.123.1.2", "dl_src": "12:34:56:78:01:02", "nw_dst": "123.123.1.2"}, "host:[IPAddr('123.123.1.2')]", "12:34:56:78:01:02"], "timed_out": false, "label": "i71", "passive": false, "dependent_labels": [], "time": [1372281870, 386166], "class": "DataplanePermit", "round": -1, "prunable": true}
{"timeout_disallowed": false, "time": [1372281870, 386756], "controller_id": "c1", "fingerprint": ["ControlMessageSend", {"reason": 1, "class": "ofp_port_status", "desc": [2, "00:00:00:00:01:02"]}, 1, ["c", "1"]], "timed_out": false, "dependent_labels": [], "dpid": 1, "label": "i72", "class": "ControlMessageSend", "round": -1, "prunable": true}
{"timeout_disallowed": false, "time": [1372281870, 387326], "controller_id": "c1", "fingerprint": ["ControlMessageSend", {"reason": 0, "class": "ofp_port_status", "desc": [3, "00:00:00:00:01:02"]}, 2, ["c", "1"]], "timed_out": false, "dependent_labels": [], "dpid": 2, "label": "i73", "class": "ControlMessageSend", "round": -1, "prunable": true}
{"timeout_disallowed": false, "time": [1372281870, 387926], "controller_id": "c1", "fingerprint": ["ControlMessageSend", {"data": {"dl_dst": "12:34:56:78:01:02", "nw_src": "123.123.1.2", "dl_src": "12:34:56:78:01:02", "nw_dst": "123.123.1.2"}, "class": "ofp_packet_in", "in_port": 3}, 2, ["c", "1"]], "timed_out": false, "dependent_labels": [], "dpid": 2, "label": "i74", "class": "ControlMessageSend", "round": -1, "prunable": true}
{"name": null, "timeout_disallowed": false, "fingerprint": ["ControllerStateChange", "%s moved from %s.%i to %s.%i?", "c1", "c1"], "controller_id": "c1", "value": ["(EthAddr('12:34:56:78:01:02'), '00-00-00-00-00-02', 1, '00-00-00-00-00-02', 3)"], "timed_out": false, "dependent_labels": [], "time": [1372281870, 395792], "label": "i75", "class": "ControllerStateChange", "round": -1, "prunable": true}
{"name": null, "timeout_disallowed": false, "fingerprint": ["ControllerStateChange", "Learned %s at %s.%i", "c1", "c1"], "controller_id": "c1", "value": ["(EthAddr('12:34:56:78:01:02'), 00-00-00-00-00-02, 3)"], "timed_out": false, "dependent_labels": [], "time": [1372281870, 398565], "label": "i76", "class": "ControllerStateChange", "round": -1, "prunable": true}
{"name": null, "timeout_disallowed": false, "fingerprint": ["ControllerStateChange", "Installing path for %s -> %s %04x (%i hops)", "c1", "c1"], "controller_id": "c1", "value": ["(EthAddr('12:34:56:78:01:02'), EthAddr('12:34:56:78:01:02'), 2048, 1)"], "timed_out": false, "dependent_labels": [], "time": [1372281870, 400096], "label": "i77", "class": "ControllerStateChange", "round": -1, "prunable": true}
{"timeout_disallowed": false, "time": [1372281870, 400913], "controller_id": "c1", "fingerprint": ["ControlMessageReceive", {"hard_timeout": 30, "actions": ["output(3)"], "priority": 32768, "idle_timeout": 10, "command": "add", "out_port": 65535, "flags": 0, "class": "ofp_flow_mod", "match": "dl_src:12:34:56:78:01:02,dl_dst:12:34:56:78:01:02,dl_vlan:65535,dl_vlan_pcp:0,dl_type:2048,nw_tos:0,nw_proto:1,nw_src:123.123.1.2/32,nw_dst:123.123.1.2/32,tp_src:0,tp_dst:0"}, 2, ["c", "1"]], "timed_out": false, "dependent_labels": [], "dpid": 2, "label": "i78", "class": "ControlMessageReceive", "round": -1, "prunable": true}
{"legacy_invariant_check": false, "class": "CheckInvariants", "fingerprint": "N/A", "timed_out": false, "label": "e79", "dependent_labels": [], "invariant_name": "check_for_loops_or_connectivity", "invariant_check_name": "check_for_loops_or_connectivity", "time": [1372281870, 409439], "invariant_check": null, "round": -1, "prunable": true}
{"dependent_labels": [], "class": "TrafficInjection", "fingerprint": ["TrafficInjection", {"interface": {"hw_addr": "12:34:56:78:01:02", "ips": ["123.123.1.2"], "name": "eth1"}, "packet": "EjRWeAICEjRWeAECCABFAAAcISkAAEABX757ewECe3sCAgAAISlwb25n"}, 1], "timed_out": false, "label": "e80", "dp_event": {"interface": {"hw_addr": "12:34:56:78:01:02", "ips": ["123.123.1.2"], "name": "eth1"}, "packet": "EjRWeAICEjRWeAECCABFAAAcISkAAEABX757ewECe3sCAgAAISlwb25n"}, "time": [1372281870, 410044], "host_id": 1, "round": -1, "prunable": true}
{"timeout_disallowed": false, "fingerprint": ["DataplanePermit", {"dl_dst": "12:34:56:78:02:02", "nw_src": "123.123.1.2", "dl_src": "12:34:56:78:01:02", "nw_dst": "123.123.2.2"}, "host:[IPAddr('123.123.1.2')]", "12:34:56:78:01:02"], "timed_out": false, "label": "i81", "passive": false, "dependent_labels": [], "time": [1372281870, 411242], "class": "DataplanePermit", "round": -1, "prunable": true}
{"timeout_disallowed": false, "time": [1372281870, 411633], "controller_id": "c1", "fingerprint": ["ControlMessageSend", {"data": {"dl_dst": "12:34:56:78:02:02", "nw_src": "123.123.1.2", "dl_src": "12:34:56:78:01:02", "nw_dst": "123.123.2.2"}, "class": "ofp_packet_in", "in_port": 3}, 2, ["c", "1"]], "timed_out": false, "dependent_labels": [], "dpid": 2, "label": "i82", "class": "ControlMessageSend", "round": -1, "prunable": true}
{"new_ingress_port_no": 4, "class": "HostMigration", "fingerprint": ["HostMigration", 1, 3, 1, 4, 2], "timed_out": false, "label": "e83", "dependent_labels": [], "new_ingress_dpid": 1, "time": [1372281870, 412124], "old_ingress_port_no": 3, "host_id": 2, "old_ingress_dpid": 1, "round": -1, "prunable": true}
{"dependent_labels": [], "class": "TrafficInjection", "fingerprint": ["TrafficInjection", {"interface": {"hw_addr": "12:34:56:78:02:02", "ips": ["123.123.2.2"], "name": "eth2"}, "packet": "EjRWeAICEjRWeAICCABFAABIVWIAAEABKll7ewICe3sCAggABjdQaW5nUGluZ1BpbmdQaW5nUGluZ1BpbmdQaW5nUGluZ1BpbmdQaW5nUGluZ1Bpbmc="}, 2], "timed_out": false, "label": "e84", "dp_event": {"interface": {"hw_addr": "12:34:56:78:02:02", "ips": ["123.123.2.2"], "name": "eth2"}, "packet": "EjRWeAICEjRWeAICCABFAABIVWIAAEABKll7ewICe3sCAggABjdQaW5nUGluZ1BpbmdQaW5nUGluZ1BpbmdQaW5nUGluZ1BpbmdQaW5nUGluZ1Bpbmc="}, "time": [1372281870, 412527], "host_id": 2, "round": -1, "prunable": true}
{"name": null, "timeout_disallowed": false, "fingerprint": ["ControllerStateChange", "Can't get from %s to %s", "c1", "c1"], "controller_id": "c1", "value": ["(EthAddr('12:34:56:78:01:02'), EthAddr('12:34:56:78:02:02'))"], "timed_out": false, "dependent_labels": [], "time": [1372281870, 437369], "label": "i85", "class": "ControllerStateChange", "round": -1, "prunable": true}
{"name": null, "timeout_disallowed": false, "fingerprint": ["ControllerStateChange", "Dest unreachable (%s -> %s)", "c1", "c1"], "controller_id": "c1", "value": ["(EthAddr('12:34:56:78:01:02'), EthAddr('12:34:56:78:02:02'))"], "timed_out": false, "dependent_labels": [], "time": [1372281870, 439091], "label": "i86", "class": "ControllerStateChange", "round": -1, "prunable": true}
{"class": "DataplaneDrop", "fingerprint": ["DataplaneDrop", {"dl_dst": "12:34:56:78:02:02", "nw_src": "123.123.2.2", "dl_src": "12:34:56:78:02:02", "nw_dst": "123.123.2.2"}, "host:[IPAddr('123.123.2.2')]", "12:34:56:78:02:02"], "timed_out": false, "label": "e87", "passive": false, "dependent_labels": [], "time": [1372281870, 439420], "round": -1, "prunable": true}
{"timeout_disallowed": false, "time": [1372281870, 440379], "controller_id": "c1", "fingerprint": ["ControlMessageReceive", {"in_port": 65535, "data": {"dl_dst": "12:34:56:78:01:02", "nw_src": "123.123.2.2", "dl_src": "00:00:00:00:00:02", "nw_dst": "123.123.1.2"}, "class": "ofp_packet_out", "actions": ["output(3)"]}, 2, ["c", "1"]], "timed_out": false, "dependent_labels": [], "dpid": 2, "label": "i88", "class": "ControlMessageReceive", "round": -1, "prunable": true}
{"timeout_disallowed": false, "time": [1372281870, 441143], "controller_id": "c1", "fingerprint": ["ControlMessageSend", {"reason": 0, "class": "ofp_port_status", "desc": [4, "00:00:00:00:02:02"]}, 1, ["c", "1"]], "timed_out": false, "dependent_labels": [], "dpid": 1, "label": "i89", "class": "ControlMessageSend", "round": -1, "prunable": true}
{"timeout_disallowed": false, "time": [1372281870, 441668], "controller_id": "c1", "fingerprint": ["ControlMessageSend", {"reason": 1, "class": "ofp_port_status", "desc": [3, "00:00:00:00:02:02"]}, 1, ["c", "1"]], "timed_out": false, "dependent_labels": [], "dpid": 1, "label": "i90", "class": "ControlMessageSend", "round": -1, "prunable": true}
{"class": "DataplaneDrop", "fingerprint": ["DataplaneDrop", {"dl_dst": "12:34:56:78:01:02", "nw_src": "123.123.2.2", "dl_src": "00:00:00:00:00:02", "nw_dst": "123.123.1.2"}, 2, 3], "timed_out": false, "label": "e91", "passive": false, "dependent_labels": [], "time": [1372281870, 442110], "round": -1, "prunable": true}
{"dependent_labels": [], "class": "TrafficInjection", "fingerprint": ["TrafficInjection", {"interface": {"hw_addr": "12:34:56:78:02:02", "ips": ["123.123.2.2"], "name": "eth2"}, "packet": "////////EjRWeAICCAYAAQgABgQAARI0VngCAnt7AgIAAAAAAAB7ewEC"}, 2], "timed_out": false, "label": "e92", "dp_event": {"interface": {"hw_addr": "12:34:56:78:02:02", "ips": ["123.123.2.2"], "name": "eth2"}, "packet": "////////EjRWeAICCAYAAQgABgQAARI0VngCAnt7AgIAAAAAAAB7ewEC"}, "time": [1372281870, 442896], "host_id": 2, "round": -1, "prunable": true}
{"class": "DataplaneDrop", "fingerprint": ["DataplaneDrop", {"class": "arp"}, "host:[IPAddr('123.123.2.2')]", "12:34:56:78:02:02"], "timed_out": false, "label": "e93", "passive": false, "dependent_labels": [], "time": [1372281870, 443444], "round": -1, "prunable": true}
{"timeout_disallowed": false, "time": [1372281870, 446742], "controller_id": "c1", "fingerprint": ["ControlMessageReceive", {"in_port": 65535, "data": {"class": "lldp"}, "class": "ofp_packet_out", "actions": ["output(1)"]}, 2, ["c", "1"]], "timed_out": false, "dependent_labels": [], "dpid": 2, "label": "i94", "class": "ControlMessageReceive", "round": -1, "prunable": true}
{"timeout_disallowed": false, "fingerprint": ["DataplanePermit", {"class": "lldp"}, 2, 1], "timed_out": false, "label": "i95", "passive": false, "dependent_labels": [], "time": [1372281870, 447794], "class": "DataplanePermit", "round": -1, "prunable": true}
{"timeout_disallowed": false, "time": [1372281870, 448246], "controller_id": "c1", "fingerprint": ["ControlMessageSend", {"data": {"class": "lldp"}, "class": "ofp_packet_in", "in_port": 1}, 1, ["c", "1"]], "timed_out": false, "dependent_labels": [], "dpid": 1, "label": "i96", "class": "ControlMessageSend", "round": -1, "prunable": true}
{"name": null, "timeout_disallowed": false, "fingerprint": ["ControllerStateChange", "link detected: %s.%i -> %s.%i", "c1", "c1"], "controller_id": "c1", "value": ["('00-00-00-00-00-02', 1, '00-00-00-00-00-01', 1)"], "timed_out": false, "dependent_labels": [], "time": [1372281870, 459838], "label": "i97", "class": "ControllerStateChange", "round": -1, "prunable": true}
{"timeout_disallowed": false, "time": [1372281870, 495997], "controller_id": "c1", "fingerprint": ["ControlMessageReceive", {"hard_timeout": 0, "actions": [], "priority": 32768, "idle_timeout": 0, "command": "delete", "out_port": 65535, "flags": 0, "class": "ofp_flow_mod", "match": "x^L"}, 2, ["c", "1"]], "timed_out": false, "dependent_labels": [], "dpid": 2, "label": "i98", "class": "ControlMessageReceive", "round": -1, "prunable": true}
{"timeout_disallowed": false, "time": [1372281870, 496935], "controller_id": "c1", "fingerprint": ["ControlMessageReceive", {"hard_timeout": 0, "actions": [], "priority": 32768, "idle_timeout": 0, "command": "delete", "out_port": 65535, "flags": 0, "class": "ofp_flow_mod", "match": "x^L"}, 1, ["c", "1"]], "timed_out": false, "dependent_labels": [], "dpid": 1, "label": "i99", "class": "ControlMessageReceive", "round": -1, "prunable": true}
{"timeout_disallowed": false, "time": [1372281870, 497703], "controller_id": "c1", "fingerprint": ["ControlMessageReceive", {"in_port": 1, "data": [], "class": "ofp_packet_out", "actions": []}, 1, ["c", "1"]], "timed_out": false, "dependent_labels": [], "dpid": 1, "label": "i100", "class": "ControlMessageReceive", "round": -1, "prunable": true}
{"legacy_invariant_check": false, "class": "CheckInvariants", "fingerprint": "N/A", "timed_out": false, "label": "e101", "dependent_labels": [], "invariant_name": "check_for_loops_or_connectivity", "invariant_check_name": "check_for_loops_or_connectivity", "time": [1372281870, 505954], "invariant_check": null, "round": -1, "prunable": true}
{"dependent_labels": [], "class": "TrafficInjection", "fingerprint": ["TrafficInjection", {"interface": {"hw_addr": "12:34:56:78:01:02", "ips": ["123.123.1.2"], "name": "eth1"}, "packet": "EjRWeAICEjRWeAECCAYAAQgABgQAAhI0VngBAnt7AQISNFZ4AgJ7ewIC"}, 1], "timed_out": false, "label": "e102", "dp_event": {"interface": {"hw_addr": "12:34:56:78:01:02", "ips": ["123.123.1.2"], "name": "eth1"}, "packet": "EjRWeAICEjRWeAECCAYAAQgABgQAAhI0VngBAnt7AQISNFZ4AgJ7ewIC"}, "time": [1372281870, 506498], "host_id": 1, "round": -1, "prunable": true}
{"timeout_disallowed": false, "fingerprint": ["DataplanePermit", {"class": "arp"}, "host:[IPAddr('123.123.1.2')]", "12:34:56:78:01:02"], "timed_out": false, "label": "i103", "passive": false, "dependent_labels": [], "time": [1372281870, 507595], "class": "DataplanePermit", "round": -1, "prunable": true}
{"timeout_disallowed": false, "time": [1372281870, 508097], "controller_id": "c1", "fingerprint": ["ControlMessageSend", {"data": {"class": "arp"}, "class": "ofp_packet_in", "in_port": 3}, 2, ["c", "1"]], "timed_out": false, "dependent_labels": [], "dpid": 2, "label": "i104", "class": "ControlMessageSend", "round": -1, "prunable": true}
{"name": null, "timeout_disallowed": false, "fingerprint": ["ControllerStateChange", "Can't get from %s to %s", "c1", "c1"], "controller_id": "c1", "value": ["(EthAddr('12:34:56:78:01:02'), EthAddr('12:34:56:78:02:02'))"], "timed_out": false, "dependent_labels": [], "time": [1372281870, 511375], "label": "i105", "class": "ControllerStateChange", "round": -1, "prunable": true}
{"timeout_disallowed": false, "time": [1372281870, 684398], "controller_id": "c1", "fingerprint": ["ControlMessageReceive", {"in_port": 65535, "data": {"class": "lldp"}, "class": "ofp_packet_out", "actions": ["output(1)"]}, 1, ["c", "1"]], "timed_out": false, "dependent_labels": [], "dpid": 1, "label": "i106", "class": "ControlMessageReceive", "round": -1, "prunable": true}
{"class": "DataplaneDrop", "fingerprint": ["DataplaneDrop", {"class": "lldp"}, 1, 1], "timed_out": false, "label": "e107", "passive": false, "dependent_labels": [], "time": [1372281870, 684972], "round": -1, "prunable": true}
{"dependent_labels": [], "class": "TrafficInjection", "fingerprint": ["TrafficInjection", {"interface": {"hw_addr": "12:34:56:78:02:02", "ips": ["123.123.2.2"], "name": "eth2"}, "packet": "EjRWeAECEjRWeAICCABFAAAcISgAAEABX797ewICe3sBAggAGS9waW5n"}, 2], "timed_out": false, "label": "e108", "dp_event": {"interface": {"hw_addr": "12:34:56:78:02:02", "ips": ["123.123.2.2"], "name": "eth2"}, "packet": "EjRWeAECEjRWeAICCABFAAAcISgAAEABX797ewICe3sBAggAGS9waW5n"}, "time": [1372281870, 685706], "host_id": 2, "round": -1, "prunable": true}
{"timeout_disallowed": false, "fingerprint": ["DataplanePermit", {"dl_dst": "12:34:56:78:01:02", "nw_src": "123.123.2.2", "dl_src": "12:34:56:78:02:02", "nw_dst": "123.123.1.2"}, "host:[IPAddr('123.123.2.2')]", "12:34:56:78:02:02"], "timed_out": false, "label": "i109", "passive": false, "dependent_labels": [], "time": [1372281870, 687003], "class": "DataplanePermit", "round": -1, "prunable": true}
{"timeout_disallowed": false, "time": [1372281870, 687715], "controller_id": "c1", "fingerprint": ["ControlMessageSend", {"data": {"dl_dst": "12:34:56:78:01:02", "nw_src": "123.123.2.2", "dl_src": "12:34:56:78:02:02", "nw_dst": "123.123.1.2"}, "class": "ofp_packet_in", "in_port": 4}, 1, ["c", "1"]], "timed_out": false, "dependent_labels": [], "dpid": 1, "label": "i110", "class": "ControlMessageSend", "round": -1, "prunable": true}
{"name": null, "timeout_disallowed": false, "fingerprint": ["ControllerStateChange", "%s moved from %s.%i to %s.%i?", "c1", "c1"], "controller_id": "c1", "value": ["(EthAddr('12:34:56:78:02:02'), '00-00-00-00-00-01', 3, '00-00-00-00-00-01', 4)"], "timed_out": false, "dependent_labels": [], "time": [1372281870, 692271], "label": "i111", "class": "ControllerStateChange", "round": -1, "prunable": true}
{"name": null, "timeout_disallowed": false, "fingerprint": ["ControllerStateChange", "Learned %s at %s.%i", "c1", "c1"], "controller_id": "c1", "value": ["(EthAddr('12:34:56:78:02:02'), 00-00-00-00-00-01, 4)"], "timed_out": false, "dependent_labels": [], "time": [1372281870, 693996], "label": "i112", "class": "ControllerStateChange", "round": -1, "prunable": true}
{"name": null, "timeout_disallowed": false, "fingerprint": ["ControllerStateChange", "Can't get from %s to %s", "c1", "c1"], "controller_id": "c1", "value": ["(EthAddr('12:34:56:78:02:02'), EthAddr('12:34:56:78:01:02'))"], "timed_out": false, "dependent_labels": [], "time": [1372281870, 695609], "label": "i113", "class": "ControllerStateChange", "round": -1, "prunable": true}
{"name": null, "timeout_disallowed": false, "fingerprint": ["ControllerStateChange", "Dest unreachable (%s -> %s)", "c1", "c1"], "controller_id": "c1", "value": ["(EthAddr('12:34:56:78:02:02'), EthAddr('12:34:56:78:01:02'))"], "timed_out": false, "dependent_labels": [], "time": [1372281870, 697736], "label": "i114", "class": "ControllerStateChange", "round": -1, "prunable": true}
{"timeout_disallowed": false, "time": [1372281870, 698557], "controller_id": "c1", "fingerprint": ["ControlMessageReceive", {"in_port": 65535, "data": {"dl_dst": "12:34:56:78:02:02", "nw_src": "123.123.1.2", "dl_src": "00:00:00:00:00:01", "nw_dst": "123.123.2.2"}, "class": "ofp_packet_out", "actions": ["output(4)"]}, 1, ["c", "1"]], "timed_out": false, "dependent_labels": [], "dpid": 1, "label": "i115", "class": "ControlMessageReceive", "round": -1, "prunable": true}
{"timeout_disallowed": false, "fingerprint": ["DataplanePermit", {"dl_dst": "12:34:56:78:02:02", "nw_src": "123.123.1.2", "dl_src": "00:00:00:00:00:01", "nw_dst": "123.123.2.2"}, 1, 4], "timed_out": false, "label": "i116", "passive": false, "dependent_labels": [], "time": [1372281870, 699635], "class": "DataplanePermit", "round": -1, "prunable": true}
{"new_ingress_port_no": 5, "class": "HostMigration", "fingerprint": ["HostMigration", 1, 4, 1, 5, 2], "timed_out": false, "label": "e117", "dependent_labels": [], "new_ingress_dpid": 1, "time": [1372281870, 700350], "old_ingress_port_no": 4, "host_id": 2, "old_ingress_dpid": 1, "round": -1, "prunable": true}
{"dependent_labels": [], "class": "TrafficInjection", "fingerprint": ["TrafficInjection", {"interface": {"hw_addr": "12:34:56:78:02:02", "ips": ["123.123.2.2"], "name": "eth2"}, "packet": "EjRWeAICEjRWeAICCABFAABIVWwAAEABKk97ewICe3sCAgAADjdQaW5nUGluZ1BpbmdQaW5nUGluZ1BpbmdQaW5nUGluZ1BpbmdQaW5nUGluZ1Bpbmc="}, 2], "timed_out": false, "label": "e118", "dp_event": {"interface": {"hw_addr": "12:34:56:78:02:02", "ips": ["123.123.2.2"], "name": "eth2"}, "packet": "EjRWeAICEjRWeAICCABFAABIVWwAAEABKk97ewICe3sCAgAADjdQaW5nUGluZ1BpbmdQaW5nUGluZ1BpbmdQaW5nUGluZ1BpbmdQaW5nUGluZ1Bpbmc="}, "time": [1372281870, 701014], "host_id": 2, "round": -1, "prunable": true}
{"timeout_disallowed": false, "fingerprint": ["DataplanePermit", {"dl_dst": "12:34:56:78:02:02", "nw_src": "123.123.2.2", "dl_src": "12:34:56:78:02:02", "nw_dst": "123.123.2.2"}, "host:[IPAddr('123.123.2.2')]", "12:34:56:78:02:02"], "timed_out": false, "label": "i119", "passive": false, "dependent_labels": [], "time": [1372281870, 702596], "class": "DataplanePermit", "round": -1, "prunable": true}
{"timeout_disallowed": false, "time": [1372281870, 735927], "controller_id": "c1", "fingerprint": ["ControlMessageReceive", {"in_port": 65535, "data": {"class": "lldp"}, "class": "ofp_packet_out", "actions": ["output(3)"]}, 2, ["c", "1"]], "timed_out": false, "dependent_labels": [], "dpid": 2, "label": "i120", "class": "ControlMessageReceive", "round": -1, "prunable": true}
{"timeout_disallowed": false, "time": [1372281870, 736572], "controller_id": "c1", "fingerprint": ["ControlMessageSend", {"reason": 0, "class": "ofp_port_status", "desc": [5, "00:00:00:00:02:02"]}, 1, ["c", "1"]], "timed_out": false, "dependent_labels": [], "dpid": 1, "label": "i121", "class": "ControlMessageSend", "round": -1, "prunable": true}
{"timeout_disallowed": false, "time": [1372281870, 737131], "controller_id": "c1", "fingerprint": ["ControlMessageSend", {"reason": 1, "class": "ofp_port_status", "desc": [4, "00:00:00:00:02:02"]}, 1, ["c", "1"]], "timed_out": false, "dependent_labels": [], "dpid": 1, "label": "i122", "class": "ControlMessageSend", "round": -1, "prunable": true}
{"legacy_invariant_check": false, "class": "CheckInvariants", "fingerprint": "N/A", "timed_out": false, "label": "e123", "dependent_labels": [], "invariant_name": "check_for_loops_or_connectivity", "invariant_check_name": "check_for_loops_or_connectivity", "time": [1372281870, 744641], "invariant_check": null, "round": -1, "prunable": true}
{"dependent_labels": [], "class": "TrafficInjection", "fingerprint": ["TrafficInjection", {"interface": {"hw_addr": "12:34:56:78:01:02", "ips": ["123.123.1.2"], "name": "eth1"}, "packet": "EjRWeAICEjRWeAECCABFAAAcISkAAEABX757ewECe3sCAgAAISlwb25n"}, 1], "timed_out": false, "label": "e124", "dp_event": {"interface": {"hw_addr": "12:34:56:78:01:02", "ips": ["123.123.1.2"], "name": "eth1"}, "packet": "EjRWeAICEjRWeAECCABFAAAcISkAAEABX757ewECe3sCAgAAISlwb25n"}, "time": [1372281870, 745054], "host_id": 1, "round": -1, "prunable": true}
{"timeout_disallowed": false, "fingerprint": ["DataplanePermit", {"dl_dst": "12:34:56:78:02:02", "nw_src": "123.123.1.2", "dl_src": "12:34:56:78:01:02", "nw_dst": "123.123.2.2"}, "host:[IPAddr('123.123.1.2')]", "12:34:56:78:01:02"], "timed_out": false, "label": "i125", "passive": false, "dependent_labels": [], "time": [1372281870, 745825], "class": "DataplanePermit", "round": -1, "prunable": true}
{"timeout_disallowed": false, "fingerprint": ["DataplanePermit", {"class": "lldp"}, 2, 3], "timed_out": false, "label": "i127", "passive": false, "dependent_labels": [], "time": [1372281870, 746332], "class": "DataplanePermit", "round": -1, "prunable": true}
{"timeout_disallowed": false, "time": [1372281870, 746666], "controller_id": "c1", "fingerprint": ["ControlMessageSend", {"data": {"dl_dst": "12:34:56:78:02:02", "nw_src": "123.123.1.2", "dl_src": "12:34:56:78:01:02", "nw_dst": "123.123.2.2"}, "class": "ofp_packet_in", "in_port": 3}, 2, ["c", "1"]], "timed_out": false, "dependent_labels": [], "dpid": 2, "label": "i128", "class": "ControlMessageSend", "round": -1, "prunable": true}
{"name": null, "timeout_disallowed": false, "fingerprint": ["ControllerStateChange", "Can't get from %s to %s", "c1", "c1"], "controller_id": "c1", "value": ["(EthAddr('12:34:56:78:01:02'), EthAddr('12:34:56:78:02:02'))"], "timed_out": false, "dependent_labels": [], "time": [1372281870, 749369], "label": "i129", "class": "ControllerStateChange", "round": -1, "prunable": true}
{"name": null, "timeout_disallowed": false, "fingerprint": ["ControllerStateChange", "Dest unreachable (%s -> %s)", "c1", "c1"], "controller_id": "c1", "value": ["(EthAddr('12:34:56:78:01:02'), EthAddr('12:34:56:78:02:02'))"], "timed_out": false, "dependent_labels": [], "time": [1372281870, 751031], "label": "i130", "class": "ControllerStateChange", "round": -1, "prunable": true}
{"timeout_disallowed": false, "time": [1372281870, 751544], "controller_id": "c1", "fingerprint": ["ControlMessageReceive", {"in_port": 65535, "data": {"dl_dst": "12:34:56:78:01:02", "nw_src": "123.123.2.2", "dl_src": "00:00:00:00:00:02", "nw_dst": "123.123.1.2"}, "class": "ofp_packet_out", "actions": ["output(3)"]}, 2, ["c", "1"]], "timed_out": false, "dependent_labels": [], "dpid": 2, "label": "i131", "class": "ControlMessageReceive", "round": -1, "prunable": true}
{"timeout_disallowed": false, "fingerprint": ["DataplanePermit", {"dl_dst": "12:34:56:78:01:02", "nw_src": "123.123.2.2", "dl_src": "00:00:00:00:00:02", "nw_dst": "123.123.1.2"}, 2, 3], "timed_out": false, "label": "i132", "passive": false, "dependent_labels": [], "time": [1372281870, 752186], "class": "DataplanePermit", "round": -1, "prunable": true}
{"timeout_disallowed": false, "fingerprint": ["DataplanePermit", {"class": "arp"}, "host:[IPAddr('123.123.2.2')]", "12:34:56:78:02:02"], "timed_out": true, "label": "i134", "passive": false, "dependent_labels": [], "time": [1372281871, 295478], "class": "DataplanePermit", "round": -1, "prunable": true}
{"timeout_disallowed": false, "time": [1372281871, 896951], "controller_id": "c1", "fingerprint": ["ControlMessageSend", {"data": {"class": "arp"}, "class": "ofp_packet_in", "in_port": 5}, 1, ["c", "1"]], "timed_out": true, "dependent_labels": [], "dpid": 1, "label": "i135", "class": "ControlMessageSend", "round": -1, "prunable": true}
{"name": null, "timeout_disallowed": false, "fingerprint": ["ControllerStateChange", "%s moved from %s.%i to %s.%i?", "c1", "c1"], "controller_id": "c1", "value": ["(EthAddr('12:34:56:78:02:02'), '00-00-00-00-00-01', 4, '00-00-00-00-00-01', 5)"], "timed_out": true, "dependent_labels": [], "time": [1372281872, 549759], "label": "i136", "class": "ControllerStateChange", "round": -1, "prunable": true}
{"name": null, "timeout_disallowed": false, "fingerprint": ["ControllerStateChange", "Learned %s at %s.%i", "c1", "c1"], "controller_id": "c1", "value": ["(EthAddr('12:34:56:78:02:02'), 00-00-00-00-00-01, 5)"], "timed_out": true, "dependent_labels": [], "time": [1372281873, 151157], "label": "i137", "class": "ControllerStateChange", "round": -1, "prunable": true}
{"name": null, "timeout_disallowed": false, "fingerprint": ["ControllerStateChange", "Flood multicast from %s", "c1", "c1"], "controller_id": "c1", "value": ["(EthAddr('12:34:56:78:02:02'),)"], "timed_out": true, "dependent_labels": [], "time": [1372281873, 804013], "label": "i138", "class": "ControllerStateChange", "round": -1, "prunable": true}
{"timeout_disallowed": false, "time": [1372281874, 405422], "controller_id": "c1", "fingerprint": ["ControlMessageReceive", {"in_port": 5, "data": [], "class": "ofp_packet_out", "actions": ["output(65531)"]}, 1, ["c", "1"]], "timed_out": true, "dependent_labels": [], "dpid": 1, "label": "i139", "class": "ControlMessageReceive", "round": -1, "prunable": true}
{"timeout_disallowed": false, "fingerprint": ["DataplanePermit", {"class": "arp"}, 1, 1], "timed_out": true, "label": "i140", "passive": false, "dependent_labels": [], "time": [1372281875, 58245], "class": "DataplanePermit", "round": -1, "prunable": true}
{"timeout_disallowed": false, "time": [1372281875, 58937], "controller_id": "c1", "fingerprint": ["ControlMessageReceive", {"in_port": 65535, "data": {"class": "lldp"}, "class": "ofp_packet_out", "actions": ["output(1)"]}, 2, ["c", "1"]], "timed_out": false, "dependent_labels": [], "dpid": 2, "label": "i144", "class": "ControlMessageReceive", "round": -1, "prunable": true}
{"timeout_disallowed": false, "time": [1372281875, 660609], "controller_id": "c1", "fingerprint": ["ControlMessageSend", {"data": {"class": "arp"}, "class": "ofp_packet_in", "in_port": 1}, 2, ["c", "1"]], "timed_out": true, "dependent_labels": [], "dpid": 2, "label": "i145", "class": "ControlMessageSend", "round": -1, "prunable": true}
{"name": null, "timeout_disallowed": false, "fingerprint": ["ControllerStateChange", "%s moved from %s.%i to %s.%i?", "c1", "c1"], "controller_id": "c1", "value": ["(EthAddr('12:34:56:78:02:02'), '00-00-00-00-00-01', 5, '00-00-00-00-00-02', 1)"], "timed_out": true, "dependent_labels": [], "time": [1372281876, 312547], "label": "i146", "class": "ControllerStateChange", "round": -1, "prunable": true}
{"name": null, "timeout_disallowed": false, "fingerprint": ["ControllerStateChange", "Learned %s at %s.%i", "c1", "c1"], "controller_id": "c1", "value": ["(EthAddr('12:34:56:78:02:02'), 00-00-00-00-00-02, 1)"], "timed_out": true, "dependent_labels": [], "time": [1372281876, 913955], "label": "i147", "class": "ControllerStateChange", "round": -1, "prunable": true}
{"name": null, "timeout_disallowed": false, "fingerprint": ["ControllerStateChange", "Flood multicast from %s", "c1", "c1"], "controller_id": "c1", "value": ["(EthAddr('12:34:56:78:02:02'),)"], "timed_out": true, "dependent_labels": [], "time": [1372281877, 563636], "label": "i148", "class": "ControllerStateChange", "round": -1, "prunable": true}
{"timeout_disallowed": false, "time": [1372281878, 165046], "controller_id": "c1", "fingerprint": ["ControlMessageReceive", {"in_port": 1, "data": [], "class": "ofp_packet_out", "actions": ["output(65531)"]}, 2, ["c", "1"]], "timed_out": true, "dependent_labels": [], "dpid": 2, "label": "i150", "class": "ControlMessageReceive", "round": -1, "prunable": true}
{"timeout_disallowed": false, "fingerprint": ["DataplanePermit", {"class": "arp"}, 2, 3], "timed_out": true, "label": "i151", "passive": false, "dependent_labels": [], "time": [1372281878, 815058], "class": "DataplanePermit", "round": -1, "prunable": true}
{"dependent_labels": [], "class": "TrafficInjection", "fingerprint": ["TrafficInjection", {"interface": {"hw_addr": "12:34:56:78:02:02", "ips": ["123.123.2.2"], "name": "eth2"}, "packet": "EjRWeAICEjRWeAICCABFAABIVXIAAEABKkl7ewICe3sCAgAADjdQaW5nUGluZ1BpbmdQaW5nUGluZ1BpbmdQaW5nUGluZ1BpbmdQaW5nUGluZ1Bpbmc="}, 2], "timed_out": false, "label": "e154", "dp_event": {"interface": {"hw_addr": "12:34:56:78:02:02", "ips": ["123.123.2.2"], "name": "eth2"}, "packet": "EjRWeAICEjRWeAICCABFAABIVXIAAEABKkl7ewICe3sCAgAADjdQaW5nUGluZ1BpbmdQaW5nUGluZ1BpbmdQaW5nUGluZ1BpbmdQaW5nUGluZ1Bpbmc="}, "time": [1372281878, 815828], "host_id": 2, "round": -1, "prunable": true}
{"new_ingress_port_no": 4, "class": "HostMigration", "fingerprint": ["HostMigration", 2, 3, 2, 4, 1], "timed_out": false, "label": "e155", "dependent_labels": [], "new_ingress_dpid": 2, "time": [1372281878, 816647], "old_ingress_port_no": 3, "host_id": 1, "old_ingress_dpid": 2, "round": -1, "prunable": true}
{"dependent_labels": [], "class": "TrafficInjection", "fingerprint": ["TrafficInjection", {"interface": {"hw_addr": "12:34:56:78:01:02", "ips": ["123.123.1.2"], "name": "eth1"}, "packet": "EjRWeAECEjRWeAECCABFAABIVXMAAEABLEh7ewECe3sBAgAADjdQaW5nUGluZ1BpbmdQaW5nUGluZ1BpbmdQaW5nUGluZ1BpbmdQaW5nUGluZ1Bpbmc="}, 1], "timed_out": false, "label": "e156", "dp_event": {"interface": {"hw_addr": "12:34:56:78:01:02", "ips": ["123.123.1.2"], "name": "eth1"}, "packet": "EjRWeAECEjRWeAECCABFAABIVXMAAEABLEh7ewECe3sBAgAADjdQaW5nUGluZ1BpbmdQaW5nUGluZ1BpbmdQaW5nUGluZ1BpbmdQaW5nUGluZ1Bpbmc="}, "time": [1372281878, 817315], "host_id": 1, "round": -1, "prunable": true}
{"timeout_disallowed": false, "fingerprint": ["DataplanePermit", {"dl_dst": "12:34:56:78:02:02", "nw_src": "123.123.2.2", "dl_src": "12:34:56:78:02:02", "nw_dst": "123.123.2.2"}, "host:[IPAddr('123.123.2.2')]", "12:34:56:78:02:02"], "timed_out": false, "label": "i157", "passive": false, "dependent_labels": [], "time": [1372281878, 818687], "class": "DataplanePermit", "round": -1, "prunable": true}
{"class": "DataplaneDrop", "fingerprint": ["DataplaneDrop", {"dl_dst": "12:34:56:78:01:02", "nw_src": "123.123.1.2", "dl_src": "12:34:56:78:01:02", "nw_dst": "123.123.1.2"}, "host:[IPAddr('123.123.1.2')]", "12:34:56:78:01:02"], "timed_out": false, "label": "e158", "passive": false, "dependent_labels": [], "time": [1372281878, 819221], "round": -1, "prunable": true}
{"timeout_disallowed": false, "time": [1372281878, 819598], "controller_id": "c1", "fingerprint": ["ControlMessageSend", {"reason": 0, "class": "ofp_port_status", "desc": [4, "00:00:00:00:01:02"]}, 2, ["c", "1"]], "timed_out": false, "dependent_labels": [], "dpid": 2, "label": "i159", "class": "ControlMessageSend", "round": -1, "prunable": true}
{"timeout_disallowed": false, "time": [1372281878, 819968], "controller_id": "c1", "fingerprint": ["ControlMessageSend", {"reason": 1, "class": "ofp_port_status", "desc": [3, "00:00:00:00:01:02"]}, 2, ["c", "1"]], "timed_out": false, "dependent_labels": [], "dpid": 2, "label": "i160", "class": "ControlMessageSend", "round": -1, "prunable": true}
{"timeout_disallowed": false, "time": [1372281879, 426491], "controller_id": "c1", "fingerprint": ["ControlMessageSend", {"reason": 1, "class": "ofp_port_status", "desc": [5, "00:00:00:00:02:02"]}, 1, ["c", "1"]], "timed_out": true, "dependent_labels": [], "dpid": 1, "label": "i161", "class": "ControlMessageSend", "round": -1, "prunable": true}
{"timeout_disallowed": false, "time": [1372281879, 971892], "controller_id": "c1", "fingerprint": ["ControlMessageSend", {"reason": 0, "class": "ofp_port_status", "desc": [6, "00:00:00:00:02:02"]}, 1, ["c", "1"]], "timed_out": true, "dependent_labels": [], "dpid": 1, "label": "i162", "class": "ControlMessageSend", "round": -1, "prunable": true}
{"class": "DataplaneDrop", "fingerprint": ["DataplaneDrop", {"dl_dst": "12:34:56:78:02:02", "nw_src": "123.123.2.2", "dl_src": "12:34:56:78:02:02", "nw_dst": "123.123.2.2"}, 1, 3], "timed_out": false, "label": "e163", "passive": false, "dependent_labels": [], "time": [1372281879, 972367], "round": -1, "prunable": true}
{"legacy_invariant_check": false, "class": "CheckInvariants", "fingerprint": "N/A", "timed_out": false, "label": "e164", "dependent_labels": [], "invariant_name": "check_for_loops_or_connectivity", "invariant_check_name": "check_for_loops_or_connectivity", "time": [1372281879, 981294], "invariant_check": null, "round": -1, "prunable": true}
{"dependent_labels": [], "class": "TrafficInjection", "fingerprint": ["TrafficInjection", {"interface": {"hw_addr": "12:34:56:78:01:02", "ips": ["123.123.1.2"], "name": "eth1"}, "packet": "EjRWeAICEjRWeAECCAYAAQgABgQAAhI0VngBAnt7AQISNFZ4AgJ7ewIC"}, 1], "timed_out": false, "label": "e165", "dp_event": {"interface": {"hw_addr": "12:34:56:78:01:02", "ips": ["123.123.1.2"], "name": "eth1"}, "packet": "EjRWeAICEjRWeAECCAYAAQgABgQAAhI0VngBAnt7AQISNFZ4AgJ7ewIC"}, "time": [1372281879, 981906], "host_id": 1, "round": -1, "prunable": true}
{"timeout_disallowed": false, "fingerprint": ["DataplanePermit", {"class": "arp"}, "host:[IPAddr('123.123.1.2')]", "12:34:56:78:01:02"], "timed_out": false, "label": "i166", "passive": false, "dependent_labels": [], "time": [1372281879, 982998], "class": "DataplanePermit", "round": -1, "prunable": true}
{"timeout_disallowed": false, "time": [1372281879, 983397], "controller_id": "c1", "fingerprint": ["ControlMessageSend", {"data": {"class": "arp"}, "class": "ofp_packet_in", "in_port": 4}, 2, ["c", "1"]], "timed_out": false, "dependent_labels": [], "dpid": 2, "label": "i167", "class": "ControlMessageSend", "round": -1, "prunable": true}
{"name": null, "timeout_disallowed": false, "fingerprint": ["ControllerStateChange", "%s moved from %s.%i to %s.%i?", "c1", "c1"], "controller_id": "c1", "value": ["(EthAddr('12:34:56:78:01:02'), '00-00-00-00-00-02', 3, '00-00-00-00-00-02', 4)"], "timed_out": false, "dependent_labels": [], "time": [1372281879, 986065], "label": "i168", "class": "ControllerStateChange", "round": -1, "prunable": true}
{"name": null, "timeout_disallowed": false, "fingerprint": ["ControllerStateChange", "Learned %s at %s.%i", "c1", "c1"], "controller_id": "c1", "value": ["(EthAddr('12:34:56:78:01:02'), 00-00-00-00-00-02, 4)"], "timed_out": false, "dependent_labels": [], "time": [1372281879, 987468], "label": "i169", "class": "ControllerStateChange", "round": -1, "prunable": true}
{"name": null, "timeout_disallowed": false, "fingerprint": ["ControllerStateChange", "Installing path for %s -> %s %04x (%i hops)", "c1", "c1"], "controller_id": "c1", "value": ["(EthAddr('12:34:56:78:01:02'), EthAddr('12:34:56:78:02:02'), 2054, 1)"], "timed_out": true, "dependent_labels": [], "time": [1372281880, 591496], "label": "i170", "class": "ControllerStateChange", "round": -1, "prunable": true}
{"name": null, "timeout_disallowed": false, "fingerprint": ["ControllerStateChange", "Can't get from %s to %s", "c1"], "controller_id": "c1", "value": ["(EthAddr('12:34:56:78:01:02'), EthAddr('12:34:56:78:02:02'))"], "timed_out": false, "dependent_labels": [], "new_internal_event": true, "time": [1372281880, 591843], "label": "i201", "class": "ControllerStateChange", "round": -1, "prunable": true}
{"timeout_disallowed": false, "time": [1372281881, 124458], "controller_id": "c1", "fingerprint": ["ControlMessageReceive", {"hard_timeout": 30, "actions": ["output(1)"], "priority": 32768, "idle_timeout": 10, "command": "add", "out_port": 65535, "flags": 0, "class": "ofp_flow_mod", "match": "dl_src:12:34:56:78:01:02,dl_dst:12:34:56:78:02:02,dl_vlan:65535,dl_vlan_pcp:0,dl_type:2054,nw_proto:2,nw_src:123.123.1.2/32,nw_dst:123.123.2.2/32"}, 2, ["c", "1"]], "timed_out": true, "dependent_labels": [], "dpid": 2, "label": "i171", "class": "ControlMessageReceive", "round": -1, "prunable": true}
{"timeout_disallowed": false, "fingerprint": ["DataplanePermit", {"class": "arp"}, 2, 1], "timed_out": true, "label": "i172", "passive": false, "dependent_labels": [], "time": [1372281881, 726182], "class": "DataplanePermit", "round": -1, "prunable": true}
{"new_ingress_port_no": 5, "class": "HostMigration", "fingerprint": ["HostMigration", 2, 4, 2, 5, 1], "timed_out": false, "label": "e173", "dependent_labels": [], "new_ingress_dpid": 2, "time": [1372281881, 726758], "old_ingress_port_no": 4, "host_id": 1, "old_ingress_dpid": 2, "round": -1, "prunable": true}
{"dependent_labels": [], "class": "TrafficInjection", "fingerprint": ["TrafficInjection", {"interface": {"hw_addr": "12:34:56:78:01:02", "ips": ["123.123.1.2"], "name": "eth1"}, "packet": "EjRWeAECEjRWeAECCABFAABIVXQAAEABLEd7ewECe3sBAggABjdQaW5nUGluZ1BpbmdQaW5nUGluZ1BpbmdQaW5nUGluZ1BpbmdQaW5nUGluZ1Bpbmc="}, 1], "timed_out": false, "label": "e174", "dp_event": {"interface": {"hw_addr": "12:34:56:78:01:02", "ips": ["123.123.1.2"], "name": "eth1"}, "packet": "EjRWeAECEjRWeAECCABFAABIVXQAAEABLEd7ewECe3sBAggABjdQaW5nUGluZ1BpbmdQaW5nUGluZ1BpbmdQaW5nUGluZ1BpbmdQaW5nUGluZ1Bpbmc="}, "time": [1372281881, 727456], "host_id": 1, "round": -1, "prunable": true}
{"timeout_disallowed": false, "fingerprint": ["DataplanePermit", {"dl_dst": "12:34:56:78:01:02", "nw_src": "123.123.1.2", "dl_src": "12:34:56:78:01:02", "nw_dst": "123.123.1.2"}, "host:[IPAddr('123.123.1.2')]", "12:34:56:78:01:02"], "timed_out": false, "label": "i175", "passive": false, "dependent_labels": [], "time": [1372281881, 728732], "class": "DataplanePermit", "round": -1, "prunable": true}
{"timeout_disallowed": false, "time": [1372281881, 729338], "controller_id": "c1", "fingerprint": ["ControlMessageSend", {"reason": 0, "class": "ofp_port_status", "desc": [5, "00:00:00:00:01:02"]}, 2, ["c", "1"]], "timed_out": false, "dependent_labels": [], "dpid": 2, "label": "i176", "class": "ControlMessageSend", "round": -1, "prunable": true}
{"timeout_disallowed": false, "time": [1372281881, 729958], "controller_id": "c1", "fingerprint": ["ControlMessageSend", {"data": {"dl_dst": "12:34:56:78:01:02", "nw_src": "123.123.1.2", "dl_src": "12:34:56:78:01:02", "nw_dst": "123.123.1.2"}, "class": "ofp_packet_in", "in_port": 5}, 2, ["c", "1"]], "timed_out": false, "dependent_labels": [], "dpid": 2, "label": "i177", "class": "ControlMessageSend", "round": -1, "prunable": true}
{"timeout_disallowed": false, "time": [1372281881, 730696], "controller_id": "c1", "fingerprint": ["ControlMessageSend", {"reason": 1, "class": "ofp_port_status", "desc": [4, "00:00:00:00:01:02"]}, 2, ["c", "1"]], "timed_out": false, "dependent_labels": [], "dpid": 2, "label": "i178", "class": "ControlMessageSend", "round": -1, "prunable": true}
{"name": null, "timeout_disallowed": false, "fingerprint": ["ControllerStateChange", "%s moved from %s.%i to %s.%i?", "c1", "c1"], "controller_id": "c1", "value": ["(EthAddr('12:34:56:78:01:02'), '00-00-00-00-00-02', 4, '00-00-00-00-00-02', 5)"], "timed_out": false, "dependent_labels": [], "time": [1372281881, 735651], "label": "i179", "class": "ControllerStateChange", "round": -1, "prunable": true}
{"name": null, "timeout_disallowed": false, "fingerprint": ["ControllerStateChange", "Learned %s at %s.%i", "c1", "c1"], "controller_id": "c1", "value": ["(EthAddr('12:34:56:78:01:02'), 00-00-00-00-00-02, 5)"], "timed_out": false, "dependent_labels": [], "time": [1372281881, 738591], "label": "i180", "class": "ControllerStateChange", "round": -1, "prunable": true}
{"name": null, "timeout_disallowed": false, "fingerprint": ["ControllerStateChange", "Installing path for %s -> %s %04x (%i hops)", "c1", "c1"], "controller_id": "c1", "value": ["(EthAddr('12:34:56:78:01:02'), EthAddr('12:34:56:78:01:02'), 2048, 1)"], "timed_out": false, "dependent_labels": [], "time": [1372281881, 740279], "label": "i181", "class": "ControllerStateChange", "round": -1, "prunable": true}
{"timeout_disallowed": false, "time": [1372281881, 741218], "controller_id": "c1", "fingerprint": ["ControlMessageReceive", {"hard_timeout": 30, "actions": ["output(5)"], "priority": 32768, "idle_timeout": 10, "command": "add", "out_port": 65535, "flags": 0, "class": "ofp_flow_mod", "match": "dl_src:12:34:56:78:01:02,dl_dst:12:34:56:78:01:02,dl_vlan:65535,dl_vlan_pcp:0,dl_type:2048,nw_tos:0,nw_proto:1,nw_src:123.123.1.2/32,nw_dst:123.123.1.2/32,tp_src:8,tp_dst:0"}, 2, ["c", "1"]], "timed_out": false, "dependent_labels": [], "dpid": 2, "label": "i182", "class": "ControlMessageReceive", "round": -1, "prunable": true}
{"dependent_labels": [], "class": "TrafficInjection", "fingerprint": ["TrafficInjection", {"interface": {"hw_addr": "12:34:56:78:02:02", "ips": ["123.123.2.2"], "name": "eth2"}, "packet": "EjRWeAECEjRWeAICCABFAAAcISgAAEABX797ewICe3sBAggAGS9waW5n"}, 2], "timed_out": false, "label": "e183", "dp_event": {"interface": {"hw_addr": "12:34:56:78:02:02", "ips": ["123.123.2.2"], "name": "eth2"}, "packet": "EjRWeAECEjRWeAICCABFAAAcISgAAEABX797ewICe3sBAggAGS9waW5n"}, "time": [1372281881, 742276], "host_id": 2, "round": -1, "prunable": true}
{"timeout_disallowed": false, "fingerprint": ["DataplanePermit", {"dl_dst": "12:34:56:78:01:02", "nw_src": "123.123.2.2", "dl_src": "12:34:56:78:02:02", "nw_dst": "123.123.1.2"}, "host:[IPAddr('123.123.2.2')]", "12:34:56:78:02:02"], "timed_out": false, "label": "i184", "passive": false, "dependent_labels": [], "time": [1372281881, 743548], "class": "DataplanePermit", "round": -1, "prunable": true}
{"timeout_disallowed": false, "time": [1372281882, 286525], "controller_id": "c1", "fingerprint": ["ControlMessageSend", {"data": {"dl_dst": "12:34:56:78:01:02", "nw_src": "123.123.2.2", "dl_src": "12:34:56:78:02:02", "nw_dst": "123.123.1.2"}, "class": "ofp_packet_in", "in_port": 6}, 1, ["c", "1"]], "timed_out": true, "dependent_labels": [], "dpid": 1, "label": "i185", "class": "ControlMessageSend", "round": -1, "prunable": true}
{"name": null, "timeout_disallowed": false, "fingerprint": ["ControllerStateChange", "%s moved from %s.%i to %s.%i?", "c1", "c1"], "controller_id": "c1", "value": ["(EthAddr('12:34:56:78:02:02'), '00-00-00-00-00-02', 1, '00-00-00-00-00-01', 6)"], "timed_out": true, "dependent_labels": [], "time": [1372281882, 840133], "label": "i186", "class": "ControllerStateChange", "round": -1, "prunable": true}
{"name": null, "timeout_disallowed": false, "fingerprint": ["ControllerStateChange", "Learned %s at %s.%i", "c1", "c1"], "controller_id": "c1", "value": ["(EthAddr('12:34:56:78:02:02'), 00-00-00-00-00-01, 6)"], "timed_out": true, "dependent_labels": [], "time": [1372281883, 443612], "label": "i187", "class": "ControllerStateChange", "round": -1, "prunable": true}
{"name": null, "timeout_disallowed": false, "fingerprint": ["ControllerStateChange", "Can't get from %s to %s", "c1", "c1"], "controller_id": "c1", "value": ["(EthAddr('12:34:56:78:02:02'), EthAddr('12:34:56:78:01:02'))"], "timed_out": true, "dependent_labels": [], "time": [1372281884, 44990], "label": "i188", "class": "ControllerStateChange", "round": -1, "prunable": true}
{"name": null, "timeout_disallowed": false, "fingerprint": ["ControllerStateChange", "Dest unreachable (%s -> %s)", "c1", "c1"], "controller_id": "c1", "value": ["(EthAddr('12:34:56:78:02:02'), EthAddr('12:34:56:78:01:02'))"], "timed_out": true, "dependent_labels": [], "time": [1372281884, 696553], "label": "i189", "class": "ControllerStateChange", "round": -1, "prunable": true}
{"timeout_disallowed": false, "time": [1372281885, 298025], "controller_id": "c1", "fingerprint": ["ControlMessageReceive", {"in_port": 65535, "data": {"dl_dst": "12:34:56:78:02:02", "nw_src": "123.123.1.2", "dl_src": "00:00:00:00:00:01", "nw_dst": "123.123.2.2"}, "class": "ofp_packet_out", "actions": ["output(6)"]}, 1, ["c", "1"]], "timed_out": true, "dependent_labels": [], "dpid": 1, "label": "i190", "class": "ControlMessageReceive", "round": -1, "prunable": true}
{"timeout_disallowed": false, "fingerprint": ["DataplanePermit", {"dl_dst": "12:34:56:78:02:02", "nw_src": "123.123.1.2", "dl_src": "00:00:00:00:00:01", "nw_dst": "123.123.2.2"}, 1, 6], "timed_out": true, "label": "i191", "passive": false, "dependent_labels": [], "time": [1372281885, 950755], "class": "DataplanePermit", "round": -1, "prunable": true}
{"timeout_disallowed": false, "time": [1372281885, 951591], "controller_id": "c1", "fingerprint": ["ControlMessageReceive", {"in_port": 65535, "data": {"class": "lldp"}, "class": "ofp_packet_out", "actions": ["output(1)"]}, 1, ["c", "1"]], "timed_out": false, "dependent_labels": [], "dpid": 1, "label": "i192", "class": "ControlMessageReceive", "round": -1, "prunable": true}
{"timeout_disallowed": false, "fingerprint": ["DataplanePermit", {"class": "lldp"}, 1, 1], "timed_out": false, "label": "i193", "passive": false, "dependent_labels": [], "time": [1372281885, 952653], "class": "DataplanePermit", "round": -1, "prunable": true}
{"timeout_disallowed": false, "time": [1372281885, 953136], "controller_id": "c1", "fingerprint": ["ControlMessageSend", {"data": {"class": "lldp"}, "class": "ofp_packet_in", "in_port": 1}, 2, ["c", "1"]], "timed_out": false, "dependent_labels": [], "dpid": 2, "label": "i194", "class": "ControlMessageSend", "round": -1, "prunable": true}
{"legacy_invariant_check": false, "class": "CheckInvariants", "fingerprint": "N/A", "timed_out": false, "label": "e195", "dependent_labels": [], "invariant_name": "check_for_loops_or_connectivity", "invariant_check_name": "check_for_loops_or_connectivity", "time": [1372281885, 962234], "invariant_check": null, "round": -1, "prunable": true}
{"wait_time": 1.0, "dependent_labels": [], "fingerprint": ["WaitTime"], "time": [1372281885, 962234], "class": "WaitTime", "prunable": true, "timed_out": false, "round": -1, "label": "e202"}
