{"fingerprint": ["ConnectToControllers"], "dependent_labels": [], "time": [1402358774, 967805], "timeout_disallowed": true, "prunable": false, "class": "ConnectToControllers", "timed_out": false, "round": 0, "label": "e1"}
{"legacy_invariant_check": false, "class": "CheckInvariants", "fingerprint": "N/A", "timed_out": false, "label": "e229", "dependent_labels": [], "invariant_name": "check_for_file", "invariant_check_name": "check_for_file", "time": [1402358993, 965072], "invariant_check": null, "round": 45, "prunable": true}
{"class": "InvariantViolation", "fingerprint": ["InvariantViolation"], "persistent": true, "timed_out": false, "dependent_labels": [], "time": [1402359026, 386768], "violations": ["bug_file_detected"], "label": "e308", "round": 55, "prunable": true}
{"wait_time": 1.0, "dependent_labels": [], "fingerprint": ["WaitTime"], "time": [1402359026, 386768], "class": "WaitTime", "prunable": true, "timed_out": false, "round": -1, "label": "e320"}
