{"name": null, "timeout_disallowed": false, "controller_id": "c1", "value": ["('POX 0.0.0',)"], "label": "i1", "dependent_labels": [], "time": [1363759543, 863319], "class": "ControllerStateChange", "_fingerprint": ["ControllerStateChange", "%s going up..."], "round": -1, "prunable": true}
{"name": null, "timeout_disallowed": false, "controller_id": "c1", "value": ["('CPython (2.7.1+/Apr 11 2011 18:13:53)',)"], "label": "i2", "dependent_labels": [], "time": [1363759543, 877030], "class": "ControllerStateChange", "_fingerprint": ["ControllerStateChange", "Running on %s"], "round": -1, "prunable": true}
{"name": null, "timeout_disallowed": false, "controller_id": "c1", "value": ["('POX 0.0.0',)"], "label": "i3", "dependent_labels": [], "time": [1363759543, 878005], "class": "ControllerStateChange", "_fingerprint": ["ControllerStateChange", "%s is up."], "round": -1, "prunable": true}
{"name": null, "timeout_disallowed": false, "controller_id": "c1", "value": ["()"], "label": "i4", "dependent_labels": [], "time": [1363759543, 880333], "class": "ControllerStateChange", "_fingerprint": ["ControllerStateChange", "Listening for connections on ('127.0.0.1', 6633)"], "round": -1, "prunable": true}
{"dependent_labels": [], "time": [1363759545, 608362], "timeout_disallowed": false, "prunable": true, "class": "ConnectToControllers", "round": -1, "label": "i5"}
{"timeout_disallowed": false, "time": [1363759545, 608847], "controller_id": "c1", "label": "i6", "dependent_labels": [], "dpid": 1, "fingerprint": ["ControlMessageReceive", {"class": "ofp_hello"}, 1, ["c", "1"]], "class": "ControlMessageReceive", "round": -1, "prunable": true}
{"timeout_disallowed": false, "time": [1363759545, 609158], "controller_id": "c1", "label": "i7", "dependent_labels": [], "dpid": 1, "fingerprint": ["ControlMessageSend", {"class": "ofp_hello"}, 1, ["c", "1"]], "class": "ControlMessageSend", "round": -1, "prunable": true}
{"timeout_disallowed": false, "time": [1363759545, 710062], "controller_id": "c1", "label": "i8", "dependent_labels": [], "dpid": 2, "fingerprint": ["ControlMessageReceive", {"class": "ofp_hello"}, 2, ["c", "1"]], "class": "ControlMessageReceive", "round": -1, "prunable": true}
{"timeout_disallowed": false, "time": [1363759545, 710387], "controller_id": "c1", "label": "i9", "dependent_labels": [], "dpid": 1, "fingerprint": ["ControlMessageReceive", {"class": "ofp_features_request"}, 1, ["c", "1"]], "class": "ControlMessageReceive", "round": -1, "prunable": true}
{"timeout_disallowed": false, "time": [1363759545, 710602], "controller_id": "c1", "label": "i10", "dependent_labels": [], "dpid": 2, "fingerprint": ["ControlMessageSend", {"class": "ofp_hello"}, 2, ["c", "1"]], "class": "ControlMessageSend", "round": -1, "prunable": true}
{"timeout_disallowed": false, "time": [1363759545, 710881], "controller_id": "c1", "label": "i11", "dependent_labels": [], "dpid": 1, "fingerprint": ["ControlMessageSend", {"datapath_id": 1, "class": "ofp_features_reply"}, 1, ["c", "1"]], "class": "ControlMessageSend", "round": -1, "prunable": true}
{"timeout_disallowed": false, "time": [1363759545, 811634], "controller_id": "c1", "label": "i12", "dependent_labels": [], "dpid": 2, "fingerprint": ["ControlMessageReceive", {"class": "ofp_features_request"}, 2, ["c", "1"]], "class": "ControlMessageReceive", "round": -1, "prunable": true}
{"timeout_disallowed": false, "time": [1363759545, 811876], "controller_id": "c1", "label": "i13", "dependent_labels": [], "dpid": 1, "fingerprint": ["ControlMessageReceive", {"class": "ofp_set_config"}, 1, ["c", "1"]], "class": "ControlMessageReceive", "round": -1, "prunable": true}
{"timeout_disallowed": false, "time": [1363759545, 812213], "controller_id": "c1", "label": "i14", "dependent_labels": [], "dpid": 1, "fingerprint": ["ControlMessageReceive", {"class": "ofp_barrier_request"}, 1, ["c", "1"]], "class": "ControlMessageReceive", "round": -1, "prunable": true}
{"timeout_disallowed": false, "time": [1363759545, 812553], "controller_id": "c1", "label": "i15", "dependent_labels": [], "dpid": 1, "fingerprint": ["ControlMessageReceive", {"hard_timeout": 0, "actions": [], "priority": 32768, "idle_timeout": 0, "command": "delete", "out_port": 65535, "flags": 0, "class": "ofp_flow_mod", "match": "x^L"}, 1, ["c", "1"]], "class": "ControlMessageReceive", "round": -1, "prunable": true}
{"timeout_disallowed": false, "time": [1363759545, 813200], "controller_id": "c1", "label": "i16", "dependent_labels": [], "dpid": 2, "fingerprint": ["ControlMessageSend", {"datapath_id": 2, "class": "ofp_features_reply"}, 2, ["c", "1"]], "class": "ControlMessageSend", "round": -1, "prunable": true}
{"timeout_disallowed": false, "time": [1363759545, 813453], "controller_id": "c1", "label": "i17", "dependent_labels": [], "dpid": 1, "fingerprint": ["ControlMessageSend", {"class": "ofp_barrier_reply"}, 1, ["c", "1"]], "class": "ControlMessageSend", "round": -1, "prunable": true}
{"name": null, "timeout_disallowed": false, "controller_id": "c1", "value": ["('[Con 1/1]', '00-00-00-00-00-01')"], "label": "i18", "dependent_labels": [], "time": [1363759545, 817429], "class": "ControllerStateChange", "_fingerprint": ["ControllerStateChange", "of_01 %s Connected to %s"], "round": -1, "prunable": true}
{"name": null, "timeout_disallowed": false, "controller_id": "c1", "value": ["(<pox.openflow.of_01.Connection object at 0x251a350>,)"], "label": "i19", "dependent_labels": [], "time": [1363759545, 819467], "class": "ControllerStateChange", "_fingerprint": ["ControllerStateChange", "Connect %s"], "round": -1, "prunable": true}
{"name": null, "timeout_disallowed": false, "controller_id": "c1", "value": ["('00-00-00-00-00-01',)"], "label": "i20", "dependent_labels": [], "time": [1363759545, 820743], "class": "ControllerStateChange", "_fingerprint": ["ControllerStateChange", "Installing flow for %s"], "round": -1, "prunable": true}
{"timeout_disallowed": false, "time": [1363759545, 914331], "controller_id": "c1", "label": "i21", "dependent_labels": [], "dpid": 1, "fingerprint": ["ControlMessageReceive", {"hard_timeout": 0, "actions": ["output(65533)"], "priority": 32768, "idle_timeout": 0, "command": "add", "out_port": 65535, "flags": 0, "class": "ofp_flow_mod", "match": "dl_dst:01:23:20:00:00:01,dl_type:35020"}, 1, ["c", "1"]], "class": "ControlMessageReceive", "round": -1, "prunable": true}
{"timeout_disallowed": false, "time": [1363759545, 915018], "controller_id": "c1", "label": "i22", "dependent_labels": [], "dpid": 2, "fingerprint": ["ControlMessageReceive", {"hard_timeout": 0, "actions": [], "priority": 32768, "idle_timeout": 0, "command": "delete", "out_port": 65535, "flags": 0, "class": "ofp_flow_mod", "match": "x^L"}, 2, ["c", "1"]], "class": "ControlMessageReceive", "round": -1, "prunable": true}
{"timeout_disallowed": false, "time": [1363759545, 915572], "controller_id": "c1", "label": "i23", "dependent_labels": [], "dpid": 2, "fingerprint": ["ControlMessageReceive", {"class": "ofp_set_config"}, 2, ["c", "1"]], "class": "ControlMessageReceive", "round": -1, "prunable": true}
{"timeout_disallowed": false, "time": [1363759545, 915818], "controller_id": "c1", "label": "i24", "dependent_labels": [], "dpid": 2, "fingerprint": ["ControlMessageReceive", {"class": "ofp_barrier_request"}, 2, ["c", "1"]], "class": "ControlMessageReceive", "round": -1, "prunable": true}
{"timeout_disallowed": false, "time": [1363759545, 916018], "controller_id": "c1", "label": "i25", "dependent_labels": [], "dpid": 2, "fingerprint": ["ControlMessageSend", {"class": "ofp_barrier_reply"}, 2, ["c", "1"]], "class": "ControlMessageSend", "round": -1, "prunable": true}
{"name": null, "timeout_disallowed": false, "controller_id": "c1", "value": ["('[Con 2/2]', '00-00-00-00-00-02')"], "label": "i26", "dependent_labels": [], "time": [1363759545, 917628], "class": "ControllerStateChange", "_fingerprint": ["ControllerStateChange", "of_01 %s Connected to %s"], "round": -1, "prunable": true}
{"name": null, "timeout_disallowed": false, "controller_id": "c1", "value": ["(<pox.openflow.of_01.Connection object at 0x251a3d0>,)"], "label": "i27", "dependent_labels": [], "time": [1363759545, 919703], "class": "ControllerStateChange", "_fingerprint": ["ControllerStateChange", "Connect %s"], "round": -1, "prunable": true}
{"name": null, "timeout_disallowed": false, "controller_id": "c1", "value": ["('00-00-00-00-00-02',)"], "label": "i28", "dependent_labels": [], "time": [1363759545, 921018], "class": "ControllerStateChange", "_fingerprint": ["ControllerStateChange", "Installing flow for %s"], "round": -1, "prunable": true}
{"timeout_disallowed": false, "time": [1363759546, 16873], "controller_id": "c1", "label": "i29", "dependent_labels": [], "dpid": 2, "fingerprint": ["ControlMessageReceive", {"hard_timeout": 0, "actions": ["output(65533)"], "priority": 32768, "idle_timeout": 0, "command": "add", "out_port": 65535, "flags": 0, "class": "ofp_flow_mod", "match": "dl_dst:01:23:20:00:00:01,dl_type:35020"}, 2, ["c", "1"]], "class": "ControlMessageReceive", "round": -1, "prunable": true}
{"label": "e31", "dependent_labels": [], "time": [1363759546, 520770], "class": "TrafficInjection", "round": -1, "prunable": true}
{"timeout_disallowed": false, "time": [1363759546, 722759], "controller_id": "c1", "label": "i34", "dependent_labels": [], "dpid": 1, "fingerprint": ["ControlMessageReceive", {"class": "ofp_hello"}, 1, ["c", "1"]], "class": "ControlMessageReceive", "round": -1, "prunable": true}
{"timeout_disallowed": false, "time": [1363759546, 722969], "controller_id": "c1", "label": "i35", "dependent_labels": [], "dpid": 1, "fingerprint": ["ControlMessageSend", {"class": "ofp_hello"}, 1, ["c", "1"]], "class": "ControlMessageSend", "round": -1, "prunable": true}
{"timeout_disallowed": false, "time": [1363759546, 823743], "controller_id": "c1", "label": "i36", "dependent_labels": [], "dpid": 1, "fingerprint": ["ControlMessageReceive", {"class": "ofp_features_request"}, 1, ["c", "1"]], "class": "ControlMessageReceive", "round": -1, "prunable": true}
{"timeout_disallowed": false, "time": [1363759546, 824004], "controller_id": "c1", "label": "i37", "dependent_labels": [], "dpid": 1, "fingerprint": ["ControlMessageSend", {"datapath_id": 1, "class": "ofp_features_reply"}, 1, ["c", "1"]], "class": "ControlMessageSend", "round": -1, "prunable": true}
{"timeout_disallowed": false, "time": [1363759546, 924800], "controller_id": "c1", "label": "i38", "dependent_labels": [], "dpid": 1, "fingerprint": ["ControlMessageReceive", {"class": "ofp_barrier_request"}, 1, ["c", "1"]], "class": "ControlMessageReceive", "round": -1, "prunable": true}
{"timeout_disallowed": false, "time": [1363759546, 925017], "controller_id": "c1", "label": "i39", "dependent_labels": [], "dpid": 1, "fingerprint": ["ControlMessageReceive", {"class": "ofp_set_config"}, 1, ["c", "1"]], "class": "ControlMessageReceive", "round": -1, "prunable": true}
{"timeout_disallowed": false, "time": [1363759546, 925328], "controller_id": "c1", "label": "i40", "dependent_labels": [], "dpid": 1, "fingerprint": ["ControlMessageReceive", {"hard_timeout": 0, "actions": [], "priority": 32768, "idle_timeout": 0, "command": "delete", "out_port": 65535, "flags": 0, "class": "ofp_flow_mod", "match": "x^L"}, 1, ["c", "1"]], "class": "ControlMessageReceive", "round": -1, "prunable": true}
{"timeout_disallowed": false, "time": [1363759546, 925869], "controller_id": "c1", "label": "i41", "dependent_labels": [], "dpid": 1, "fingerprint": ["ControlMessageSend", {"class": "ofp_barrier_reply"}, 1, ["c", "1"]], "class": "ControlMessageSend", "round": -1, "prunable": true}
{"name": null, "timeout_disallowed": false, "controller_id": "c1", "value": ["('[Con 3/1]', '00-00-00-00-00-01')"], "label": "i43", "dependent_labels": [], "time": [1363759546, 927617], "class": "ControllerStateChange", "_fingerprint": ["ControllerStateChange", "of_01 %s Connected to %s"], "round": -1, "prunable": true}
{"name": null, "timeout_disallowed": false, "controller_id": "c1", "value": ["(<pox.openflow.of_01.Connection object at 0x251a350>,)"], "label": "i44", "dependent_labels": [], "time": [1363759546, 929731], "class": "ControllerStateChange", "_fingerprint": ["ControllerStateChange", "Disconnect %s"], "round": -1, "prunable": true}
{"name": null, "timeout_disallowed": false, "controller_id": "c1", "value": ["(<pox.openflow.of_01.Connection object at 0x251a750>,)"], "label": "i45", "dependent_labels": [], "time": [1363759546, 930960], "class": "ControllerStateChange", "_fingerprint": ["ControllerStateChange", "Connect %s"], "round": -1, "prunable": true}
{"name": null, "timeout_disallowed": false, "controller_id": "c1", "value": ["('00-00-00-00-00-01',)"], "label": "i46", "dependent_labels": [], "time": [1363759546, 932258], "class": "ControllerStateChange", "_fingerprint": ["ControllerStateChange", "Installing flow for %s"], "round": -1, "prunable": true}
{"timeout_disallowed": false, "time": [1363759547, 26911], "controller_id": "c1", "label": "i47", "dependent_labels": [], "dpid": 1, "fingerprint": ["ControlMessageReceive", {"hard_timeout": 0, "actions": ["output(65533)"], "priority": 32768, "idle_timeout": 0, "command": "add", "out_port": 65535, "flags": 0, "class": "ofp_flow_mod", "match": "dl_dst:01:23:20:00:00:01,dl_type:35020"}, 1, ["c", "1"]], "class": "ControlMessageReceive", "round": -1, "prunable": true}
{"timeout_disallowed": false, "time": [1363759547, 129089], "controller_id": "c1", "label": "i50", "dependent_labels": [], "dpid": 1, "fingerprint": ["ControlMessageReceive", {"class": "ofp_hello"}, 1, ["c", "1"]], "class": "ControlMessageReceive", "round": -1, "prunable": true}
{"timeout_disallowed": false, "time": [1363759547, 129337], "controller_id": "c1", "label": "i51", "dependent_labels": [], "dpid": 1, "fingerprint": ["ControlMessageSend", {"reason": 1, "class": "ofp_port_status", "desc": [1, "00:00:00:00:01:01"]}, 1, ["c", "1"]], "class": "ControlMessageSend", "round": -1, "prunable": true}
{"timeout_disallowed": false, "time": [1363759547, 129634], "controller_id": "c1", "label": "i52", "dependent_labels": [], "dpid": 1, "fingerprint": ["ControlMessageSend", {"class": "ofp_hello"}, 1, ["c", "1"]], "class": "ControlMessageSend", "round": -1, "prunable": true}
{"name": null, "timeout_disallowed": false, "controller_id": "c1", "value": ["(<class 'pox.openflow.PortStatus'>,)"], "label": "i54", "dependent_labels": [], "time": [1363759547, 131572], "class": "ControllerStateChange", "_fingerprint": ["ControllerStateChange", "%s raised on dummy OpenFlow nexus"], "round": -1, "prunable": true}
{"timeout_disallowed": false, "time": [1363759547, 230718], "controller_id": "c1", "label": "i55", "dependent_labels": [], "dpid": 1, "fingerprint": ["ControlMessageReceive", {"class": "ofp_features_request"}, 1, ["c", "1"]], "class": "ControlMessageReceive", "round": -1, "prunable": true}
{"timeout_disallowed": false, "time": [1363759547, 230979], "controller_id": "c1", "label": "i56", "dependent_labels": [], "dpid": 1, "fingerprint": ["ControlMessageSend", {"datapath_id": 1, "class": "ofp_features_reply"}, 1, ["c", "1"]], "class": "ControlMessageSend", "round": -1, "prunable": true}
{"timeout_disallowed": false, "time": [1363759547, 231257], "controller_id": "c1", "label": "i57", "dependent_labels": [], "dpid": 2, "fingerprint": ["ControlMessageSend", {"reason": 1, "class": "ofp_port_status", "desc": [1, "00:00:00:00:02:01"]}, 2, ["c", "1"]], "class": "ControlMessageSend", "round": -1, "prunable": true}
{"timeout_disallowed": false, "time": [1363759547, 332370], "controller_id": "c1", "label": "i59", "dependent_labels": [], "dpid": 1, "fingerprint": ["ControlMessageReceive", {"class": "ofp_barrier_request"}, 1, ["c", "1"]], "class": "ControlMessageReceive", "round": -1, "prunable": true}
{"timeout_disallowed": false, "time": [1363759547, 332588], "controller_id": "c1", "label": "i60", "dependent_labels": [], "dpid": 1, "fingerprint": ["ControlMessageReceive", {"class": "ofp_set_config"}, 1, ["c", "1"]], "class": "ControlMessageReceive", "round": -1, "prunable": true}
{"timeout_disallowed": false, "time": [1363759547, 332896], "controller_id": "c1", "label": "i61", "dependent_labels": [], "dpid": 1, "fingerprint": ["ControlMessageReceive", {"hard_timeout": 0, "actions": [], "priority": 32768, "idle_timeout": 0, "command": "delete", "out_port": 65535, "flags": 0, "class": "ofp_flow_mod", "match": "x^L"}, 1, ["c", "1"]], "class": "ControlMessageReceive", "round": -1, "prunable": true}
{"timeout_disallowed": false, "time": [1363759547, 333482], "controller_id": "c1", "label": "i62", "dependent_labels": [], "dpid": 1, "fingerprint": ["ControlMessageSend", {"reason": 0, "class": "ofp_port_status", "desc": [1, "00:00:00:00:01:01"]}, 1, ["c", "1"]], "class": "ControlMessageSend", "round": -1, "prunable": true}
{"timeout_disallowed": false, "time": [1363759547, 333775], "controller_id": "c1", "label": "i63", "dependent_labels": [], "dpid": 1, "fingerprint": ["ControlMessageSend", {"class": "ofp_barrier_reply"}, 1, ["c", "1"]], "class": "ControlMessageSend", "round": -1, "prunable": true}
{"name": null, "timeout_disallowed": false, "controller_id": "c1", "value": ["('[Con 4/1]', '00-00-00-00-00-01')"], "label": "i65", "dependent_labels": [], "time": [1363759547, 337709], "class": "ControllerStateChange", "_fingerprint": ["ControllerStateChange", "of_01 %s Connected to %s"], "round": -1, "prunable": true}
{"name": null, "timeout_disallowed": false, "controller_id": "c1", "value": ["(<pox.openflow.of_01.Connection object at 0x251a750>,)"], "label": "i66", "dependent_labels": [], "time": [1363759547, 339836], "class": "ControllerStateChange", "_fingerprint": ["ControllerStateChange", "Disconnect %s"], "round": -1, "prunable": true}
{"name": null, "timeout_disallowed": false, "controller_id": "c1", "value": ["(<pox.openflow.of_01.Connection object at 0x251aed0>,)"], "label": "i67", "dependent_labels": [], "time": [1363759547, 341016], "class": "ControllerStateChange", "_fingerprint": ["ControllerStateChange", "Connect %s"], "round": -1, "prunable": true}
{"name": null, "timeout_disallowed": false, "controller_id": "c1", "value": ["('00-00-00-00-00-01',)"], "label": "i68", "dependent_labels": [], "time": [1363759547, 342438], "class": "ControllerStateChange", "_fingerprint": ["ControllerStateChange", "Installing flow for %s"], "round": -1, "prunable": true}
{"timeout_disallowed": false, "time": [1363759547, 434909], "controller_id": "c1", "label": "i69", "dependent_labels": [], "dpid": 1, "fingerprint": ["ControlMessageReceive", {"hard_timeout": 0, "actions": ["output(65533)"], "priority": 32768, "idle_timeout": 0, "command": "add", "out_port": 65535, "flags": 0, "class": "ofp_flow_mod", "match": "dl_dst:01:23:20:00:00:01,dl_type:35020"}, 1, ["c", "1"]], "class": "ControlMessageReceive", "round": -1, "prunable": true}
{"timeout_disallowed": false, "time": [1363759547, 435490], "controller_id": "c1", "label": "i70", "dependent_labels": [], "dpid": 2, "fingerprint": ["ControlMessageSend", {"reason": 0, "class": "ofp_port_status", "desc": [1, "00:00:00:00:02:01"]}, 2, ["c", "1"]], "class": "ControlMessageSend", "round": -1, "prunable": true}
{"timeout_disallowed": false, "time": [1363759547, 639320], "label": "i73", "passive": false, "dependent_labels": [], "fingerprint": ["DataplanePermit", {"class": "arp"}, "host:[IPAddr('123.123.1.2')]", "12:34:56:78:01:02"], "class": "DataplanePermit", "round": -1, "prunable": true}
{"timeout_disallowed": false, "time": [1363759547, 639466], "controller_id": "c1", "label": "i74", "dependent_labels": [], "dpid": 1, "fingerprint": ["ControlMessageSend", {"data": {"class": "arp"}, "class": "ofp_packet_in", "in_port": 2}, 1, ["c", "1"]], "class": "ControlMessageSend", "round": -1, "prunable": true}
{"name": null, "timeout_disallowed": false, "controller_id": "c1", "value": ["(EthAddr('12:34:56:78:01:02'), 00-00-00-00-00-01, 2)"], "label": "i75", "dependent_labels": [], "time": [1363759547, 641112], "class": "ControllerStateChange", "_fingerprint": ["ControllerStateChange", "Learned %s at %s.%i"], "round": -1, "prunable": true}
{"name": null, "timeout_disallowed": false, "controller_id": "c1", "value": ["(EthAddr('12:34:56:78:02:02'),)"], "label": "i76", "dependent_labels": [], "time": [1363759547, 642060], "class": "ControllerStateChange", "_fingerprint": ["ControllerStateChange", "%s unknown -- flooding"], "round": -1, "prunable": true}
{"timeout_disallowed": false, "time": [1363759547, 740186], "controller_id": "c1", "label": "i77", "dependent_labels": [], "dpid": 1, "fingerprint": ["ControlMessageReceive", {"in_port": 2, "data": [], "class": "ofp_packet_out", "actions": ["output(65531)"]}, 1, ["c", "1"]], "class": "ControlMessageReceive", "round": -1, "prunable": true}
{"timeout_disallowed": false, "time": [1363759547, 841429], "label": "i78", "passive": false, "dependent_labels": [], "fingerprint": ["DataplanePermit", {"class": "arp"}, 1, 1], "class": "DataplanePermit", "round": -1, "prunable": true}
{"timeout_disallowed": false, "time": [1363759547, 841692], "controller_id": "c1", "label": "i79", "dependent_labels": [], "dpid": 2, "fingerprint": ["ControlMessageSend", {"data": {"class": "arp"}, "class": "ofp_packet_in", "in_port": 1}, 2, ["c", "1"]], "class": "ControlMessageSend", "round": -1, "prunable": true}
{"name": null, "timeout_disallowed": false, "controller_id": "c1", "value": ["(EthAddr('12:34:56:78:01:02'), '00-00-00-00-00-01', 2, '00-00-00-00-00-02', 1)"], "label": "i80", "dependent_labels": [], "time": [1363759547, 855874], "class": "ControllerStateChange", "_fingerprint": ["ControllerStateChange", "%s moved from %s.%i to %s.%i?"], "round": -1, "prunable": true}
{"name": null, "timeout_disallowed": false, "controller_id": "c1", "value": ["(EthAddr('12:34:56:78:01:02'), 00-00-00-00-00-02, 1)"], "label": "i81", "dependent_labels": [], "time": [1363759547, 856931], "class": "ControllerStateChange", "_fingerprint": ["ControllerStateChange", "Learned %s at %s.%i"], "round": -1, "prunable": true}
{"name": null, "timeout_disallowed": false, "controller_id": "c1", "value": ["(EthAddr('12:34:56:78:02:02'),)"], "label": "i82", "dependent_labels": [], "time": [1363759547, 857941], "class": "ControllerStateChange", "_fingerprint": ["ControllerStateChange", "%s unknown -- flooding"], "round": -1, "prunable": true}
{"timeout_disallowed": false, "time": [1363759547, 954906], "controller_id": "c1", "label": "i83", "dependent_labels": [], "dpid": 2, "fingerprint": ["ControlMessageReceive", {"in_port": 1, "data": [], "class": "ofp_packet_out", "actions": ["output(65531)"]}, 2, ["c", "1"]], "class": "ControlMessageReceive", "round": -1, "prunable": true}
{"timeout_disallowed": false, "time": [1363759548, 56025], "label": "i84", "passive": false, "dependent_labels": [], "fingerprint": ["DataplanePermit", {"class": "arp"}, 2, 2], "class": "DataplanePermit", "round": -1, "prunable": true}
{"timeout_disallowed": false, "time": [1363759548, 660620], "label": "i87", "passive": false, "dependent_labels": [], "fingerprint": ["DataplanePermit", {"dl_dst": "12:34:56:78:01:02", "nw_src": "123.123.2.2", "dl_src": "12:34:56:78:02:02", "nw_dst": "123.123.1.2"}, "host:[IPAddr('123.123.2.2')]", "12:34:56:78:02:02"], "class": "DataplanePermit", "round": -1, "prunable": true}
{"timeout_disallowed": false, "time": [1363759548, 661026], "controller_id": "c1", "label": "i88", "dependent_labels": [], "dpid": 2, "fingerprint": ["ControlMessageSend", {"data": {"dl_dst": "12:34:56:78:01:02", "nw_src": "123.123.2.2", "dl_src": "12:34:56:78:02:02", "nw_dst": "123.123.1.2"}, "class": "ofp_packet_in", "in_port": 2}, 2, ["c", "1"]], "class": "ControlMessageSend", "round": -1, "prunable": true}
{"name": null, "timeout_disallowed": false, "controller_id": "c1", "value": ["(EthAddr('12:34:56:78:02:02'), 00-00-00-00-00-02, 2)"], "label": "i89", "dependent_labels": [], "time": [1363759548, 663273], "class": "ControllerStateChange", "_fingerprint": ["ControllerStateChange", "Learned %s at %s.%i"], "round": -1, "prunable": true}
{"name": null, "timeout_disallowed": false, "controller_id": "c1", "value": ["(EthAddr('12:34:56:78:02:02'), EthAddr('12:34:56:78:01:02'), 2048, 1)"], "label": "i90", "dependent_labels": [], "time": [1363759548, 665904], "class": "ControllerStateChange", "_fingerprint": ["ControllerStateChange", "Installing path for %s -> %s %04x (%i hops)"], "round": -1, "prunable": true}
{"timeout_disallowed": false, "time": [1363759548, 762175], "controller_id": "c1", "label": "i91", "dependent_labels": [], "dpid": 2, "fingerprint": ["ControlMessageReceive", {"in_port": 65535, "data": {"class": "lldp"}, "class": "ofp_packet_out", "actions": ["output(2)"]}, 2, ["c", "1"]], "class": "ControlMessageReceive", "round": -1, "prunable": true}
{"timeout_disallowed": false, "time": [1363759548, 762842], "controller_id": "c1", "label": "i92", "dependent_labels": [], "dpid": 2, "fingerprint": ["ControlMessageReceive", {"hard_timeout": 30, "actions": ["output(1)"], "priority": 32768, "idle_timeout": 10, "command": "add", "out_port": 65535, "flags": 0, "class": "ofp_flow_mod", "match": "dl_src:12:34:56:78:02:02,dl_dst:12:34:56:78:01:02,dl_vlan:65535,dl_vlan_pcp:0,dl_type:2048,nw_tos:0,nw_proto:1,nw_src:123.123.2.2/32,nw_dst:123.123.1.2/32,tp_src:8,tp_dst:0"}, 2, ["c", "1"]], "class": "ControlMessageReceive", "round": -1, "prunable": true}
{"timeout_disallowed": false, "time": [1363759548, 864389], "label": "i93", "passive": false, "dependent_labels": [], "fingerprint": ["DataplanePermit", {"dl_dst": "12:34:56:78:01:02", "nw_src": "123.123.2.2", "dl_src": "12:34:56:78:02:02", "nw_dst": "123.123.1.2"}, 2, 1], "class": "DataplanePermit", "round": -1, "prunable": true}
{"timeout_disallowed": false, "time": [1363759549, 267636], "controller_id": "c1", "label": "i96", "dependent_labels": [], "dpid": 1, "fingerprint": ["ControlMessageReceive", {"class": "ofp_hello"}, 1, ["c", "1"]], "class": "ControlMessageReceive", "round": -1, "prunable": true}
{"timeout_disallowed": false, "time": [1363759549, 267846], "controller_id": "c1", "label": "i97", "dependent_labels": [], "dpid": 1, "fingerprint": ["ControlMessageSend", {"class": "ofp_hello"}, 1, ["c", "1"]], "class": "ControlMessageSend", "round": -1, "prunable": true}
{"timeout_disallowed": false, "time": [1363759549, 368653], "controller_id": "c1", "label": "i98", "dependent_labels": [], "dpid": 1, "fingerprint": ["ControlMessageReceive", {"class": "ofp_features_request"}, 1, ["c", "1"]], "class": "ControlMessageReceive", "round": -1, "prunable": true}
{"timeout_disallowed": false, "time": [1363759549, 368934], "controller_id": "c1", "label": "i99", "dependent_labels": [], "dpid": 1, "fingerprint": ["ControlMessageSend", {"datapath_id": 1, "class": "ofp_features_reply"}, 1, ["c", "1"]], "class": "ControlMessageSend", "round": -1, "prunable": true}
{"timeout_disallowed": false, "time": [1363759549, 469761], "controller_id": "c1", "label": "i100", "dependent_labels": [], "dpid": 1, "fingerprint": ["ControlMessageReceive", {"class": "ofp_barrier_request"}, 1, ["c", "1"]], "class": "ControlMessageReceive", "round": -1, "prunable": true}
{"timeout_disallowed": false, "time": [1363759549, 469978], "controller_id": "c1", "label": "i101", "dependent_labels": [], "dpid": 1, "fingerprint": ["ControlMessageReceive", {"class": "ofp_set_config"}, 1, ["c", "1"]], "class": "ControlMessageReceive", "round": -1, "prunable": true}
{"timeout_disallowed": false, "time": [1363759549, 470290], "controller_id": "c1", "label": "i102", "dependent_labels": [], "dpid": 1, "fingerprint": ["ControlMessageReceive", {"hard_timeout": 0, "actions": [], "priority": 32768, "idle_timeout": 0, "command": "delete", "out_port": 65535, "flags": 0, "class": "ofp_flow_mod", "match": "x^L"}, 1, ["c", "1"]], "class": "ControlMessageReceive", "round": -1, "prunable": true}
{"timeout_disallowed": false, "time": [1363759549, 470832], "controller_id": "c1", "label": "i103", "dependent_labels": [], "dpid": 1, "fingerprint": ["ControlMessageSend", {"class": "ofp_barrier_reply"}, 1, ["c", "1"]], "class": "ControlMessageSend", "round": -1, "prunable": true}
{"name": null, "timeout_disallowed": false, "controller_id": "c1", "value": ["('[Con 5/1]', '00-00-00-00-00-01')"], "label": "i104", "dependent_labels": [], "time": [1363759549, 472716], "class": "ControllerStateChange", "_fingerprint": ["ControllerStateChange", "of_01 %s Connected to %s"], "round": -1, "prunable": true}
{"name": null, "timeout_disallowed": false, "controller_id": "c1", "value": ["(<pox.openflow.of_01.Connection object at 0x251aed0>,)"], "label": "i105", "dependent_labels": [], "time": [1363759549, 474849], "class": "ControllerStateChange", "_fingerprint": ["ControllerStateChange", "Disconnect %s"], "round": -1, "prunable": true}
{"name": null, "timeout_disallowed": false, "controller_id": "c1", "value": ["(<pox.openflow.of_01.Connection object at 0x251ae10>,)"], "label": "i106", "dependent_labels": [], "time": [1363759549, 476097], "class": "ControllerStateChange", "_fingerprint": ["ControllerStateChange", "Connect %s"], "round": -1, "prunable": true}
{"name": null, "timeout_disallowed": false, "controller_id": "c1", "value": ["('00-00-00-00-00-01',)"], "label": "i107", "dependent_labels": [], "time": [1363759549, 477465], "class": "ControllerStateChange", "_fingerprint": ["ControllerStateChange", "Installing flow for %s"], "round": -1, "prunable": true}
{"timeout_disallowed": false, "time": [1363759549, 571774], "controller_id": "c1", "label": "i108", "dependent_labels": [], "dpid": 1, "fingerprint": ["ControlMessageReceive", {"hard_timeout": 0, "actions": ["output(65533)"], "priority": 32768, "idle_timeout": 0, "command": "add", "out_port": 65535, "flags": 0, "class": "ofp_flow_mod", "match": "dl_dst:01:23:20:00:00:01,dl_type:35020"}, 1, ["c", "1"]], "class": "ControlMessageReceive", "round": -1, "prunable": true}
{"wait_time": 1.0, "dependent_labels": [], "time": [1363759549, 571774], "class": "WaitTime", "prunable": true, "round": -1, "label": "e113"}
