{
  "ambiguous_counts": {},
  "ambiguous_events": {},
  "config": "SimulationConfig(controller_configs=[ControllerConfig(start_cmd='./pox.py --verbose sts.syncproto.pox_syncer --blocking=False openflow.discovery forwarding.l2_multi sts.util.socket_mux.pox_monkeypatcher openflow.of_01 --address=__address__ --port=__port__', address='127.0.0.1', port=6633, cwd='pox', sync='tcp:localhost:18899')],\n                 topology_class=MeshTopology,\n                 topology_params=\"num_switches=2\",\n                 patch_panel_class=BufferedPatchPanel,\n                 multiplex_sockets=True)",
  "early_internal_events": {
    "1": []
  },
  "initial_verification_runs_needed": 0,
  "iteration_size": {
    "0": 6
  },
  "matched_events": {
    "1": {
      "CheckInvariants": 3,
      "ConnectToControllers": 1,
      "ControlMessageReceive": 30,
      "ControlMessageSend": 26,
      "ControllerStateChange": 40,
      "DataplaneDrop": 6,
      "DataplanePermit": 15,
      "HostMigration": 4,
      "TrafficInjection": 10
    }
  },
  "new_internal_events": {
    "1": [
      "PendingReceive(dpid=1, controller_id='c1', fingerprint=OFFingerprint{'hard_timeout': 30, 'out_port': 65535, 'priority': 32768, 'idle_timeout': 10, 'command': 'add', 'actions': ('output(4)',), 'flags': 0, 'class': 'ofp_flow_mod', 'match': 'dl_src:12:34:56:78:01:02,dl_dst:12:34:56:78:02:02,dl_vlan:65535,dl_vlan_pcp:0,dl_type:2054,nw_proto:2,nw_src:123.123.1.2/32,nw_dst:123.123.2.2/32'})",
      "PendingReceive(dpid=2, controller_id='c1', fingerprint=OFFingerprint{'actions': ('output(1)',), 'data': DPFingerprint{'class': 'lldp'}, 'class': 'ofp_packet_out', 'in_port': 65535})",
      "PendingReceive(dpid=1, controller_id='c1', fingerprint=OFFingerprint{'actions': ('output(1)',), 'data': DPFingerprint{'class': 'lldp'}, 'class': 'ofp_packet_out', 'in_port': 65535})",
      "PendingReceive(dpid=1, controller_id='c1', fingerprint=OFFingerprint{'actions': ('output(4)',), 'data': DPFingerprint{'class': 'lldp'}, 'class': 'ofp_packet_out', 'in_port': 65535})",
      "PendingReceive(dpid=1, controller_id='c1', fingerprint=OFFingerprint{'actions': ('output(5)',), 'data': DPFingerprint{'class': 'lldp'}, 'class': 'ofp_packet_out', 'in_port': 65535})"
    ]
  },
  "original_duration_seconds": 13.335306882858276,
  "peeker": false,
  "prune_duration_seconds": 756.9832270145416,
  "prune_end_epoch": 1371927359.359591,
  "prune_start_epoch": 1371926602.376364,
  "replay_duration_seconds": 2.815200090408325,
  "replay_end_epoch": 1371926602.37623,
  "replay_start_epoch": 1371926599.56103,
  "runtime_stats_file": "experiments/updated_debug_branch_loop_mcs/runtime_stats.json",
  "timed_out_events": {
    "1": {
      "ControlMessageReceive": 10,
      "ControlMessageSend": 16,
      "ControllerStateChange": 18,
      "DataplanePermit": 9
    }
  },
  "total_events": 210,
  "total_inputs": 45,
  "total_inputs_replayed": 1219,
  "total_replays": 34,
  "violation_found_in_run": {
    "0": 17
  }
}