{"timeout_disallowed": true, "fingerprint": ["ConnectToControllers"], "timed_out": false, "label": "e1", "dependent_labels": [], "time": [1390616566, 187768], "replay_time": [1390625285, 196652], "class": "ConnectToControllers", "round": 0, "prunable": false}
{"pass_through_sends": false, "timeout_disallowed": false, "time": [1390616566, 188736], "controller_id": "c1", "fingerprint": ["ControlMessageReceive", {"class": "ofp_hello"}, 2, ["c", "1"]], "timed_out": false, "dependent_labels": [], "ignore_whitelisted_packets": true, "dpid": 2, "replay_time": [1390625285, 198701], "label": "i2", "class": "ControlMessageReceive", "b64_packet": "AQAACAAAAAM=", "round": 1, "prunable": true}
{"pass_through_sends": false, "timeout_disallowed": false, "time": [1390625285, 199265], "controller_id": "c1", "fingerprint": ["ControlMessageReceive", {"class": "ofp_hello"}, 1, "c1"], "timed_out": false, "dependent_labels": [], "ignore_whitelisted_packets": false, "new_internal_event": true, "dpid": 1, "replay_time": [1390625285, 199284], "label": "i207", "class": "ControlMessageReceive", "b64_packet": "AQAACAAAAAE=", "round": -1, "prunable": true}
{"pass_through_sends": false, "timeout_disallowed": false, "time": [1390625285, 199434], "controller_id": "c1", "fingerprint": ["ControlMessageSend", {"class": "ofp_hello"}, 2, "c1"], "timed_out": false, "dependent_labels": [], "ignore_whitelisted_packets": false, "new_internal_event": true, "dpid": 2, "replay_time": [1390625285, 199448], "label": "i208", "class": "ControlMessageSend", "b64_packet": "AQAACAAAAAk=", "round": -1, "prunable": true}
{"pass_through_sends": false, "timeout_disallowed": false, "time": [1390616566, 189184], "controller_id": "c1", "fingerprint": ["ControlMessageReceive", {"class": "ofp_hello"}, 1, ["c", "1"]], "timed_out": true, "dependent_labels": [], "ignore_whitelisted_packets": true, "dpid": 1, "replay_time": [1390625285, 803015], "label": "i3", "class": "ControlMessageReceive", "b64_packet": "AQAACAAAAAE=", "round": 1, "prunable": true}
{"pass_through_sends": false, "timeout_disallowed": false, "time": [1390625285, 804151], "controller_id": "c1", "fingerprint": ["ControlMessageReceive", {"class": "ofp_features_request"}, 2, "c1"], "timed_out": false, "dependent_labels": [], "ignore_whitelisted_packets": false, "new_internal_event": true, "dpid": 2, "replay_time": [1390625285, 804181], "label": "i209", "class": "ControlMessageReceive", "b64_packet": "AQUACAAAAAU=", "round": -1, "prunable": true}
{"pass_through_sends": false, "timeout_disallowed": false, "time": [1390625285, 804475], "controller_id": "c1", "fingerprint": ["ControlMessageSend", {"class": "ofp_hello"}, 1, "c1"], "timed_out": false, "dependent_labels": [], "ignore_whitelisted_packets": false, "new_internal_event": true, "dpid": 1, "replay_time": [1390625285, 804502], "label": "i210", "class": "ControlMessageSend", "b64_packet": "AQAACAAAAAs=", "round": -1, "prunable": true}
{"pass_through_sends": false, "timeout_disallowed": false, "time": [1390616566, 189396], "controller_id": "c1", "fingerprint": ["ControlMessageSend", {"class": "ofp_hello"}, 2, ["c", "1"]], "timed_out": true, "dependent_labels": [], "ignore_whitelisted_packets": true, "dpid": 2, "replay_time": [1390625286, 407113], "label": "i4", "class": "ControlMessageSend", "b64_packet": "AQAACAAAAAE=", "round": 1, "prunable": true}
{"pass_through_sends": false, "timeout_disallowed": false, "time": [1390625286, 407943], "controller_id": "c1", "fingerprint": ["ControlMessageReceive", {"class": "ofp_features_request"}, 1, "c1"], "timed_out": false, "dependent_labels": [], "ignore_whitelisted_packets": false, "new_internal_event": true, "dpid": 1, "replay_time": [1390625286, 407965], "label": "i211", "class": "ControlMessageReceive", "b64_packet": "AQUACAAAAAc=", "round": -1, "prunable": true}
{"pass_through_sends": false, "timeout_disallowed": false, "time": [1390625286, 408313], "controller_id": "c1", "fingerprint": ["ControlMessageSend", {"datapath_id": 2, "class": "ofp_features_reply"}, 2, "c1"], "timed_out": false, "dependent_labels": [], "ignore_whitelisted_packets": false, "new_internal_event": true, "dpid": 2, "replay_time": [1390625286, 408342], "label": "i212", "class": "ControlMessageSend", "b64_packet": "AQYAgAAAAAUAAAAAAAAAAgAAAGQBAAAAAAAA7wAAB/8AAQAAAAACAWV0aDEAAAAAAAAAAAAAAAAAAAAAAAAAAAAAAAAAAAAAAAAAAAAAAAAAAgAAAAACAmV0aDIAAAAAAAAAAAAAAAAAAAAAAAAAAAAAAAAAAAAAAAAAAAAAAAA=", "round": -1, "prunable": true}
{"pass_through_sends": false, "timeout_disallowed": false, "time": [1390616566, 189612], "controller_id": "c1", "fingerprint": ["ControlMessageSend", {"class": "ofp_hello"}, 1, ["c", "1"]], "timed_out": true, "dependent_labels": [], "ignore_whitelisted_packets": true, "dpid": 1, "replay_time": [1390625287, 12425], "label": "i5", "class": "ControlMessageSend", "b64_packet": "AQAACAAAAAM=", "round": 1, "prunable": true}
{"pass_through_sends": false, "timeout_disallowed": false, "time": [1390625287, 13266], "controller_id": "c1", "fingerprint": ["ControlMessageReceive", {"hard_timeout": 0, "actions": [], "priority": 32768, "idle_timeout": 0, "command": "delete", "out_port": 65535, "flags": 0, "class": "ofp_flow_mod", "match": "x^L,in_port:None"}, 2, "c1"], "timed_out": false, "dependent_labels": [], "ignore_whitelisted_packets": false, "new_internal_event": true, "dpid": 2, "replay_time": [1390625287, 13293], "label": "i213", "class": "ControlMessageReceive", "b64_packet": "AQ4ASAAAAAsAEAAfAAAAAAAAAAAAAAAAAAAAAAAAAAAAAAAAAAAAAAAAAAAAAAAAAAAAAAAAAAAAAwAAAACAAP///////wAA", "round": -1, "prunable": true}
{"pass_through_sends": false, "timeout_disallowed": false, "time": [1390625287, 13852], "controller_id": "c1", "fingerprint": ["ControlMessageReceive", {"class": "ofp_set_config"}, 2, "c1"], "timed_out": false, "dependent_labels": [], "ignore_whitelisted_packets": false, "new_internal_event": true, "dpid": 2, "replay_time": [1390625287, 13882], "label": "i214", "class": "ControlMessageReceive", "b64_packet": "AQkADAAAAAkAAACA", "round": -1, "prunable": true}
{"pass_through_sends": false, "timeout_disallowed": false, "time": [1390625287, 14230], "controller_id": "c1", "fingerprint": ["ControlMessageReceive", {"class": "ofp_barrier_request"}, 2, "c1"], "timed_out": false, "dependent_labels": [], "ignore_whitelisted_packets": false, "new_internal_event": true, "dpid": 2, "replay_time": [1390625287, 14255], "label": "i215", "class": "ControlMessageReceive", "b64_packet": "ARIACAAAAA0=", "round": -1, "prunable": true}
{"pass_through_sends": false, "timeout_disallowed": false, "time": [1390625287, 14620], "controller_id": "c1", "fingerprint": ["ControlMessageSend", {"datapath_id": 1, "class": "ofp_features_reply"}, 1, "c1"], "timed_out": false, "dependent_labels": [], "ignore_whitelisted_packets": false, "new_internal_event": true, "dpid": 1, "replay_time": [1390625287, 14648], "label": "i216", "class": "ControlMessageSend", "b64_packet": "AQYAgAAAAAcAAAAAAAAAAQAAAGQBAAAAAAAA7wAAB/8AAQAAAAABAWV0aDEAAAAAAAAAAAAAAAAAAAAAAAAAAAAAAAAAAAAAAAAAAAAAAAAAAgAAAAABAmV0aDIAAAAAAAAAAAAAAAAAAAAAAAAAAAAAAAAAAAAAAAAAAAAAAAA=", "round": -1, "prunable": true}
{"pass_through_sends": false, "timeout_disallowed": false, "time": [1390616566, 291100], "controller_id": "c1", "fingerprint": ["ControlMessageReceive", {"class": "ofp_features_request"}, 2, ["c", "1"]], "timed_out": true, "dependent_labels": [], "ignore_whitelisted_packets": true, "dpid": 2, "replay_time": [1390625287, 620947], "label": "i6", "class": "ControlMessageReceive", "b64_packet": "AQUACAAAAAU=", "round": 2, "prunable": true}
{"pass_through_sends": false, "timeout_disallowed": false, "time": [1390625287, 621525], "controller_id": "c1", "fingerprint": ["ControlMessageReceive", {"class": "ofp_barrier_request"}, 1, "c1"], "timed_out": false, "dependent_labels": [], "ignore_whitelisted_packets": false, "new_internal_event": true, "dpid": 1, "replay_time": [1390625287, 621540], "label": "i217", "class": "ControlMessageReceive", "b64_packet": "ARIACAAAABM=", "round": -1, "prunable": true}
{"pass_through_sends": false, "timeout_disallowed": false, "time": [1390625287, 621708], "controller_id": "c1", "fingerprint": ["ControlMessageReceive", {"class": "ofp_set_config"}, 1, "c1"], "timed_out": false, "dependent_labels": [], "ignore_whitelisted_packets": false, "new_internal_event": true, "dpid": 1, "replay_time": [1390625287, 621722], "label": "i218", "class": "ControlMessageReceive", "b64_packet": "AQkADAAAAA8AAACA", "round": -1, "prunable": true}
{"pass_through_sends": false, "timeout_disallowed": false, "time": [1390625287, 622039], "controller_id": "c1", "fingerprint": ["ControlMessageReceive", {"hard_timeout": 0, "actions": [], "priority": 32768, "idle_timeout": 0, "command": "delete", "out_port": 65535, "flags": 0, "class": "ofp_flow_mod", "match": "x^L,in_port:None"}, 1, "c1"], "timed_out": false, "dependent_labels": [], "ignore_whitelisted_packets": false, "new_internal_event": true, "dpid": 1, "replay_time": [1390625287, 622057], "label": "i219", "class": "ControlMessageReceive", "b64_packet": "AQ4ASAAAABEAEAAfAAAAAAAAAAAAAAAAAAAAAAAAAAAAAAAAAAAAAAAAAAAAAAAAAAAAAAAAAAAAAwAAAACAAP///////wAA", "round": -1, "prunable": true}
{"pass_through_sends": false, "timeout_disallowed": false, "time": [1390625287, 622354], "controller_id": "c1", "fingerprint": ["ControlMessageSend", {"class": "ofp_barrier_reply"}, 2, "c1"], "timed_out": false, "dependent_labels": [], "ignore_whitelisted_packets": false, "new_internal_event": true, "dpid": 2, "replay_time": [1390625287, 622370], "label": "i220", "class": "ControlMessageSend", "b64_packet": "ARMACAAAAA0=", "round": -1, "prunable": true}
{"pass_through_sends": false, "timeout_disallowed": false, "time": [1390616566, 291533], "controller_id": "c1", "fingerprint": ["ControlMessageReceive", {"class": "ofp_features_request"}, 1, ["c", "1"]], "timed_out": true, "dependent_labels": [], "ignore_whitelisted_packets": true, "dpid": 1, "replay_time": [1390625288, 226619], "label": "i7", "class": "ControlMessageReceive", "b64_packet": "AQUACAAAAAc=", "round": 2, "prunable": true}
{"pass_through_sends": false, "timeout_disallowed": false, "time": [1390625288, 227981], "controller_id": "c1", "fingerprint": ["ControlMessageReceive", {"hard_timeout": 0, "actions": ["output(65533)"], "priority": 32768, "idle_timeout": 0, "command": "add", "out_port": 65535, "flags": 0, "class": "ofp_flow_mod", "match": "dl_dst:01:23:20:00:00:01,dl_type:35020,in_port:None"}, 2, "c1"], "timed_out": false, "dependent_labels": [], "ignore_whitelisted_packets": false, "new_internal_event": true, "dpid": 2, "replay_time": [1390625288, 228014], "label": "i221", "class": "ControlMessageReceive", "b64_packet": "AQ4AUAAAABUAEAAHAAAAAAAAAAABIyAAAAEAAAAAiMwAAAAAAAAAAAAAAAAAAAAAAAAAAAAAAAAAAAAAAACAAP///////wAAAAAACP/9//8=", "round": -1, "prunable": true}
{"pass_through_sends": false, "timeout_disallowed": false, "time": [1390625288, 228457], "controller_id": "c1", "fingerprint": ["ControlMessageSend", {"class": "ofp_barrier_reply"}, 1, "c1"], "timed_out": false, "dependent_labels": [], "ignore_whitelisted_packets": false, "new_internal_event": true, "dpid": 1, "replay_time": [1390625288, 228480], "label": "i222", "class": "ControlMessageSend", "b64_packet": "ARMACAAAABM=", "round": -1, "prunable": true}
{"pass_through_sends": false, "timeout_disallowed": false, "time": [1390616566, 291905], "controller_id": "c1", "fingerprint": ["ControlMessageSend", {"datapath_id": 2, "class": "ofp_features_reply"}, 2, ["c", "1"]], "timed_out": true, "dependent_labels": [], "ignore_whitelisted_packets": true, "dpid": 2, "replay_time": [1390625288, 831576], "label": "i8", "class": "ControlMessageSend", "b64_packet": "AQYAgAAAAAUAAAAAAAAAAgAAAGQBAAAAAAAA7wAAB/8AAQAAAAACAWV0aDEAAAAAAAAAAAAAAAAAAAAAAAAAAAAAAAAAAAAAAAAAAAAAAAAAAgAAAAACAmV0aDIAAAAAAAAAAAAAAAAAAAAAAAAAAAAAAAAAAAAAAAAAAAAAAAA=", "round": 2, "prunable": true}
{"pass_through_sends": false, "timeout_disallowed": false, "time": [1390625288, 832720], "controller_id": "c1", "fingerprint": ["ControlMessageReceive", {"hard_timeout": 0, "actions": ["output(65533)"], "priority": 32768, "idle_timeout": 0, "command": "add", "out_port": 65535, "flags": 0, "class": "ofp_flow_mod", "match": "dl_dst:01:23:20:00:00:01,dl_type:35020,in_port:None"}, 1, "c1"], "timed_out": false, "dependent_labels": [], "ignore_whitelisted_packets": false, "new_internal_event": true, "dpid": 1, "replay_time": [1390625288, 832755], "label": "i223", "class": "ControlMessageReceive", "b64_packet": "AQ4AUAAAABsAEAAHAAAAAAAAAAABIyAAAAEAAAAAiMwAAAAAAAAAAAAAAAAAAAAAAAAAAAAAAAAAAAAAAACAAP///////wAAAAAACP/9//8=", "round": -1, "prunable": true}
{"pass_through_sends": false, "timeout_disallowed": false, "time": [1390616566, 292323], "controller_id": "c1", "fingerprint": ["ControlMessageSend", {"datapath_id": 1, "class": "ofp_features_reply"}, 1, ["c", "1"]], "timed_out": true, "dependent_labels": [], "ignore_whitelisted_packets": true, "dpid": 1, "replay_time": [1390625289, 438097], "label": "i9", "class": "ControlMessageSend", "b64_packet": "AQYAgAAAAAcAAAAAAAAAAQAAAGQBAAAAAAAA7wAAB/8AAQAAAAABAWV0aDEAAAAAAAAAAAAAAAAAAAAAAAAAAAAAAAAAAAAAAAAAAAAAAAAAAgAAAAABAmV0aDIAAAAAAAAAAAAAAAAAAAAAAAAAAAAAAAAAAAAAAAAAAAAAAAA=", "round": 2, "prunable": true}
{"pass_through_sends": false, "timeout_disallowed": false, "time": [1390616566, 394266], "controller_id": "c1", "fingerprint": ["ControlMessageReceive", {"class": "ofp_set_config"}, 1, ["c", "1"]], "timed_out": true, "dependent_labels": [], "ignore_whitelisted_packets": true, "dpid": 1, "replay_time": [1390625290, 84524], "label": "i10", "class": "ControlMessageReceive", "b64_packet": "AQkADAAAAA8AAACA", "round": 3, "prunable": true}
{"pass_through_sends": false, "timeout_disallowed": false, "time": [1390625290, 85358], "controller_id": "c1", "fingerprint": ["ControlMessageReceive", {"in_port": 65535, "data": {"class": "lldp"}, "class": "ofp_packet_out", "actions": ["output(1)"]}, 2, "c1"], "timed_out": false, "dependent_labels": [], "ignore_whitelisted_packets": false, "new_internal_event": true, "dpid": 2, "replay_time": [1390625290, 85386], "label": "i224", "class": "ControlMessageReceive", "b64_packet": "AQ0AQQAAABf///////8ACAAAAAgAAQAAASMgAAABAAAAAAIBiMwCBwdkcGlkOjIEAgIxBgIAeAwGZHBpZDoyAAA=", "round": -1, "prunable": true}
{"pass_through_sends": false, "timeout_disallowed": false, "time": [1390616566, 394905], "controller_id": "c1", "fingerprint": ["ControlMessageReceive", {"class": "ofp_barrier_request"}, 2, ["c", "1"]], "timed_out": true, "dependent_labels": [], "ignore_whitelisted_packets": true, "dpid": 2, "replay_time": [1390625290, 687191], "label": "i11", "class": "ControlMessageReceive", "b64_packet": "ARIACAAAAA0=", "round": 3, "prunable": true}
{"pass_through_sends": false, "timeout_disallowed": false, "time": [1390625290, 688299], "controller_id": "c1", "fingerprint": ["ControlMessageSend", {"data": {"class": "lldp"}, "class": "ofp_packet_in", "in_port": 1}, 1, "c1"], "timed_out": false, "dependent_labels": [], "ignore_whitelisted_packets": false, "new_internal_event": true, "dpid": 1, "replay_time": [1390625290, 688319], "label": "i225", "class": "ControlMessageSend", "b64_packet": "AQoAOwAAAAEAAAABADsAAQEAASMgAAABAAAAAAIBiMwCBwdkcGlkOjIEAgIxBgIAeAwGZHBpZDoyAAA=", "round": -1, "prunable": true}
{"pass_through_sends": false, "timeout_disallowed": false, "time": [1390616566, 395385], "controller_id": "c1", "fingerprint": ["ControlMessageReceive", {"hard_timeout": 0, "actions": [], "priority": 32768, "idle_timeout": 0, "command": "delete", "out_port": 65535, "flags": 0, "class": "ofp_flow_mod", "match": "x^L,in_port:None"}, 1, ["c", "1"]], "timed_out": false, "dependent_labels": [], "ignore_whitelisted_packets": true, "dpid": 1, "replay_time": [1390625290, 690001], "label": "i12", "class": "ControlMessageReceive", "b64_packet": "AQ4ASAAAABEAEAAfAAAAAAAAAAAAAAAAAAAAAAAAAAAAAAAAAAAAAAAAAAAAAAAAAAAAAAAAAAAAAwAAAACAAP///////wAA", "round": 3, "prunable": true}
{"pass_through_sends": false, "timeout_disallowed": false, "time": [1390616566, 395851], "controller_id": "c1", "fingerprint": ["ControlMessageReceive", {"class": "ofp_set_config"}, 2, ["c", "1"]], "timed_out": true, "dependent_labels": [], "ignore_whitelisted_packets": true, "dpid": 2, "replay_time": [1390625291, 335555], "label": "i13", "class": "ControlMessageReceive", "b64_packet": "AQkADAAAAAkAAACA", "round": 3, "prunable": true}
{"pass_through_sends": false, "timeout_disallowed": false, "time": [1390625291, 336145], "controller_id": "c1", "fingerprint": ["ControlMessageReceive", {"in_port": 1, "data": [], "class": "ofp_packet_out", "actions": []}, 1, "c1"], "timed_out": false, "dependent_labels": [], "ignore_whitelisted_packets": false, "new_internal_event": true, "dpid": 1, "replay_time": [1390625291, 336168], "label": "i226", "class": "ControlMessageReceive", "b64_packet": "AQ0AEAAAACMAAAABAAEAAA==", "round": -1, "prunable": true}
{"pass_through_sends": false, "timeout_disallowed": false, "time": [1390625291, 337122], "controller_id": "c1", "fingerprint": ["ControlMessageReceive", {"in_port": 65535, "data": {"class": "lldp"}, "class": "ofp_packet_out", "actions": ["output(2)"]}, 2, "c1"], "timed_out": false, "dependent_labels": [], "ignore_whitelisted_packets": false, "new_internal_event": true, "dpid": 2, "replay_time": [1390625291, 337140], "label": "i227", "class": "ControlMessageReceive", "b64_packet": "AQ0AQQAAABn///////8ACAAAAAgAAgAAASMgAAABAAAAAAICiMwCBwdkcGlkOjIEAgIyBgIAeAwGZHBpZDoyAAA=", "round": -1, "prunable": true}
{"pass_through_sends": false, "timeout_disallowed": false, "time": [1390625291, 337687], "controller_id": "c1", "fingerprint": ["ControlMessageReceive", {"hard_timeout": 0, "actions": [], "priority": 32768, "idle_timeout": 0, "command": "delete", "out_port": 65535, "flags": 0, "class": "ofp_flow_mod", "match": "x^L,in_port:None"}, 2, "c1"], "timed_out": false, "dependent_labels": [], "ignore_whitelisted_packets": false, "new_internal_event": true, "dpid": 2, "replay_time": [1390625291, 337707], "label": "i228", "class": "ControlMessageReceive", "b64_packet": "AQ4ASAAAACEAEAAfAAAAAAAAAAAAAAAAAAAAAAAAAAAAAAAAAAAAAAAAAAAAAAAAAAAAAAAAAAAAAwAAAACAAP///////wAA", "round": -1, "prunable": true}
{"pass_through_sends": false, "timeout_disallowed": false, "time": [1390616566, 396192], "controller_id": "c1", "fingerprint": ["ControlMessageReceive", {"class": "ofp_barrier_request"}, 1, ["c", "1"]], "timed_out": true, "dependent_labels": [], "ignore_whitelisted_packets": true, "dpid": 1, "replay_time": [1390625291, 941464], "label": "i14", "class": "ControlMessageReceive", "b64_packet": "ARIACAAAABM=", "round": 3, "prunable": true}
{"pass_through_sends": false, "timeout_disallowed": false, "time": [1390616566, 396643], "controller_id": "c1", "fingerprint": ["ControlMessageReceive", {"hard_timeout": 0, "actions": [], "priority": 32768, "idle_timeout": 0, "command": "delete", "out_port": 65535, "flags": 0, "class": "ofp_flow_mod", "match": "x^L,in_port:None"}, 2, ["c", "1"]], "timed_out": true, "dependent_labels": [], "ignore_whitelisted_packets": true, "dpid": 2, "replay_time": [1390625292, 586442], "label": "i15", "class": "ControlMessageReceive", "b64_packet": "AQ4ASAAAAAsAEAAfAAAAAAAAAAAAAAAAAAAAAAAAAAAAAAAAAAAAAAAAAAAAAAAAAAAAAAAAAAAAAwAAAACAAP///////wAA", "round": 3, "prunable": true}
{"pass_through_sends": false, "timeout_disallowed": false, "time": [1390625292, 587345], "controller_id": "c1", "fingerprint": ["ControlMessageReceive", {"in_port": 65535, "data": {"class": "lldp"}, "class": "ofp_packet_out", "actions": ["output(1)"]}, 1, "c1"], "timed_out": false, "dependent_labels": [], "ignore_whitelisted_packets": false, "new_internal_event": true, "dpid": 1, "replay_time": [1390625292, 587368], "label": "i229", "class": "ControlMessageReceive", "b64_packet": "AQ0AQQAAAB3///////8ACAAAAAgAAQAAASMgAAABAAAAAAEBiMwCBwdkcGlkOjEEAgIxBgIAeAwGZHBpZDoxAAA=", "round": -1, "prunable": true}
{"pass_through_sends": false, "timeout_disallowed": false, "time": [1390616566, 397090], "controller_id": "c1", "fingerprint": ["ControlMessageSend", {"class": "ofp_barrier_reply"}, 2, ["c", "1"]], "timed_out": true, "dependent_labels": [], "ignore_whitelisted_packets": true, "dpid": 2, "replay_time": [1390625293, 191480], "label": "i16", "class": "ControlMessageSend", "b64_packet": "ARMACAAAAA0=", "round": 3, "prunable": true}
{"pass_through_sends": false, "timeout_disallowed": false, "time": [1390625293, 192364], "controller_id": "c1", "fingerprint": ["ControlMessageSend", {"data": {"class": "lldp"}, "class": "ofp_packet_in", "in_port": 1}, 2, "c1"], "timed_out": false, "dependent_labels": [], "ignore_whitelisted_packets": false, "new_internal_event": true, "dpid": 2, "replay_time": [1390625293, 192385], "label": "i230", "class": "ControlMessageSend", "b64_packet": "AQoAOwAAAAEAAAABADsAAQAAASMgAAABAAAAAAEBiMwCBwdkcGlkOjEEAgIxBgIAeAwGZHBpZDoxAAA=", "round": -1, "prunable": true}
{"pass_through_sends": false, "timeout_disallowed": false, "time": [1390616566, 397290], "controller_id": "c1", "fingerprint": ["ControlMessageSend", {"class": "ofp_barrier_reply"}, 1, ["c", "1"]], "timed_out": true, "dependent_labels": [], "ignore_whitelisted_packets": true, "dpid": 1, "replay_time": [1390625293, 835443], "label": "i17", "class": "ControlMessageSend", "b64_packet": "ARMACAAAABM=", "round": 3, "prunable": true}
{"pass_through_sends": false, "timeout_disallowed": false, "time": [1390625293, 836105], "controller_id": "c1", "fingerprint": ["ControlMessageReceive", {"hard_timeout": 0, "actions": [], "priority": 32768, "idle_timeout": 0, "command": "delete", "out_port": 65535, "flags": 0, "class": "ofp_flow_mod", "match": "x^L,in_port:None"}, 1, "c1"], "timed_out": false, "dependent_labels": [], "ignore_whitelisted_packets": false, "new_internal_event": true, "dpid": 1, "replay_time": [1390625293, 836129], "label": "i231", "class": "ControlMessageReceive", "b64_packet": "AQ4ASAAAACUAEAAfAAAAAAAAAAAAAAAAAAAAAAAAAAAAAAAAAAAAAAAAAAAAAAAAAAAAAAAAAAAAAwAAAACAAP///////wAA", "round": -1, "prunable": true}
{"pass_through_sends": false, "timeout_disallowed": false, "time": [1390625293, 836711], "controller_id": "c1", "fingerprint": ["ControlMessageReceive", {"in_port": 65535, "data": {"class": "lldp"}, "class": "ofp_packet_out", "actions": ["output(2)"]}, 1, "c1"], "timed_out": false, "dependent_labels": [], "ignore_whitelisted_packets": false, "new_internal_event": true, "dpid": 1, "replay_time": [1390625293, 836728], "label": "i232", "class": "ControlMessageReceive", "b64_packet": "AQ0AQQAAAB////////8ACAAAAAgAAgAAASMgAAABAAAAAAECiMwCBwdkcGlkOjEEAgIyBgIAeAwGZHBpZDoxAAA=", "round": -1, "prunable": true}
{"pass_through_sends": false, "timeout_disallowed": false, "time": [1390625293, 836988], "controller_id": "c1", "fingerprint": ["ControlMessageReceive", {"in_port": 1, "data": [], "class": "ofp_packet_out", "actions": []}, 2, "c1"], "timed_out": false, "dependent_labels": [], "ignore_whitelisted_packets": false, "new_internal_event": true, "dpid": 2, "replay_time": [1390625293, 837004], "label": "i233", "class": "ControlMessageReceive", "b64_packet": "AQ0AEAAAACcAAAABAAEAAA==", "round": -1, "prunable": true}
{"pass_through_sends": false, "timeout_disallowed": false, "time": [1390625293, 837323], "controller_id": "c1", "fingerprint": ["ControlMessageReceive", {"hard_timeout": 0, "actions": [], "priority": 32768, "idle_timeout": 0, "command": "delete", "out_port": 65535, "flags": 0, "class": "ofp_flow_mod", "match": "x^L,in_port:None"}, 2, "c1"], "timed_out": false, "dependent_labels": [], "ignore_whitelisted_packets": false, "new_internal_event": true, "dpid": 2, "replay_time": [1390625293, 837342], "label": "i234", "class": "ControlMessageReceive", "b64_packet": "AQ4ASAAAACUAEAAfAAAAAAAAAAAAAAAAAAAAAAAAAAAAAAAAAAAAAAAAAAAAAAAAAAAAAAAAAAAAAwAAAACAAP///////wAA", "round": -1, "prunable": true}
{"pass_through_sends": false, "timeout_disallowed": false, "time": [1390616566, 499238], "controller_id": "c1", "fingerprint": ["ControlMessageReceive", {"hard_timeout": 0, "actions": ["output(65533)"], "priority": 32768, "idle_timeout": 0, "command": "add", "out_port": 65535, "flags": 0, "class": "ofp_flow_mod", "match": "dl_dst:01:23:20:00:00:01,dl_type:35020,in_port:None"}, 2, ["c", "1"]], "timed_out": true, "dependent_labels": [], "ignore_whitelisted_packets": true, "dpid": 2, "replay_time": [1390625294, 439069], "label": "i18", "class": "ControlMessageReceive", "b64_packet": "AQ4AUAAAABUAEAAHAAAAAAAAAAABIyAAAAEAAAAAiMwAAAAAAAAAAAAAAAAAAAAAAAAAAAAAAAAAAAAAAACAAP///////wAAAAAACP/9//8=", "round": 4, "prunable": true}
{"pass_through_sends": false, "timeout_disallowed": false, "time": [1390616566, 500032], "controller_id": "c1", "fingerprint": ["ControlMessageReceive", {"hard_timeout": 0, "actions": ["output(65533)"], "priority": 32768, "idle_timeout": 0, "command": "add", "out_port": 65535, "flags": 0, "class": "ofp_flow_mod", "match": "dl_dst:01:23:20:00:00:01,dl_type:35020,in_port:None"}, 1, ["c", "1"]], "timed_out": true, "dependent_labels": [], "ignore_whitelisted_packets": true, "dpid": 1, "replay_time": [1390625295, 86990], "label": "i19", "class": "ControlMessageReceive", "b64_packet": "AQ4AUAAAABsAEAAHAAAAAAAAAAABIyAAAAEAAAAAiMwAAAAAAAAAAAAAAAAAAAAAAAAAAAAAAAAAAAAAAACAAP///////wAAAAAACP/9//8=", "round": 4, "prunable": true}
{"pass_through_sends": false, "timeout_disallowed": false, "time": [1390625295, 87736], "controller_id": "c1", "fingerprint": ["ControlMessageReceive", {"in_port": 65535, "data": {"class": "lldp"}, "class": "ofp_packet_out", "actions": ["output(1)"]}, 2, "c1"], "timed_out": false, "dependent_labels": [], "ignore_whitelisted_packets": false, "new_internal_event": true, "dpid": 2, "replay_time": [1390625295, 87760], "label": "i235", "class": "ControlMessageReceive", "b64_packet": "AQ0AQQAAABf///////8ACAAAAAgAAQAAASMgAAABAAAAAAIBiMwCBwdkcGlkOjIEAgIxBgIAeAwGZHBpZDoyAAA=", "round": -1, "prunable": true}
{"pass_through_sends": false, "timeout_disallowed": false, "time": [1390616567, 711062], "controller_id": "c1", "fingerprint": ["ControlMessageReceive", {"in_port": 65535, "data": {"class": "lldp"}, "class": "ofp_packet_out", "actions": ["output(1)"]}, 2, ["c", "1"]], "timed_out": false, "dependent_labels": [], "ignore_whitelisted_packets": true, "dpid": 2, "replay_time": [1390625295, 88169], "label": "i20", "class": "ControlMessageReceive", "b64_packet": "AQ0AQQAAABf///////8ACAAAAAgAAQAAASMgAAABAAAAAAIBiMwCBwdkcGlkOjIEAgIxBgIAeAwGZHBpZDoyAAA=", "round": 16, "prunable": true}
{"pass_through_sends": false, "timeout_disallowed": false, "time": [1390625295, 89136], "controller_id": "c1", "fingerprint": ["ControlMessageSend", {"data": {"class": "lldp"}, "class": "ofp_packet_in", "in_port": 1}, 1, "c1"], "timed_out": false, "dependent_labels": [], "ignore_whitelisted_packets": false, "new_internal_event": true, "dpid": 1, "replay_time": [1390625295, 89160], "label": "i236", "class": "ControlMessageSend", "b64_packet": "AQoAOwAAAAIAAAABADsAAQAAASMgAAABAAAAAAIBiMwCBwdkcGlkOjIEAgIxBgIAeAwGZHBpZDoyAAA=", "round": -1, "prunable": true}
{"pass_through_sends": false, "timeout_disallowed": false, "time": [1390616567, 813983], "controller_id": "c1", "fingerprint": ["ControlMessageSend", {"data": {"class": "lldp"}, "class": "ofp_packet_in", "in_port": 1}, 1, ["c", "1"]], "timed_out": false, "dependent_labels": [], "ignore_whitelisted_packets": true, "dpid": 1, "replay_time": [1390625295, 89549], "label": "i22", "class": "ControlMessageSend", "b64_packet": "AQoAOwAAAAEAAAABADsAAQEAASMgAAABAAAAAAIBiMwCBwdkcGlkOjIEAgIxBgIAeAwGZHBpZDoyAAA=", "round": 17, "prunable": true}
{"pass_through_sends": false, "timeout_disallowed": false, "time": [1390616567, 916651], "controller_id": "c1", "fingerprint": ["ControlMessageReceive", {"hard_timeout": 0, "actions": [], "priority": 32768, "idle_timeout": 0, "command": "delete", "out_port": 65535, "flags": 0, "class": "ofp_flow_mod", "match": "x^L,in_port:None"}, 1, ["c", "1"]], "timed_out": true, "dependent_labels": [], "ignore_whitelisted_packets": true, "dpid": 1, "replay_time": [1390625295, 693194], "label": "i23", "class": "ControlMessageReceive", "b64_packet": "AQ4ASAAAACEAEAAfAAAAAAAAAAAAAAAAAAAAAAAAAAAAAAAAAAAAAAAAAAAAAAAAAAAAAAAAAAAAAwAAAACAAP///////wAA", "round": 18, "prunable": true}
{"pass_through_sends": false, "timeout_disallowed": false, "time": [1390625295, 693894], "controller_id": "c1", "fingerprint": ["ControlMessageReceive", {"in_port": 1, "data": [], "class": "ofp_packet_out", "actions": []}, 1, "c1"], "timed_out": false, "dependent_labels": [], "ignore_whitelisted_packets": false, "new_internal_event": true, "dpid": 1, "replay_time": [1390625295, 693917], "label": "i237", "class": "ControlMessageReceive", "b64_packet": "AQ0AEAAAACkAAAABAAEAAA==", "round": -1, "prunable": true}
{"pass_through_sends": false, "timeout_disallowed": false, "time": [1390616567, 917471], "controller_id": "c1", "fingerprint": ["ControlMessageReceive", {"in_port": 1, "data": [], "class": "ofp_packet_out", "actions": []}, 1, ["c", "1"]], "timed_out": false, "dependent_labels": [], "ignore_whitelisted_packets": true, "dpid": 1, "replay_time": [1390625295, 694226], "label": "i24", "class": "ControlMessageReceive", "b64_packet": "AQ0AEAAAACMAAAABAAEAAA==", "round": 18, "prunable": true}
{"pass_through_sends": false, "timeout_disallowed": false, "time": [1390616567, 918676], "controller_id": "c1", "fingerprint": ["ControlMessageReceive", {"hard_timeout": 0, "actions": [], "priority": 32768, "idle_timeout": 0, "command": "delete", "out_port": 65535, "flags": 0, "class": "ofp_flow_mod", "match": "x^L,in_port:None"}, 2, ["c", "1"]], "timed_out": true, "dependent_labels": [], "ignore_whitelisted_packets": true, "dpid": 2, "replay_time": [1390625296, 338235], "label": "i25", "class": "ControlMessageReceive", "b64_packet": "AQ4ASAAAACEAEAAfAAAAAAAAAAAAAAAAAAAAAAAAAAAAAAAAAAAAAAAAAAAAAAAAAAAAAAAAAAAAAwAAAACAAP///////wAA", "round": 18, "prunable": true}
{"pass_through_sends": false, "timeout_disallowed": false, "time": [1390625296, 339180], "controller_id": "c1", "fingerprint": ["ControlMessageReceive", {"in_port": 65535, "data": {"class": "lldp"}, "class": "ofp_packet_out", "actions": ["output(2)"]}, 2, "c1"], "timed_out": false, "dependent_labels": [], "ignore_whitelisted_packets": false, "new_internal_event": true, "dpid": 2, "replay_time": [1390625296, 339200], "label": "i238", "class": "ControlMessageReceive", "b64_packet": "AQ0AQQAAABn///////8ACAAAAAgAAgAAASMgAAABAAAAAAICiMwCBwdkcGlkOjIEAgIyBgIAeAwGZHBpZDoyAAA=", "round": -1, "prunable": true}
{"pass_through_sends": false, "timeout_disallowed": false, "time": [1390616568, 929373], "controller_id": "c1", "fingerprint": ["ControlMessageReceive", {"in_port": 65535, "data": {"class": "lldp"}, "class": "ofp_packet_out", "actions": ["output(2)"]}, 2, ["c", "1"]], "timed_out": false, "dependent_labels": [], "ignore_whitelisted_packets": true, "dpid": 2, "replay_time": [1390625296, 339493], "label": "i26", "class": "ControlMessageReceive", "b64_packet": "AQ0AQQAAABn///////8ACAAAAAgAAgAAASMgAAABAAAAAAICiMwCBwdkcGlkOjIEAgIyBgIAeAwGZHBpZDoyAAA=", "round": 28, "prunable": true}
{"pass_through_sends": false, "timeout_disallowed": false, "time": [1390616570, 246109], "controller_id": "c1", "fingerprint": ["ControlMessageReceive", {"in_port": 65535, "data": {"class": "lldp"}, "class": "ofp_packet_out", "actions": ["output(1)"]}, 1, ["c", "1"]], "timed_out": false, "dependent_labels": [], "ignore_whitelisted_packets": true, "dpid": 1, "replay_time": [1390625296, 340039], "label": "i28", "class": "ControlMessageReceive", "b64_packet": "AQ0AQQAAAB3///////8ACAAAAAgAAQAAASMgAAABAAAAAAEBiMwCBwdkcGlkOjEEAgIxBgIAeAwGZHBpZDoxAAA=", "round": 41, "prunable": true}
{"pass_through_sends": false, "timeout_disallowed": false, "time": [1390616570, 348531], "controller_id": "c1", "fingerprint": ["ControlMessageSend", {"data": {"class": "lldp"}, "class": "ofp_packet_in", "in_port": 1}, 2, ["c", "1"]], "timed_out": false, "dependent_labels": [], "ignore_whitelisted_packets": true, "dpid": 2, "replay_time": [1390625296, 340350], "label": "i30", "class": "ControlMessageSend", "b64_packet": "AQoAOwAAAAEAAAABADsAAQAAASMgAAABAAAAAAEBiMwCBwdkcGlkOjEEAgIxBgIAeAwGZHBpZDoxAAA=", "round": 42, "prunable": true}
{"pass_through_sends": false, "timeout_disallowed": false, "time": [1390616570, 450460], "controller_id": "c1", "fingerprint": ["ControlMessageReceive", {"in_port": 1, "data": [], "class": "ofp_packet_out", "actions": []}, 2, ["c", "1"]], "timed_out": false, "dependent_labels": [], "ignore_whitelisted_packets": true, "dpid": 2, "replay_time": [1390625296, 340624], "label": "i31", "class": "ControlMessageReceive", "b64_packet": "AQ0AEAAAACcAAAABAAEAAA==", "round": 43, "prunable": true}
{"pass_through_sends": false, "timeout_disallowed": false, "time": [1390616570, 451037], "controller_id": "c1", "fingerprint": ["ControlMessageReceive", {"hard_timeout": 0, "actions": [], "priority": 32768, "idle_timeout": 0, "command": "delete", "out_port": 65535, "flags": 0, "class": "ofp_flow_mod", "match": "x^L,in_port:None"}, 1, ["c", "1"]], "timed_out": true, "dependent_labels": [], "ignore_whitelisted_packets": true, "dpid": 1, "replay_time": [1390625296, 941735], "label": "i32", "class": "ControlMessageReceive", "b64_packet": "AQ4ASAAAACUAEAAfAAAAAAAAAAAAAAAAAAAAAAAAAAAAAAAAAAAAAAAAAAAAAAAAAAAAAAAAAAAAAwAAAACAAP///////wAA", "round": 43, "prunable": true}
{"pass_through_sends": false, "timeout_disallowed": false, "time": [1390616570, 451695], "controller_id": "c1", "fingerprint": ["ControlMessageReceive", {"hard_timeout": 0, "actions": [], "priority": 32768, "idle_timeout": 0, "command": "delete", "out_port": 65535, "flags": 0, "class": "ofp_flow_mod", "match": "x^L,in_port:None"}, 2, ["c", "1"]], "timed_out": true, "dependent_labels": [], "ignore_whitelisted_packets": true, "dpid": 2, "replay_time": [1390625297, 591030], "label": "i33", "class": "ControlMessageReceive", "b64_packet": "AQ4ASAAAACUAEAAfAAAAAAAAAAAAAAAAAAAAAAAAAAAAAAAAAAAAAAAAAAAAAAAAAAAAAAAAAAAAAwAAAACAAP///////wAA", "round": 43, "prunable": true}
{"pass_through_sends": false, "timeout_disallowed": false, "time": [1390625297, 592086], "controller_id": "c1", "fingerprint": ["ControlMessageReceive", {"in_port": 65535, "data": {"class": "lldp"}, "class": "ofp_packet_out", "actions": ["output(1)"]}, 1, "c1"], "timed_out": false, "dependent_labels": [], "ignore_whitelisted_packets": false, "new_internal_event": true, "dpid": 1, "replay_time": [1390625297, 592118], "label": "i239", "class": "ControlMessageReceive", "b64_packet": "AQ0AQQAAAB3///////8ACAAAAAgAAQAAASMgAAABAAAAAAEBiMwCBwdkcGlkOjEEAgIxBgIAeAwGZHBpZDoxAAA=", "round": -1, "prunable": true}
{"dependent_labels": [], "class": "TrafficInjection", "fingerprint": ["TrafficInjection", {"interface": {"hw_addr": "12:34:56:78:01:02", "ips": ["10.1.2.2"], "name": "eth1"}, "packet": "EjRWeAECEjRWeAECCABFAABIH/YAAEABQroKAQICCgECAgAADjdQaW5nUGluZ1BpbmdQaW5nUGluZ1BpbmdQaW5nUGluZ1BpbmdQaW5nUGluZ1Bpbmc="}, 1], "timed_out": false, "label": "e34", "dp_event": {"interface": {"hw_addr": "12:34:56:78:01:02", "ips": ["10.1.2.2"], "name": "eth1"}, "packet": "EjRWeAECEjRWeAECCABFAABIH/YAAEABQroKAQICCgECAgAADjdQaW5nUGluZ1BpbmdQaW5nUGluZ1BpbmdQaW5nUGluZ1BpbmdQaW5nUGluZ1Bpbmc="}, "time": [1390616571, 262048], "replay_time": [1390625298, 403218], "host_id": 1, "round": 51, "prunable": true}
{"pass_through_sends": false, "timeout_disallowed": false, "time": [1390625298, 405348], "controller_id": "c1", "fingerprint": ["ControlMessageReceive", {"in_port": 65535, "data": {"class": "lldp"}, "class": "ofp_packet_out", "actions": ["output(2)"]}, 1, "c1"], "timed_out": false, "dependent_labels": [], "ignore_whitelisted_packets": false, "new_internal_event": true, "dpid": 1, "replay_time": [1390625298, 405378], "label": "i240", "class": "ControlMessageReceive", "b64_packet": "AQ0AQQAAAB////////8ACAAAAAgAAgAAASMgAAABAAAAAAECiMwCBwdkcGlkOjEEAgIyBgIAeAwGZHBpZDoxAAA=", "round": -1, "prunable": true}
{"pass_through_sends": false, "timeout_disallowed": false, "time": [1390625298, 405833], "controller_id": "c1", "fingerprint": ["ControlMessageSend", {"data": {"class": "lldp"}, "class": "ofp_packet_in", "in_port": 1}, 2, "c1"], "timed_out": false, "dependent_labels": [], "ignore_whitelisted_packets": false, "new_internal_event": true, "dpid": 2, "replay_time": [1390625298, 405870], "label": "i241", "class": "ControlMessageSend", "b64_packet": "AQoAOwAAAAIAAAABADsAAQAAASMgAAABAAAAAAEBiMwCBwdkcGlkOjEEAgIxBgIAeAwGZHBpZDoxAAA=", "round": -1, "prunable": true}
{"pass_through_sends": false, "timeout_disallowed": false, "time": [1390625298, 406115], "controller_id": "c1", "fingerprint": ["ControlMessageSend", {"data": {"dl_dst": "12:34:56:78:01:02", "nw_src": "10.1.2.2", "dl_src": "12:34:56:78:01:02", "nw_dst": "10.1.2.2"}, "class": "ofp_packet_in", "in_port": 2}, 1, "c1"], "timed_out": false, "dependent_labels": [], "ignore_whitelisted_packets": false, "new_internal_event": true, "dpid": 1, "replay_time": [1390625298, 406132], "label": "i242", "class": "ControlMessageSend", "b64_packet": "AQoAaAAAAAMAAAABAGgAAgAAEjRWeAECEjRWeAECCABFAABIH/YAAEABQroKAQICCgECAgAADjdQaW5nUGluZ1BpbmdQaW5nUGluZ1BpbmdQaW5nUGluZ1BpbmdQaW5nUGluZ1Bpbmc=", "round": -1, "prunable": true}
{"dependent_labels": [], "class": "TrafficInjection", "fingerprint": ["TrafficInjection", {"interface": {"hw_addr": "12:34:56:78:02:02", "ips": ["10.2.2.2"], "name": "eth2"}, "packet": "EjRWeAICEjRWeAICCABFAABIH/cAAEABQrcKAgICCgICAggABjdQaW5nUGluZ1BpbmdQaW5nUGluZ1BpbmdQaW5nUGluZ1BpbmdQaW5nUGluZ1Bpbmc="}, 2], "timed_out": false, "label": "e35", "dp_event": {"interface": {"hw_addr": "12:34:56:78:02:02", "ips": ["10.2.2.2"], "name": "eth2"}, "packet": "EjRWeAICEjRWeAICCABFAABIH/cAAEABQrcKAgICCgICAggABjdQaW5nUGluZ1BpbmdQaW5nUGluZ1BpbmdQaW5nUGluZ1BpbmdQaW5nUGluZ1Bpbmc="}, "time": [1390616571, 262748], "replay_time": [1390625298, 406690], "host_id": 2, "round": 51, "prunable": true}
{"pass_through_sends": false, "timeout_disallowed": false, "time": [1390625298, 407567], "controller_id": "c1", "fingerprint": ["ControlMessageSend", {"data": {"dl_dst": "12:34:56:78:02:02", "nw_src": "10.2.2.2", "dl_src": "12:34:56:78:02:02", "nw_dst": "10.2.2.2"}, "class": "ofp_packet_in", "in_port": 2}, 2, "c1"], "timed_out": false, "dependent_labels": [], "ignore_whitelisted_packets": false, "new_internal_event": true, "dpid": 2, "replay_time": [1390625298, 407584], "label": "i243", "class": "ControlMessageSend", "b64_packet": "AQoAaAAAAAMAAAACAGgAAgAAEjRWeAICEjRWeAICCABFAABIH/cAAEABQrcKAgICCgICAggABjdQaW5nUGluZ1BpbmdQaW5nUGluZ1BpbmdQaW5nUGluZ1BpbmdQaW5nUGluZ1Bpbmc=", "round": -1, "prunable": true}
{"pass_through_sends": false, "timeout_disallowed": false, "time": [1390616571, 366388], "controller_id": "c1", "fingerprint": ["ControlMessageSend", {"data": {"dl_dst": "12:34:56:78:02:02", "nw_src": "10.2.2.2", "dl_src": "12:34:56:78:02:02", "nw_dst": "10.2.2.2"}, "class": "ofp_packet_in", "in_port": 2}, 2, ["c", "1"]], "timed_out": true, "dependent_labels": [], "ignore_whitelisted_packets": true, "dpid": 2, "replay_time": [1390625299, 12304], "label": "i39", "class": "ControlMessageSend", "b64_packet": "AQoAaAAAAAIAAAABAGgAAgAAEjRWeAICEjRWeAICCABFAABIH/cAAEABQrcKAgICCgICAggABjdQaW5nUGluZ1BpbmdQaW5nUGluZ1BpbmdQaW5nUGluZ1BpbmdQaW5nUGluZ1Bpbmc=", "round": 52, "prunable": true}
{"pass_through_sends": false, "timeout_disallowed": false, "time": [1390625299, 13274], "controller_id": "c1", "fingerprint": ["ControlMessageReceive", {"hard_timeout": 30, "actions": ["output(2)"], "priority": 32768, "idle_timeout": 10, "command": "add", "out_port": 65535, "flags": 0, "class": "ofp_flow_mod", "match": "dl_src:12:34:56:78:01:02,dl_dst:12:34:56:78:01:02,dl_vlan:65535,dl_vlan_pcp:0,dl_type:2048,nw_tos:0,nw_proto:1,nw_src:10.1.2.2/32,nw_dst:10.1.2.2/32,tp_src:0,tp_dst:0,in_port:None"}, 1, "c1"], "timed_out": false, "dependent_labels": [], "ignore_whitelisted_packets": false, "new_internal_event": true, "dpid": 1, "replay_time": [1390625299, 13296], "label": "i244", "class": "ControlMessageReceive", "b64_packet": "AQ4AUAAAAC8AAAABAAASNFZ4AQISNFZ4AQL//wAACAAAAQAACgECAgoBAgIAAAAAAAAAAAAAAAAAAAAKAB6AAAAAAAH//wAAAAAACAACAAA=", "round": -1, "prunable": true}
{"pass_through_sends": false, "timeout_disallowed": false, "time": [1390625299, 13649], "controller_id": "c1", "fingerprint": ["ControlMessageReceive", {"in_port": 1, "data": [], "class": "ofp_packet_out", "actions": []}, 2, "c1"], "timed_out": false, "dependent_labels": [], "ignore_whitelisted_packets": false, "new_internal_event": true, "dpid": 2, "replay_time": [1390625299, 13665], "label": "i245", "class": "ControlMessageReceive", "b64_packet": "AQ0AEAAAACsAAAABAAEAAA==", "round": -1, "prunable": true}
{"pass_through_sends": false, "timeout_disallowed": false, "time": [1390625299, 14183], "controller_id": "c1", "fingerprint": ["ControlMessageReceive", {"hard_timeout": 30, "actions": ["output(2)"], "priority": 32768, "idle_timeout": 10, "command": "add", "out_port": 65535, "flags": 0, "class": "ofp_flow_mod", "match": "dl_src:12:34:56:78:02:02,dl_dst:12:34:56:78:02:02,dl_vlan:65535,dl_vlan_pcp:0,dl_type:2048,nw_tos:0,nw_proto:1,nw_src:10.2.2.2/32,nw_dst:10.2.2.2/32,tp_src:8,tp_dst:0,in_port:None"}, 2, "c1"], "timed_out": false, "dependent_labels": [], "ignore_whitelisted_packets": false, "new_internal_event": true, "dpid": 2, "replay_time": [1390625299, 14203], "label": "i246", "class": "ControlMessageReceive", "b64_packet": "AQ4AUAAAAC0AAAABAAASNFZ4AgISNFZ4AgL//wAACAAAAQAACgICAgoCAgIACAAAAAAAAAAAAAAAAAAKAB6AAAAAAAL//wAAAAAACAACAAA=", "round": -1, "prunable": true}
{"legacy_invariant_check": false, "class": "CheckInvariants", "fingerprint": "N/A", "timed_out": false, "label": "e40", "dependent_labels": [], "invariant_name": "check_for_flow_entry", "invariant_check_name": "check_for_flow_entry", "time": [1390616571, 366854], "replay_time": [1390625299, 14698], "invariant_check": null, "round": 52, "prunable": true}
{"pass_through_sends": false, "timeout_disallowed": false, "time": [1390616571, 470514], "controller_id": "c1", "fingerprint": ["ControlMessageReceive", {"hard_timeout": 30, "actions": ["output(2)"], "priority": 32768, "idle_timeout": 10, "command": "add", "out_port": 65535, "flags": 0, "class": "ofp_flow_mod", "match": "dl_src:12:34:56:78:02:02,dl_dst:12:34:56:78:02:02,dl_vlan:65535,dl_vlan_pcp:0,dl_type:2048,nw_tos:0,nw_proto:1,nw_src:10.2.2.2/32,nw_dst:10.2.2.2/32,tp_src:8,tp_dst:0,in_port:None"}, 2, ["c", "1"]], "timed_out": true, "dependent_labels": [], "ignore_whitelisted_packets": true, "dpid": 2, "replay_time": [1390625299, 693381], "label": "i43", "class": "ControlMessageReceive", "b64_packet": "AQ4AUAAAACkAAAABAAASNFZ4AgISNFZ4AgL//wAACAAAAQAACgICAgoCAgIACAAAAAAAAAAAAAAAAAAKAB6AAAAAAAH//wAAAAAACAACAAA=", "round": 53, "prunable": true}
{"pass_through_sends": false, "timeout_disallowed": false, "time": [1390625299, 694011], "controller_id": "c1", "fingerprint": ["ControlMessageReceive", {"in_port": 65535, "data": {"class": "lldp"}, "class": "ofp_packet_out", "actions": ["output(1)"]}, 2, "c1"], "timed_out": false, "dependent_labels": [], "ignore_whitelisted_packets": false, "new_internal_event": true, "dpid": 2, "replay_time": [1390625299, 694027], "label": "i247", "class": "ControlMessageReceive", "b64_packet": "AQ0AQQAAABf///////8ACAAAAAgAAQAAASMgAAABAAAAAAIBiMwCBwdkcGlkOjIEAgIxBgIAeAwGZHBpZDoyAAA=", "round": -1, "prunable": true}
{"legacy_invariant_check": false, "class": "CheckInvariants", "fingerprint": "N/A", "timed_out": false, "label": "e44", "dependent_labels": [], "invariant_name": "check_for_flow_entry", "invariant_check_name": "check_for_flow_entry", "time": [1390616571, 471052], "replay_time": [1390625299, 694295], "invariant_check": null, "round": 53, "prunable": true}
{"pass_through_sends": false, "timeout_disallowed": false, "time": [1390625299, 694740], "controller_id": "c1", "fingerprint": ["ControlMessageSend", {"data": {"class": "lldp"}, "class": "ofp_packet_in", "in_port": 1}, 1, "c1"], "timed_out": false, "dependent_labels": [], "ignore_whitelisted_packets": false, "new_internal_event": true, "dpid": 1, "replay_time": [1390625299, 694756], "label": "i248", "class": "ControlMessageSend", "b64_packet": "AQoAOwAAAAQAAAABADsAAQAAASMgAAABAAAAAAIBiMwCBwdkcGlkOjIEAgIxBgIAeAwGZHBpZDoyAAA=", "round": -1, "prunable": true}
{"legacy_invariant_check": false, "class": "CheckInvariants", "fingerprint": "N/A", "timed_out": false, "label": "e46", "dependent_labels": [], "invariant_name": "check_for_flow_entry", "invariant_check_name": "check_for_flow_entry", "time": [1390616571, 572881], "replay_time": [1390625299, 796527], "invariant_check": null, "round": 54, "prunable": true}
{"pass_through_sends": false, "timeout_disallowed": false, "time": [1390625299, 796871], "controller_id": "c1", "fingerprint": ["ControlMessageReceive", {"in_port": 1, "data": [], "class": "ofp_packet_out", "actions": []}, 1, "c1"], "timed_out": false, "dependent_labels": [], "ignore_whitelisted_packets": false, "new_internal_event": true, "dpid": 1, "replay_time": [1390625299, 796897], "label": "i249", "class": "ControlMessageReceive", "b64_packet": "AQ0AEAAAADEAAAABAAEAAA==", "round": -1, "prunable": true}
{"legacy_invariant_check": false, "class": "CheckInvariants", "fingerprint": "N/A", "timed_out": false, "label": "e47", "dependent_labels": [], "invariant_name": "check_for_flow_entry", "invariant_check_name": "check_for_flow_entry", "time": [1390616571, 674423], "replay_time": [1390625299, 899554], "invariant_check": null, "round": 55, "prunable": true}
{"legacy_invariant_check": false, "class": "CheckInvariants", "fingerprint": "N/A", "timed_out": false, "label": "e48", "dependent_labels": [], "invariant_name": "check_for_flow_entry", "invariant_check_name": "check_for_flow_entry", "time": [1390616571, 775910], "replay_time": [1390625300, 2404], "invariant_check": null, "round": 56, "prunable": true}
{"legacy_invariant_check": false, "class": "CheckInvariants", "fingerprint": "N/A", "timed_out": false, "label": "e49", "dependent_labels": [], "invariant_name": "check_for_flow_entry", "invariant_check_name": "check_for_flow_entry", "time": [1390616571, 877544], "replay_time": [1390625300, 105682], "invariant_check": null, "round": 57, "prunable": true}
{"legacy_invariant_check": false, "class": "CheckInvariants", "fingerprint": "N/A", "timed_out": false, "label": "e50", "dependent_labels": [], "invariant_name": "check_for_flow_entry", "invariant_check_name": "check_for_flow_entry", "time": [1390616571, 979098], "replay_time": [1390625300, 207979], "invariant_check": null, "round": 58, "prunable": true}
{"legacy_invariant_check": false, "class": "CheckInvariants", "fingerprint": "N/A", "timed_out": false, "label": "e51", "dependent_labels": [], "invariant_name": "check_for_flow_entry", "invariant_check_name": "check_for_flow_entry", "time": [1390616572, 80766], "replay_time": [1390625300, 310491], "invariant_check": null, "round": 59, "prunable": true}
{"legacy_invariant_check": false, "class": "CheckInvariants", "fingerprint": "N/A", "timed_out": false, "label": "e52", "dependent_labels": [], "invariant_name": "check_for_flow_entry", "invariant_check_name": "check_for_flow_entry", "time": [1390616572, 182629], "replay_time": [1390625300, 412770], "invariant_check": null, "round": 60, "prunable": true}
{"legacy_invariant_check": false, "class": "CheckInvariants", "fingerprint": "N/A", "timed_out": false, "label": "e53", "dependent_labels": [], "invariant_name": "check_for_flow_entry", "invariant_check_name": "check_for_flow_entry", "time": [1390616572, 284393], "replay_time": [1390625300, 516015], "invariant_check": null, "round": 61, "prunable": true}
{"legacy_invariant_check": false, "class": "CheckInvariants", "fingerprint": "N/A", "timed_out": false, "label": "e54", "dependent_labels": [], "invariant_name": "check_for_flow_entry", "invariant_check_name": "check_for_flow_entry", "time": [1390616572, 385726], "replay_time": [1390625300, 618142], "invariant_check": null, "round": 62, "prunable": true}
{"legacy_invariant_check": false, "class": "CheckInvariants", "fingerprint": "N/A", "timed_out": false, "label": "e55", "dependent_labels": [], "invariant_name": "check_for_flow_entry", "invariant_check_name": "check_for_flow_entry", "time": [1390616572, 487531], "replay_time": [1390625300, 721156], "invariant_check": null, "round": 63, "prunable": true}
{"wait_time": 1.0, "dependent_labels": [], "fingerprint": ["WaitTime"], "time": [1390616572, 487531], "class": "WaitTime", "prunable": true, "timed_out": false, "round": -1, "label": "e250"}
