{"name": null, "timeout_disallowed": false, "fingerprint": ["ControllerStateChange", "%s going up...", "c1"], "controller_id": "c1", "value": ["('POX 0.0.0',)"], "timed_out": false, "dependent_labels": [], "time": [1371419269, 560307], "label": "i1", "class": "ControllerStateChange", "round": -1, "prunable": true}
{"name": null, "timeout_disallowed": false, "fingerprint": ["ControllerStateChange", "Running on %s", "c1"], "controller_id": "c1", "value": ["('CPython (2.7.3/Apr 12 2012 11:28:34)',)"], "timed_out": false, "dependent_labels": [], "time": [1371419269, 561561], "label": "i2", "class": "ControllerStateChange", "round": -1, "prunable": true}
{"name": null, "timeout_disallowed": false, "fingerprint": ["ControllerStateChange", "%s is up.", "c1"], "controller_id": "c1", "value": ["('POX 0.0.0',)"], "timed_out": false, "dependent_labels": [], "time": [1371419269, 562729], "label": "i3", "class": "ControllerStateChange", "round": -1, "prunable": true}
{"name": null, "timeout_disallowed": false, "fingerprint": ["ControllerStateChange", "Listening for connections on ('127.0.0.1', 6633)", "c1"], "controller_id": "c1", "value": ["()"], "timed_out": false, "dependent_labels": [], "time": [1371419269, 565196], "label": "i4", "class": "ControllerStateChange", "round": -1, "prunable": true}
{"dependent_labels": [], "fingerprint": ["ConnectToControllers"], "time": [1371419269, 567188], "timeout_disallowed": false, "prunable": true, "class": "ConnectToControllers", "timed_out": false, "round": -1, "label": "i5"}
{"fingerprint": ["ControlMessageReceive", {"class": "ofp_hello"}, 1, ["c", "1"]], "timeout_disallowed": false, "time": [1371419269, 569281], "controller_id": "c1", "timed_out": false, "dependent_labels": [], "dpid": 1, "label": "i6", "class": "ControlMessageReceive", "round": -1, "prunable": true}
{"fingerprint": ["ControlMessageSend", {"class": "ofp_hello"}, 1, ["c", "1"]], "timeout_disallowed": false, "time": [1371419269, 569711], "controller_id": "c1", "timed_out": false, "dependent_labels": [], "dpid": 1, "label": "i7", "class": "ControlMessageSend", "round": -1, "prunable": true}
{"fingerprint": ["ControlMessageReceive", {"class": "ofp_hello"}, 2, ["c", "1"]], "timeout_disallowed": false, "time": [1371419269, 572132], "controller_id": "c1", "timed_out": false, "dependent_labels": [], "dpid": 2, "label": "i8", "class": "ControlMessageReceive", "round": -1, "prunable": true}
{"fingerprint": ["ControlMessageReceive", {"class": "ofp_features_request"}, 1, ["c", "1"]], "timeout_disallowed": false, "time": [1371419269, 572577], "controller_id": "c1", "timed_out": false, "dependent_labels": [], "dpid": 1, "label": "i9", "class": "ControlMessageReceive", "round": -1, "prunable": true}
{"fingerprint": ["ControlMessageSend", {"class": "ofp_hello"}, 2, ["c", "1"]], "timeout_disallowed": false, "time": [1371419269, 572901], "controller_id": "c1", "timed_out": false, "dependent_labels": [], "dpid": 2, "label": "i10", "class": "ControlMessageSend", "round": -1, "prunable": true}
{"fingerprint": ["ControlMessageSend", {"datapath_id": 1, "class": "ofp_features_reply"}, 1, ["c", "1"]], "timeout_disallowed": false, "time": [1371419269, 573264], "controller_id": "c1", "timed_out": false, "dependent_labels": [], "dpid": 1, "label": "i11", "class": "ControlMessageSend", "round": -1, "prunable": true}
{"fingerprint": ["ControlMessageReceive", {"class": "ofp_features_request"}, 2, ["c", "1"]], "timeout_disallowed": false, "time": [1371419269, 575503], "controller_id": "c1", "timed_out": false, "dependent_labels": [], "dpid": 2, "label": "i12", "class": "ControlMessageReceive", "round": -1, "prunable": true}
{"fingerprint": ["ControlMessageReceive", {"class": "ofp_set_config"}, 1, ["c", "1"]], "timeout_disallowed": false, "time": [1371419269, 576279], "controller_id": "c1", "timed_out": false, "dependent_labels": [], "dpid": 1, "label": "i13", "class": "ControlMessageReceive", "round": -1, "prunable": true}
{"fingerprint": ["ControlMessageReceive", {"class": "ofp_barrier_request"}, 1, ["c", "1"]], "timeout_disallowed": false, "time": [1371419269, 577250], "controller_id": "c1", "timed_out": false, "dependent_labels": [], "dpid": 1, "label": "i14", "class": "ControlMessageReceive", "round": -1, "prunable": true}
{"fingerprint": ["ControlMessageReceive", {"hard_timeout": 0, "actions": [], "priority": 32768, "idle_timeout": 0, "command": "delete", "out_port": 65535, "flags": 0, "class": "ofp_flow_mod", "match": "x^L"}, 1, ["c", "1"]], "timeout_disallowed": false, "time": [1371419269, 577774], "controller_id": "c1", "timed_out": false, "dependent_labels": [], "dpid": 1, "label": "i15", "class": "ControlMessageReceive", "round": -1, "prunable": true}
{"fingerprint": ["ControlMessageSend", {"datapath_id": 2, "class": "ofp_features_reply"}, 2, ["c", "1"]], "timeout_disallowed": false, "time": [1371419269, 578433], "controller_id": "c1", "timed_out": false, "dependent_labels": [], "dpid": 2, "label": "i16", "class": "ControlMessageSend", "round": -1, "prunable": true}
{"fingerprint": ["ControlMessageSend", {"class": "ofp_barrier_reply"}, 1, ["c", "1"]], "timeout_disallowed": false, "time": [1371419269, 578773], "controller_id": "c1", "timed_out": false, "dependent_labels": [], "dpid": 1, "label": "i17", "class": "ControlMessageSend", "round": -1, "prunable": true}
{"name": null, "timeout_disallowed": false, "fingerprint": ["ControllerStateChange", "of_01 %s Connected to %s", "c1"], "controller_id": "c1", "value": ["('[Con 1/1]', '00-00-00-00-00-01')"], "timed_out": false, "dependent_labels": [], "time": [1371419269, 584150], "label": "i18", "class": "ControllerStateChange", "round": -1, "prunable": true}
{"name": null, "timeout_disallowed": false, "fingerprint": ["ControllerStateChange", "Connect %s", "c1"], "controller_id": "c1", "value": ["(<pox.openflow.of_01.Connection object at 0x10afe50>,)"], "timed_out": false, "dependent_labels": [], "time": [1371419269, 586710], "label": "i19", "class": "ControllerStateChange", "round": -1, "prunable": true}
{"name": null, "timeout_disallowed": false, "fingerprint": ["ControllerStateChange", "Installing flow for %s", "c1"], "controller_id": "c1", "value": ["('00-00-00-00-00-01',)"], "timed_out": false, "dependent_labels": [], "time": [1371419269, 588760], "label": "i20", "class": "ControllerStateChange", "round": -1, "prunable": true}
{"fingerprint": ["ControlMessageReceive", {"hard_timeout": 0, "actions": ["output(65533)"], "priority": 32768, "idle_timeout": 0, "command": "add", "out_port": 65535, "flags": 0, "class": "ofp_flow_mod", "match": "dl_dst:01:23:20:00:00:01,dl_type:35020"}, 1, ["c", "1"]], "timeout_disallowed": false, "time": [1371419269, 589311], "controller_id": "c1", "timed_out": false, "dependent_labels": [], "dpid": 1, "label": "i21", "class": "ControlMessageReceive", "round": -1, "prunable": true}
{"fingerprint": ["ControlMessageReceive", {"hard_timeout": 0, "actions": [], "priority": 32768, "idle_timeout": 0, "command": "delete", "out_port": 65535, "flags": 0, "class": "ofp_flow_mod", "match": "x^L"}, 2, ["c", "1"]], "timeout_disallowed": false, "time": [1371419269, 590073], "controller_id": "c1", "timed_out": false, "dependent_labels": [], "dpid": 2, "label": "i22", "class": "ControlMessageReceive", "round": -1, "prunable": true}
{"fingerprint": ["ControlMessageReceive", {"class": "ofp_set_config"}, 2, ["c", "1"]], "timeout_disallowed": false, "time": [1371419269, 590647], "controller_id": "c1", "timed_out": false, "dependent_labels": [], "dpid": 2, "label": "i23", "class": "ControlMessageReceive", "round": -1, "prunable": true}
{"fingerprint": ["ControlMessageReceive", {"class": "ofp_barrier_request"}, 2, ["c", "1"]], "timeout_disallowed": false, "time": [1371419269, 590999], "controller_id": "c1", "timed_out": false, "dependent_labels": [], "dpid": 2, "label": "i24", "class": "ControlMessageReceive", "round": -1, "prunable": true}
{"fingerprint": ["ControlMessageSend", {"class": "ofp_barrier_reply"}, 2, ["c", "1"]], "timeout_disallowed": false, "time": [1371419269, 591300], "controller_id": "c1", "timed_out": false, "dependent_labels": [], "dpid": 2, "label": "i25", "class": "ControlMessageSend", "round": -1, "prunable": true}
{"name": null, "timeout_disallowed": false, "fingerprint": ["ControllerStateChange", "of_01 %s Connected to %s", "c1"], "controller_id": "c1", "value": ["('[Con 2/2]', '00-00-00-00-00-02')"], "timed_out": false, "dependent_labels": [], "time": [1371419269, 609352], "label": "i26", "class": "ControllerStateChange", "round": -1, "prunable": true}
{"name": null, "timeout_disallowed": false, "fingerprint": ["ControllerStateChange", "Connect %s", "c1"], "controller_id": "c1", "value": ["(<pox.openflow.of_01.Connection object at 0x10afe90>,)"], "timed_out": false, "dependent_labels": [], "time": [1371419269, 611763], "label": "i27", "class": "ControllerStateChange", "round": -1, "prunable": true}
{"name": null, "timeout_disallowed": false, "fingerprint": ["ControllerStateChange", "Installing flow for %s", "c1"], "controller_id": "c1", "value": ["('00-00-00-00-00-02',)"], "timed_out": false, "dependent_labels": [], "time": [1371419269, 614385], "label": "i28", "class": "ControllerStateChange", "round": -1, "prunable": true}
{"fingerprint": ["ControlMessageReceive", {"hard_timeout": 0, "actions": ["output(65533)"], "priority": 32768, "idle_timeout": 0, "command": "add", "out_port": 65535, "flags": 0, "class": "ofp_flow_mod", "match": "dl_dst:01:23:20:00:00:01,dl_type:35020"}, 2, ["c", "1"]], "timeout_disallowed": false, "time": [1371419269, 614983], "controller_id": "c1", "timed_out": false, "dependent_labels": [], "dpid": 2, "label": "i29", "class": "ControlMessageReceive", "round": -1, "prunable": true}
{"dp_event": {"interface": {"hw_addr": "12:34:56:78:02:02", "ips": ["123.123.2.2"], "name": "eth2"}, "packet": "////////EjRWeAICCAYAAQgABgQAARI0VngCAnt7AgIAAAAAAAB7ewEC"}, "prunable": true, "dependent_labels": [], "class": "TrafficInjection", "time": [1371419269, 616060], "fingerprint": ["TrafficInjection", {"interface": {"hw_addr": "12:34:56:78:02:02", "ips": ["123.123.2.2"], "name": "eth2"}, "packet": "////////EjRWeAICCAYAAQgABgQAARI0VngCAnt7AgIAAAAAAAB7ewEC"}], "timed_out": false, "round": -1, "label": "e30"}
{"timeout_disallowed": false, "fingerprint": ["DataplanePermit", {"class": "arp"}, "host:[IPAddr('123.123.2.2')]", "12:34:56:78:02:02"], "timed_out": false, "label": "i31", "passive": false, "dependent_labels": [], "time": [1371419269, 617084], "class": "DataplanePermit", "round": -1, "prunable": true}
{"fingerprint": ["ControlMessageSend", {"data": {"class": "arp"}, "class": "ofp_packet_in", "in_port": 2}, 2, ["c", "1"]], "timeout_disallowed": false, "time": [1371419269, 617475], "controller_id": "c1", "timed_out": false, "dependent_labels": [], "dpid": 2, "label": "i32", "class": "ControlMessageSend", "round": -1, "prunable": true}
{"name": null, "timeout_disallowed": false, "fingerprint": ["ControllerStateChange", "Learned %s at %s.%i", "c1"], "controller_id": "c1", "value": ["(EthAddr('12:34:56:78:02:02'), 00-00-00-00-00-02, 2)"], "timed_out": false, "dependent_labels": [], "time": [1371419269, 622904], "label": "i33", "class": "ControllerStateChange", "round": -1, "prunable": true}
{"name": null, "timeout_disallowed": false, "fingerprint": ["ControllerStateChange", "Flood multicast from %s", "c1"], "controller_id": "c1", "value": ["(EthAddr('12:34:56:78:02:02'),)"], "timed_out": false, "dependent_labels": [], "time": [1371419269, 624337], "label": "i34", "class": "ControllerStateChange", "round": -1, "prunable": true}
{"fingerprint": ["ControlMessageReceive", {"in_port": 2, "data": [], "class": "ofp_packet_out", "actions": ["output(65531)"]}, 2, ["c", "1"]], "timeout_disallowed": false, "time": [1371419269, 624781], "controller_id": "c1", "timed_out": false, "dependent_labels": [], "dpid": 2, "label": "i35", "class": "ControlMessageReceive", "round": -1, "prunable": true}
{"timeout_disallowed": false, "fingerprint": ["DataplanePermit", {"class": "arp"}, 2, 1], "timed_out": false, "label": "i36", "passive": false, "dependent_labels": [], "time": [1371419269, 625489], "class": "DataplanePermit", "round": -1, "prunable": true}
{"fingerprint": ["ControlMessageSend", {"data": {"class": "arp"}, "class": "ofp_packet_in", "in_port": 1}, 1, ["c", "1"]], "timeout_disallowed": false, "time": [1371419269, 625835], "controller_id": "c1", "timed_out": false, "dependent_labels": [], "dpid": 1, "label": "i37", "class": "ControlMessageSend", "round": -1, "prunable": true}
{"name": null, "timeout_disallowed": false, "fingerprint": ["ControllerStateChange", "%s moved from %s.%i to %s.%i?", "c1"], "controller_id": "c1", "value": ["(EthAddr('12:34:56:78:02:02'), '00-00-00-00-00-02', 2, '00-00-00-00-00-01', 1)"], "timed_out": false, "dependent_labels": [], "time": [1371419269, 629317], "label": "i38", "class": "ControllerStateChange", "round": -1, "prunable": true}
{"name": null, "timeout_disallowed": false, "fingerprint": ["ControllerStateChange", "Learned %s at %s.%i", "c1"], "controller_id": "c1", "value": ["(EthAddr('12:34:56:78:02:02'), 00-00-00-00-00-01, 1)"], "timed_out": false, "dependent_labels": [], "time": [1371419269, 630828], "label": "i39", "class": "ControllerStateChange", "round": -1, "prunable": true}
{"name": null, "timeout_disallowed": false, "fingerprint": ["ControllerStateChange", "Flood multicast from %s", "c1"], "controller_id": "c1", "value": ["(EthAddr('12:34:56:78:02:02'),)"], "timed_out": false, "dependent_labels": [], "time": [1371419269, 632235], "label": "i40", "class": "ControllerStateChange", "round": -1, "prunable": true}
{"fingerprint": ["ControlMessageReceive", {"in_port": 1, "data": [], "class": "ofp_packet_out", "actions": ["output(65531)"]}, 1, ["c", "1"]], "timeout_disallowed": false, "time": [1371419269, 632633], "controller_id": "c1", "timed_out": false, "dependent_labels": [], "dpid": 1, "label": "i41", "class": "ControlMessageReceive", "round": -1, "prunable": true}
{"timeout_disallowed": false, "fingerprint": ["DataplanePermit", {"class": "arp"}, 1, 2], "timed_out": false, "label": "i42", "passive": false, "dependent_labels": [], "time": [1371419269, 633248], "class": "DataplanePermit", "round": -1, "prunable": true}
{"fingerprint": ["ControlMessageReceive", {"in_port": 65535, "data": {"class": "lldp"}, "class": "ofp_packet_out", "actions": ["output(1)"]}, 1, ["c", "1"]], "timeout_disallowed": false, "time": [1371419269, 636129], "controller_id": "c1", "timed_out": false, "dependent_labels": [], "dpid": 1, "label": "i43", "class": "ControlMessageReceive", "round": -1, "prunable": true}
{"class": "DataplaneDrop", "fingerprint": ["DataplaneDrop", {"class": "lldp"}, 1, 1], "timed_out": false, "label": "e44", "passive": false, "dependent_labels": [], "time": [1371419269, 636545], "round": -1, "prunable": true}
{"legacy_invariant_check": false, "class": "CheckInvariants", "fingerprint": "N/A", "timed_out": false, "label": "e45", "dependent_labels": [], "invariant_name": "check_for_loops_or_connectivity", "invariant_check_name": "check_for_loops_or_connectivity", "time": [1371419269, 637956], "invariant_check": null, "round": -1, "prunable": true}
{"dp_event": {"interface": {"hw_addr": "12:34:56:78:01:02", "ips": ["123.123.1.2"], "name": "eth1"}, "packet": "EjRWeAICEjRWeAECCAYAAQgABgQAAhI0VngBAnt7AQISNFZ4AgJ7ewIC"}, "prunable": true, "dependent_labels": [], "class": "TrafficInjection", "time": [1371419269, 638403], "fingerprint": ["TrafficInjection", {"interface": {"hw_addr": "12:34:56:78:01:02", "ips": ["123.123.1.2"], "name": "eth1"}, "packet": "EjRWeAICEjRWeAECCAYAAQgABgQAAhI0VngBAnt7AQISNFZ4AgJ7ewIC"}], "timed_out": false, "round": -1, "label": "e46"}
{"timeout_disallowed": false, "fingerprint": ["DataplanePermit", {"class": "arp"}, "host:[IPAddr('123.123.1.2')]", "12:34:56:78:01:02"], "timed_out": false, "label": "i47", "passive": false, "dependent_labels": [], "time": [1371419269, 639224], "class": "DataplanePermit", "round": -1, "prunable": true}
{"fingerprint": ["ControlMessageSend", {"data": {"class": "arp"}, "class": "ofp_packet_in", "in_port": 2}, 1, ["c", "1"]], "timeout_disallowed": false, "time": [1371419269, 639584], "controller_id": "c1", "timed_out": false, "dependent_labels": [], "dpid": 1, "label": "i48", "class": "ControlMessageSend", "round": -1, "prunable": true}
{"name": null, "timeout_disallowed": false, "fingerprint": ["ControllerStateChange", "Learned %s at %s.%i", "c1"], "controller_id": "c1", "value": ["(EthAddr('12:34:56:78:01:02'), 00-00-00-00-00-01, 2)"], "timed_out": false, "dependent_labels": [], "time": [1371419269, 644985], "label": "i49", "class": "ControllerStateChange", "round": -1, "prunable": true}
{"name": null, "timeout_disallowed": false, "fingerprint": ["ControllerStateChange", "Installing path for %s -> %s %04x (%i hops)", "c1"], "controller_id": "c1", "value": ["(EthAddr('12:34:56:78:01:02'), EthAddr('12:34:56:78:02:02'), 2054, 1)"], "timed_out": false, "dependent_labels": [], "time": [1371419269, 646466], "label": "i50", "class": "ControllerStateChange", "round": -1, "prunable": true}
{"fingerprint": ["ControlMessageReceive", {"hard_timeout": 30, "actions": ["output(1)"], "priority": 32768, "idle_timeout": 10, "command": "add", "out_port": 65535, "flags": 0, "class": "ofp_flow_mod", "match": "dl_src:12:34:56:78:01:02,dl_dst:12:34:56:78:02:02,dl_vlan:65535,dl_vlan_pcp:0,dl_type:2054,nw_proto:2,nw_src:123.123.1.2/32,nw_dst:123.123.2.2/32"}, 1, ["c", "1"]], "timeout_disallowed": false, "time": [1371419269, 647085], "controller_id": "c1", "timed_out": false, "dependent_labels": [], "dpid": 1, "label": "i51", "class": "ControlMessageReceive", "round": -1, "prunable": true}
{"timeout_disallowed": false, "fingerprint": ["DataplanePermit", {"class": "arp"}, 1, 1], "timed_out": false, "label": "i52", "passive": false, "dependent_labels": [], "time": [1371419269, 647972], "class": "DataplanePermit", "round": -1, "prunable": true}
{"fingerprint": ["ControlMessageSend", {"data": {"class": "arp"}, "class": "ofp_packet_in", "in_port": 1}, 2, ["c", "1"]], "timeout_disallowed": false, "time": [1371419269, 648330], "controller_id": "c1", "timed_out": false, "dependent_labels": [], "dpid": 2, "label": "i53", "class": "ControlMessageSend", "round": -1, "prunable": true}
{"name": null, "timeout_disallowed": false, "fingerprint": ["ControllerStateChange", "%s moved from %s.%i to %s.%i?", "c1"], "controller_id": "c1", "value": ["(EthAddr('12:34:56:78:01:02'), '00-00-00-00-00-01', 2, '00-00-00-00-00-02', 1)"], "timed_out": false, "dependent_labels": [], "time": [1371419269, 652206], "label": "i54", "class": "ControllerStateChange", "round": -1, "prunable": true}
{"name": null, "timeout_disallowed": false, "fingerprint": ["ControllerStateChange", "Learned %s at %s.%i", "c1"], "controller_id": "c1", "value": ["(EthAddr('12:34:56:78:01:02'), 00-00-00-00-00-02, 1)"], "timed_out": false, "dependent_labels": [], "time": [1371419269, 653707], "label": "i55", "class": "ControllerStateChange", "round": -1, "prunable": true}
{"name": null, "timeout_disallowed": false, "fingerprint": ["ControllerStateChange", "Can't get from %s to %s", "c1"], "controller_id": "c1", "value": ["(EthAddr('12:34:56:78:01:02'), EthAddr('12:34:56:78:02:02'))"], "timed_out": false, "dependent_labels": [], "time": [1371419269, 655034], "label": "i56", "class": "ControllerStateChange", "round": -1, "prunable": true}
{"new_ingress_port_no": 3, "class": "HostMigration", "fingerprint": ["HostMigration", 1, 2, 1, 3, "host:[IPAddr('123.123.1.2')]"], "timed_out": false, "label": "e57", "dependent_labels": [], "new_ingress_dpid": 1, "time": [1371419269, 655484], "old_ingress_port_no": 2, "host_id": "host:[IPAddr('123.123.1.2')]", "old_ingress_dpid": 1, "round": -1, "prunable": true}
{"dp_event": {"interface": {"hw_addr": "12:34:56:78:01:02", "ips": ["123.123.1.2"], "name": "eth1"}, "packet": "EjRWeAECEjRWeAECCABFAABI6n4AAEABlzx7ewECe3sBAggABjdQaW5nUGluZ1BpbmdQaW5nUGluZ1BpbmdQaW5nUGluZ1BpbmdQaW5nUGluZ1Bpbmc="}, "prunable": true, "dependent_labels": [], "class": "TrafficInjection", "time": [1371419269, 656042], "fingerprint": ["TrafficInjection", {"interface": {"hw_addr": "12:34:56:78:01:02", "ips": ["123.123.1.2"], "name": "eth1"}, "packet": "EjRWeAECEjRWeAECCABFAABI6n4AAEABlzx7ewECe3sBAggABjdQaW5nUGluZ1BpbmdQaW5nUGluZ1BpbmdQaW5nUGluZ1BpbmdQaW5nUGluZ1Bpbmc="}], "timed_out": false, "round": -1, "label": "e58"}
{"timeout_disallowed": false, "fingerprint": ["DataplanePermit", {"dl_dst": "12:34:56:78:01:02", "nw_src": "123.123.1.2", "dl_src": "12:34:56:78:01:02", "nw_dst": "123.123.1.2"}, "host:[IPAddr('123.123.1.2')]", "12:34:56:78:01:02"], "timed_out": false, "label": "i59", "passive": false, "dependent_labels": [], "time": [1371419269, 657178], "class": "DataplanePermit", "round": -1, "prunable": true}
{"fingerprint": ["ControlMessageSend", {"reason": 1, "class": "ofp_port_status", "desc": [2, "00:00:00:00:01:02"]}, 1, ["c", "1"]], "timeout_disallowed": false, "time": [1371419269, 657656], "controller_id": "c1", "timed_out": false, "dependent_labels": [], "dpid": 1, "label": "i60", "class": "ControlMessageSend", "round": -1, "prunable": true}
{"fingerprint": ["ControlMessageSend", {"data": {"dl_dst": "12:34:56:78:01:02", "nw_src": "123.123.1.2", "dl_src": "12:34:56:78:01:02", "nw_dst": "123.123.1.2"}, "class": "ofp_packet_in", "in_port": 3}, 1, ["c", "1"]], "timeout_disallowed": false, "time": [1371419269, 658106], "controller_id": "c1", "timed_out": false, "dependent_labels": [], "dpid": 1, "label": "i61", "class": "ControlMessageSend", "round": -1, "prunable": true}
{"fingerprint": ["ControlMessageSend", {"reason": 0, "class": "ofp_port_status", "desc": [3, "00:00:00:00:01:02"]}, 1, ["c", "1"]], "timeout_disallowed": false, "time": [1371419269, 658638], "controller_id": "c1", "timed_out": false, "dependent_labels": [], "dpid": 1, "label": "i62", "class": "ControlMessageSend", "round": -1, "prunable": true}
{"name": null, "timeout_disallowed": false, "fingerprint": ["ControllerStateChange", "%s moved from %s.%i to %s.%i?", "c1"], "controller_id": "c1", "value": ["(EthAddr('12:34:56:78:01:02'), '00-00-00-00-00-02', 1, '00-00-00-00-00-01', 3)"], "timed_out": false, "dependent_labels": [], "time": [1371419269, 663231], "label": "i63", "class": "ControllerStateChange", "round": -1, "prunable": true}
{"name": null, "timeout_disallowed": false, "fingerprint": ["ControllerStateChange", "Learned %s at %s.%i", "c1"], "controller_id": "c1", "value": ["(EthAddr('12:34:56:78:01:02'), 00-00-00-00-00-01, 3)"], "timed_out": false, "dependent_labels": [], "time": [1371419269, 666442], "label": "i64", "class": "ControllerStateChange", "round": -1, "prunable": true}
{"name": null, "timeout_disallowed": false, "fingerprint": ["ControllerStateChange", "Installing path for %s -> %s %04x (%i hops)", "c1"], "controller_id": "c1", "value": ["(EthAddr('12:34:56:78:01:02'), EthAddr('12:34:56:78:01:02'), 2048, 1)"], "timed_out": false, "dependent_labels": [], "time": [1371419269, 668039], "label": "i65", "class": "ControllerStateChange", "round": -1, "prunable": true}
{"fingerprint": ["ControlMessageReceive", {"hard_timeout": 30, "actions": ["output(3)"], "priority": 32768, "idle_timeout": 10, "command": "add", "out_port": 65535, "flags": 0, "class": "ofp_flow_mod", "match": "dl_src:12:34:56:78:01:02,dl_dst:12:34:56:78:01:02,dl_vlan:65535,dl_vlan_pcp:0,dl_type:2048,nw_tos:0,nw_proto:1,nw_src:123.123.1.2/32,nw_dst:123.123.1.2/32,tp_src:8,tp_dst:0"}, 1, ["c", "1"]], "timeout_disallowed": false, "time": [1371419269, 668754], "controller_id": "c1", "timed_out": false, "dependent_labels": [], "dpid": 1, "label": "i66", "class": "ControlMessageReceive", "round": -1, "prunable": true}
{"dp_event": {"interface": {"hw_addr": "12:34:56:78:02:02", "ips": ["123.123.2.2"], "name": "eth2"}, "packet": "EjRWeAECEjRWeAICCABFAAAcISgAAEABX797ewICe3sBAggAGS9waW5n"}, "prunable": true, "dependent_labels": [], "class": "TrafficInjection", "time": [1371419269, 669582], "fingerprint": ["TrafficInjection", {"interface": {"hw_addr": "12:34:56:78:02:02", "ips": ["123.123.2.2"], "name": "eth2"}, "packet": "EjRWeAECEjRWeAICCABFAAAcISgAAEABX797ewICe3sBAggAGS9waW5n"}], "timed_out": false, "round": -1, "label": "e67"}
{"class": "DataplaneDrop", "fingerprint": ["DataplaneDrop", {"dl_dst": "12:34:56:78:01:02", "nw_src": "123.123.2.2", "dl_src": "12:34:56:78:02:02", "nw_dst": "123.123.1.2"}, "host:[IPAddr('123.123.2.2')]", "12:34:56:78:02:02"], "timed_out": false, "label": "e68", "passive": false, "dependent_labels": [], "time": [1371419269, 670038], "round": -1, "prunable": true}
{"new_ingress_port_no": 3, "class": "HostMigration", "fingerprint": ["HostMigration", 2, 2, 2, 3, "host:[IPAddr('123.123.2.2')]"], "timed_out": false, "label": "e69", "dependent_labels": [], "new_ingress_dpid": 2, "time": [1371419269, 670596], "old_ingress_port_no": 2, "host_id": "host:[IPAddr('123.123.2.2')]", "old_ingress_dpid": 2, "round": -1, "prunable": true}
{"dp_event": {"interface": {"hw_addr": "12:34:56:78:02:02", "ips": ["123.123.2.2"], "name": "eth2"}, "packet": "EjRWeAICEjRWeAICCABFAABI6oAAAEABlTp7ewICe3sCAggABjdQaW5nUGluZ1BpbmdQaW5nUGluZ1BpbmdQaW5nUGluZ1BpbmdQaW5nUGluZ1Bpbmc="}, "prunable": true, "dependent_labels": [], "class": "TrafficInjection", "time": [1371419269, 671075], "fingerprint": ["TrafficInjection", {"interface": {"hw_addr": "12:34:56:78:02:02", "ips": ["123.123.2.2"], "name": "eth2"}, "packet": "EjRWeAICEjRWeAICCABFAABI6oAAAEABlTp7ewICe3sCAggABjdQaW5nUGluZ1BpbmdQaW5nUGluZ1BpbmdQaW5nUGluZ1BpbmdQaW5nUGluZ1Bpbmc="}], "timed_out": false, "round": -1, "label": "e70"}
{"class": "DataplaneDrop", "fingerprint": ["DataplaneDrop", {"dl_dst": "12:34:56:78:02:02", "nw_src": "123.123.2.2", "dl_src": "12:34:56:78:02:02", "nw_dst": "123.123.2.2"}, "host:[IPAddr('123.123.2.2')]", "12:34:56:78:02:02"], "timed_out": false, "label": "e71", "passive": false, "dependent_labels": [], "time": [1371419269, 671520], "round": -1, "prunable": true}
{"fingerprint": ["ControlMessageSend", {"reason": 1, "class": "ofp_port_status", "desc": [2, "00:00:00:00:02:02"]}, 2, ["c", "1"]], "timeout_disallowed": false, "time": [1371419269, 671961], "controller_id": "c1", "timed_out": false, "dependent_labels": [], "dpid": 2, "label": "i72", "class": "ControlMessageSend", "round": -1, "prunable": true}
{"fingerprint": ["ControlMessageSend", {"reason": 0, "class": "ofp_port_status", "desc": [3, "00:00:00:00:02:02"]}, 2, ["c", "1"]], "timeout_disallowed": false, "time": [1371419269, 672364], "controller_id": "c1", "timed_out": false, "dependent_labels": [], "dpid": 2, "label": "i73", "class": "ControlMessageSend", "round": -1, "prunable": true}
{"legacy_invariant_check": false, "class": "CheckInvariants", "fingerprint": "N/A", "timed_out": false, "label": "e74", "dependent_labels": [], "invariant_name": "check_for_loops_or_connectivity", "invariant_check_name": "check_for_loops_or_connectivity", "time": [1371419269, 678007], "invariant_check": null, "round": -1, "prunable": true}
{"dp_event": {"interface": {"hw_addr": "12:34:56:78:01:02", "ips": ["123.123.1.2"], "name": "eth1"}, "packet": "EjRWeAICEjRWeAECCABFAAAcISkAAEABX757ewECe3sCAgAAISlwb25n"}, "prunable": true, "dependent_labels": [], "class": "TrafficInjection", "time": [1371419269, 678454], "fingerprint": ["TrafficInjection", {"interface": {"hw_addr": "12:34:56:78:01:02", "ips": ["123.123.1.2"], "name": "eth1"}, "packet": "EjRWeAICEjRWeAECCABFAAAcISkAAEABX757ewECe3sCAgAAISlwb25n"}], "timed_out": false, "round": -1, "label": "e75"}
{"timeout_disallowed": false, "fingerprint": ["DataplanePermit", {"dl_dst": "12:34:56:78:02:02", "nw_src": "123.123.1.2", "dl_src": "12:34:56:78:01:02", "nw_dst": "123.123.2.2"}, "host:[IPAddr('123.123.1.2')]", "12:34:56:78:01:02"], "timed_out": false, "label": "i76", "passive": false, "dependent_labels": [], "time": [1371419269, 679488], "class": "DataplanePermit", "round": -1, "prunable": true}
{"fingerprint": ["ControlMessageSend", {"data": {"dl_dst": "12:34:56:78:02:02", "nw_src": "123.123.1.2", "dl_src": "12:34:56:78:01:02", "nw_dst": "123.123.2.2"}, "class": "ofp_packet_in", "in_port": 3}, 1, ["c", "1"]], "timeout_disallowed": false, "time": [1371419269, 679979], "controller_id": "c1", "timed_out": false, "dependent_labels": [], "dpid": 1, "label": "i77", "class": "ControlMessageSend", "round": -1, "prunable": true}
{"name": null, "timeout_disallowed": false, "fingerprint": ["ControllerStateChange", "Installing path for %s -> %s %04x (%i hops)", "c1"], "controller_id": "c1", "value": ["(EthAddr('12:34:56:78:01:02'), EthAddr('12:34:56:78:02:02'), 2048, 1)"], "timed_out": false, "dependent_labels": [], "time": [1371419269, 693368], "label": "i78", "class": "ControllerStateChange", "round": -1, "prunable": true}
{"fingerprint": ["ControlMessageReceive", {"hard_timeout": 30, "actions": ["output(1)"], "priority": 32768, "idle_timeout": 10, "command": "add", "out_port": 65535, "flags": 0, "class": "ofp_flow_mod", "match": "dl_src:12:34:56:78:01:02,dl_dst:12:34:56:78:02:02,dl_vlan:65535,dl_vlan_pcp:0,dl_type:2048,nw_tos:0,nw_proto:1,nw_src:123.123.1.2/32,nw_dst:123.123.2.2/32,tp_src:0,tp_dst:0"}, 1, ["c", "1"]], "timeout_disallowed": false, "time": [1371419269, 694051], "controller_id": "c1", "timed_out": false, "dependent_labels": [], "dpid": 1, "label": "i79", "class": "ControlMessageReceive", "round": -1, "prunable": true}
{"timeout_disallowed": false, "fingerprint": ["DataplanePermit", {"dl_dst": "12:34:56:78:02:02", "nw_src": "123.123.1.2", "dl_src": "12:34:56:78:01:02", "nw_dst": "123.123.2.2"}, 1, 1], "timed_out": false, "label": "i80", "passive": false, "dependent_labels": [], "time": [1371419269, 695077], "class": "DataplanePermit", "round": -1, "prunable": true}
{"fingerprint": ["ControlMessageSend", {"data": {"dl_dst": "12:34:56:78:02:02", "nw_src": "123.123.1.2", "dl_src": "12:34:56:78:01:02", "nw_dst": "123.123.2.2"}, "class": "ofp_packet_in", "in_port": 1}, 2, ["c", "1"]], "timeout_disallowed": false, "time": [1371419269, 695573], "controller_id": "c1", "timed_out": false, "dependent_labels": [], "dpid": 2, "label": "i81", "class": "ControlMessageSend", "round": -1, "prunable": true}
{"name": null, "timeout_disallowed": false, "fingerprint": ["ControllerStateChange", "%s moved from %s.%i to %s.%i?", "c1"], "controller_id": "c1", "value": ["(EthAddr('12:34:56:78:01:02'), '00-00-00-00-00-01', 3, '00-00-00-00-00-02', 1)"], "timed_out": false, "dependent_labels": [], "time": [1371419269, 699974], "label": "i82", "class": "ControllerStateChange", "round": -1, "prunable": true}
{"name": null, "timeout_disallowed": false, "fingerprint": ["ControllerStateChange", "Learned %s at %s.%i", "c1"], "controller_id": "c1", "value": ["(EthAddr('12:34:56:78:01:02'), 00-00-00-00-00-02, 1)"], "timed_out": false, "dependent_labels": [], "time": [1371419269, 701405], "label": "i83", "class": "ControllerStateChange", "round": -1, "prunable": true}
{"name": null, "timeout_disallowed": false, "fingerprint": ["ControllerStateChange", "Can't get from %s to %s", "c1"], "controller_id": "c1", "value": ["(EthAddr('12:34:56:78:01:02'), EthAddr('12:34:56:78:02:02'))"], "timed_out": false, "dependent_labels": [], "time": [1371419269, 702750], "label": "i84", "class": "ControllerStateChange", "round": -1, "prunable": true}
{"name": null, "timeout_disallowed": false, "fingerprint": ["ControllerStateChange", "Dest unreachable (%s -> %s)", "c1"], "controller_id": "c1", "value": ["(EthAddr('12:34:56:78:01:02'), EthAddr('12:34:56:78:02:02'))"], "timed_out": false, "dependent_labels": [], "time": [1371419269, 704626], "label": "i85", "class": "ControllerStateChange", "round": -1, "prunable": true}
{"fingerprint": ["ControlMessageReceive", {"in_port": 65535, "data": {"dl_dst": "12:34:56:78:01:02", "nw_src": "123.123.2.2", "dl_src": "00:00:00:00:00:02", "nw_dst": "123.123.1.2"}, "class": "ofp_packet_out", "actions": ["output(1)"]}, 2, ["c", "1"]], "timeout_disallowed": false, "time": [1371419269, 705269], "controller_id": "c1", "timed_out": false, "dependent_labels": [], "dpid": 2, "label": "i86", "class": "ControlMessageReceive", "round": -1, "prunable": true}
{"timeout_disallowed": false, "fingerprint": ["DataplanePermit", {"dl_dst": "12:34:56:78:01:02", "nw_src": "123.123.2.2", "dl_src": "00:00:00:00:00:02", "nw_dst": "123.123.1.2"}, 2, 1], "timed_out": false, "label": "i87", "passive": false, "dependent_labels": [], "time": [1371419269, 706422], "class": "DataplanePermit", "round": -1, "prunable": true}
{"fingerprint": ["ControlMessageSend", {"data": {"dl_dst": "12:34:56:78:01:02", "nw_src": "123.123.2.2", "dl_src": "00:00:00:00:00:02", "nw_dst": "123.123.1.2"}, "class": "ofp_packet_in", "in_port": 1}, 1, ["c", "1"]], "timeout_disallowed": false, "time": [1371419269, 706907], "controller_id": "c1", "timed_out": false, "dependent_labels": [], "dpid": 1, "label": "i88", "class": "ControlMessageSend", "round": -1, "prunable": true}
{"name": null, "timeout_disallowed": false, "fingerprint": ["ControllerStateChange", "Learned %s at %s.%i", "c1"], "controller_id": "c1", "value": ["(EthAddr('00:00:00:00:00:02'), 00-00-00-00-00-01, 1)"], "timed_out": false, "dependent_labels": [], "time": [1371419269, 710710], "label": "i89", "class": "ControllerStateChange", "round": -1, "prunable": true}
{"name": null, "timeout_disallowed": false, "fingerprint": ["ControllerStateChange", "Can't get from %s to %s", "c1"], "controller_id": "c1", "value": ["(EthAddr('00:00:00:00:00:02'), EthAddr('12:34:56:78:01:02'))"], "timed_out": false, "dependent_labels": [], "time": [1371419269, 712028], "label": "i90", "class": "ControllerStateChange", "round": -1, "prunable": true}
{"name": null, "timeout_disallowed": false, "fingerprint": ["ControllerStateChange", "Dest unreachable (%s -> %s)", "c1"], "controller_id": "c1", "value": ["(EthAddr('00:00:00:00:00:02'), EthAddr('12:34:56:78:01:02'))"], "timed_out": false, "dependent_labels": [], "time": [1371419269, 713872], "label": "i91", "class": "ControllerStateChange", "round": -1, "prunable": true}
{"fingerprint": ["ControlMessageReceive", {"in_port": 65535, "data": {"dl_dst": "00:00:00:00:00:02", "nw_src": "123.123.1.2", "dl_src": "00:00:00:00:00:01", "nw_dst": "123.123.2.2"}, "class": "ofp_packet_out", "actions": ["output(1)"]}, 1, ["c", "1"]], "timeout_disallowed": false, "time": [1371419269, 714550], "controller_id": "c1", "timed_out": false, "dependent_labels": [], "dpid": 1, "label": "i92", "class": "ControlMessageReceive", "round": -1, "prunable": true}
{"new_ingress_port_no": 4, "class": "HostMigration", "fingerprint": ["HostMigration", 2, 3, 1, 4, "host:[IPAddr('123.123.2.2')]"], "timed_out": false, "label": "e93", "dependent_labels": [], "new_ingress_dpid": 1, "time": [1371419269, 715281], "old_ingress_port_no": 3, "host_id": "host:[IPAddr('123.123.2.2')]", "old_ingress_dpid": 2, "round": -1, "prunable": true}
{"dp_event": {"interface": {"hw_addr": "12:34:56:78:02:02", "ips": ["123.123.2.2"], "name": "eth2"}, "packet": "EjRWeAICEjRWeAICCABFAABI6o0AAEABlS17ewICe3sCAggABjdQaW5nUGluZ1BpbmdQaW5nUGluZ1BpbmdQaW5nUGluZ1BpbmdQaW5nUGluZ1Bpbmc="}, "prunable": true, "dependent_labels": [], "class": "TrafficInjection", "time": [1371419269, 715810], "fingerprint": ["TrafficInjection", {"interface": {"hw_addr": "12:34:56:78:02:02", "ips": ["123.123.2.2"], "name": "eth2"}, "packet": "EjRWeAICEjRWeAICCABFAABI6o0AAEABlS17ewICe3sCAggABjdQaW5nUGluZ1BpbmdQaW5nUGluZ1BpbmdQaW5nUGluZ1BpbmdQaW5nUGluZ1Bpbmc="}], "timed_out": false, "round": -1, "label": "e94"}
{"class": "DataplaneDrop", "fingerprint": ["DataplaneDrop", {"dl_dst": "00:00:00:00:00:02", "nw_src": "123.123.1.2", "dl_src": "00:00:00:00:00:01", "nw_dst": "123.123.2.2"}, 1, 1], "timed_out": false, "label": "e95", "passive": false, "dependent_labels": [], "time": [1371419269, 716291], "round": -1, "prunable": true}
{"timeout_disallowed": false, "fingerprint": ["DataplanePermit", {"dl_dst": "12:34:56:78:02:02", "nw_src": "123.123.2.2", "dl_src": "12:34:56:78:02:02", "nw_dst": "123.123.2.2"}, "host:[IPAddr('123.123.2.2')]", "12:34:56:78:02:02"], "timed_out": false, "label": "i96", "passive": false, "dependent_labels": [], "time": [1371419269, 717291], "class": "DataplanePermit", "round": -1, "prunable": true}
{"fingerprint": ["ControlMessageSend", {"reason": 1, "class": "ofp_port_status", "desc": [3, "00:00:00:00:02:02"]}, 2, ["c", "1"]], "timeout_disallowed": false, "time": [1371419269, 717768], "controller_id": "c1", "timed_out": false, "dependent_labels": [], "dpid": 2, "label": "i97", "class": "ControlMessageSend", "round": -1, "prunable": true}
{"fingerprint": ["ControlMessageSend", {"data": {"dl_dst": "12:34:56:78:02:02", "nw_src": "123.123.2.2", "dl_src": "12:34:56:78:02:02", "nw_dst": "123.123.2.2"}, "class": "ofp_packet_in", "in_port": 4}, 1, ["c", "1"]], "timeout_disallowed": false, "time": [1371419269, 718254], "controller_id": "c1", "timed_out": false, "dependent_labels": [], "dpid": 1, "label": "i98", "class": "ControlMessageSend", "round": -1, "prunable": true}
{"fingerprint": ["ControlMessageSend", {"reason": 0, "class": "ofp_port_status", "desc": [4, "00:00:00:00:02:02"]}, 1, ["c", "1"]], "timeout_disallowed": false, "time": [1371419269, 718840], "controller_id": "c1", "timed_out": false, "dependent_labels": [], "dpid": 1, "label": "i99", "class": "ControlMessageSend", "round": -1, "prunable": true}
{"name": null, "timeout_disallowed": false, "fingerprint": ["ControllerStateChange", "%s moved from %s.%i to %s.%i?", "c1"], "controller_id": "c1", "value": ["(EthAddr('12:34:56:78:02:02'), '00-00-00-00-00-01', 1, '00-00-00-00-00-01', 4)"], "timed_out": false, "dependent_labels": [], "time": [1371419269, 723419], "label": "i100", "class": "ControllerStateChange", "round": -1, "prunable": true}
{"name": null, "timeout_disallowed": false, "fingerprint": ["ControllerStateChange", "Learned %s at %s.%i", "c1"], "controller_id": "c1", "value": ["(EthAddr('12:34:56:78:02:02'), 00-00-00-00-00-01, 4)"], "timed_out": false, "dependent_labels": [], "time": [1371419269, 726045], "label": "i101", "class": "ControllerStateChange", "round": -1, "prunable": true}
{"name": null, "timeout_disallowed": false, "fingerprint": ["ControllerStateChange", "Installing path for %s -> %s %04x (%i hops)", "c1"], "controller_id": "c1", "value": ["(EthAddr('12:34:56:78:02:02'), EthAddr('12:34:56:78:02:02'), 2048, 1)"], "timed_out": false, "dependent_labels": [], "time": [1371419269, 727379], "label": "i102", "class": "ControllerStateChange", "round": -1, "prunable": true}
{"fingerprint": ["ControlMessageReceive", {"hard_timeout": 30, "actions": ["output(4)"], "priority": 32768, "idle_timeout": 10, "command": "add", "out_port": 65535, "flags": 0, "class": "ofp_flow_mod", "match": "dl_src:12:34:56:78:02:02,dl_dst:12:34:56:78:02:02,dl_vlan:65535,dl_vlan_pcp:0,dl_type:2048,nw_tos:0,nw_proto:1,nw_src:123.123.2.2/32,nw_dst:123.123.2.2/32,tp_src:8,tp_dst:0"}, 1, ["c", "1"]], "timeout_disallowed": false, "time": [1371419269, 728062], "controller_id": "c1", "timed_out": false, "dependent_labels": [], "dpid": 1, "label": "i103", "class": "ControlMessageReceive", "round": -1, "prunable": true}
{"dp_event": {"interface": {"hw_addr": "12:34:56:78:02:02", "ips": ["123.123.2.2"], "name": "eth2"}, "packet": "////////EjRWeAICCAYAAQgABgQAARI0VngCAnt7AgIAAAAAAAB7ewEC"}, "prunable": true, "dependent_labels": [], "class": "TrafficInjection", "time": [1371419269, 728857], "fingerprint": ["TrafficInjection", {"interface": {"hw_addr": "12:34:56:78:02:02", "ips": ["123.123.2.2"], "name": "eth2"}, "packet": "////////EjRWeAICCAYAAQgABgQAARI0VngCAnt7AgIAAAAAAAB7ewEC"}], "timed_out": false, "round": -1, "label": "e104"}
{"class": "DataplaneDrop", "fingerprint": ["DataplaneDrop", {"class": "arp"}, "host:[IPAddr('123.123.2.2')]", "12:34:56:78:02:02"], "timed_out": false, "label": "e105", "passive": false, "dependent_labels": [], "time": [1371419269, 729268], "round": -1, "prunable": true}
{"new_ingress_port_no": 5, "class": "HostMigration", "fingerprint": ["HostMigration", 1, 3, 1, 5, "host:[IPAddr('123.123.1.2')]"], "timed_out": false, "label": "e106", "dependent_labels": [], "new_ingress_dpid": 1, "time": [1371419269, 729692], "old_ingress_port_no": 3, "host_id": "host:[IPAddr('123.123.1.2')]", "old_ingress_dpid": 1, "round": -1, "prunable": true}
{"dp_event": {"interface": {"hw_addr": "12:34:56:78:01:02", "ips": ["123.123.1.2"], "name": "eth1"}, "packet": "EjRWeAECEjRWeAECCABFAABI6o8AAEABlyt7ewECe3sBAggABjdQaW5nUGluZ1BpbmdQaW5nUGluZ1BpbmdQaW5nUGluZ1BpbmdQaW5nUGluZ1Bpbmc="}, "prunable": true, "dependent_labels": [], "class": "TrafficInjection", "time": [1371419269, 730156], "fingerprint": ["TrafficInjection", {"interface": {"hw_addr": "12:34:56:78:01:02", "ips": ["123.123.1.2"], "name": "eth1"}, "packet": "EjRWeAECEjRWeAECCABFAABI6o8AAEABlyt7ewECe3sBAggABjdQaW5nUGluZ1BpbmdQaW5nUGluZ1BpbmdQaW5nUGluZ1BpbmdQaW5nUGluZ1Bpbmc="}], "timed_out": false, "round": -1, "label": "e107"}
{"timeout_disallowed": false, "fingerprint": ["DataplanePermit", {"dl_dst": "12:34:56:78:01:02", "nw_src": "123.123.1.2", "dl_src": "12:34:56:78:01:02", "nw_dst": "123.123.1.2"}, "host:[IPAddr('123.123.1.2')]", "12:34:56:78:01:02"], "timed_out": false, "label": "i108", "passive": false, "dependent_labels": [], "time": [1371419269, 731219], "class": "DataplanePermit", "round": -1, "prunable": true}
{"fingerprint": ["ControlMessageSend", {"reason": 0, "class": "ofp_port_status", "desc": [5, "00:00:00:00:01:02"]}, 1, ["c", "1"]], "timeout_disallowed": false, "time": [1371419269, 731659], "controller_id": "c1", "timed_out": false, "dependent_labels": [], "dpid": 1, "label": "i109", "class": "ControlMessageSend", "round": -1, "prunable": true}
{"fingerprint": ["ControlMessageSend", {"reason": 1, "class": "ofp_port_status", "desc": [3, "00:00:00:00:01:02"]}, 1, ["c", "1"]], "timeout_disallowed": false, "time": [1371419269, 732055], "controller_id": "c1", "timed_out": false, "dependent_labels": [], "dpid": 1, "label": "i110", "class": "ControlMessageSend", "round": -1, "prunable": true}
{"class": "DataplaneDrop", "fingerprint": ["DataplaneDrop", {"dl_dst": "12:34:56:78:01:02", "nw_src": "123.123.1.2", "dl_src": "12:34:56:78:01:02", "nw_dst": "123.123.1.2"}, 1, 3], "timed_out": false, "label": "e111", "passive": false, "dependent_labels": [], "time": [1371419269, 732375], "round": -1, "prunable": true}
{"legacy_invariant_check": false, "class": "CheckInvariants", "fingerprint": "N/A", "timed_out": false, "label": "e112", "dependent_labels": [], "invariant_name": "check_for_loops_or_connectivity", "invariant_check_name": "check_for_loops_or_connectivity", "time": [1371419269, 743143], "invariant_check": null, "round": -1, "prunable": true}
{"fingerprint": ["ControlMessageSend", {"reason": 0, "class": "ofp_port_status", "desc": [6, "00:00:00:00:02:02"]}, 1, ["c", "1"]], "timeout_disallowed": false, "time": [1371419270, 356821], "controller_id": "c1", "timed_out": true, "dependent_labels": [], "dpid": 1, "label": "i118", "class": "ControlMessageSend", "round": -1, "prunable": true}
{"fingerprint": ["ControlMessageSend", {"reason": 1, "class": "ofp_port_status", "desc": [4, "00:00:00:00:02:02"]}, 1, ["c", "1"]], "timeout_disallowed": false, "time": [1371419270, 960956], "controller_id": "c1", "timed_out": true, "dependent_labels": [], "dpid": 1, "label": "i119", "class": "ControlMessageSend", "round": -1, "prunable": true}
{"timeout_disallowed": false, "fingerprint": ["DataplanePermit", {"dl_dst": "12:34:56:78:02:02", "nw_src": "123.123.2.2", "dl_src": "12:34:56:78:02:02", "nw_dst": "123.123.2.2"}, "host:[IPAddr('123.123.2.2')]", "12:34:56:78:02:02"], "timed_out": true, "label": "i123", "passive": false, "dependent_labels": [], "time": [1371419271, 610290], "class": "DataplanePermit", "round": -1, "prunable": true}
{"timeout_disallowed": false, "fingerprint": ["DataplanePermit", {"dl_dst": "12:34:56:78:01:02", "nw_src": "123.123.2.2", "dl_src": "12:34:56:78:02:02", "nw_dst": "123.123.1.2"}, "host:[IPAddr('123.123.2.2')]", "12:34:56:78:02:02"], "timed_out": true, "label": "i124", "passive": false, "dependent_labels": [], "time": [1371419272, 252722], "class": "DataplanePermit", "round": -1, "prunable": true}
{"fingerprint": ["ControlMessageSend", {"data": {"dl_dst": "12:34:56:78:02:02", "nw_src": "123.123.2.2", "dl_src": "12:34:56:78:02:02", "nw_dst": "123.123.2.2"}, "class": "ofp_packet_in", "in_port": 7}, 1, ["c", "1"]], "timeout_disallowed": false, "time": [1371419272, 856858], "controller_id": "c1", "timed_out": true, "dependent_labels": [], "dpid": 1, "label": "i125", "class": "ControlMessageSend", "round": -1, "prunable": true}
{"fingerprint": ["ControlMessageSend", {"reason": 0, "class": "ofp_port_status", "desc": [7, "00:00:00:00:02:02"]}, 1, ["c", "1"]], "timeout_disallowed": false, "time": [1371419273, 504528], "controller_id": "c1", "timed_out": true, "dependent_labels": [], "dpid": 1, "label": "i126", "class": "ControlMessageSend", "round": -1, "prunable": true}
{"fingerprint": ["ControlMessageSend", {"reason": 1, "class": "ofp_port_status", "desc": [6, "00:00:00:00:02:02"]}, 1, ["c", "1"]], "timeout_disallowed": false, "time": [1371419274, 108587], "controller_id": "c1", "timed_out": true, "dependent_labels": [], "dpid": 1, "label": "i127", "class": "ControlMessageSend", "round": -1, "prunable": true}
{"fingerprint": ["ControlMessageSend", {"data": {"dl_dst": "12:34:56:78:01:02", "nw_src": "123.123.2.2", "dl_src": "12:34:56:78:02:02", "nw_dst": "123.123.1.2"}, "class": "ofp_packet_in", "in_port": 7}, 1, ["c", "1"]], "timeout_disallowed": false, "time": [1371419274, 761121], "controller_id": "c1", "timed_out": true, "dependent_labels": [], "dpid": 1, "label": "i128", "class": "ControlMessageSend", "round": -1, "prunable": true}
{"name": null, "timeout_disallowed": false, "fingerprint": ["ControllerStateChange", "%s moved from %s.%i to %s.%i?", "c1"], "controller_id": "c1", "value": ["(EthAddr('12:34:56:78:02:02'), '00-00-00-00-00-01', 4, '00-00-00-00-00-01', 7)"], "timed_out": true, "dependent_labels": [], "time": [1371419275, 366043], "label": "i129", "class": "ControllerStateChange", "round": -1, "prunable": true}
{"name": null, "timeout_disallowed": false, "fingerprint": ["ControllerStateChange", "Learned %s at %s.%i", "c1"], "controller_id": "c1", "value": ["(EthAddr('12:34:56:78:02:02'), 00-00-00-00-00-01, 7)"], "timed_out": true, "dependent_labels": [], "time": [1371419276, 15400], "label": "i130", "class": "ControllerStateChange", "round": -1, "prunable": true}
{"name": null, "timeout_disallowed": false, "fingerprint": ["ControllerStateChange", "Installing path for %s -> %s %04x (%i hops)", "c1"], "controller_id": "c1", "value": ["(EthAddr('12:34:56:78:02:02'), EthAddr('12:34:56:78:02:02'), 2048, 1)"], "timed_out": true, "dependent_labels": [], "time": [1371419276, 617993], "label": "i131", "class": "ControllerStateChange", "round": -1, "prunable": true}
{"name": null, "timeout_disallowed": false, "fingerprint": ["ControllerStateChange", "Can't get from %s to %s", "c1"], "controller_id": "c1", "value": ["(EthAddr('12:34:56:78:02:02'), EthAddr('12:34:56:78:01:02'))"], "timed_out": true, "dependent_labels": [], "time": [1371419277, 267772], "label": "i132", "class": "ControllerStateChange", "round": -1, "prunable": true}
{"name": null, "timeout_disallowed": false, "fingerprint": ["ControllerStateChange", "Dest unreachable (%s -> %s)", "c1"], "controller_id": "c1", "value": ["(EthAddr('12:34:56:78:02:02'), EthAddr('12:34:56:78:01:02'))"], "timed_out": true, "dependent_labels": [], "time": [1371419277, 870072], "label": "i133", "class": "ControllerStateChange", "round": -1, "prunable": true}
{"fingerprint": ["ControlMessageReceive", {"hard_timeout": 30, "actions": ["output(7)"], "priority": 32768, "idle_timeout": 10, "command": "add", "out_port": 65535, "flags": 0, "class": "ofp_flow_mod", "match": "dl_src:12:34:56:78:02:02,dl_dst:12:34:56:78:02:02,dl_vlan:65535,dl_vlan_pcp:0,dl_type:2048,nw_tos:0,nw_proto:1,nw_src:123.123.2.2/32,nw_dst:123.123.2.2/32,tp_src:0,tp_dst:0"}, 1, ["c", "1"]], "timeout_disallowed": false, "time": [1371419278, 522081], "controller_id": "c1", "timed_out": true, "dependent_labels": [], "dpid": 1, "label": "i134", "class": "ControlMessageReceive", "round": -1, "prunable": true}
{"fingerprint": ["ControlMessageReceive", {"in_port": 65535, "data": {"dl_dst": "12:34:56:78:02:02", "nw_src": "123.123.1.2", "dl_src": "00:00:00:00:00:01", "nw_dst": "123.123.2.2"}, "class": "ofp_packet_out", "actions": ["output(7)"]}, 1, ["c", "1"]], "timeout_disallowed": false, "time": [1371419279, 126020], "controller_id": "c1", "timed_out": true, "dependent_labels": [], "dpid": 1, "label": "i135", "class": "ControlMessageReceive", "round": -1, "prunable": true}
{"timeout_disallowed": false, "fingerprint": ["DataplanePermit", {"dl_dst": "12:34:56:78:02:02", "nw_src": "123.123.1.2", "dl_src": "12:34:56:78:01:02", "nw_dst": "123.123.2.2"}, "host:[IPAddr('123.123.1.2')]", "12:34:56:78:01:02"], "timed_out": true, "label": "i139", "passive": false, "dependent_labels": [], "time": [1371419279, 775258], "class": "DataplanePermit", "round": -1, "prunable": true}
{"timeout_disallowed": false, "fingerprint": ["DataplanePermit", {"dl_dst": "12:34:56:78:02:02", "nw_src": "123.123.1.2", "dl_src": "12:34:56:78:01:02", "nw_dst": "123.123.2.2"}, 1, 1], "timed_out": true, "label": "i140", "passive": false, "dependent_labels": [], "time": [1371419280, 441011], "class": "DataplanePermit", "round": -1, "prunable": true}
{"fingerprint": ["ControlMessageSend", {"data": {"dl_dst": "12:34:56:78:02:02", "nw_src": "123.123.1.2", "dl_src": "12:34:56:78:01:02", "nw_dst": "123.123.2.2"}, "class": "ofp_packet_in", "in_port": 1}, 2, ["c", "1"]], "timeout_disallowed": false, "time": [1371419280, 997387], "controller_id": "c1", "timed_out": true, "dependent_labels": [], "dpid": 2, "label": "i141", "class": "ControlMessageSend", "round": -1, "prunable": true}
{"name": null, "timeout_disallowed": false, "fingerprint": ["ControllerStateChange", "Can't get from %s to %s", "c1"], "controller_id": "c1", "value": ["(EthAddr('12:34:56:78:01:02'), EthAddr('12:34:56:78:02:02'))"], "timed_out": true, "dependent_labels": [], "time": [1371419281, 601865], "label": "i142", "class": "ControllerStateChange", "round": -1, "prunable": true}
{"name": null, "timeout_disallowed": false, "fingerprint": ["ControllerStateChange", "Dest unreachable (%s -> %s)", "c1"], "controller_id": "c1", "value": ["(EthAddr('12:34:56:78:01:02'), EthAddr('12:34:56:78:02:02'))"], "timed_out": true, "dependent_labels": [], "time": [1371419282, 143953], "label": "i143", "class": "ControllerStateChange", "round": -1, "prunable": true}
{"fingerprint": ["ControlMessageReceive", {"in_port": 65535, "data": {"dl_dst": "12:34:56:78:01:02", "nw_src": "123.123.2.2", "dl_src": "00:00:00:00:00:02", "nw_dst": "123.123.1.2"}, "class": "ofp_packet_out", "actions": ["output(1)"]}, 2, ["c", "1"]], "timeout_disallowed": false, "time": [1371419282, 749183], "controller_id": "c1", "timed_out": true, "dependent_labels": [], "dpid": 2, "label": "i144", "class": "ControlMessageReceive", "round": -1, "prunable": true}
{"timeout_disallowed": false, "fingerprint": ["DataplanePermit", {"dl_dst": "12:34:56:78:01:02", "nw_src": "123.123.2.2", "dl_src": "00:00:00:00:00:02", "nw_dst": "123.123.1.2"}, 2, 1], "timed_out": true, "label": "i145", "passive": false, "dependent_labels": [], "time": [1371419283, 301240], "class": "DataplanePermit", "round": -1, "prunable": true}
{"fingerprint": ["ControlMessageReceive", {"in_port": 65535, "data": {"class": "lldp"}, "class": "ofp_packet_out", "actions": ["output(1)"]}, 2, ["c", "1"]], "timeout_disallowed": false, "time": [1371419283, 302578], "controller_id": "c1", "timed_out": false, "dependent_labels": [], "dpid": 2, "label": "i146", "class": "ControlMessageReceive", "round": -1, "prunable": true}
{"fingerprint": ["ControlMessageSend", {"data": {"dl_dst": "12:34:56:78:01:02", "nw_src": "123.123.2.2", "dl_src": "00:00:00:00:00:02", "nw_dst": "123.123.1.2"}, "class": "ofp_packet_in", "in_port": 1}, 1, ["c", "1"]], "timeout_disallowed": false, "time": [1371419283, 911121], "controller_id": "c1", "timed_out": true, "dependent_labels": [], "dpid": 1, "label": "i147", "class": "ControlMessageSend", "round": -1, "prunable": true}
{"name": null, "timeout_disallowed": false, "fingerprint": ["ControllerStateChange", "Can't get from %s to %s", "c1"], "controller_id": "c1", "value": ["(EthAddr('00:00:00:00:00:02'), EthAddr('12:34:56:78:01:02'))"], "timed_out": true, "dependent_labels": [], "time": [1371419284, 515156], "label": "i148", "class": "ControllerStateChange", "round": -1, "prunable": true}
{"name": null, "timeout_disallowed": false, "fingerprint": ["ControllerStateChange", "Dest unreachable (%s -> %s)", "c1"], "controller_id": "c1", "value": ["(EthAddr('00:00:00:00:00:02'), EthAddr('12:34:56:78:01:02'))"], "timed_out": true, "dependent_labels": [], "time": [1371419285, 161853], "label": "i149", "class": "ControllerStateChange", "round": -1, "prunable": true}
{"timeout_disallowed": false, "fingerprint": ["DataplanePermit", {"class": "lldp"}, 2, 1], "timed_out": false, "label": "i150", "passive": false, "dependent_labels": [], "time": [1371419285, 162628], "class": "DataplanePermit", "round": -1, "prunable": true}
{"fingerprint": ["ControlMessageReceive", {"in_port": 65535, "data": {"dl_dst": "00:00:00:00:00:02", "nw_src": "123.123.1.2", "dl_src": "00:00:00:00:00:01", "nw_dst": "123.123.2.2"}, "class": "ofp_packet_out", "actions": ["output(1)"]}, 1, ["c", "1"]], "timeout_disallowed": false, "time": [1371419285, 766188], "controller_id": "c1", "timed_out": true, "dependent_labels": [], "dpid": 1, "label": "i151", "class": "ControlMessageReceive", "round": -1, "prunable": true}
{"fingerprint": ["ControlMessageSend", {"data": {"class": "lldp"}, "class": "ofp_packet_in", "in_port": 1}, 1, ["c", "1"]], "timeout_disallowed": false, "time": [1371419285, 766865], "controller_id": "c1", "timed_out": false, "dependent_labels": [], "dpid": 1, "label": "i152", "class": "ControlMessageSend", "round": -1, "prunable": true}
{"name": null, "timeout_disallowed": false, "fingerprint": ["ControllerStateChange", "link detected: %s.%i -> %s.%i", "c1"], "controller_id": "c1", "value": ["('00-00-00-00-00-02', 1, '00-00-00-00-00-01', 1)"], "timed_out": false, "dependent_labels": [], "time": [1371419285, 771223], "label": "i153", "class": "ControllerStateChange", "round": -1, "prunable": true}
{"name": null, "timeout_disallowed": false, "fingerprint": ["ControllerStateChange", "Unlearned %s", "c1"], "controller_id": "c1", "value": ["(EthAddr('00:00:00:00:00:02'),)"], "timed_out": false, "dependent_labels": [], "time": [1371419285, 772556], "label": "i154", "class": "ControllerStateChange", "round": -1, "prunable": true}
{"name": null, "timeout_disallowed": false, "fingerprint": ["ControllerStateChange", "Unlearned %s", "c1"], "controller_id": "c1", "value": ["(EthAddr('12:34:56:78:01:02'),)"], "timed_out": false, "dependent_labels": [], "time": [1371419285, 774089], "label": "i155", "class": "ControllerStateChange", "round": -1, "prunable": true}
{"class": "DataplaneDrop", "fingerprint": ["DataplaneDrop", {"dl_dst": "00:00:00:00:00:02", "nw_src": "123.123.1.2", "dl_src": "00:00:00:00:00:01", "nw_dst": "123.123.2.2"}, 1, 1], "timed_out": true, "label": "e156", "passive": false, "dependent_labels": [], "time": [1371419285, 774280], "round": -1, "prunable": true}
{"fingerprint": ["ControlMessageReceive", {"hard_timeout": 0, "actions": [], "priority": 32768, "idle_timeout": 0, "command": "delete", "out_port": 65535, "flags": 0, "class": "ofp_flow_mod", "match": "x^L"}, 2, ["c", "1"]], "timeout_disallowed": false, "time": [1371419285, 774880], "controller_id": "c1", "timed_out": false, "dependent_labels": [], "dpid": 2, "label": "i157", "class": "ControlMessageReceive", "round": -1, "prunable": true}
{"fingerprint": ["ControlMessageReceive", {"hard_timeout": 0, "actions": [], "priority": 32768, "idle_timeout": 0, "command": "delete", "out_port": 65535, "flags": 0, "class": "ofp_flow_mod", "match": "x^L"}, 1, ["c", "1"]], "timeout_disallowed": false, "time": [1371419285, 775622], "controller_id": "c1", "timed_out": false, "dependent_labels": [], "dpid": 1, "label": "i158", "class": "ControlMessageReceive", "round": -1, "prunable": true}
{"fingerprint": ["ControlMessageReceive", {"in_port": 1, "data": [], "class": "ofp_packet_out", "actions": []}, 1, ["c", "1"]], "timeout_disallowed": false, "time": [1371419285, 776223], "controller_id": "c1", "timed_out": false, "dependent_labels": [], "dpid": 1, "label": "i159", "class": "ControlMessageReceive", "round": -1, "prunable": true}
{"dp_event": {"interface": {"hw_addr": "12:34:56:78:02:02", "ips": ["123.123.2.2"], "name": "eth2"}, "packet": "////////EjRWeAICCAYAAQgABgQAARI0VngCAnt7AgIAAAAAAAB7ewEC"}, "prunable": true, "dependent_labels": [], "class": "TrafficInjection", "time": [1371419285, 776853], "fingerprint": ["TrafficInjection", {"interface": {"hw_addr": "12:34:56:78:02:02", "ips": ["123.123.2.2"], "name": "eth2"}, "packet": "////////EjRWeAICCAYAAQgABgQAARI0VngCAnt7AgIAAAAAAAB7ewEC"}], "timed_out": false, "round": -1, "label": "e160"}
{"class": "DataplaneDrop", "fingerprint": ["DataplaneDrop", {"class": "arp"}, "host:[IPAddr('123.123.2.2')]", "12:34:56:78:02:02"], "timed_out": false, "label": "e161", "passive": false, "dependent_labels": [], "time": [1371419285, 777266], "round": -1, "prunable": true}
{"fingerprint": ["ControlMessageReceive", {"in_port": 65535, "data": {"class": "lldp"}, "class": "ofp_packet_out", "actions": ["output(1)"]}, 1, ["c", "1"]], "timeout_disallowed": false, "time": [1371419285, 777792], "controller_id": "c1", "timed_out": false, "dependent_labels": [], "dpid": 1, "label": "i162", "class": "ControlMessageReceive", "round": -1, "prunable": true}
{"timeout_disallowed": false, "fingerprint": ["DataplanePermit", {"class": "lldp"}, 1, 1], "timed_out": false, "label": "i163", "passive": false, "dependent_labels": [], "time": [1371419285, 778598], "class": "DataplanePermit", "round": -1, "prunable": true}
{"fingerprint": ["ControlMessageSend", {"data": {"class": "lldp"}, "class": "ofp_packet_in", "in_port": 1}, 2, ["c", "1"]], "timeout_disallowed": false, "time": [1371419285, 778935], "controller_id": "c1", "timed_out": false, "dependent_labels": [], "dpid": 2, "label": "i164", "class": "ControlMessageSend", "round": -1, "prunable": true}
{"name": null, "timeout_disallowed": false, "fingerprint": ["ControllerStateChange", "link detected: %s.%i -> %s.%i", "c1"], "controller_id": "c1", "value": ["('00-00-00-00-00-01', 1, '00-00-00-00-00-02', 1)"], "timed_out": false, "dependent_labels": [], "time": [1371419285, 785644], "label": "i165", "class": "ControllerStateChange", "round": -1, "prunable": true}
{"fingerprint": ["ControlMessageReceive", {"in_port": 1, "data": [], "class": "ofp_packet_out", "actions": []}, 2, ["c", "1"]], "timeout_disallowed": false, "time": [1371419285, 785972], "controller_id": "c1", "timed_out": false, "dependent_labels": [], "dpid": 2, "label": "i166", "class": "ControlMessageReceive", "round": -1, "prunable": true}
{"fingerprint": ["ControlMessageReceive", {"hard_timeout": 0, "actions": [], "priority": 32768, "idle_timeout": 0, "command": "delete", "out_port": 65535, "flags": 0, "class": "ofp_flow_mod", "match": "x^L"}, 2, ["c", "1"]], "timeout_disallowed": false, "time": [1371419285, 786496], "controller_id": "c1", "timed_out": false, "dependent_labels": [], "dpid": 2, "label": "i167", "class": "ControlMessageReceive", "round": -1, "prunable": true}
{"fingerprint": ["ControlMessageReceive", {"hard_timeout": 0, "actions": [], "priority": 32768, "idle_timeout": 0, "command": "delete", "out_port": 65535, "flags": 0, "class": "ofp_flow_mod", "match": "x^L"}, 1, ["c", "1"]], "timeout_disallowed": false, "time": [1371419285, 787172], "controller_id": "c1", "timed_out": false, "dependent_labels": [], "dpid": 1, "label": "i168", "class": "ControlMessageReceive", "round": -1, "prunable": true}
{"timeout_disallowed": false, "fingerprint": ["DataplanePermit", {"class": "arp"}, "host:[IPAddr('123.123.1.2')]", "12:34:56:78:01:02"], "timed_out": true, "label": "i171", "passive": false, "dependent_labels": [], "time": [1371419286, 392461], "class": "DataplanePermit", "round": -1, "prunable": true}
{"timeout_disallowed": false, "fingerprint": ["DataplanePermit", {"class": "arp"}, 1, 1], "timed_out": true, "label": "i172", "passive": false, "dependent_labels": [], "time": [1371419287, 19095], "class": "DataplanePermit", "round": -1, "prunable": true}
{"fingerprint": ["ControlMessageSend", {"data": {"class": "arp"}, "class": "ofp_packet_in", "in_port": 1}, 2, ["c", "1"]], "timeout_disallowed": false, "time": [1371419287, 623065], "controller_id": "c1", "timed_out": true, "dependent_labels": [], "dpid": 2, "label": "i173", "class": "ControlMessageSend", "round": -1, "prunable": true}
{"name": null, "timeout_disallowed": false, "fingerprint": ["ControllerStateChange", "Learned %s at %s.%i", "c1"], "controller_id": "c1", "value": ["(EthAddr('12:34:56:78:01:02'), 00-00-00-00-00-02, 1)"], "timed_out": true, "dependent_labels": [], "time": [1371419288, 274323], "label": "i176", "class": "ControllerStateChange", "round": -1, "prunable": true}
{"name": null, "timeout_disallowed": false, "fingerprint": ["ControllerStateChange", "Installing path for %s -> %s %04x (%i hops)", "c1"], "controller_id": "c1", "value": ["(EthAddr('12:34:56:78:01:02'), EthAddr('12:34:56:78:02:02'), 2054, 2)"], "timed_out": true, "dependent_labels": [], "time": [1371419288, 877755], "label": "i177", "class": "ControllerStateChange", "round": -1, "prunable": true}
{"timeout_disallowed": false, "fingerprint": ["DataplanePermit", {"dl_dst": "12:34:56:78:02:02", "nw_src": "123.123.2.2", "dl_src": "12:34:56:78:02:02", "nw_dst": "123.123.2.2"}, "host:[IPAddr('123.123.2.2')]", "12:34:56:78:02:02"], "timed_out": true, "label": "i178", "passive": false, "dependent_labels": [], "time": [1371419289, 528390], "class": "DataplanePermit", "round": -1, "prunable": true}
{"fingerprint": ["ControlMessageReceive", {"hard_timeout": 30, "actions": ["output(1)"], "priority": 32768, "idle_timeout": 10, "command": "add", "out_port": 65535, "flags": 0, "class": "ofp_flow_mod", "match": "dl_src:12:34:56:78:01:02,dl_dst:12:34:56:78:02:02,dl_vlan:65535,dl_vlan_pcp:0,dl_type:2054,nw_proto:2,nw_src:123.123.1.2/32,nw_dst:123.123.2.2/32"}, 2, ["c", "1"]], "timeout_disallowed": false, "time": [1371419290, 131521], "controller_id": "c1", "timed_out": true, "dependent_labels": [], "dpid": 2, "label": "i179", "class": "ControlMessageReceive", "round": -1, "prunable": true}
{"fingerprint": ["ControlMessageReceive", {"hard_timeout": 30, "actions": ["output(7)"], "priority": 32768, "idle_timeout": 10, "command": "add", "out_port": 65535, "flags": 0, "class": "ofp_flow_mod", "match": "dl_src:12:34:56:78:01:02,dl_dst:12:34:56:78:02:02,dl_vlan:65535,dl_vlan_pcp:0,dl_type:2054,nw_proto:2,nw_src:123.123.1.2/32,nw_dst:123.123.2.2/32"}, 1, ["c", "1"]], "timeout_disallowed": false, "time": [1371419290, 783089], "controller_id": "c1", "timed_out": true, "dependent_labels": [], "dpid": 1, "label": "i180", "class": "ControlMessageReceive", "round": -1, "prunable": true}
{"fingerprint": ["ControlMessageSend", {"reason": 0, "class": "ofp_port_status", "desc": [4, "00:00:00:00:02:02"]}, 2, ["c", "1"]], "timeout_disallowed": false, "time": [1371419291, 387054], "controller_id": "c1", "timed_out": true, "dependent_labels": [], "dpid": 2, "label": "i181", "class": "ControlMessageSend", "round": -1, "prunable": true}
{"fingerprint": ["ControlMessageSend", {"reason": 1, "class": "ofp_port_status", "desc": [7, "00:00:00:00:02:02"]}, 1, ["c", "1"]], "timeout_disallowed": false, "time": [1371419292, 37672], "controller_id": "c1", "timed_out": true, "dependent_labels": [], "dpid": 1, "label": "i182", "class": "ControlMessageSend", "round": -1, "prunable": true}
{"fingerprint": ["ControlMessageSend", {"data": {"dl_dst": "12:34:56:78:02:02", "nw_src": "123.123.2.2", "dl_src": "12:34:56:78:02:02", "nw_dst": "123.123.2.2"}, "class": "ofp_packet_in", "in_port": 4}, 2, ["c", "1"]], "timeout_disallowed": false, "time": [1371419292, 641685], "controller_id": "c1", "timed_out": true, "dependent_labels": [], "dpid": 2, "label": "i183", "class": "ControlMessageSend", "round": -1, "prunable": true}
{"name": null, "timeout_disallowed": false, "fingerprint": ["ControllerStateChange", "%s moved from %s.%i to %s.%i?", "c1"], "controller_id": "c1", "value": ["(EthAddr('12:34:56:78:02:02'), '00-00-00-00-00-01', 7, '00-00-00-00-00-02', 4)"], "timed_out": true, "dependent_labels": [], "time": [1371419293, 292258], "label": "i184", "class": "ControllerStateChange", "round": -1, "prunable": true}
{"name": null, "timeout_disallowed": false, "fingerprint": ["ControllerStateChange", "Learned %s at %s.%i", "c1"], "controller_id": "c1", "value": ["(EthAddr('12:34:56:78:02:02'), 00-00-00-00-00-02, 4)"], "timed_out": true, "dependent_labels": [], "time": [1371419293, 896031], "label": "i185", "class": "ControllerStateChange", "round": -1, "prunable": true}
{"name": null, "timeout_disallowed": false, "fingerprint": ["ControllerStateChange", "Installing path for %s -> %s %04x (%i hops)", "c1"], "controller_id": "c1", "value": ["(EthAddr('12:34:56:78:02:02'), EthAddr('12:34:56:78:02:02'), 2048, 1)"], "timed_out": true, "dependent_labels": [], "time": [1371419294, 545501], "label": "i186", "class": "ControllerStateChange", "round": -1, "prunable": true}
{"fingerprint": ["ControlMessageReceive", {"hard_timeout": 30, "actions": ["output(4)"], "priority": 32768, "idle_timeout": 10, "command": "add", "out_port": 65535, "flags": 0, "class": "ofp_flow_mod", "match": "dl_src:12:34:56:78:02:02,dl_dst:12:34:56:78:02:02,dl_vlan:65535,dl_vlan_pcp:0,dl_type:2048,nw_tos:0,nw_proto:1,nw_src:123.123.2.2/32,nw_dst:123.123.2.2/32,tp_src:0,tp_dst:0"}, 2, ["c", "1"]], "timeout_disallowed": false, "time": [1371419295, 149578], "controller_id": "c1", "timed_out": true, "dependent_labels": [], "dpid": 2, "label": "i187", "class": "ControlMessageReceive", "round": -1, "prunable": true}
{"timeout_disallowed": false, "fingerprint": ["DataplanePermit", {"dl_dst": "12:34:56:78:01:02", "nw_src": "123.123.2.2", "dl_src": "12:34:56:78:02:02", "nw_dst": "123.123.1.2"}, "host:[IPAddr('123.123.2.2')]", "12:34:56:78:02:02"], "timed_out": true, "label": "i189", "passive": false, "dependent_labels": [], "time": [1371419295, 797517], "class": "DataplanePermit", "round": -1, "prunable": true}
{"fingerprint": ["ControlMessageSend", {"data": {"dl_dst": "12:34:56:78:01:02", "nw_src": "123.123.2.2", "dl_src": "12:34:56:78:02:02", "nw_dst": "123.123.1.2"}, "class": "ofp_packet_in", "in_port": 4}, 2, ["c", "1"]], "timeout_disallowed": false, "time": [1371419296, 401506], "controller_id": "c1", "timed_out": true, "dependent_labels": [], "dpid": 2, "label": "i190", "class": "ControlMessageSend", "round": -1, "prunable": true}
{"name": null, "timeout_disallowed": false, "fingerprint": ["ControllerStateChange", "Installing path for %s -> %s %04x (%i hops)", "c1"], "controller_id": "c1", "value": ["(EthAddr('12:34:56:78:02:02'), EthAddr('12:34:56:78:01:02'), 2048, 1)"], "timed_out": true, "dependent_labels": [], "time": [1371419297, 51644], "label": "i191", "class": "ControllerStateChange", "round": -1, "prunable": true}
{"fingerprint": ["ControlMessageReceive", {"hard_timeout": 30, "actions": ["output(1)"], "priority": 32768, "idle_timeout": 10, "command": "add", "out_port": 65535, "flags": 0, "class": "ofp_flow_mod", "match": "dl_src:12:34:56:78:02:02,dl_dst:12:34:56:78:01:02,dl_vlan:65535,dl_vlan_pcp:0,dl_type:2048,nw_tos:0,nw_proto:1,nw_src:123.123.2.2/32,nw_dst:123.123.1.2/32,tp_src:8,tp_dst:0"}, 2, ["c", "1"]], "timeout_disallowed": false, "time": [1371419297, 656116], "controller_id": "c1", "timed_out": true, "dependent_labels": [], "dpid": 2, "label": "i192", "class": "ControlMessageReceive", "round": -1, "prunable": true}
{"timeout_disallowed": false, "fingerprint": ["DataplanePermit", {"dl_dst": "12:34:56:78:01:02", "nw_src": "123.123.2.2", "dl_src": "12:34:56:78:02:02", "nw_dst": "123.123.1.2"}, 2, 1], "timed_out": true, "label": "i193", "passive": false, "dependent_labels": [], "time": [1371419298, 307354], "class": "DataplanePermit", "round": -1, "prunable": true}
{"fingerprint": ["ControlMessageSend", {"data": {"dl_dst": "12:34:56:78:01:02", "nw_src": "123.123.2.2", "dl_src": "12:34:56:78:02:02", "nw_dst": "123.123.1.2"}, "class": "ofp_packet_in", "in_port": 1}, 1, ["c", "1"]], "timeout_disallowed": false, "time": [1371419298, 910880], "controller_id": "c1", "timed_out": true, "dependent_labels": [], "dpid": 1, "label": "i194", "class": "ControlMessageSend", "round": -1, "prunable": true}
{"name": null, "timeout_disallowed": false, "fingerprint": ["ControllerStateChange", "Packet from %s arrived at %s.%i without flow", "c1"], "controller_id": "c1", "value": ["(EthAddr('12:34:56:78:02:02'), '00-00-00-00-00-01', 1)"], "timed_out": true, "dependent_labels": [], "time": [1371419299, 561955], "label": "i197", "class": "ControllerStateChange", "round": -1, "prunable": true}
{"name": null, "timeout_disallowed": false, "fingerprint": ["ControllerStateChange", "Installing path for %s -> %s %04x (%i hops)", "c1"], "controller_id": "c1", "value": ["(EthAddr('12:34:56:78:02:02'), EthAddr('12:34:56:78:01:02'), 2048, 2)"], "timed_out": true, "dependent_labels": [], "time": [1371419300, 165456], "label": "i198", "class": "ControllerStateChange", "round": -1, "prunable": true}
{"timeout_disallowed": false, "fingerprint": ["DataplanePermit", {"dl_dst": "12:34:56:78:01:02", "nw_src": "123.123.1.2", "dl_src": "12:34:56:78:01:02", "nw_dst": "123.123.1.2"}, "host:[IPAddr('123.123.1.2')]", "12:34:56:78:01:02"], "timed_out": true, "label": "i199", "passive": false, "dependent_labels": [], "time": [1371419300, 816256], "class": "DataplanePermit", "round": -1, "prunable": true}
{"fingerprint": ["ControlMessageReceive", {"hard_timeout": 30, "actions": ["output(1)"], "priority": 32768, "idle_timeout": 10, "command": "add", "out_port": 65535, "flags": 0, "class": "ofp_flow_mod", "match": "dl_src:12:34:56:78:02:02,dl_dst:12:34:56:78:01:02,dl_vlan:65535,dl_vlan_pcp:0,dl_type:2048,nw_tos:0,nw_proto:1,nw_src:123.123.2.2/32,nw_dst:123.123.1.2/32,tp_src:8,tp_dst:0"}, 1, ["c", "1"]], "timeout_disallowed": false, "time": [1371419301, 420019], "controller_id": "c1", "timed_out": true, "dependent_labels": [], "dpid": 1, "label": "i200", "class": "ControlMessageReceive", "round": -1, "prunable": true}
{"fingerprint": ["ControlMessageReceive", {"hard_timeout": 30, "actions": ["output(1)"], "priority": 32768, "idle_timeout": 10, "command": "add", "out_port": 65535, "flags": 0, "class": "ofp_flow_mod", "match": "dl_src:12:34:56:78:02:02,dl_dst:12:34:56:78:01:02,dl_vlan:65535,dl_vlan_pcp:0,dl_type:2048,nw_tos:0,nw_proto:1,nw_src:123.123.2.2/32,nw_dst:123.123.1.2/32,tp_src:8,tp_dst:0"}, 2, ["c", "1"]], "timeout_disallowed": false, "time": [1371419302, 70808], "controller_id": "c1", "timed_out": true, "dependent_labels": [], "dpid": 2, "label": "i201", "class": "ControlMessageReceive", "round": -1, "prunable": true}
{"fingerprint": ["ControlMessageSend", {"reason": 1, "class": "ofp_port_status", "desc": [5, "00:00:00:00:01:02"]}, 1, ["c", "1"]], "timeout_disallowed": false, "time": [1371419302, 674757], "controller_id": "c1", "timed_out": true, "dependent_labels": [], "dpid": 1, "label": "i202", "class": "ControlMessageSend", "round": -1, "prunable": true}
{"fingerprint": ["ControlMessageSend", {"data": {"dl_dst": "12:34:56:78:01:02", "nw_src": "123.123.1.2", "dl_src": "12:34:56:78:01:02", "nw_dst": "123.123.1.2"}, "class": "ofp_packet_in", "in_port": 8}, 1, ["c", "1"]], "timeout_disallowed": false, "time": [1371419303, 325338], "controller_id": "c1", "timed_out": true, "dependent_labels": [], "dpid": 1, "label": "i203", "class": "ControlMessageSend", "round": -1, "prunable": true}
{"fingerprint": ["ControlMessageSend", {"reason": 0, "class": "ofp_port_status", "desc": [8, "00:00:00:00:01:02"]}, 1, ["c", "1"]], "timeout_disallowed": false, "time": [1371419303, 929264], "controller_id": "c1", "timed_out": true, "dependent_labels": [], "dpid": 1, "label": "i204", "class": "ControlMessageSend", "round": -1, "prunable": true}
{"name": null, "timeout_disallowed": false, "fingerprint": ["ControllerStateChange", "%s moved from %s.%i to %s.%i?", "c1"], "controller_id": "c1", "value": ["(EthAddr('12:34:56:78:01:02'), '00-00-00-00-00-02', 1, '00-00-00-00-00-01', 8)"], "timed_out": true, "dependent_labels": [], "time": [1371419304, 578693], "label": "i205", "class": "ControllerStateChange", "round": -1, "prunable": true}
{"name": null, "timeout_disallowed": false, "fingerprint": ["ControllerStateChange", "Learned %s at %s.%i", "c1"], "controller_id": "c1", "value": ["(EthAddr('12:34:56:78:01:02'), 00-00-00-00-00-01, 8)"], "timed_out": true, "dependent_labels": [], "time": [1371419305, 182407], "label": "i206", "class": "ControllerStateChange", "round": -1, "prunable": true}
{"name": null, "timeout_disallowed": false, "fingerprint": ["ControllerStateChange", "Installing path for %s -> %s %04x (%i hops)", "c1"], "controller_id": "c1", "value": ["(EthAddr('12:34:56:78:01:02'), EthAddr('12:34:56:78:01:02'), 2048, 1)"], "timed_out": true, "dependent_labels": [], "time": [1371419305, 833089], "label": "i207", "class": "ControllerStateChange", "round": -1, "prunable": true}
{"fingerprint": ["ControlMessageReceive", {"hard_timeout": 30, "actions": ["output(8)"], "priority": 32768, "idle_timeout": 10, "command": "add", "out_port": 65535, "flags": 0, "class": "ofp_flow_mod", "match": "dl_src:12:34:56:78:01:02,dl_dst:12:34:56:78:01:02,dl_vlan:65535,dl_vlan_pcp:0,dl_type:2048,nw_tos:0,nw_proto:1,nw_src:123.123.1.2/32,nw_dst:123.123.1.2/32,tp_src:0,tp_dst:0"}, 1, ["c", "1"]], "timeout_disallowed": false, "time": [1371419306, 437294], "controller_id": "c1", "timed_out": true, "dependent_labels": [], "dpid": 1, "label": "i208", "class": "ControlMessageReceive", "round": -1, "prunable": true}
{"wait_time": 1.0, "dependent_labels": [], "time": [1371419306, 437294], "class": "WaitTime", "prunable": true, "fingerprint": ["WaitTime"], "timed_out": false, "round": -1, "label": "e217"}
