{"timeout_disallowed": true, "fingerprint": ["ConnectToControllers"], "timed_out": false, "label": "e1", "dependent_labels": [], "time": [1402358774, 967805], "replay_time": [1402375491, 943864], "class": "ConnectToControllers", "round": 0, "prunable": false}
{"dependent_labels": [], "class": "TrafficInjection", "fingerprint": ["TrafficInjection", {"interface": {"hw_addr": "12:34:56:78:01:02", "ips": ["123.123.1.2"], "__type__": "sts.entities.hosts.HostInterface", "name": "eth1"}, "packet": "EjRWeAICEjRWeAECCABFAABIS7EAAEABNQp7ewECe3sCAggABjdQaW5nUGluZ1BpbmdQaW5nUGluZ1BpbmdQaW5nUGluZ1BpbmdQaW5nUGluZ1Bpbmc="}, null], "timed_out": false, "label": "e158", "dp_event": {"interface": {"hw_addr": "12:34:56:78:01:02", "ips": ["123.123.1.2"], "__type__": "sts.entities.hosts.HostInterface", "name": "eth1"}, "packet": "EjRWeAICEjRWeAECCABFAABIS7EAAEABNQp7ewECe3sCAggABjdQaW5nUGluZ1BpbmdQaW5nUGluZ1BpbmdQaW5nUGluZ1BpbmdQaW5nUGluZ1Bpbmc="}, "time": [1402358906, 546946], "replay_time": [1402375623, 528415], "host_id": null, "round": 28, "prunable": true}
{"legacy_invariant_check": false, "class": "CheckInvariants", "fingerprint": "N/A", "timed_out": false, "label": "e161", "dependent_labels": [], "invariant_name": "check_for_file", "invariant_check_name": "check_for_file", "time": [1402358912, 559867], "replay_time": [1402375630, 425753], "invariant_check": null, "round": 30, "prunable": true}
{"dependent_labels": [], "class": "TrafficInjection", "fingerprint": ["TrafficInjection", {"interface": {"hw_addr": "12:34:56:78:02:02", "ips": ["123.123.2.2"], "__type__": "sts.entities.hosts.HostInterface", "name": "eth2"}, "packet": "EjRWeAECEjRWeAICCABFAABIS7MAAEABNQh7ewICe3sBAggABjdQaW5nUGluZ1BpbmdQaW5nUGluZ1BpbmdQaW5nUGluZ1BpbmdQaW5nUGluZ1Bpbmc="}, null], "timed_out": false, "label": "e182", "dp_event": {"interface": {"hw_addr": "12:34:56:78:02:02", "ips": ["123.123.2.2"], "__type__": "sts.entities.hosts.HostInterface", "name": "eth2"}, "packet": "EjRWeAECEjRWeAICCABFAABIS7MAAEABNQh7ewICe3sBAggABjdQaW5nUGluZ1BpbmdQaW5nUGluZ1BpbmdQaW5nUGluZ1BpbmdQaW5nUGluZ1Bpbmc="}, "time": [1402358925, 509893], "replay_time": [1402375643, 386247], "host_id": null, "round": 34, "prunable": true}
{"legacy_invariant_check": false, "class": "CheckInvariants", "fingerprint": "N/A", "timed_out": false, "label": "e185", "dependent_labels": [], "invariant_name": "check_for_file", "invariant_check_name": "check_for_file", "time": [1402358928, 518364], "replay_time": [1402375647, 180614], "invariant_check": null, "round": 35, "prunable": true}
{"class": "ControllerFailure", "fingerprint": ["ControllerFailure", "c1"], "controller_id": "c1", "timed_out": false, "dependent_labels": ["e220"], "time": [1402358932, 428637], "replay_time": [1402375651, 510126], "label": "e194", "round": 36, "prunable": true}
{"legacy_invariant_check": false, "class": "CheckInvariants", "fingerprint": "N/A", "timed_out": false, "label": "e211", "dependent_labels": [], "invariant_name": "check_for_file", "invariant_check_name": "check_for_file", "time": [1402358944, 858149], "replay_time": [1402375664, 730532], "invariant_check": null, "round": 40, "prunable": true}
{"class": "ControllerRecovery", "fingerprint": ["ControllerRecovery", "c1"], "controller_id": "c1", "timed_out": false, "dependent_labels": [], "time": [1402358957, 825084], "replay_time": [1402375710, 872724], "label": "e220", "round": 44, "prunable": true}
{"legacy_invariant_check": false, "class": "CheckInvariants", "fingerprint": "N/A", "timed_out": false, "label": "e229", "dependent_labels": [], "invariant_name": "check_for_file", "invariant_check_name": "check_for_file", "time": [1402358993, 965072], "replay_time": [1402375747, 867543], "invariant_check": null, "round": 45, "prunable": true}
{"class": "InvariantViolation", "fingerprint": ["InvariantViolation"], "persistent": true, "timed_out": false, "dependent_labels": [], "time": [1402359026, 386768], "violations": ["bug_file_detected"], "label": "e308", "round": 55, "prunable": true}
{"class": "InvariantViolation", "fingerprint": ["InvariantViolation"], "persistent": false, "timed_out": false, "dependent_labels": [], "time": [1402375749, 45165], "violations": ["bug_file_detected"], "label": "e455", "round": -1, "prunable": true}
{"wait_time": 1.0, "dependent_labels": [], "fingerprint": ["WaitTime"], "time": [1402375749, 45165], "class": "WaitTime", "prunable": true, "timed_out": false, "round": -1, "label": "e456"}
