{"timeout_disallowed": true, "fingerprint": ["ConnectToControllers"], "timed_out": false, "label": "e1", "dependent_labels": [], "time": [1390616566, 187768], "replay_time": [1390622426, 558339], "class": "ConnectToControllers", "round": 0, "prunable": false}
{"pass_through_sends": false, "timeout_disallowed": false, "time": [1390616566, 188736], "controller_id": "c1", "fingerprint": ["ControlMessageReceive", {"class": "ofp_hello"}, 2, ["c", "1"]], "timed_out": false, "dependent_labels": [], "ignore_whitelisted_packets": false, "dpid": 2, "replay_time": [1390622426, 559900], "label": "i2", "class": "ControlMessageReceive", "b64_packet": "AQAACAAAAAM=", "round": 1, "prunable": true}
{"pass_through_sends": false, "timeout_disallowed": false, "time": [1390616566, 189184], "controller_id": "c1", "fingerprint": ["ControlMessageReceive", {"class": "ofp_hello"}, 1, ["c", "1"]], "timed_out": false, "dependent_labels": [], "ignore_whitelisted_packets": false, "dpid": 1, "replay_time": [1390622426, 560491], "label": "i3", "class": "ControlMessageReceive", "b64_packet": "AQAACAAAAAE=", "round": 1, "prunable": true}
{"pass_through_sends": false, "timeout_disallowed": false, "time": [1390616566, 189396], "controller_id": "c1", "fingerprint": ["ControlMessageSend", {"class": "ofp_hello"}, 2, ["c", "1"]], "timed_out": false, "dependent_labels": [], "ignore_whitelisted_packets": false, "dpid": 2, "replay_time": [1390622426, 560816], "label": "i4", "class": "ControlMessageSend", "b64_packet": "AQAACAAAAAE=", "round": 1, "prunable": true}
{"pass_through_sends": false, "timeout_disallowed": false, "time": [1390616566, 189612], "controller_id": "c1", "fingerprint": ["ControlMessageSend", {"class": "ofp_hello"}, 1, ["c", "1"]], "timed_out": false, "dependent_labels": [], "ignore_whitelisted_packets": false, "dpid": 1, "replay_time": [1390622426, 561041], "label": "i5", "class": "ControlMessageSend", "b64_packet": "AQAACAAAAAM=", "round": 1, "prunable": true}
{"pass_through_sends": false, "timeout_disallowed": false, "time": [1390616566, 291100], "controller_id": "c1", "fingerprint": ["ControlMessageReceive", {"class": "ofp_features_request"}, 2, ["c", "1"]], "timed_out": false, "dependent_labels": [], "ignore_whitelisted_packets": false, "dpid": 2, "replay_time": [1390622426, 562660], "label": "i6", "class": "ControlMessageReceive", "b64_packet": "AQUACAAAAAU=", "round": 2, "prunable": true}
{"pass_through_sends": false, "timeout_disallowed": false, "time": [1390616566, 291533], "controller_id": "c1", "fingerprint": ["ControlMessageReceive", {"class": "ofp_features_request"}, 1, ["c", "1"]], "timed_out": false, "dependent_labels": [], "ignore_whitelisted_packets": false, "dpid": 1, "replay_time": [1390622426, 563233], "label": "i7", "class": "ControlMessageReceive", "b64_packet": "AQUACAAAAAc=", "round": 2, "prunable": true}
{"pass_through_sends": false, "timeout_disallowed": false, "time": [1390616566, 291905], "controller_id": "c1", "fingerprint": ["ControlMessageSend", {"datapath_id": 2, "class": "ofp_features_reply"}, 2, ["c", "1"]], "timed_out": false, "dependent_labels": [], "ignore_whitelisted_packets": false, "dpid": 2, "replay_time": [1390622426, 563558], "label": "i8", "class": "ControlMessageSend", "b64_packet": "AQYAgAAAAAUAAAAAAAAAAgAAAGQBAAAAAAAA7wAAB/8AAQAAAAACAWV0aDEAAAAAAAAAAAAAAAAAAAAAAAAAAAAAAAAAAAAAAAAAAAAAAAAAAgAAAAACAmV0aDIAAAAAAAAAAAAAAAAAAAAAAAAAAAAAAAAAAAAAAAAAAAAAAAA=", "round": 2, "prunable": true}
{"pass_through_sends": false, "timeout_disallowed": false, "time": [1390616566, 292323], "controller_id": "c1", "fingerprint": ["ControlMessageSend", {"datapath_id": 1, "class": "ofp_features_reply"}, 1, ["c", "1"]], "timed_out": false, "dependent_labels": [], "ignore_whitelisted_packets": false, "dpid": 1, "replay_time": [1390622426, 563924], "label": "i9", "class": "ControlMessageSend", "b64_packet": "AQYAgAAAAAcAAAAAAAAAAQAAAGQBAAAAAAAA7wAAB/8AAQAAAAABAWV0aDEAAAAAAAAAAAAAAAAAAAAAAAAAAAAAAAAAAAAAAAAAAAAAAAAAAgAAAAABAmV0aDIAAAAAAAAAAAAAAAAAAAAAAAAAAAAAAAAAAAAAAAAAAAAAAAA=", "round": 2, "prunable": true}
{"pass_through_sends": false, "timeout_disallowed": false, "time": [1390616566, 394266], "controller_id": "c1", "fingerprint": ["ControlMessageReceive", {"class": "ofp_set_config"}, 1, ["c", "1"]], "timed_out": false, "dependent_labels": [], "ignore_whitelisted_packets": false, "dpid": 1, "replay_time": [1390622426, 565869], "label": "i10", "class": "ControlMessageReceive", "b64_packet": "AQkADAAAAA8AAACA", "round": 3, "prunable": true}
{"pass_through_sends": false, "timeout_disallowed": false, "time": [1390616566, 394905], "controller_id": "c1", "fingerprint": ["ControlMessageReceive", {"class": "ofp_barrier_request"}, 2, ["c", "1"]], "timed_out": false, "dependent_labels": [], "ignore_whitelisted_packets": false, "dpid": 2, "replay_time": [1390622426, 566222], "label": "i11", "class": "ControlMessageReceive", "b64_packet": "ARIACAAAAA0=", "round": 3, "prunable": true}
{"pass_through_sends": false, "timeout_disallowed": false, "time": [1390616566, 395385], "controller_id": "c1", "fingerprint": ["ControlMessageReceive", {"hard_timeout": 0, "actions": [], "priority": 32768, "idle_timeout": 0, "command": "delete", "out_port": 65535, "flags": 0, "class": "ofp_flow_mod", "match": "x^L,in_port:None"}, 1, ["c", "1"]], "timed_out": false, "dependent_labels": [], "ignore_whitelisted_packets": false, "dpid": 1, "replay_time": [1390622426, 566751], "label": "i12", "class": "ControlMessageReceive", "b64_packet": "AQ4ASAAAABEAEAAfAAAAAAAAAAAAAAAAAAAAAAAAAAAAAAAAAAAAAAAAAAAAAAAAAAAAAAAAAAAAAwAAAACAAP///////wAA", "round": 3, "prunable": true}
{"pass_through_sends": false, "timeout_disallowed": false, "time": [1390616566, 395851], "controller_id": "c1", "fingerprint": ["ControlMessageReceive", {"class": "ofp_set_config"}, 2, ["c", "1"]], "timed_out": false, "dependent_labels": [], "ignore_whitelisted_packets": false, "dpid": 2, "replay_time": [1390622426, 567130], "label": "i13", "class": "ControlMessageReceive", "b64_packet": "AQkADAAAAAkAAACA", "round": 3, "prunable": true}
{"pass_through_sends": false, "timeout_disallowed": false, "time": [1390616566, 396192], "controller_id": "c1", "fingerprint": ["ControlMessageReceive", {"class": "ofp_barrier_request"}, 1, ["c", "1"]], "timed_out": false, "dependent_labels": [], "ignore_whitelisted_packets": false, "dpid": 1, "replay_time": [1390622426, 567435], "label": "i14", "class": "ControlMessageReceive", "b64_packet": "ARIACAAAABM=", "round": 3, "prunable": true}
{"pass_through_sends": false, "timeout_disallowed": false, "time": [1390616566, 396643], "controller_id": "c1", "fingerprint": ["ControlMessageReceive", {"hard_timeout": 0, "actions": [], "priority": 32768, "idle_timeout": 0, "command": "delete", "out_port": 65535, "flags": 0, "class": "ofp_flow_mod", "match": "x^L,in_port:None"}, 2, ["c", "1"]], "timed_out": false, "dependent_labels": [], "ignore_whitelisted_packets": false, "dpid": 2, "replay_time": [1390622426, 567741], "label": "i15", "class": "ControlMessageReceive", "b64_packet": "AQ4ASAAAAAsAEAAfAAAAAAAAAAAAAAAAAAAAAAAAAAAAAAAAAAAAAAAAAAAAAAAAAAAAAAAAAAAAAwAAAACAAP///////wAA", "round": 3, "prunable": true}
{"pass_through_sends": false, "timeout_disallowed": false, "time": [1390616566, 397090], "controller_id": "c1", "fingerprint": ["ControlMessageSend", {"class": "ofp_barrier_reply"}, 2, ["c", "1"]], "timed_out": false, "dependent_labels": [], "ignore_whitelisted_packets": false, "dpid": 2, "replay_time": [1390622426, 568092], "label": "i16", "class": "ControlMessageSend", "b64_packet": "ARMACAAAAA0=", "round": 3, "prunable": true}
{"pass_through_sends": false, "timeout_disallowed": false, "time": [1390616566, 397290], "controller_id": "c1", "fingerprint": ["ControlMessageSend", {"class": "ofp_barrier_reply"}, 1, ["c", "1"]], "timed_out": false, "dependent_labels": [], "ignore_whitelisted_packets": false, "dpid": 1, "replay_time": [1390622426, 568272], "label": "i17", "class": "ControlMessageSend", "b64_packet": "ARMACAAAABM=", "round": 3, "prunable": true}
{"pass_through_sends": false, "timeout_disallowed": false, "time": [1390616566, 499238], "controller_id": "c1", "fingerprint": ["ControlMessageReceive", {"hard_timeout": 0, "actions": ["output(65533)"], "priority": 32768, "idle_timeout": 0, "command": "add", "out_port": 65535, "flags": 0, "class": "ofp_flow_mod", "match": "dl_dst:01:23:20:00:00:01,dl_type:35020,in_port:None"}, 2, ["c", "1"]], "timed_out": false, "dependent_labels": [], "ignore_whitelisted_packets": false, "dpid": 2, "replay_time": [1390622426, 571739], "label": "i18", "class": "ControlMessageReceive", "b64_packet": "AQ4AUAAAABUAEAAHAAAAAAAAAAABIyAAAAEAAAAAiMwAAAAAAAAAAAAAAAAAAAAAAAAAAAAAAAAAAAAAAACAAP///////wAAAAAACP/9//8=", "round": 4, "prunable": true}
{"pass_through_sends": false, "timeout_disallowed": false, "time": [1390616566, 500032], "controller_id": "c1", "fingerprint": ["ControlMessageReceive", {"hard_timeout": 0, "actions": ["output(65533)"], "priority": 32768, "idle_timeout": 0, "command": "add", "out_port": 65535, "flags": 0, "class": "ofp_flow_mod", "match": "dl_dst:01:23:20:00:00:01,dl_type:35020,in_port:None"}, 1, ["c", "1"]], "timed_out": false, "dependent_labels": [], "ignore_whitelisted_packets": false, "dpid": 1, "replay_time": [1390622426, 574624], "label": "i19", "class": "ControlMessageReceive", "b64_packet": "AQ4AUAAAABsAEAAHAAAAAAAAAAABIyAAAAEAAAAAiMwAAAAAAAAAAAAAAAAAAAAAAAAAAAAAAAAAAAAAAACAAP///////wAAAAAACP/9//8=", "round": 4, "prunable": true}
{"pass_through_sends": false, "timeout_disallowed": false, "time": [1390616567, 711062], "controller_id": "c1", "fingerprint": ["ControlMessageReceive", {"in_port": 65535, "data": {"class": "lldp"}, "class": "ofp_packet_out", "actions": ["output(1)"]}, 2, ["c", "1"]], "timed_out": false, "dependent_labels": [], "ignore_whitelisted_packets": false, "dpid": 2, "replay_time": [1390622427, 826126], "label": "i20", "class": "ControlMessageReceive", "b64_packet": "AQ0AQQAAABf///////8ACAAAAAgAAQAAASMgAAABAAAAAAIBiMwCBwdkcGlkOjIEAgIxBgIAeAwGZHBpZDoyAAA=", "round": 16, "prunable": true}
{"timeout_disallowed": false, "fingerprint": ["DataplanePermit", {"class": "lldp"}, 2, 1], "timed_out": false, "label": "i21", "passive": true, "dependent_labels": [], "time": [1390616567, 712304], "replay_time": [1390622427, 827533], "class": "DataplanePermit", "round": 16, "prunable": true}
{"pass_through_sends": false, "timeout_disallowed": false, "time": [1390616567, 813983], "controller_id": "c1", "fingerprint": ["ControlMessageSend", {"data": {"class": "lldp"}, "class": "ofp_packet_in", "in_port": 1}, 1, ["c", "1"]], "timed_out": false, "dependent_labels": [], "ignore_whitelisted_packets": false, "dpid": 1, "replay_time": [1390622427, 827926], "label": "i22", "class": "ControlMessageSend", "b64_packet": "AQoAOwAAAAEAAAABADsAAQEAASMgAAABAAAAAAIBiMwCBwdkcGlkOjIEAgIxBgIAeAwGZHBpZDoyAAA=", "round": 17, "prunable": true}
{"pass_through_sends": false, "timeout_disallowed": false, "time": [1390616567, 916651], "controller_id": "c1", "fingerprint": ["ControlMessageReceive", {"hard_timeout": 0, "actions": [], "priority": 32768, "idle_timeout": 0, "command": "delete", "out_port": 65535, "flags": 0, "class": "ofp_flow_mod", "match": "x^L,in_port:None"}, 1, ["c", "1"]], "timed_out": false, "dependent_labels": [], "ignore_whitelisted_packets": false, "dpid": 1, "replay_time": [1390622427, 831526], "label": "i23", "class": "ControlMessageReceive", "b64_packet": "AQ4ASAAAACEAEAAfAAAAAAAAAAAAAAAAAAAAAAAAAAAAAAAAAAAAAAAAAAAAAAAAAAAAAAAAAAAAAwAAAACAAP///////wAA", "round": 18, "prunable": true}
{"pass_through_sends": false, "timeout_disallowed": false, "time": [1390616567, 917471], "controller_id": "c1", "fingerprint": ["ControlMessageReceive", {"in_port": 1, "data": [], "class": "ofp_packet_out", "actions": []}, 1, ["c", "1"]], "timed_out": false, "dependent_labels": [], "ignore_whitelisted_packets": false, "dpid": 1, "replay_time": [1390622427, 832403], "label": "i24", "class": "ControlMessageReceive", "b64_packet": "AQ0AEAAAACMAAAABAAEAAA==", "round": 18, "prunable": true}
{"pass_through_sends": false, "timeout_disallowed": false, "time": [1390616567, 918676], "controller_id": "c1", "fingerprint": ["ControlMessageReceive", {"hard_timeout": 0, "actions": [], "priority": 32768, "idle_timeout": 0, "command": "delete", "out_port": 65535, "flags": 0, "class": "ofp_flow_mod", "match": "x^L,in_port:None"}, 2, ["c", "1"]], "timed_out": false, "dependent_labels": [], "ignore_whitelisted_packets": false, "dpid": 2, "replay_time": [1390622427, 832774], "label": "i25", "class": "ControlMessageReceive", "b64_packet": "AQ4ASAAAACEAEAAfAAAAAAAAAAAAAAAAAAAAAAAAAAAAAAAAAAAAAAAAAAAAAAAAAAAAAAAAAAAAAwAAAACAAP///////wAA", "round": 18, "prunable": true}
{"pass_through_sends": false, "timeout_disallowed": false, "time": [1390616568, 929373], "controller_id": "c1", "fingerprint": ["ControlMessageReceive", {"in_port": 65535, "data": {"class": "lldp"}, "class": "ofp_packet_out", "actions": ["output(2)"]}, 2, ["c", "1"]], "timed_out": false, "dependent_labels": [], "ignore_whitelisted_packets": false, "dpid": 2, "replay_time": [1390622429, 76259], "label": "i26", "class": "ControlMessageReceive", "b64_packet": "AQ0AQQAAABn///////8ACAAAAAgAAgAAASMgAAABAAAAAAICiMwCBwdkcGlkOjIEAgIyBgIAeAwGZHBpZDoyAAA=", "round": 28, "prunable": true}
{"timeout_disallowed": false, "fingerprint": ["DataplanePermit", {"class": "lldp"}, 2, 2], "timed_out": false, "label": "i27", "passive": true, "dependent_labels": [], "time": [1390616568, 929942], "replay_time": [1390622429, 76768], "class": "DataplanePermit", "round": 28, "prunable": true}
{"pass_through_sends": false, "timeout_disallowed": false, "time": [1390616570, 246109], "controller_id": "c1", "fingerprint": ["ControlMessageReceive", {"in_port": 65535, "data": {"class": "lldp"}, "class": "ofp_packet_out", "actions": ["output(1)"]}, 1, ["c", "1"]], "timed_out": false, "dependent_labels": [], "ignore_whitelisted_packets": false, "dpid": 1, "replay_time": [1390622430, 328194], "label": "i28", "class": "ControlMessageReceive", "b64_packet": "AQ0AQQAAAB3///////8ACAAAAAgAAQAAASMgAAABAAAAAAEBiMwCBwdkcGlkOjEEAgIxBgIAeAwGZHBpZDoxAAA=", "round": 41, "prunable": true}
{"timeout_disallowed": false, "fingerprint": ["DataplanePermit", {"class": "lldp"}, 1, 1], "timed_out": false, "label": "i29", "passive": true, "dependent_labels": [], "time": [1390616570, 246902], "replay_time": [1390622430, 328983], "class": "DataplanePermit", "round": 41, "prunable": true}
{"pass_through_sends": false, "timeout_disallowed": false, "time": [1390616570, 348531], "controller_id": "c1", "fingerprint": ["ControlMessageSend", {"data": {"class": "lldp"}, "class": "ofp_packet_in", "in_port": 1}, 2, ["c", "1"]], "timed_out": false, "dependent_labels": [], "ignore_whitelisted_packets": false, "dpid": 2, "replay_time": [1390622430, 329252], "label": "i30", "class": "ControlMessageSend", "b64_packet": "AQoAOwAAAAEAAAABADsAAQAAASMgAAABAAAAAAEBiMwCBwdkcGlkOjEEAgIxBgIAeAwGZHBpZDoxAAA=", "round": 42, "prunable": true}
{"pass_through_sends": false, "timeout_disallowed": false, "time": [1390616570, 450460], "controller_id": "c1", "fingerprint": ["ControlMessageReceive", {"in_port": 1, "data": [], "class": "ofp_packet_out", "actions": []}, 2, ["c", "1"]], "timed_out": false, "dependent_labels": [], "ignore_whitelisted_packets": false, "dpid": 2, "replay_time": [1390622430, 331046], "label": "i31", "class": "ControlMessageReceive", "b64_packet": "AQ0AEAAAACcAAAABAAEAAA==", "round": 43, "prunable": true}
{"pass_through_sends": false, "timeout_disallowed": false, "time": [1390616570, 451037], "controller_id": "c1", "fingerprint": ["ControlMessageReceive", {"hard_timeout": 0, "actions": [], "priority": 32768, "idle_timeout": 0, "command": "delete", "out_port": 65535, "flags": 0, "class": "ofp_flow_mod", "match": "x^L,in_port:None"}, 1, ["c", "1"]], "timed_out": false, "dependent_labels": [], "ignore_whitelisted_packets": false, "dpid": 1, "replay_time": [1390622430, 331470], "label": "i32", "class": "ControlMessageReceive", "b64_packet": "AQ4ASAAAACUAEAAfAAAAAAAAAAAAAAAAAAAAAAAAAAAAAAAAAAAAAAAAAAAAAAAAAAAAAAAAAAAAAwAAAACAAP///////wAA", "round": 43, "prunable": true}
{"pass_through_sends": false, "timeout_disallowed": false, "time": [1390616570, 451695], "controller_id": "c1", "fingerprint": ["ControlMessageReceive", {"hard_timeout": 0, "actions": [], "priority": 32768, "idle_timeout": 0, "command": "delete", "out_port": 65535, "flags": 0, "class": "ofp_flow_mod", "match": "x^L,in_port:None"}, 2, ["c", "1"]], "timed_out": false, "dependent_labels": [], "ignore_whitelisted_packets": false, "dpid": 2, "replay_time": [1390622430, 331914], "label": "i33", "class": "ControlMessageReceive", "b64_packet": "AQ4ASAAAACUAEAAfAAAAAAAAAAAAAAAAAAAAAAAAAAAAAAAAAAAAAAAAAAAAAAAAAAAAAAAAAAAAAwAAAACAAP///////wAA", "round": 43, "prunable": true}
{"dependent_labels": [], "class": "TrafficInjection", "fingerprint": ["TrafficInjection", {"interface": {"hw_addr": "12:34:56:78:01:02", "ips": ["10.1.2.2"], "name": "eth1"}, "packet": "EjRWeAECEjRWeAECCABFAABIH/YAAEABQroKAQICCgECAgAADjdQaW5nUGluZ1BpbmdQaW5nUGluZ1BpbmdQaW5nUGluZ1BpbmdQaW5nUGluZ1Bpbmc="}, 1], "timed_out": false, "label": "e34", "dp_event": {"interface": {"hw_addr": "12:34:56:78:01:02", "ips": ["10.1.2.2"], "name": "eth1"}, "packet": "EjRWeAECEjRWeAECCABFAABIH/YAAEABQroKAQICCgECAgAADjdQaW5nUGluZ1BpbmdQaW5nUGluZ1BpbmdQaW5nUGluZ1BpbmdQaW5nUGluZ1Bpbmc="}, "time": [1390616571, 262048], "replay_time": [1390622431, 144787], "host_id": 1, "round": 51, "prunable": true}
{"dependent_labels": [], "class": "TrafficInjection", "fingerprint": ["TrafficInjection", {"interface": {"hw_addr": "12:34:56:78:02:02", "ips": ["10.2.2.2"], "name": "eth2"}, "packet": "EjRWeAICEjRWeAICCABFAABIH/cAAEABQrcKAgICCgICAggABjdQaW5nUGluZ1BpbmdQaW5nUGluZ1BpbmdQaW5nUGluZ1BpbmdQaW5nUGluZ1Bpbmc="}, 2], "timed_out": false, "label": "e35", "dp_event": {"interface": {"hw_addr": "12:34:56:78:02:02", "ips": ["10.2.2.2"], "name": "eth2"}, "packet": "EjRWeAICEjRWeAICCABFAABIH/cAAEABQrcKAgICCgICAggABjdQaW5nUGluZ1BpbmdQaW5nUGluZ1BpbmdQaW5nUGluZ1BpbmdQaW5nUGluZ1Bpbmc="}, "time": [1390616571, 262748], "replay_time": [1390622431, 146367], "host_id": 2, "round": 51, "prunable": true}
{"timeout_disallowed": false, "fingerprint": ["DataplanePermit", {"dl_dst": "12:34:56:78:01:02", "nw_src": "10.1.2.2", "dl_src": "12:34:56:78:01:02", "nw_dst": "10.1.2.2"}, 1, "12:34:56:78:01:02"], "timed_out": false, "label": "i36", "passive": true, "dependent_labels": [], "time": [1390616571, 263555], "replay_time": [1390622431, 147077], "class": "DataplanePermit", "round": 51, "prunable": true}
{"timeout_disallowed": false, "fingerprint": ["DataplanePermit", {"dl_dst": "12:34:56:78:02:02", "nw_src": "10.2.2.2", "dl_src": "12:34:56:78:02:02", "nw_dst": "10.2.2.2"}, 2, "12:34:56:78:02:02"], "timed_out": false, "label": "i37", "passive": true, "dependent_labels": [], "time": [1390616571, 264187], "replay_time": [1390622431, 147350], "class": "DataplanePermit", "round": 51, "prunable": true}
{"pass_through_sends": false, "timeout_disallowed": false, "time": [1390616571, 365840], "controller_id": "c1", "fingerprint": ["ControlMessageSend", {"data": {"dl_dst": "12:34:56:78:01:02", "nw_src": "10.1.2.2", "dl_src": "12:34:56:78:01:02", "nw_dst": "10.1.2.2"}, "class": "ofp_packet_in", "in_port": 2}, 1, ["c", "1"]], "timed_out": false, "dependent_labels": [], "ignore_whitelisted_packets": false, "dpid": 1, "replay_time": [1390622431, 147736], "label": "i38", "class": "ControlMessageSend", "b64_packet": "AQoAaAAAAAIAAAABAGgAAgAAEjRWeAECEjRWeAECCABFAABIH/YAAEABQroKAQICCgECAgAADjdQaW5nUGluZ1BpbmdQaW5nUGluZ1BpbmdQaW5nUGluZ1BpbmdQaW5nUGluZ1Bpbmc=", "round": 52, "prunable": true}
{"pass_through_sends": false, "timeout_disallowed": false, "time": [1390616571, 366388], "controller_id": "c1", "fingerprint": ["ControlMessageSend", {"data": {"dl_dst": "12:34:56:78:02:02", "nw_src": "10.2.2.2", "dl_src": "12:34:56:78:02:02", "nw_dst": "10.2.2.2"}, "class": "ofp_packet_in", "in_port": 2}, 2, ["c", "1"]], "timed_out": false, "dependent_labels": [], "ignore_whitelisted_packets": false, "dpid": 2, "replay_time": [1390622431, 148253], "label": "i39", "class": "ControlMessageSend", "b64_packet": "AQoAaAAAAAIAAAABAGgAAgAAEjRWeAICEjRWeAICCABFAABIH/cAAEABQrcKAgICCgICAggABjdQaW5nUGluZ1BpbmdQaW5nUGluZ1BpbmdQaW5nUGluZ1BpbmdQaW5nUGluZ1Bpbmc=", "round": 52, "prunable": true}
{"legacy_invariant_check": false, "class": "CheckInvariants", "fingerprint": "N/A", "timed_out": false, "label": "e40", "dependent_labels": [], "invariant_name": "check_for_flow_entry", "invariant_check_name": "check_for_flow_entry", "time": [1390616571, 366854], "replay_time": [1390622431, 148719], "invariant_check": null, "round": 52, "prunable": true}
{"pass_through_sends": false, "timeout_disallowed": false, "time": [1390616571, 468986], "controller_id": "c1", "fingerprint": ["ControlMessageReceive", {"hard_timeout": 30, "actions": ["output(2)"], "priority": 32768, "idle_timeout": 10, "command": "add", "out_port": 65535, "flags": 0, "class": "ofp_flow_mod", "match": "dl_src:12:34:56:78:01:02,dl_dst:12:34:56:78:01:02,dl_vlan:65535,dl_vlan_pcp:0,dl_type:2048,nw_tos:0,nw_proto:1,nw_src:10.1.2.2/32,nw_dst:10.1.2.2/32,tp_src:0,tp_dst:0,in_port:None"}, 1, ["c", "1"]], "timed_out": false, "dependent_labels": [], "ignore_whitelisted_packets": false, "dpid": 1, "replay_time": [1390622431, 152160], "label": "i41", "class": "ControlMessageReceive", "b64_packet": "AQ4AUAAAACsAAAABAAASNFZ4AQISNFZ4AQL//wAACAAAAQAACgECAgoBAgIAAAAAAAAAAAAAAAAAAAAKAB6AAAAAAAH//wAAAAAACAACAAA=", "round": 53, "prunable": true}
{"pass_through_sends": false, "timeout_disallowed": false, "time": [1390616571, 469779], "controller_id": "c1", "fingerprint": ["ControlMessageReceive", {"in_port": 65535, "data": {"class": "lldp"}, "class": "ofp_packet_out", "actions": ["output(2)"]}, 1, ["c", "1"]], "timed_out": false, "dependent_labels": [], "ignore_whitelisted_packets": false, "dpid": 1, "replay_time": [1390622431, 579520], "label": "i42", "class": "ControlMessageReceive", "b64_packet": "AQ0AQQAAAB////////8ACAAAAAgAAgAAASMgAAABAAAAAAECiMwCBwdkcGlkOjEEAgIyBgIAeAwGZHBpZDoxAAA=", "round": 53, "prunable": true}
{"pass_through_sends": false, "timeout_disallowed": false, "time": [1390616571, 470514], "controller_id": "c1", "fingerprint": ["ControlMessageReceive", {"hard_timeout": 30, "actions": ["output(2)"], "priority": 32768, "idle_timeout": 10, "command": "add", "out_port": 65535, "flags": 0, "class": "ofp_flow_mod", "match": "dl_src:12:34:56:78:02:02,dl_dst:12:34:56:78:02:02,dl_vlan:65535,dl_vlan_pcp:0,dl_type:2048,nw_tos:0,nw_proto:1,nw_src:10.2.2.2/32,nw_dst:10.2.2.2/32,tp_src:8,tp_dst:0,in_port:None"}, 2, ["c", "1"]], "timed_out": false, "dependent_labels": [], "ignore_whitelisted_packets": false, "dpid": 2, "replay_time": [1390622431, 580525], "label": "i43", "class": "ControlMessageReceive", "b64_packet": "AQ4AUAAAACkAAAABAAASNFZ4AgISNFZ4AgL//wAACAAAAQAACgICAgoCAgIACAAAAAAAAAAAAAAAAAAKAB6AAAAAAAH//wAAAAAACAACAAA=", "round": 53, "prunable": true}
{"legacy_invariant_check": false, "class": "CheckInvariants", "fingerprint": "N/A", "timed_out": false, "label": "e44", "dependent_labels": [], "invariant_name": "check_for_flow_entry", "invariant_check_name": "check_for_flow_entry", "time": [1390616571, 471052], "replay_time": [1390622431, 580948], "invariant_check": null, "round": 53, "prunable": true}
{"timeout_disallowed": false, "fingerprint": ["DataplanePermit", {"class": "lldp"}, 1, 2], "timed_out": false, "label": "i45", "passive": true, "dependent_labels": [], "time": [1390616571, 572370], "replay_time": [1390622431, 581075], "class": "DataplanePermit", "round": 54, "prunable": true}
{"legacy_invariant_check": false, "class": "CheckInvariants", "fingerprint": "N/A", "timed_out": false, "label": "e46", "dependent_labels": [], "invariant_name": "check_for_flow_entry", "invariant_check_name": "check_for_flow_entry", "time": [1390616571, 572881], "replay_time": [1390622431, 581288], "invariant_check": null, "round": 54, "prunable": true}
{"legacy_invariant_check": false, "class": "CheckInvariants", "fingerprint": "N/A", "timed_out": false, "label": "e47", "dependent_labels": [], "invariant_name": "check_for_flow_entry", "invariant_check_name": "check_for_flow_entry", "time": [1390616571, 674423], "replay_time": [1390622431, 684307], "invariant_check": null, "round": 55, "prunable": true}
{"legacy_invariant_check": false, "class": "CheckInvariants", "fingerprint": "N/A", "timed_out": false, "label": "e48", "dependent_labels": [], "invariant_name": "check_for_flow_entry", "invariant_check_name": "check_for_flow_entry", "time": [1390616571, 775910], "replay_time": [1390622431, 786323], "invariant_check": null, "round": 56, "prunable": true}
{"legacy_invariant_check": false, "class": "CheckInvariants", "fingerprint": "N/A", "timed_out": false, "label": "e49", "dependent_labels": [], "invariant_name": "check_for_flow_entry", "invariant_check_name": "check_for_flow_entry", "time": [1390616571, 877544], "replay_time": [1390622431, 889658], "invariant_check": null, "round": 57, "prunable": true}
{"legacy_invariant_check": false, "class": "CheckInvariants", "fingerprint": "N/A", "timed_out": false, "label": "e50", "dependent_labels": [], "invariant_name": "check_for_flow_entry", "invariant_check_name": "check_for_flow_entry", "time": [1390616571, 979098], "replay_time": [1390622431, 992718], "invariant_check": null, "round": 58, "prunable": true}
{"legacy_invariant_check": false, "class": "CheckInvariants", "fingerprint": "N/A", "timed_out": false, "label": "e51", "dependent_labels": [], "invariant_name": "check_for_flow_entry", "invariant_check_name": "check_for_flow_entry", "time": [1390616572, 80766], "replay_time": [1390622432, 94842], "invariant_check": null, "round": 59, "prunable": true}
{"legacy_invariant_check": false, "class": "CheckInvariants", "fingerprint": "N/A", "timed_out": false, "label": "e52", "dependent_labels": [], "invariant_name": "check_for_flow_entry", "invariant_check_name": "check_for_flow_entry", "time": [1390616572, 182629], "replay_time": [1390622432, 197039], "invariant_check": null, "round": 60, "prunable": true}
{"legacy_invariant_check": false, "class": "CheckInvariants", "fingerprint": "N/A", "timed_out": false, "label": "e53", "dependent_labels": [], "invariant_name": "check_for_flow_entry", "invariant_check_name": "check_for_flow_entry", "time": [1390616572, 284393], "replay_time": [1390622432, 300343], "invariant_check": null, "round": 61, "prunable": true}
{"legacy_invariant_check": false, "class": "CheckInvariants", "fingerprint": "N/A", "timed_out": false, "label": "e54", "dependent_labels": [], "invariant_name": "check_for_flow_entry", "invariant_check_name": "check_for_flow_entry", "time": [1390616572, 385726], "replay_time": [1390622432, 403040], "invariant_check": null, "round": 62, "prunable": true}
{"legacy_invariant_check": false, "class": "CheckInvariants", "fingerprint": "N/A", "timed_out": false, "label": "e55", "dependent_labels": [], "invariant_name": "check_for_flow_entry", "invariant_check_name": "check_for_flow_entry", "time": [1390616572, 487531], "replay_time": [1390622432, 506430], "invariant_check": null, "round": 63, "prunable": true}
{"pass_through_sends": false, "timeout_disallowed": false, "time": [1390616572, 690965], "controller_id": "c1", "fingerprint": ["ControlMessageReceive", {"in_port": 65535, "data": {"class": "lldp"}, "class": "ofp_packet_out", "actions": ["output(1)"]}, 2, ["c", "1"]], "timed_out": false, "dependent_labels": [], "ignore_whitelisted_packets": false, "dpid": 2, "replay_time": [1390622432, 831174], "label": "i57", "class": "ControlMessageReceive", "b64_packet": "AQ0AQQAAABf///////8ACAAAAAgAAQAAASMgAAABAAAAAAIBiMwCBwdkcGlkOjIEAgIxBgIAeAwGZHBpZDoyAAA=", "round": 65, "prunable": true}
{"timeout_disallowed": false, "fingerprint": ["DataplanePermit", {"class": "lldp"}, 2, 1], "timed_out": false, "label": "i59", "passive": true, "dependent_labels": [], "time": [1390616572, 792867], "replay_time": [1390622432, 832015], "class": "DataplanePermit", "round": 66, "prunable": true}
{"pass_through_sends": false, "timeout_disallowed": false, "time": [1390616572, 793203], "controller_id": "c1", "fingerprint": ["ControlMessageSend", {"data": {"class": "lldp"}, "class": "ofp_packet_in", "in_port": 1}, 1, ["c", "1"]], "timed_out": false, "dependent_labels": [], "ignore_whitelisted_packets": false, "dpid": 1, "replay_time": [1390622432, 832315], "label": "i60", "class": "ControlMessageSend", "b64_packet": "AQoAOwAAAAMAAAABADsAAQAAASMgAAABAAAAAAIBiMwCBwdkcGlkOjIEAgIxBgIAeAwGZHBpZDoyAAA=", "round": 66, "prunable": true}
{"pass_through_sends": false, "timeout_disallowed": false, "time": [1390616572, 895539], "controller_id": "c1", "fingerprint": ["ControlMessageReceive", {"in_port": 1, "data": [], "class": "ofp_packet_out", "actions": []}, 1, ["c", "1"]], "timed_out": false, "dependent_labels": [], "ignore_whitelisted_packets": false, "dpid": 1, "replay_time": [1390622432, 833396], "label": "i62", "class": "ControlMessageReceive", "b64_packet": "AQ0AEAAAAC0AAAABAAEAAA==", "round": 67, "prunable": true}
{"dependent_labels": [], "class": "TrafficInjection", "fingerprint": ["TrafficInjection", {"interface": {"hw_addr": "12:34:56:78:02:02", "ips": ["10.2.2.2"], "name": "eth2"}, "packet": "EjRWeAECEjRWeAICCABFAABIH/oAAEABQrUKAgICCgECAgAADjdQaW5nUGluZ1BpbmdQaW5nUGluZ1BpbmdQaW5nUGluZ1BpbmdQaW5nUGluZ1Bpbmc="}, null], "timed_out": false, "label": "e64", "dp_event": {"interface": {"hw_addr": "12:34:56:78:02:02", "ips": ["10.2.2.2"], "name": "eth2"}, "packet": "EjRWeAECEjRWeAICCABFAABIH/oAAEABQrUKAgICCgECAgAADjdQaW5nUGluZ1BpbmdQaW5nUGluZ1BpbmdQaW5nUGluZ1BpbmdQaW5nUGluZ1Bpbmc="}, "time": [1390616572, 998247], "replay_time": [1390622432, 937217], "host_id": null, "round": 68, "prunable": true}
{"timeout_disallowed": false, "fingerprint": ["DataplanePermit", {"dl_dst": "12:34:56:78:01:02", "nw_src": "10.2.2.2", "dl_src": "12:34:56:78:02:02", "nw_dst": "10.1.2.2"}, 2, "12:34:56:78:02:02"], "timed_out": false, "label": "i66", "passive": true, "dependent_labels": [], "time": [1390616573, 100380], "replay_time": [1390622432, 938532], "class": "DataplanePermit", "round": 69, "prunable": true}
{"pass_through_sends": false, "timeout_disallowed": false, "time": [1390616573, 100711], "controller_id": "c1", "fingerprint": ["ControlMessageSend", {"data": {"dl_dst": "12:34:56:78:01:02", "nw_src": "10.2.2.2", "dl_src": "12:34:56:78:02:02", "nw_dst": "10.1.2.2"}, "class": "ofp_packet_in", "in_port": 2}, 2, ["c", "1"]], "timed_out": false, "dependent_labels": [], "ignore_whitelisted_packets": false, "dpid": 2, "replay_time": [1390622432, 939266], "label": "i67", "class": "ControlMessageSend", "b64_packet": "AQoAaAAAAAMAAAABAGgAAgAAEjRWeAECEjRWeAICCABFAABIH/oAAEABQrUKAgICCgECAgAADjdQaW5nUGluZ1BpbmdQaW5nUGluZ1BpbmdQaW5nUGluZ1BpbmdQaW5nUGluZ1Bpbmc=", "round": 69, "prunable": true}
{"pass_through_sends": false, "timeout_disallowed": false, "time": [1390616573, 202366], "controller_id": "c1", "fingerprint": ["ControlMessageReceive", {"hard_timeout": 30, "actions": ["output(2)"], "priority": 32768, "idle_timeout": 10, "command": "add", "out_port": 65535, "flags": 0, "class": "ofp_flow_mod", "match": "dl_src:12:34:56:78:02:02,dl_dst:12:34:56:78:01:02,dl_vlan:65535,dl_vlan_pcp:0,dl_type:2048,nw_tos:0,nw_proto:1,nw_src:10.2.2.2/32,nw_dst:10.1.2.2/32,tp_src:0,tp_dst:0,in_port:None"}, 1, ["c", "1"]], "timed_out": false, "dependent_labels": [], "ignore_whitelisted_packets": false, "dpid": 1, "replay_time": [1390622432, 941959], "label": "i69", "class": "ControlMessageReceive", "b64_packet": "AQ4AUAAAAC8AAAABAAASNFZ4AgISNFZ4AQL//wAACAAAAQAACgICAgoBAgIAAAAAAAAAAAAAAAAAAAAKAB6AAP///////wAAAAAACAACAAA=", "round": 70, "prunable": true}
{"pass_through_sends": false, "timeout_disallowed": false, "time": [1390616573, 203213], "controller_id": "c1", "fingerprint": ["ControlMessageReceive", {"hard_timeout": 30, "actions": ["output(1)"], "priority": 32768, "idle_timeout": 10, "command": "add", "out_port": 65535, "flags": 0, "class": "ofp_flow_mod", "match": "dl_src:12:34:56:78:02:02,dl_dst:12:34:56:78:01:02,dl_vlan:65535,dl_vlan_pcp:0,dl_type:2048,nw_tos:0,nw_proto:1,nw_src:10.2.2.2/32,nw_dst:10.1.2.2/32,tp_src:0,tp_dst:0,in_port:None"}, 2, ["c", "1"]], "timed_out": false, "dependent_labels": [], "ignore_whitelisted_packets": false, "dpid": 2, "replay_time": [1390622432, 943496], "label": "i70", "class": "ControlMessageReceive", "b64_packet": "AQ4AUAAAADEAAAABAAASNFZ4AgISNFZ4AQL//wAACAAAAQAACgICAgoBAgIAAAAAAAAAAAAAAAAAAAAKAB6AAAAAAAH//wAAAAAACAABAAA=", "round": 70, "prunable": true}
{"timeout_disallowed": false, "fingerprint": ["DataplanePermit", {"dl_dst": "12:34:56:78:01:02", "nw_src": "10.2.2.2", "dl_src": "12:34:56:78:02:02", "nw_dst": "10.1.2.2"}, 2, 1], "timed_out": false, "label": "i72", "passive": true, "dependent_labels": [], "time": [1390616573, 306105], "replay_time": [1390622432, 944176], "class": "DataplanePermit", "round": 71, "prunable": true}
{"timeout_disallowed": false, "fingerprint": ["DataplanePermit", {"dl_dst": "12:34:56:78:01:02", "nw_src": "10.2.2.2", "dl_src": "12:34:56:78:02:02", "nw_dst": "10.1.2.2"}, 1, 2], "timed_out": false, "label": "i74", "passive": true, "dependent_labels": [], "time": [1390616573, 408709], "replay_time": [1390622432, 944922], "class": "DataplanePermit", "round": 72, "prunable": true}
{"timeout_disallowed": false, "fingerprint": ["DataplanePermit", {"dl_dst": "12:34:56:78:02:02", "nw_src": "10.1.2.2", "dl_src": "12:34:56:78:01:02", "nw_dst": "10.2.2.2"}, 1, "12:34:56:78:01:02"], "timed_out": false, "label": "i76", "passive": true, "dependent_labels": [], "time": [1390616573, 511800], "replay_time": [1390622432, 945612], "class": "DataplanePermit", "round": 73, "prunable": true}
{"pass_through_sends": false, "timeout_disallowed": false, "time": [1390616573, 512328], "controller_id": "c1", "fingerprint": ["ControlMessageSend", {"data": {"dl_dst": "12:34:56:78:02:02", "nw_src": "10.1.2.2", "dl_src": "12:34:56:78:01:02", "nw_dst": "10.2.2.2"}, "class": "ofp_packet_in", "in_port": 2}, 1, ["c", "1"]], "timed_out": false, "dependent_labels": [], "ignore_whitelisted_packets": false, "dpid": 1, "replay_time": [1390622432, 945940], "label": "i77", "class": "ControlMessageSend", "b64_packet": "AQoASAAAAAQAAAABAEgAAgAAEjRWeAICEjRWeAECCABFAAAoH/wAAEAGQs4KAQICCgICAgAAAAAAAAAAAAAAAAAAAADn3gAA", "round": 73, "prunable": true}
{"pass_through_sends": false, "timeout_disallowed": false, "time": [1390616573, 614487], "controller_id": "c1", "fingerprint": ["ControlMessageReceive", {"hard_timeout": 30, "actions": ["output(2)"], "priority": 32768, "idle_timeout": 10, "command": "add", "out_port": 65535, "flags": 0, "class": "ofp_flow_mod", "match": "dl_src:12:34:56:78:01:02,dl_dst:12:34:56:78:02:02,dl_vlan:65535,dl_vlan_pcp:0,dl_type:2048,nw_tos:0,nw_proto:6,nw_src:10.1.2.2/32,nw_dst:10.2.2.2/32,in_port:None"}, 2, ["c", "1"]], "timed_out": false, "dependent_labels": [], "ignore_whitelisted_packets": false, "dpid": 2, "replay_time": [1390622432, 947825], "label": "i79", "class": "ControlMessageReceive", "b64_packet": "AQ4AUAAAADMAAADBAAASNFZ4AQISNFZ4AgL//wAACAAABgAACgECAgoCAgIAAAAAAAAAAAAAAAAAAAAKAB6AAP///////wAAAAAACAACAAA=", "round": 74, "prunable": true}
{"pass_through_sends": false, "timeout_disallowed": false, "time": [1390616573, 615169], "controller_id": "c1", "fingerprint": ["ControlMessageReceive", {"hard_timeout": 0, "actions": [], "priority": 123, "idle_timeout": 0, "command": "add", "out_port": 65535, "flags": 0, "class": "ofp_flow_mod", "match": "x^L,in_port:None"}, 1, ["c", "1"]], "timed_out": false, "dependent_labels": [], "ignore_whitelisted_packets": false, "dpid": 1, "replay_time": [1390622432, 949682], "label": "i80", "class": "ControlMessageReceive", "b64_packet": "AQ4ASAAAADcAEAAfAAAAAAAAAAAAAAAAAAAAAAAAAAAAAAAAAAAAAAAAAAAAAAAAAAAAAAAAAAAAAAAAAAAAewAAAAH//wAA", "round": 74, "prunable": true}
{"pass_through_sends": false, "timeout_disallowed": false, "time": [1390616573, 616051], "controller_id": "c1", "fingerprint": ["ControlMessageReceive", {"hard_timeout": 30, "actions": ["output(1)"], "priority": 32768, "idle_timeout": 10, "command": "add", "out_port": 65535, "flags": 0, "class": "ofp_flow_mod", "match": "dl_src:12:34:56:78:01:02,dl_dst:12:34:56:78:02:02,dl_vlan:65535,dl_vlan_pcp:0,dl_type:2048,nw_tos:0,nw_proto:6,nw_src:10.1.2.2/32,nw_dst:10.2.2.2/32,in_port:None"}, 1, ["c", "1"]], "timed_out": false, "dependent_labels": [], "ignore_whitelisted_packets": false, "dpid": 1, "replay_time": [1390622432, 950492], "label": "i81", "class": "ControlMessageReceive", "b64_packet": "AQ4AUAAAADUAAADBAAASNFZ4AQISNFZ4AgL//wAACAAABgAACgECAgoCAgIAAAAAAAAAAAAAAAAAAAAKAB6AAAAAAAH//wAAAAAACAABAAA=", "round": 74, "prunable": true}
{"class": "InvariantViolation", "fingerprint": ["InvariantViolation"], "persistent": true, "timed_out": false, "dependent_labels": [], "time": [1390616573, 616781], "violations": ["123Found"], "label": "e83", "round": 74, "prunable": true}
{"class": "InvariantViolation", "fingerprint": ["InvariantViolation"], "persistent": false, "timed_out": false, "dependent_labels": [], "time": [1390622433, 452085], "violations": ["123Found"], "label": "e93", "round": -1, "prunable": true}
{"wait_time": 1.0, "dependent_labels": [], "fingerprint": ["WaitTime"], "time": [1390622433, 452085], "class": "WaitTime", "prunable": true, "timed_out": false, "round": -1, "label": "e94"}
