{"timeout_disallowed": true, "fingerprint": ["ConnectToControllers"], "timed_out": false, "label": "e1", "dependent_labels": [], "time": [1401404155, 241663], "replay_time": [1401495598, 812811], "class": "ConnectToControllers", "round": 0, "prunable": false}
{"class": "ControllerFailure", "fingerprint": ["ControllerFailure", "c1"], "controller_id": "c1", "timed_out": false, "dependent_labels": [], "time": [1401404186, 314320], "replay_time": [1401495630, 405897], "label": "e4", "round": 1, "prunable": true}
{"class": "ControllerRecovery", "fingerprint": ["ControllerRecovery", "c1"], "controller_id": "c1", "timed_out": false, "dependent_labels": [], "time": [1401404189, 639061], "replay_time": [1401495666, 498485], "label": "e9", "round": 2, "prunable": true}
{"dependent_labels": [], "class": "TrafficInjection", "fingerprint": ["TrafficInjection", {"interface": {"hw_addr": "12:34:56:78:01:02", "ips": ["123.123.1.2"], "__type__": "sts.entities.hosts.HostInterface", "name": "eth1"}, "packet": "EjRWeAICEjRWeAECCABFAABIurAAAEABxgp7ewECe3sCAggABjdQaW5nUGluZ1BpbmdQaW5nUGluZ1BpbmdQaW5nUGluZ1BpbmdQaW5nUGluZ1Bpbmc="}, null], "timed_out": false, "label": "e30", "dp_event": {"interface": {"hw_addr": "12:34:56:78:01:02", "ips": ["123.123.1.2"], "__type__": "sts.entities.hosts.HostInterface", "name": "eth1"}, "packet": "EjRWeAICEjRWeAECCABFAABIurAAAEABxgp7ewECe3sCAggABjdQaW5nUGluZ1BpbmdQaW5nUGluZ1BpbmdQaW5nUGluZ1BpbmdQaW5nUGluZ1Bpbmc="}, "time": [1401404231, 353399], "replay_time": [1401495708, 256102], "host_id": null, "round": 5, "prunable": true}
{"class": "ControllerFailure", "fingerprint": ["ControllerFailure", "c1"], "controller_id": "c1", "timed_out": false, "dependent_labels": [], "time": [1401404234, 357796], "replay_time": [1401495711, 949732], "label": "e37", "round": 6, "prunable": true}
{"dependent_labels": [], "class": "TrafficInjection", "fingerprint": ["TrafficInjection", {"interface": {"hw_addr": "12:34:56:78:01:02", "ips": ["123.123.1.2"], "__type__": "sts.entities.hosts.HostInterface", "name": "eth1"}, "packet": "EjRWeAICEjRWeAECCABFAABIurIAAEABxgh7ewECe3sCAgAADjdQaW5nUGluZ1BpbmdQaW5nUGluZ1BpbmdQaW5nUGluZ1BpbmdQaW5nUGluZ1Bpbmc="}, null], "timed_out": false, "label": "e43", "dp_event": {"interface": {"hw_addr": "12:34:56:78:01:02", "ips": ["123.123.1.2"], "__type__": "sts.entities.hosts.HostInterface", "name": "eth1"}, "packet": "EjRWeAICEjRWeAECCABFAABIurIAAEABxgh7ewECe3sCAgAADjdQaW5nUGluZ1BpbmdQaW5nUGluZ1BpbmdQaW5nUGluZ1BpbmdQaW5nUGluZ1Bpbmc="}, "time": [1401404237, 668333], "replay_time": [1401495715, 264974], "host_id": null, "round": 7, "prunable": true}
{"class": "ControllerRecovery", "fingerprint": ["ControllerRecovery", "c1"], "controller_id": "c1", "timed_out": false, "dependent_labels": [], "time": [1401404237, 668822], "replay_time": [1401495748, 109360], "label": "e44", "round": 7, "prunable": true}
{"dependent_labels": [], "class": "TrafficInjection", "fingerprint": ["TrafficInjection", {"interface": {"hw_addr": "12:34:56:78:02:02", "ips": ["123.123.2.2"], "__type__": "sts.entities.hosts.HostInterface", "name": "eth2"}, "packet": "EjRWeAECEjRWeAICCABFAABIurQAAEABxgZ7ewICe3sBAgAADjdQaW5nUGluZ1BpbmdQaW5nUGluZ1BpbmdQaW5nUGluZ1BpbmdQaW5nUGluZ1Bpbmc="}, null], "timed_out": false, "label": "e84", "dp_event": {"interface": {"hw_addr": "12:34:56:78:02:02", "ips": ["123.123.2.2"], "__type__": "sts.entities.hosts.HostInterface", "name": "eth2"}, "packet": "EjRWeAECEjRWeAICCABFAABIurQAAEABxgZ7ewICe3sBAgAADjdQaW5nUGluZ1BpbmdQaW5nUGluZ1BpbmdQaW5nUGluZ1BpbmdQaW5nUGluZ1Bpbmc="}, "time": [1401404279, 356646], "replay_time": [1401495789, 801770], "host_id": null, "round": 10, "prunable": true}
{"dependent_labels": [], "class": "TrafficInjection", "fingerprint": ["TrafficInjection", {"interface": {"hw_addr": "12:34:56:78:02:02", "ips": ["123.123.2.2"], "__type__": "sts.entities.hosts.HostInterface", "name": "eth2"}, "packet": "EjRWeAECEjRWeAICCABFAABIurYAAEABxgR7ewICe3sBAggABjdQaW5nUGluZ1BpbmdQaW5nUGluZ1BpbmdQaW5nUGluZ1BpbmdQaW5nUGluZ1Bpbmc="}, null], "timed_out": false, "label": "e95", "dp_event": {"interface": {"hw_addr": "12:34:56:78:02:02", "ips": ["123.123.2.2"], "__type__": "sts.entities.hosts.HostInterface", "name": "eth2"}, "packet": "EjRWeAECEjRWeAICCABFAABIurYAAEABxgR7ewICe3sBAggABjdQaW5nUGluZ1BpbmdQaW5nUGluZ1BpbmdQaW5nUGluZ1BpbmdQaW5nUGluZ1Bpbmc="}, "time": [1401404282, 361055], "replay_time": [1401495792, 810325], "host_id": null, "round": 11, "prunable": true}
{"dependent_labels": [], "class": "TrafficInjection", "fingerprint": ["TrafficInjection", {"interface": {"hw_addr": "12:34:56:78:01:02", "ips": ["123.123.1.2"], "__type__": "sts.entities.hosts.HostInterface", "name": "eth1"}, "packet": "EjRWeAICEjRWeAECCABFAABIur0AAEABxf17ewECe3sCAggABjdQaW5nUGluZ1BpbmdQaW5nUGluZ1BpbmdQaW5nUGluZ1BpbmdQaW5nUGluZ1Bpbmc="}, null], "timed_out": false, "label": "e116", "dp_event": {"interface": {"hw_addr": "12:34:56:78:01:02", "ips": ["123.123.1.2"], "__type__": "sts.entities.hosts.HostInterface", "name": "eth1"}, "packet": "EjRWeAICEjRWeAECCABFAABIur0AAEABxf17ewECe3sCAggABjdQaW5nUGluZ1BpbmdQaW5nUGluZ1BpbmdQaW5nUGluZ1BpbmdQaW5nUGluZ1Bpbmc="}, "time": [1401404288, 371570], "replay_time": [1401495798, 828190], "host_id": null, "round": 13, "prunable": true}
{"dependent_labels": [], "class": "TrafficInjection", "fingerprint": ["TrafficInjection", {"interface": {"hw_addr": "12:34:56:78:02:02", "ips": ["123.123.2.2"], "__type__": "sts.entities.hosts.HostInterface", "name": "eth2"}, "packet": "EjRWeAECEjRWeAICCABFAABIuskAAEABxfF7ewICe3sBAggABjdQaW5nUGluZ1BpbmdQaW5nUGluZ1BpbmdQaW5nUGluZ1BpbmdQaW5nUGluZ1Bpbmc="}, null], "timed_out": false, "label": "e151", "dp_event": {"interface": {"hw_addr": "12:34:56:78:02:02", "ips": ["123.123.2.2"], "__type__": "sts.entities.hosts.HostInterface", "name": "eth2"}, "packet": "EjRWeAECEjRWeAICCABFAABIuskAAEABxfF7ewICe3sBAggABjdQaW5nUGluZ1BpbmdQaW5nUGluZ1BpbmdQaW5nUGluZ1BpbmdQaW5nUGluZ1Bpbmc="}, "time": [1401404297, 391177], "replay_time": [1401495807, 858121], "host_id": null, "round": 16, "prunable": true}
{"dependent_labels": [], "class": "TrafficInjection", "fingerprint": ["TrafficInjection", {"interface": {"hw_addr": "12:34:56:78:01:02", "ips": ["123.123.1.2"], "__type__": "sts.entities.hosts.HostInterface", "name": "eth1"}, "packet": "EjRWeAICEjRWeAECCABFAABIutAAAEABxep7ewECe3sCAgAADjdQaW5nUGluZ1BpbmdQaW5nUGluZ1BpbmdQaW5nUGluZ1BpbmdQaW5nUGluZ1Bpbmc="}, null], "timed_out": false, "label": "e195", "dp_event": {"interface": {"hw_addr": "12:34:56:78:01:02", "ips": ["123.123.1.2"], "__type__": "sts.entities.hosts.HostInterface", "name": "eth1"}, "packet": "EjRWeAICEjRWeAECCABFAABIutAAAEABxep7ewECe3sCAgAADjdQaW5nUGluZ1BpbmdQaW5nUGluZ1BpbmdQaW5nUGluZ1BpbmdQaW5nUGluZ1Bpbmc="}, "time": [1401404315, 416033], "replay_time": [1401495825, 902150], "host_id": null, "round": 22, "prunable": true}
{"dependent_labels": [], "class": "TrafficInjection", "fingerprint": ["TrafficInjection", {"interface": {"hw_addr": "12:34:56:78:02:02", "ips": ["123.123.2.2"], "__type__": "sts.entities.hosts.HostInterface", "name": "eth2"}, "packet": "EjRWeAECEjRWeAICCABFAABIutEAAEABxel7ewICe3sBAgAADjdQaW5nUGluZ1BpbmdQaW5nUGluZ1BpbmdQaW5nUGluZ1BpbmdQaW5nUGluZ1Bpbmc="}, null], "timed_out": false, "label": "e204", "dp_event": {"interface": {"hw_addr": "12:34:56:78:02:02", "ips": ["123.123.2.2"], "__type__": "sts.entities.hosts.HostInterface", "name": "eth2"}, "packet": "EjRWeAECEjRWeAICCABFAABIutEAAEABxel7ewICe3sBAgAADjdQaW5nUGluZ1BpbmdQaW5nUGluZ1BpbmdQaW5nUGluZ1BpbmdQaW5nUGluZ1Bpbmc="}, "time": [1401404321, 422298], "replay_time": [1401495831, 915181], "host_id": null, "round": 24, "prunable": true}
{"class": "ControllerFailure", "fingerprint": ["ControllerFailure", "c1"], "controller_id": "c1", "timed_out": false, "dependent_labels": [], "time": [1401404330, 433135], "replay_time": [1401495841, 329813], "label": "e223", "round": 27, "prunable": true}
{"class": "ControllerRecovery", "fingerprint": ["ControllerRecovery", "c1"], "controller_id": "c1", "timed_out": false, "dependent_labels": [], "time": [1401404333, 764902], "replay_time": [1401495877, 823114], "label": "e230", "round": 28, "prunable": true}
{"dependent_labels": [], "class": "TrafficInjection", "fingerprint": ["TrafficInjection", {"interface": {"hw_addr": "12:34:56:78:02:02", "ips": ["123.123.2.2"], "__type__": "sts.entities.hosts.HostInterface", "name": "eth2"}, "packet": "EjRWeAECEjRWeAICCABFAABIutIAAEABxeh7ewICe3sBAggABjdQaW5nUGluZ1BpbmdQaW5nUGluZ1BpbmdQaW5nUGluZ1BpbmdQaW5nUGluZ1Bpbmc="}, null], "timed_out": false, "label": "e253", "dp_event": {"interface": {"hw_addr": "12:34:56:78:02:02", "ips": ["123.123.2.2"], "__type__": "sts.entities.hosts.HostInterface", "name": "eth2"}, "packet": "EjRWeAECEjRWeAICCABFAABIutIAAEABxeh7ewICe3sBAggABjdQaW5nUGluZ1BpbmdQaW5nUGluZ1BpbmdQaW5nUGluZ1BpbmdQaW5nUGluZ1Bpbmc="}, "time": [1401404372, 445885], "replay_time": [1401495916, 508652], "host_id": null, "round": 30, "prunable": true}
{"class": "ControllerFailure", "fingerprint": ["ControllerFailure", "c2"], "controller_id": "c2", "timed_out": false, "dependent_labels": [], "time": [1401404372, 446321], "replay_time": [1401495916, 908328], "label": "e254", "round": 30, "prunable": true}
{"class": "ControllerRecovery", "fingerprint": ["ControllerRecovery", "c2"], "controller_id": "c2", "timed_out": false, "dependent_labels": [], "time": [1401404375, 755693], "replay_time": [1401495952, 554229], "label": "e267", "round": 31, "prunable": true}
{"dependent_labels": [], "class": "TrafficInjection", "fingerprint": ["TrafficInjection", {"interface": {"hw_addr": "12:34:56:78:01:02", "ips": ["123.123.1.2"], "__type__": "sts.entities.hosts.HostInterface", "name": "eth1"}, "packet": "EjRWeAICEjRWeAECCABFAABIutMAAEABxed7ewECe3sCAggABjdQaW5nUGluZ1BpbmdQaW5nUGluZ1BpbmdQaW5nUGluZ1BpbmdQaW5nUGluZ1Bpbmc="}, null], "timed_out": false, "label": "e287", "dp_event": {"interface": {"hw_addr": "12:34:56:78:01:02", "ips": ["123.123.1.2"], "__type__": "sts.entities.hosts.HostInterface", "name": "eth1"}, "packet": "EjRWeAICEjRWeAECCABFAABIutMAAEABxed7ewECe3sCAggABjdQaW5nUGluZ1BpbmdQaW5nUGluZ1BpbmdQaW5nUGluZ1BpbmdQaW5nUGluZ1Bpbmc="}, "time": [1401404417, 383819], "replay_time": [1401495994, 225656], "host_id": null, "round": 34, "prunable": true}
{"dependent_labels": [], "class": "TrafficInjection", "fingerprint": ["TrafficInjection", {"interface": {"hw_addr": "12:34:56:78:02:02", "ips": ["123.123.2.2"], "__type__": "sts.entities.hosts.HostInterface", "name": "eth2"}, "packet": "EjRWeAECEjRWeAICCABFAABIutQAAEABxeZ7ewICe3sBAggABjdQaW5nUGluZ1BpbmdQaW5nUGluZ1BpbmdQaW5nUGluZ1BpbmdQaW5nUGluZ1Bpbmc="}, null], "timed_out": false, "label": "e314", "dp_event": {"interface": {"hw_addr": "12:34:56:78:02:02", "ips": ["123.123.2.2"], "__type__": "sts.entities.hosts.HostInterface", "name": "eth2"}, "packet": "EjRWeAECEjRWeAICCABFAABIutQAAEABxeZ7ewICe3sBAggABjdQaW5nUGluZ1BpbmdQaW5nUGluZ1BpbmdQaW5nUGluZ1BpbmdQaW5nUGluZ1Bpbmc="}, "time": [1401404423, 396362], "replay_time": [1401496000, 245618], "host_id": null, "round": 36, "prunable": true}
{"class": "ControllerFailure", "fingerprint": ["ControllerFailure", "c1"], "controller_id": "c1", "timed_out": false, "dependent_labels": [], "time": [1401404429, 405283], "replay_time": [1401496006, 876332], "label": "e331", "round": 38, "prunable": true}
{"class": "ControllerRecovery", "fingerprint": ["ControllerRecovery", "c1"], "controller_id": "c1", "timed_out": false, "dependent_labels": [], "time": [1401404432, 718567], "replay_time": [1401496043, 27854], "label": "e342", "round": 39, "prunable": true}
{"dependent_labels": [], "class": "TrafficInjection", "fingerprint": ["TrafficInjection", {"interface": {"hw_addr": "12:34:56:78:02:02", "ips": ["123.123.2.2"], "__type__": "sts.entities.hosts.HostInterface", "name": "eth2"}, "packet": "EjRWeAECEjRWeAICCABFAABIutUAAEABxeV7ewICe3sBAggABjdQaW5nUGluZ1BpbmdQaW5nUGluZ1BpbmdQaW5nUGluZ1BpbmdQaW5nUGluZ1Bpbmc="}, null], "timed_out": false, "label": "e357", "dp_event": {"interface": {"hw_addr": "12:34:56:78:02:02", "ips": ["123.123.2.2"], "__type__": "sts.entities.hosts.HostInterface", "name": "eth2"}, "packet": "EjRWeAECEjRWeAICCABFAABIutUAAEABxeV7ewICe3sBAggABjdQaW5nUGluZ1BpbmdQaW5nUGluZ1BpbmdQaW5nUGluZ1BpbmdQaW5nUGluZ1Bpbmc="}, "time": [1401404468, 409303], "replay_time": [1401496078, 756679], "host_id": null, "round": 40, "prunable": true}
{"class": "ControllerFailure", "fingerprint": ["ControllerFailure", "c2"], "controller_id": "c2", "timed_out": false, "dependent_labels": [], "time": [1401404468, 409739], "replay_time": [1401496079, 144520], "label": "e358", "round": 40, "prunable": true}
{"dependent_labels": [], "class": "TrafficInjection", "fingerprint": ["TrafficInjection", {"interface": {"hw_addr": "12:34:56:78:02:02", "ips": ["123.123.2.2"], "__type__": "sts.entities.hosts.HostInterface", "name": "eth2"}, "packet": "EjRWeAECEjRWeAICCABFAABIutYAAEABxeR7ewICe3sBAgAADjdQaW5nUGluZ1BpbmdQaW5nUGluZ1BpbmdQaW5nUGluZ1BpbmdQaW5nUGluZ1Bpbmc="}, null], "timed_out": false, "label": "e372", "dp_event": {"interface": {"hw_addr": "12:34:56:78:02:02", "ips": ["123.123.2.2"], "__type__": "sts.entities.hosts.HostInterface", "name": "eth2"}, "packet": "EjRWeAECEjRWeAICCABFAABIutYAAEABxeR7ewICe3sBAgAADjdQaW5nUGluZ1BpbmdQaW5nUGluZ1BpbmdQaW5nUGluZ1BpbmdQaW5nUGluZ1Bpbmc="}, "time": [1401404471, 737511], "replay_time": [1401496082, 477047], "host_id": null, "round": 41, "prunable": true}
{"class": "ControllerFailure", "fingerprint": ["ControllerFailure", "c1"], "controller_id": "c1", "timed_out": false, "dependent_labels": [], "time": [1401404471, 737948], "replay_time": [1401496083, 174672], "label": "e373", "round": 41, "prunable": true}
{"class": "ControllerRecovery", "fingerprint": ["ControllerRecovery", "c2"], "controller_id": "c2", "timed_out": false, "dependent_labels": [], "time": [1401404472, 74820], "replay_time": [1401496115, 738567], "label": "e374", "round": 41, "prunable": true}
{"class": "ControllerRecovery", "fingerprint": ["ControllerRecovery", "c1"], "controller_id": "c1", "timed_out": false, "dependent_labels": [], "time": [1401404507, 765820], "replay_time": [1401496184, 785008], "label": "e385", "round": 42, "prunable": true}
{"class": "ControllerFailure", "fingerprint": ["ControllerFailure", "c2"], "controller_id": "c2", "timed_out": false, "dependent_labels": [], "time": [1401404555, 449227], "replay_time": [1401496233, 113007], "label": "e417", "round": 47, "prunable": true}
{"class": "ControllerRecovery", "fingerprint": ["ControllerRecovery", "c2"], "controller_id": "c2", "timed_out": false, "dependent_labels": [], "time": [1401404558, 758351], "replay_time": [1401496268, 708584], "label": "e420", "round": 48, "prunable": true}
{"dependent_labels": [], "class": "TrafficInjection", "fingerprint": ["TrafficInjection", {"interface": {"hw_addr": "12:34:56:78:01:02", "ips": ["123.123.1.2"], "__type__": "sts.entities.hosts.HostInterface", "name": "eth1"}, "packet": "EjRWeAICEjRWeAECCABFAABIutcAAEABxeN7ewECe3sCAggABjdQaW5nUGluZ1BpbmdQaW5nUGluZ1BpbmdQaW5nUGluZ1BpbmdQaW5nUGluZ1Bpbmc="}, null], "timed_out": false, "label": "e433", "dp_event": {"interface": {"hw_addr": "12:34:56:78:01:02", "ips": ["123.123.1.2"], "__type__": "sts.entities.hosts.HostInterface", "name": "eth1"}, "packet": "EjRWeAICEjRWeAECCABFAABIutcAAEABxeN7ewECe3sCAggABjdQaW5nUGluZ1BpbmdQaW5nUGluZ1BpbmdQaW5nUGluZ1BpbmdQaW5nUGluZ1Bpbmc="}, "time": [1401404594, 461682], "replay_time": [1401496304, 449230], "host_id": null, "round": 49, "prunable": true}
{"dependent_labels": [], "class": "TrafficInjection", "fingerprint": ["TrafficInjection", {"interface": {"hw_addr": "12:34:56:78:01:02", "ips": ["123.123.1.2"], "__type__": "sts.entities.hosts.HostInterface", "name": "eth1"}, "packet": "EjRWeAICEjRWeAECCABFAABIutgAAEABxeJ7ewECe3sCAgAADjdQaW5nUGluZ1BpbmdQaW5nUGluZ1BpbmdQaW5nUGluZ1BpbmdQaW5nUGluZ1Bpbmc="}, null], "timed_out": false, "label": "e447", "dp_event": {"interface": {"hw_addr": "12:34:56:78:01:02", "ips": ["123.123.1.2"], "__type__": "sts.entities.hosts.HostInterface", "name": "eth1"}, "packet": "EjRWeAICEjRWeAECCABFAABIutgAAEABxeJ7ewECe3sCAgAADjdQaW5nUGluZ1BpbmdQaW5nUGluZ1BpbmdQaW5nUGluZ1BpbmdQaW5nUGluZ1Bpbmc="}, "time": [1401404597, 468265], "replay_time": [1401496307, 460208], "host_id": null, "round": 50, "prunable": true}
{"legacy_invariant_check": false, "class": "CheckInvariants", "fingerprint": "N/A", "timed_out": false, "label": "e448", "dependent_labels": [], "invariant_name": "InvariantChecker.check_liveness", "invariant_check_name": "InvariantChecker.check_liveness", "time": [1401404597, 468701], "replay_time": [1401496309, 243558], "invariant_check": null, "round": 50, "prunable": true}
{"dependent_labels": [], "class": "TrafficInjection", "fingerprint": ["TrafficInjection", {"interface": {"hw_addr": "12:34:56:78:02:02", "ips": ["123.123.2.2"], "__type__": "sts.entities.hosts.HostInterface", "name": "eth2"}, "packet": "EjRWeAECEjRWeAICCABFAABIutkAAEABxeF7ewICe3sBAgAADjdQaW5nUGluZ1BpbmdQaW5nUGluZ1BpbmdQaW5nUGluZ1BpbmdQaW5nUGluZ1Bpbmc="}, null], "timed_out": false, "label": "e459", "dp_event": {"interface": {"hw_addr": "12:34:56:78:02:02", "ips": ["123.123.2.2"], "__type__": "sts.entities.hosts.HostInterface", "name": "eth2"}, "packet": "EjRWeAECEjRWeAICCABFAABIutkAAEABxeF7ewICe3sBAgAADjdQaW5nUGluZ1BpbmdQaW5nUGluZ1BpbmdQaW5nUGluZ1BpbmdQaW5nUGluZ1Bpbmc="}, "time": [1401404601, 664909], "replay_time": [1401496313, 445261], "host_id": null, "round": 51, "prunable": true}
{"dependent_labels": [], "class": "TrafficInjection", "fingerprint": ["TrafficInjection", {"interface": {"hw_addr": "12:34:56:78:02:02", "ips": ["123.123.2.2"], "__type__": "sts.entities.hosts.HostInterface", "name": "eth2"}, "packet": "EjRWeAECEjRWeAICCABFAABIutoAAEABxeB7ewICe3sBAgAADjdQaW5nUGluZ1BpbmdQaW5nUGluZ1BpbmdQaW5nUGluZ1BpbmdQaW5nUGluZ1Bpbmc="}, null], "timed_out": false, "label": "e482", "dp_event": {"interface": {"hw_addr": "12:34:56:78:02:02", "ips": ["123.123.2.2"], "__type__": "sts.entities.hosts.HostInterface", "name": "eth2"}, "packet": "EjRWeAECEjRWeAICCABFAABIutoAAEABxeB7ewICe3sBAgAADjdQaW5nUGluZ1BpbmdQaW5nUGluZ1BpbmdQaW5nUGluZ1BpbmdQaW5nUGluZ1Bpbmc="}, "time": [1401404610, 676207], "replay_time": [1401496322, 466978], "host_id": null, "round": 54, "prunable": true}
{"dependent_labels": [], "class": "TrafficInjection", "fingerprint": ["TrafficInjection", {"interface": {"hw_addr": "12:34:56:78:01:02", "ips": ["123.123.1.2"], "__type__": "sts.entities.hosts.HostInterface", "name": "eth1"}, "packet": "EjRWeAICEjRWeAECCABFAABIutsAAEABxd97ewECe3sCAgAADjdQaW5nUGluZ1BpbmdQaW5nUGluZ1BpbmdQaW5nUGluZ1BpbmdQaW5nUGluZ1Bpbmc="}, null], "timed_out": false, "label": "e521", "dp_event": {"interface": {"hw_addr": "12:34:56:78:01:02", "ips": ["123.123.1.2"], "__type__": "sts.entities.hosts.HostInterface", "name": "eth1"}, "packet": "EjRWeAICEjRWeAECCABFAABIutsAAEABxd97ewECe3sCAgAADjdQaW5nUGluZ1BpbmdQaW5nUGluZ1BpbmdQaW5nUGluZ1BpbmdQaW5nUGluZ1Bpbmc="}, "time": [1401404631, 698218], "replay_time": [1401496343, 491773], "host_id": null, "round": 61, "prunable": true}
{"dependent_labels": [], "class": "TrafficInjection", "fingerprint": ["TrafficInjection", {"interface": {"hw_addr": "12:34:56:78:02:02", "ips": ["123.123.2.2"], "__type__": "sts.entities.hosts.HostInterface", "name": "eth2"}, "packet": "EjRWeAECEjRWeAICCABFAABIutwAAEABxd57ewICe3sBAgAADjdQaW5nUGluZ1BpbmdQaW5nUGluZ1BpbmdQaW5nUGluZ1BpbmdQaW5nUGluZ1Bpbmc="}, null], "timed_out": false, "label": "e522", "dp_event": {"interface": {"hw_addr": "12:34:56:78:02:02", "ips": ["123.123.2.2"], "__type__": "sts.entities.hosts.HostInterface", "name": "eth2"}, "packet": "EjRWeAECEjRWeAICCABFAABIutwAAEABxd57ewICe3sBAgAADjdQaW5nUGluZ1BpbmdQaW5nUGluZ1BpbmdQaW5nUGluZ1BpbmdQaW5nUGluZ1Bpbmc="}, "time": [1401404631, 698732], "replay_time": [1401496343, 493312], "host_id": null, "round": 61, "prunable": true}
{"dependent_labels": [], "class": "TrafficInjection", "fingerprint": ["TrafficInjection", {"interface": {"hw_addr": "12:34:56:78:02:02", "ips": ["123.123.2.2"], "__type__": "sts.entities.hosts.HostInterface", "name": "eth2"}, "packet": "EjRWeAECEjRWeAICCABFAABIut0AAEABxd17ewICe3sBAggABjdQaW5nUGluZ1BpbmdQaW5nUGluZ1BpbmdQaW5nUGluZ1BpbmdQaW5nUGluZ1Bpbmc="}, null], "timed_out": false, "label": "e545", "dp_event": {"interface": {"hw_addr": "12:34:56:78:02:02", "ips": ["123.123.2.2"], "__type__": "sts.entities.hosts.HostInterface", "name": "eth2"}, "packet": "EjRWeAECEjRWeAICCABFAABIut0AAEABxd17ewICe3sBAggABjdQaW5nUGluZ1BpbmdQaW5nUGluZ1BpbmdQaW5nUGluZ1BpbmdQaW5nUGluZ1Bpbmc="}, "time": [1401404640, 713742], "replay_time": [1401496352, 513110], "host_id": null, "round": 64, "prunable": true}
{"dependent_labels": [], "class": "TrafficInjection", "fingerprint": ["TrafficInjection", {"interface": {"hw_addr": "12:34:56:78:01:02", "ips": ["123.123.1.2"], "__type__": "sts.entities.hosts.HostInterface", "name": "eth1"}, "packet": "EjRWeAICEjRWeAECCABFAABIut4AAEABxdx7ewECe3sCAgAADjdQaW5nUGluZ1BpbmdQaW5nUGluZ1BpbmdQaW5nUGluZ1BpbmdQaW5nUGluZ1Bpbmc="}, null], "timed_out": false, "label": "e547", "dp_event": {"interface": {"hw_addr": "12:34:56:78:01:02", "ips": ["123.123.1.2"], "__type__": "sts.entities.hosts.HostInterface", "name": "eth1"}, "packet": "EjRWeAICEjRWeAECCABFAABIut4AAEABxdx7ewECe3sCAgAADjdQaW5nUGluZ1BpbmdQaW5nUGluZ1BpbmdQaW5nUGluZ1BpbmdQaW5nUGluZ1Bpbmc="}, "time": [1401404643, 715368], "replay_time": [1401496355, 519055], "host_id": null, "round": 65, "prunable": true}
{"dependent_labels": [], "class": "TrafficInjection", "fingerprint": ["TrafficInjection", {"interface": {"hw_addr": "12:34:56:78:01:02", "ips": ["123.123.1.2"], "__type__": "sts.entities.hosts.HostInterface", "name": "eth1"}, "packet": "EjRWeAICEjRWeAECCABFAABIut8AAEABxdt7ewECe3sCAggABjdQaW5nUGluZ1BpbmdQaW5nUGluZ1BpbmdQaW5nUGluZ1BpbmdQaW5nUGluZ1Bpbmc="}, null], "timed_out": false, "label": "e573", "dp_event": {"interface": {"hw_addr": "12:34:56:78:01:02", "ips": ["123.123.1.2"], "__type__": "sts.entities.hosts.HostInterface", "name": "eth1"}, "packet": "EjRWeAICEjRWeAECCABFAABIut8AAEABxdt7ewECe3sCAggABjdQaW5nUGluZ1BpbmdQaW5nUGluZ1BpbmdQaW5nUGluZ1BpbmdQaW5nUGluZ1Bpbmc="}, "time": [1401404655, 729064], "replay_time": [1401496367, 543635], "host_id": null, "round": 69, "prunable": true}
{"dependent_labels": [], "class": "TrafficInjection", "fingerprint": ["TrafficInjection", {"interface": {"hw_addr": "12:34:56:78:02:02", "ips": ["123.123.2.2"], "__type__": "sts.entities.hosts.HostInterface", "name": "eth2"}, "packet": "EjRWeAECEjRWeAICCABFAABIuuAAAEABxdp7ewICe3sBAggABjdQaW5nUGluZ1BpbmdQaW5nUGluZ1BpbmdQaW5nUGluZ1BpbmdQaW5nUGluZ1Bpbmc="}, null], "timed_out": false, "label": "e575", "dp_event": {"interface": {"hw_addr": "12:34:56:78:02:02", "ips": ["123.123.2.2"], "__type__": "sts.entities.hosts.HostInterface", "name": "eth2"}, "packet": "EjRWeAECEjRWeAICCABFAABIuuAAAEABxdp7ewICe3sBAggABjdQaW5nUGluZ1BpbmdQaW5nUGluZ1BpbmdQaW5nUGluZ1BpbmdQaW5nUGluZ1Bpbmc="}, "time": [1401404658, 730681], "replay_time": [1401496370, 549576], "host_id": null, "round": 70, "prunable": true}
{"dependent_labels": [], "class": "TrafficInjection", "fingerprint": ["TrafficInjection", {"interface": {"hw_addr": "12:34:56:78:01:02", "ips": ["123.123.1.2"], "__type__": "sts.entities.hosts.HostInterface", "name": "eth1"}, "packet": "EjRWeAICEjRWeAECCABFAABIuuEAAEABxdl7ewECe3sCAggABjdQaW5nUGluZ1BpbmdQaW5nUGluZ1BpbmdQaW5nUGluZ1BpbmdQaW5nUGluZ1Bpbmc="}, null], "timed_out": false, "label": "e582", "dp_event": {"interface": {"hw_addr": "12:34:56:78:01:02", "ips": ["123.123.1.2"], "__type__": "sts.entities.hosts.HostInterface", "name": "eth1"}, "packet": "EjRWeAICEjRWeAECCABFAABIuuEAAEABxdl7ewECe3sCAggABjdQaW5nUGluZ1BpbmdQaW5nUGluZ1BpbmdQaW5nUGluZ1BpbmdQaW5nUGluZ1Bpbmc="}, "time": [1401404661, 734412], "replay_time": [1401496373, 557631], "host_id": null, "round": 71, "prunable": true}
{"class": "ControllerFailure", "fingerprint": ["ControllerFailure", "c2"], "controller_id": "c2", "timed_out": false, "dependent_labels": [], "time": [1401404664, 739364], "replay_time": [1401496376, 981849], "label": "e592", "round": 72, "prunable": true}
{"dependent_labels": [], "class": "TrafficInjection", "fingerprint": ["TrafficInjection", {"interface": {"hw_addr": "12:34:56:78:02:02", "ips": ["123.123.2.2"], "__type__": "sts.entities.hosts.HostInterface", "name": "eth2"}, "packet": "EjRWeAECEjRWeAICCABFAABIuuIAAEABxdh7ewICe3sBAgAADjdQaW5nUGluZ1BpbmdQaW5nUGluZ1BpbmdQaW5nUGluZ1BpbmdQaW5nUGluZ1Bpbmc="}, null], "timed_out": false, "label": "e599", "dp_event": {"interface": {"hw_addr": "12:34:56:78:02:02", "ips": ["123.123.2.2"], "__type__": "sts.entities.hosts.HostInterface", "name": "eth2"}, "packet": "EjRWeAECEjRWeAICCABFAABIuuIAAEABxdh7ewICe3sBAgAADjdQaW5nUGluZ1BpbmdQaW5nUGluZ1BpbmdQaW5nUGluZ1BpbmdQaW5nUGluZ1Bpbmc="}, "time": [1401404668, 94628], "replay_time": [1401496380, 341677], "host_id": null, "round": 73, "prunable": true}
{"class": "ControllerRecovery", "fingerprint": ["ControllerRecovery", "c2"], "controller_id": "c2", "timed_out": false, "dependent_labels": [], "time": [1401404668, 95075], "replay_time": [1401496412, 277338], "label": "e600", "round": 73, "prunable": true}
{"dependent_labels": [], "class": "TrafficInjection", "fingerprint": ["TrafficInjection", {"interface": {"hw_addr": "12:34:56:78:02:02", "ips": ["123.123.2.2"], "__type__": "sts.entities.hosts.HostInterface", "name": "eth2"}, "packet": "EjRWeAECEjRWeAICCABFAABIuuMAAEABxdd7ewICe3sBAgAADjdQaW5nUGluZ1BpbmdQaW5nUGluZ1BpbmdQaW5nUGluZ1BpbmdQaW5nUGluZ1Bpbmc="}, null], "timed_out": false, "label": "e630", "dp_event": {"interface": {"hw_addr": "12:34:56:78:02:02", "ips": ["123.123.2.2"], "__type__": "sts.entities.hosts.HostInterface", "name": "eth2"}, "packet": "EjRWeAECEjRWeAICCABFAABIuuMAAEABxdd7ewICe3sBAgAADjdQaW5nUGluZ1BpbmdQaW5nUGluZ1BpbmdQaW5nUGluZ1BpbmdQaW5nUGluZ1Bpbmc="}, "time": [1401404706, 896042], "replay_time": [1401496451, 113915], "host_id": null, "round": 75, "prunable": true}
{"dependent_labels": [], "class": "TrafficInjection", "fingerprint": ["TrafficInjection", {"interface": {"hw_addr": "12:34:56:78:02:02", "ips": ["123.123.2.2"], "__type__": "sts.entities.hosts.HostInterface", "name": "eth2"}, "packet": "EjRWeAECEjRWeAICCABFAABIuuQAAEABxdZ7ewICe3sBAggABjdQaW5nUGluZ1BpbmdQaW5nUGluZ1BpbmdQaW5nUGluZ1BpbmdQaW5nUGluZ1Bpbmc="}, null], "timed_out": false, "label": "e668", "dp_event": {"interface": {"hw_addr": "12:34:56:78:02:02", "ips": ["123.123.2.2"], "__type__": "sts.entities.hosts.HostInterface", "name": "eth2"}, "packet": "EjRWeAECEjRWeAICCABFAABIuuQAAEABxdZ7ewICe3sBAggABjdQaW5nUGluZ1BpbmdQaW5nUGluZ1BpbmdQaW5nUGluZ1BpbmdQaW5nUGluZ1Bpbmc="}, "time": [1401404721, 917875], "replay_time": [1401496466, 143565], "host_id": null, "round": 80, "prunable": true}
{"class": "ControllerFailure", "fingerprint": ["ControllerFailure", "c1"], "controller_id": "c1", "timed_out": false, "dependent_labels": [], "time": [1401404730, 932405], "replay_time": [1401496475, 658589], "label": "e699", "round": 83, "prunable": true}
{"class": "ControllerRecovery", "fingerprint": ["ControllerRecovery", "c1"], "controller_id": "c1", "timed_out": false, "dependent_labels": [], "time": [1401404734, 257771], "replay_time": [1401496511, 619615], "label": "e700", "round": 84, "prunable": true}
{"dependent_labels": [], "class": "TrafficInjection", "fingerprint": ["TrafficInjection", {"interface": {"hw_addr": "12:34:56:78:01:02", "ips": ["123.123.1.2"], "__type__": "sts.entities.hosts.HostInterface", "name": "eth1"}, "packet": "EjRWeAICEjRWeAECCABFAABIuuUAAEABxdV7ewECe3sCAgAADjdQaW5nUGluZ1BpbmdQaW5nUGluZ1BpbmdQaW5nUGluZ1BpbmdQaW5nUGluZ1Bpbmc="}, null], "timed_out": false, "label": "e746", "dp_event": {"interface": {"hw_addr": "12:34:56:78:01:02", "ips": ["123.123.1.2"], "__type__": "sts.entities.hosts.HostInterface", "name": "eth1"}, "packet": "EjRWeAICEjRWeAECCABFAABIuuUAAEABxdV7ewECe3sCAgAADjdQaW5nUGluZ1BpbmdQaW5nUGluZ1BpbmdQaW5nUGluZ1BpbmdQaW5nUGluZ1Bpbmc="}, "time": [1401404781, 886587], "replay_time": [1401496559, 264016], "host_id": null, "round": 89, "prunable": true}
{"dependent_labels": [], "class": "TrafficInjection", "fingerprint": ["TrafficInjection", {"interface": {"hw_addr": "12:34:56:78:02:02", "ips": ["123.123.2.2"], "__type__": "sts.entities.hosts.HostInterface", "name": "eth2"}, "packet": "EjRWeAECEjRWeAICCABFAABIuuYAAEABxdR7ewICe3sBAgAADjdQaW5nUGluZ1BpbmdQaW5nUGluZ1BpbmdQaW5nUGluZ1BpbmdQaW5nUGluZ1Bpbmc="}, null], "timed_out": false, "label": "e754", "dp_event": {"interface": {"hw_addr": "12:34:56:78:02:02", "ips": ["123.123.2.2"], "__type__": "sts.entities.hosts.HostInterface", "name": "eth2"}, "packet": "EjRWeAECEjRWeAICCABFAABIuuYAAEABxdR7ewICe3sBAgAADjdQaW5nUGluZ1BpbmdQaW5nUGluZ1BpbmdQaW5nUGluZ1BpbmdQaW5nUGluZ1Bpbmc="}, "time": [1401404784, 891159], "replay_time": [1401496562, 270822], "host_id": null, "round": 90, "prunable": true}
{"dependent_labels": [], "class": "TrafficInjection", "fingerprint": ["TrafficInjection", {"interface": {"hw_addr": "12:34:56:78:02:02", "ips": ["123.123.2.2"], "__type__": "sts.entities.hosts.HostInterface", "name": "eth2"}, "packet": "EjRWeAECEjRWeAICCABFAABIuucAAEABxdN7ewICe3sBAggABjdQaW5nUGluZ1BpbmdQaW5nUGluZ1BpbmdQaW5nUGluZ1BpbmdQaW5nUGluZ1Bpbmc="}, null], "timed_out": false, "label": "e799", "dp_event": {"interface": {"hw_addr": "12:34:56:78:02:02", "ips": ["123.123.2.2"], "__type__": "sts.entities.hosts.HostInterface", "name": "eth2"}, "packet": "EjRWeAECEjRWeAICCABFAABIuucAAEABxdN7ewICe3sBAggABjdQaW5nUGluZ1BpbmdQaW5nUGluZ1BpbmdQaW5nUGluZ1BpbmdQaW5nUGluZ1Bpbmc="}, "time": [1401404802, 915440], "replay_time": [1401496580, 314574], "host_id": null, "round": 96, "prunable": true}
{"dependent_labels": [], "class": "TrafficInjection", "fingerprint": ["TrafficInjection", {"interface": {"hw_addr": "12:34:56:78:02:02", "ips": ["123.123.2.2"], "__type__": "sts.entities.hosts.HostInterface", "name": "eth2"}, "packet": "EjRWeAECEjRWeAICCABFAABIuugAAEABxdJ7ewICe3sBAggABjdQaW5nUGluZ1BpbmdQaW5nUGluZ1BpbmdQaW5nUGluZ1BpbmdQaW5nUGluZ1Bpbmc="}, null], "timed_out": false, "label": "e805", "dp_event": {"interface": {"hw_addr": "12:34:56:78:02:02", "ips": ["123.123.2.2"], "__type__": "sts.entities.hosts.HostInterface", "name": "eth2"}, "packet": "EjRWeAECEjRWeAICCABFAABIuugAAEABxdJ7ewICe3sBAggABjdQaW5nUGluZ1BpbmdQaW5nUGluZ1BpbmdQaW5nUGluZ1BpbmdQaW5nUGluZ1Bpbmc="}, "time": [1401404805, 919720], "replay_time": [1401496583, 323348], "host_id": null, "round": 97, "prunable": true}
{"class": "ControllerFailure", "fingerprint": ["ControllerFailure", "c2"], "controller_id": "c2", "timed_out": false, "dependent_labels": [], "time": [1401404811, 926468], "replay_time": [1401496589, 770319], "label": "e816", "round": 99, "prunable": true}
{"class": "ControllerRecovery", "fingerprint": ["ControllerRecovery", "c2"], "controller_id": "c2", "timed_out": false, "dependent_labels": [], "time": [1401404815, 250233], "replay_time": [1401496625, 89195], "label": "e818", "round": 100, "prunable": true}
{"legacy_invariant_check": false, "class": "CheckInvariants", "fingerprint": "N/A", "timed_out": false, "label": "e819", "dependent_labels": [], "invariant_name": "InvariantChecker.check_liveness", "invariant_check_name": "InvariantChecker.check_liveness", "time": [1401404847, 938065], "replay_time": [1401496659, 437784], "invariant_check": null, "round": 100, "prunable": true}
{"dependent_labels": [], "class": "TrafficInjection", "fingerprint": ["TrafficInjection", {"interface": {"hw_addr": "12:34:56:78:02:02", "ips": ["123.123.2.2"], "__type__": "sts.entities.hosts.HostInterface", "name": "eth2"}, "packet": "EjRWeAECEjRWeAICCABFAABIuukAAEABxdF7ewICe3sBAggABjdQaW5nUGluZ1BpbmdQaW5nUGluZ1BpbmdQaW5nUGluZ1BpbmdQaW5nUGluZ1Bpbmc="}, null], "timed_out": false, "label": "e828", "dp_event": {"interface": {"hw_addr": "12:34:56:78:02:02", "ips": ["123.123.2.2"], "__type__": "sts.entities.hosts.HostInterface", "name": "eth2"}, "packet": "EjRWeAECEjRWeAICCABFAABIuukAAEABxdF7ewICe3sBAggABjdQaW5nUGluZ1BpbmdQaW5nUGluZ1BpbmdQaW5nUGluZ1BpbmdQaW5nUGluZ1Bpbmc="}, "time": [1401404852, 165368], "replay_time": [1401496663, 670612], "host_id": null, "round": 101, "prunable": true}
{"dependent_labels": [], "class": "TrafficInjection", "fingerprint": ["TrafficInjection", {"interface": {"hw_addr": "12:34:56:78:01:02", "ips": ["123.123.1.2"], "__type__": "sts.entities.hosts.HostInterface", "name": "eth1"}, "packet": "EjRWeAICEjRWeAECCABFAABIuuoAAEABxdB7ewECe3sCAggABjdQaW5nUGluZ1BpbmdQaW5nUGluZ1BpbmdQaW5nUGluZ1BpbmdQaW5nUGluZ1Bpbmc="}, null], "timed_out": false, "label": "e844", "dp_event": {"interface": {"hw_addr": "12:34:56:78:01:02", "ips": ["123.123.1.2"], "__type__": "sts.entities.hosts.HostInterface", "name": "eth1"}, "packet": "EjRWeAICEjRWeAECCABFAABIuuoAAEABxdB7ewECe3sCAggABjdQaW5nUGluZ1BpbmdQaW5nUGluZ1BpbmdQaW5nUGluZ1BpbmdQaW5nUGluZ1Bpbmc="}, "time": [1401404855, 171968], "replay_time": [1401496666, 681565], "host_id": null, "round": 102, "prunable": true}
{"dependent_labels": [], "class": "TrafficInjection", "fingerprint": ["TrafficInjection", {"interface": {"hw_addr": "12:34:56:78:01:02", "ips": ["123.123.1.2"], "__type__": "sts.entities.hosts.HostInterface", "name": "eth1"}, "packet": "EjRWeAICEjRWeAECCABFAABIuusAAEABxc97ewECe3sCAggABjdQaW5nUGluZ1BpbmdQaW5nUGluZ1BpbmdQaW5nUGluZ1BpbmdQaW5nUGluZ1Bpbmc="}, null], "timed_out": false, "label": "e895", "dp_event": {"interface": {"hw_addr": "12:34:56:78:01:02", "ips": ["123.123.1.2"], "__type__": "sts.entities.hosts.HostInterface", "name": "eth1"}, "packet": "EjRWeAICEjRWeAECCABFAABIuusAAEABxc97ewECe3sCAggABjdQaW5nUGluZ1BpbmdQaW5nUGluZ1BpbmdQaW5nUGluZ1BpbmdQaW5nUGluZ1Bpbmc="}, "time": [1401404870, 195084], "replay_time": [1401496681, 720990], "host_id": null, "round": 107, "prunable": true}
{"dependent_labels": [], "class": "TrafficInjection", "fingerprint": ["TrafficInjection", {"interface": {"hw_addr": "12:34:56:78:01:02", "ips": ["123.123.1.2"], "__type__": "sts.entities.hosts.HostInterface", "name": "eth1"}, "packet": "EjRWeAICEjRWeAECCABFAABIuuwAAEABxc57ewECe3sCAggABjdQaW5nUGluZ1BpbmdQaW5nUGluZ1BpbmdQaW5nUGluZ1BpbmdQaW5nUGluZ1Bpbmc="}, null], "timed_out": false, "label": "e914", "dp_event": {"interface": {"hw_addr": "12:34:56:78:01:02", "ips": ["123.123.1.2"], "__type__": "sts.entities.hosts.HostInterface", "name": "eth1"}, "packet": "EjRWeAICEjRWeAECCABFAABIuuwAAEABxc57ewECe3sCAggABjdQaW5nUGluZ1BpbmdQaW5nUGluZ1BpbmdQaW5nUGluZ1BpbmdQaW5nUGluZ1Bpbmc="}, "time": [1401404879, 205600], "replay_time": [1401496690, 733014], "host_id": null, "round": 110, "prunable": true}
{"dependent_labels": [], "class": "TrafficInjection", "fingerprint": ["TrafficInjection", {"interface": {"hw_addr": "12:34:56:78:01:02", "ips": ["123.123.1.2"], "__type__": "sts.entities.hosts.HostInterface", "name": "eth1"}, "packet": "EjRWeAICEjRWeAECCABFAABIuu0AAEABxc17ewECe3sCAgAADjdQaW5nUGluZ1BpbmdQaW5nUGluZ1BpbmdQaW5nUGluZ1BpbmdQaW5nUGluZ1Bpbmc="}, null], "timed_out": false, "label": "e936", "dp_event": {"interface": {"hw_addr": "12:34:56:78:01:02", "ips": ["123.123.1.2"], "__type__": "sts.entities.hosts.HostInterface", "name": "eth1"}, "packet": "EjRWeAICEjRWeAECCABFAABIuu0AAEABxc17ewECe3sCAgAADjdQaW5nUGluZ1BpbmdQaW5nUGluZ1BpbmdQaW5nUGluZ1BpbmdQaW5nUGluZ1Bpbmc="}, "time": [1401404888, 218948], "replay_time": [1401496699, 756648], "host_id": null, "round": 113, "prunable": true}
{"dependent_labels": [], "class": "TrafficInjection", "fingerprint": ["TrafficInjection", {"interface": {"hw_addr": "12:34:56:78:01:02", "ips": ["123.123.1.2"], "__type__": "sts.entities.hosts.HostInterface", "name": "eth1"}, "packet": "EjRWeAICEjRWeAECCABFAABIuu4AAEABxcx7ewECe3sCAggABjdQaW5nUGluZ1BpbmdQaW5nUGluZ1BpbmdQaW5nUGluZ1BpbmdQaW5nUGluZ1Bpbmc="}, null], "timed_out": false, "label": "e943", "dp_event": {"interface": {"hw_addr": "12:34:56:78:01:02", "ips": ["123.123.1.2"], "__type__": "sts.entities.hosts.HostInterface", "name": "eth1"}, "packet": "EjRWeAICEjRWeAECCABFAABIuu4AAEABxcx7ewECe3sCAggABjdQaW5nUGluZ1BpbmdQaW5nUGluZ1BpbmdQaW5nUGluZ1BpbmdQaW5nUGluZ1Bpbmc="}, "time": [1401404894, 224227], "replay_time": [1401496705, 769164], "host_id": null, "round": 115, "prunable": true}
{"dependent_labels": [], "class": "TrafficInjection", "fingerprint": ["TrafficInjection", {"interface": {"hw_addr": "12:34:56:78:02:02", "ips": ["123.123.2.2"], "__type__": "sts.entities.hosts.HostInterface", "name": "eth2"}, "packet": "EjRWeAECEjRWeAICCABFAABIuu8AAEABxct7ewICe3sBAggABjdQaW5nUGluZ1BpbmdQaW5nUGluZ1BpbmdQaW5nUGluZ1BpbmdQaW5nUGluZ1Bpbmc="}, null], "timed_out": false, "label": "e957", "dp_event": {"interface": {"hw_addr": "12:34:56:78:02:02", "ips": ["123.123.2.2"], "__type__": "sts.entities.hosts.HostInterface", "name": "eth2"}, "packet": "EjRWeAECEjRWeAICCABFAABIuu8AAEABxct7ewICe3sBAggABjdQaW5nUGluZ1BpbmdQaW5nUGluZ1BpbmdQaW5nUGluZ1BpbmdQaW5nUGluZ1Bpbmc="}, "time": [1401404900, 232370], "replay_time": [1401496711, 784553], "host_id": null, "round": 117, "prunable": true}
{"class": "ControllerFailure", "fingerprint": ["ControllerFailure", "c1"], "controller_id": "c1", "timed_out": false, "dependent_labels": [], "time": [1401404900, 232783], "replay_time": [1401496712, 185838], "label": "e958", "round": 117, "prunable": true}
{"dependent_labels": [], "class": "TrafficInjection", "fingerprint": ["TrafficInjection", {"interface": {"hw_addr": "12:34:56:78:02:02", "ips": ["123.123.2.2"], "__type__": "sts.entities.hosts.HostInterface", "name": "eth2"}, "packet": "EjRWeAECEjRWeAICCABFAABIuvAAAEABxcp7ewICe3sBAggABjdQaW5nUGluZ1BpbmdQaW5nUGluZ1BpbmdQaW5nUGluZ1BpbmdQaW5nUGluZ1Bpbmc="}, null], "timed_out": false, "label": "e967", "dp_event": {"interface": {"hw_addr": "12:34:56:78:02:02", "ips": ["123.123.2.2"], "__type__": "sts.entities.hosts.HostInterface", "name": "eth2"}, "packet": "EjRWeAECEjRWeAICCABFAABIuvAAAEABxcp7ewICe3sBAggABjdQaW5nUGluZ1BpbmdQaW5nUGluZ1BpbmdQaW5nUGluZ1BpbmdQaW5nUGluZ1Bpbmc="}, "time": [1401404903, 603876], "replay_time": [1401496715, 561536], "host_id": null, "round": 118, "prunable": true}
{"class": "ControllerRecovery", "fingerprint": ["ControllerRecovery", "c1"], "controller_id": "c1", "timed_out": false, "dependent_labels": [], "time": [1401404903, 604296], "replay_time": [1401496748, 734522], "label": "e968", "round": 118, "prunable": true}
{"class": "ControllerFailure", "fingerprint": ["ControllerFailure", "c1"], "controller_id": "c1", "timed_out": false, "dependent_labels": [], "time": [1401404939, 895374], "replay_time": [1401496785, 635433], "label": "e979", "round": 119, "prunable": true}
{"class": "ControllerRecovery", "fingerprint": ["ControllerRecovery", "c1"], "controller_id": "c1", "timed_out": false, "dependent_labels": [], "time": [1401404943, 263198], "replay_time": [1401496821, 892788], "label": "e996", "round": 120, "prunable": true}
{"dependent_labels": [], "class": "TrafficInjection", "fingerprint": ["TrafficInjection", {"interface": {"hw_addr": "12:34:56:78:02:02", "ips": ["123.123.2.2"], "__type__": "sts.entities.hosts.HostInterface", "name": "eth2"}, "packet": "EjRWeAECEjRWeAICCABFAABIuvEAAEABxcl7ewICe3sBAggABjdQaW5nUGluZ1BpbmdQaW5nUGluZ1BpbmdQaW5nUGluZ1BpbmdQaW5nUGluZ1Bpbmc="}, null], "timed_out": false, "label": "e1053", "dp_event": {"interface": {"hw_addr": "12:34:56:78:02:02", "ips": ["123.123.2.2"], "__type__": "sts.entities.hosts.HostInterface", "name": "eth2"}, "packet": "EjRWeAECEjRWeAICCABFAABIuvEAAEABxcl7ewICe3sBAggABjdQaW5nUGluZ1BpbmdQaW5nUGluZ1BpbmdQaW5nUGluZ1BpbmdQaW5nUGluZ1Bpbmc="}, "time": [1401404991, 343975], "replay_time": [1401496870, 23371], "host_id": null, "round": 125, "prunable": true}
{"dependent_labels": [], "class": "TrafficInjection", "fingerprint": ["TrafficInjection", {"interface": {"hw_addr": "12:34:56:78:01:02", "ips": ["123.123.1.2"], "__type__": "sts.entities.hosts.HostInterface", "name": "eth1"}, "packet": "EjRWeAICEjRWeAECCABFAABIuvIAAEABxch7ewECe3sCAggABjdQaW5nUGluZ1BpbmdQaW5nUGluZ1BpbmdQaW5nUGluZ1BpbmdQaW5nUGluZ1Bpbmc="}, null], "timed_out": false, "label": "e1063", "dp_event": {"interface": {"hw_addr": "12:34:56:78:01:02", "ips": ["123.123.1.2"], "__type__": "sts.entities.hosts.HostInterface", "name": "eth1"}, "packet": "EjRWeAICEjRWeAECCABFAABIuvIAAEABxch7ewECe3sCAggABjdQaW5nUGluZ1BpbmdQaW5nUGluZ1BpbmdQaW5nUGluZ1BpbmdQaW5nUGluZ1Bpbmc="}, "time": [1401404994, 349791], "replay_time": [1401496873, 33591], "host_id": null, "round": 126, "prunable": true}
{"dependent_labels": [], "class": "TrafficInjection", "fingerprint": ["TrafficInjection", {"interface": {"hw_addr": "12:34:56:78:01:02", "ips": ["123.123.1.2"], "__type__": "sts.entities.hosts.HostInterface", "name": "eth1"}, "packet": "EjRWeAICEjRWeAECCABFAABIuvMAAEABxcd7ewECe3sCAggABjdQaW5nUGluZ1BpbmdQaW5nUGluZ1BpbmdQaW5nUGluZ1BpbmdQaW5nUGluZ1Bpbmc="}, null], "timed_out": false, "label": "e1072", "dp_event": {"interface": {"hw_addr": "12:34:56:78:01:02", "ips": ["123.123.1.2"], "__type__": "sts.entities.hosts.HostInterface", "name": "eth1"}, "packet": "EjRWeAICEjRWeAECCABFAABIuvMAAEABxcd7ewECe3sCAggABjdQaW5nUGluZ1BpbmdQaW5nUGluZ1BpbmdQaW5nUGluZ1BpbmdQaW5nUGluZ1Bpbmc="}, "time": [1401404997, 355538], "replay_time": [1401496876, 43817], "host_id": null, "round": 127, "prunable": true}
{"dependent_labels": [], "class": "TrafficInjection", "fingerprint": ["TrafficInjection", {"interface": {"hw_addr": "12:34:56:78:01:02", "ips": ["123.123.1.2"], "__type__": "sts.entities.hosts.HostInterface", "name": "eth1"}, "packet": "EjRWeAICEjRWeAECCABFAABIuvQAAEABxcZ7ewECe3sCAggABjdQaW5nUGluZ1BpbmdQaW5nUGluZ1BpbmdQaW5nUGluZ1BpbmdQaW5nUGluZ1Bpbmc="}, null], "timed_out": false, "label": "e1100", "dp_event": {"interface": {"hw_addr": "12:34:56:78:01:02", "ips": ["123.123.1.2"], "__type__": "sts.entities.hosts.HostInterface", "name": "eth1"}, "packet": "EjRWeAICEjRWeAECCABFAABIuvQAAEABxcZ7ewECe3sCAggABjdQaW5nUGluZ1BpbmdQaW5nUGluZ1BpbmdQaW5nUGluZ1BpbmdQaW5nUGluZ1Bpbmc="}, "time": [1401405006, 369948], "replay_time": [1401496885, 59958], "host_id": null, "round": 130, "prunable": true}
{"dependent_labels": [], "class": "TrafficInjection", "fingerprint": ["TrafficInjection", {"interface": {"hw_addr": "12:34:56:78:01:02", "ips": ["123.123.1.2"], "__type__": "sts.entities.hosts.HostInterface", "name": "eth1"}, "packet": "EjRWeAICEjRWeAECCABFAABIuvUAAEABxcV7ewECe3sCAggABjdQaW5nUGluZ1BpbmdQaW5nUGluZ1BpbmdQaW5nUGluZ1BpbmdQaW5nUGluZ1Bpbmc="}, null], "timed_out": false, "label": "e1109", "dp_event": {"interface": {"hw_addr": "12:34:56:78:01:02", "ips": ["123.123.1.2"], "__type__": "sts.entities.hosts.HostInterface", "name": "eth1"}, "packet": "EjRWeAICEjRWeAECCABFAABIuvUAAEABxcV7ewECe3sCAggABjdQaW5nUGluZ1BpbmdQaW5nUGluZ1BpbmdQaW5nUGluZ1BpbmdQaW5nUGluZ1Bpbmc="}, "time": [1401405012, 376681], "replay_time": [1401496891, 74055], "host_id": null, "round": 132, "prunable": true}
{"dependent_labels": [], "class": "TrafficInjection", "fingerprint": ["TrafficInjection", {"interface": {"hw_addr": "12:34:56:78:02:02", "ips": ["123.123.2.2"], "__type__": "sts.entities.hosts.HostInterface", "name": "eth2"}, "packet": "EjRWeAECEjRWeAICCABFAABIuvYAAEABxcR7ewICe3sBAgAADjdQaW5nUGluZ1BpbmdQaW5nUGluZ1BpbmdQaW5nUGluZ1BpbmdQaW5nUGluZ1Bpbmc="}, null], "timed_out": false, "label": "e1116", "dp_event": {"interface": {"hw_addr": "12:34:56:78:02:02", "ips": ["123.123.2.2"], "__type__": "sts.entities.hosts.HostInterface", "name": "eth2"}, "packet": "EjRWeAECEjRWeAICCABFAABIuvYAAEABxcR7ewICe3sBAgAADjdQaW5nUGluZ1BpbmdQaW5nUGluZ1BpbmdQaW5nUGluZ1BpbmdQaW5nUGluZ1Bpbmc="}, "time": [1401405015, 381541], "replay_time": [1401496894, 82829], "host_id": null, "round": 133, "prunable": true}
{"dependent_labels": [], "class": "TrafficInjection", "fingerprint": ["TrafficInjection", {"interface": {"hw_addr": "12:34:56:78:01:02", "ips": ["123.123.1.2"], "__type__": "sts.entities.hosts.HostInterface", "name": "eth1"}, "packet": "EjRWeAICEjRWeAECCABFAABIuvcAAEABxcN7ewECe3sCAggABjdQaW5nUGluZ1BpbmdQaW5nUGluZ1BpbmdQaW5nUGluZ1BpbmdQaW5nUGluZ1Bpbmc="}, null], "timed_out": false, "label": "e1138", "dp_event": {"interface": {"hw_addr": "12:34:56:78:01:02", "ips": ["123.123.1.2"], "__type__": "sts.entities.hosts.HostInterface", "name": "eth1"}, "packet": "EjRWeAICEjRWeAECCABFAABIuvcAAEABxcN7ewECe3sCAggABjdQaW5nUGluZ1BpbmdQaW5nUGluZ1BpbmdQaW5nUGluZ1BpbmdQaW5nUGluZ1Bpbmc="}, "time": [1401405024, 394842], "replay_time": [1401496903, 106472], "host_id": null, "round": 136, "prunable": true}
{"dependent_labels": [], "class": "TrafficInjection", "fingerprint": ["TrafficInjection", {"interface": {"hw_addr": "12:34:56:78:02:02", "ips": ["123.123.2.2"], "__type__": "sts.entities.hosts.HostInterface", "name": "eth2"}, "packet": "EjRWeAECEjRWeAICCABFAABIuvgAAEABxcJ7ewICe3sBAggABjdQaW5nUGluZ1BpbmdQaW5nUGluZ1BpbmdQaW5nUGluZ1BpbmdQaW5nUGluZ1Bpbmc="}, null], "timed_out": false, "label": "e1145", "dp_event": {"interface": {"hw_addr": "12:34:56:78:02:02", "ips": ["123.123.2.2"], "__type__": "sts.entities.hosts.HostInterface", "name": "eth2"}, "packet": "EjRWeAECEjRWeAICCABFAABIuvgAAEABxcJ7ewICe3sBAggABjdQaW5nUGluZ1BpbmdQaW5nUGluZ1BpbmdQaW5nUGluZ1BpbmdQaW5nUGluZ1Bpbmc="}, "time": [1401405030, 399677], "replay_time": [1401496909, 118705], "host_id": null, "round": 138, "prunable": true}
{"dependent_labels": [], "class": "TrafficInjection", "fingerprint": ["TrafficInjection", {"interface": {"hw_addr": "12:34:56:78:02:02", "ips": ["123.123.2.2"], "__type__": "sts.entities.hosts.HostInterface", "name": "eth2"}, "packet": "EjRWeAECEjRWeAICCABFAABIuvkAAEABxcF7ewICe3sBAggABjdQaW5nUGluZ1BpbmdQaW5nUGluZ1BpbmdQaW5nUGluZ1BpbmdQaW5nUGluZ1Bpbmc="}, null], "timed_out": false, "label": "e1154", "dp_event": {"interface": {"hw_addr": "12:34:56:78:02:02", "ips": ["123.123.2.2"], "__type__": "sts.entities.hosts.HostInterface", "name": "eth2"}, "packet": "EjRWeAECEjRWeAICCABFAABIuvkAAEABxcF7ewICe3sBAggABjdQaW5nUGluZ1BpbmdQaW5nUGluZ1BpbmdQaW5nUGluZ1BpbmdQaW5nUGluZ1Bpbmc="}, "time": [1401405033, 404284], "replay_time": [1401496912, 127730], "host_id": null, "round": 139, "prunable": true}
{"dependent_labels": [], "class": "TrafficInjection", "fingerprint": ["TrafficInjection", {"interface": {"hw_addr": "12:34:56:78:01:02", "ips": ["123.123.1.2"], "__type__": "sts.entities.hosts.HostInterface", "name": "eth1"}, "packet": "EjRWeAICEjRWeAECCABFAABIuvoAAEABxcB7ewECe3sCAggABjdQaW5nUGluZ1BpbmdQaW5nUGluZ1BpbmdQaW5nUGluZ1BpbmdQaW5nUGluZ1Bpbmc="}, null], "timed_out": false, "label": "e1169", "dp_event": {"interface": {"hw_addr": "12:34:56:78:01:02", "ips": ["123.123.1.2"], "__type__": "sts.entities.hosts.HostInterface", "name": "eth1"}, "packet": "EjRWeAICEjRWeAECCABFAABIuvoAAEABxcB7ewECe3sCAggABjdQaW5nUGluZ1BpbmdQaW5nUGluZ1BpbmdQaW5nUGluZ1BpbmdQaW5nUGluZ1Bpbmc="}, "time": [1401405039, 412743], "replay_time": [1401496918, 139209], "host_id": null, "round": 141, "prunable": true}
{"dependent_labels": [], "class": "TrafficInjection", "fingerprint": ["TrafficInjection", {"interface": {"hw_addr": "12:34:56:78:02:02", "ips": ["123.123.2.2"], "__type__": "sts.entities.hosts.HostInterface", "name": "eth2"}, "packet": "EjRWeAECEjRWeAICCABFAABIuvsAAEABxb97ewICe3sBAgAADjdQaW5nUGluZ1BpbmdQaW5nUGluZ1BpbmdQaW5nUGluZ1BpbmdQaW5nUGluZ1Bpbmc="}, null], "timed_out": false, "label": "e1170", "dp_event": {"interface": {"hw_addr": "12:34:56:78:02:02", "ips": ["123.123.2.2"], "__type__": "sts.entities.hosts.HostInterface", "name": "eth2"}, "packet": "EjRWeAECEjRWeAICCABFAABIuvsAAEABxb97ewICe3sBAgAADjdQaW5nUGluZ1BpbmdQaW5nUGluZ1BpbmdQaW5nUGluZ1BpbmdQaW5nUGluZ1Bpbmc="}, "time": [1401405039, 413465], "replay_time": [1401496918, 142110], "host_id": null, "round": 141, "prunable": true}
{"dependent_labels": [], "class": "TrafficInjection", "fingerprint": ["TrafficInjection", {"interface": {"hw_addr": "12:34:56:78:01:02", "ips": ["123.123.1.2"], "__type__": "sts.entities.hosts.HostInterface", "name": "eth1"}, "packet": "EjRWeAICEjRWeAECCABFAABIuvwAAEABxb57ewECe3sCAgAADjdQaW5nUGluZ1BpbmdQaW5nUGluZ1BpbmdQaW5nUGluZ1BpbmdQaW5nUGluZ1Bpbmc="}, null], "timed_out": false, "label": "e1188", "dp_event": {"interface": {"hw_addr": "12:34:56:78:01:02", "ips": ["123.123.1.2"], "__type__": "sts.entities.hosts.HostInterface", "name": "eth1"}, "packet": "EjRWeAICEjRWeAECCABFAABIuvwAAEABxb57ewECe3sCAgAADjdQaW5nUGluZ1BpbmdQaW5nUGluZ1BpbmdQaW5nUGluZ1BpbmdQaW5nUGluZ1Bpbmc="}, "time": [1401405048, 426322], "replay_time": [1401496927, 165336], "host_id": null, "round": 144, "prunable": true}
{"class": "ControllerFailure", "fingerprint": ["ControllerFailure", "c1"], "controller_id": "c1", "timed_out": false, "dependent_labels": [], "time": [1401405048, 426915], "replay_time": [1401496927, 760709], "label": "e1189", "round": 144, "prunable": true}
{"class": "ControllerRecovery", "fingerprint": ["ControllerRecovery", "c1"], "controller_id": "c1", "timed_out": false, "dependent_labels": [], "time": [1401405051, 766773], "replay_time": [1401496964, 700744], "label": "e1195", "round": 145, "prunable": true}
{"dependent_labels": [], "class": "TrafficInjection", "fingerprint": ["TrafficInjection", {"interface": {"hw_addr": "12:34:56:78:02:02", "ips": ["123.123.2.2"], "__type__": "sts.entities.hosts.HostInterface", "name": "eth2"}, "packet": "EjRWeAECEjRWeAICCABFAABIuv0AAEABxb17ewICe3sBAggABjdQaW5nUGluZ1BpbmdQaW5nUGluZ1BpbmdQaW5nUGluZ1BpbmdQaW5nUGluZ1Bpbmc="}, null], "timed_out": false, "label": "e1224", "dp_event": {"interface": {"hw_addr": "12:34:56:78:02:02", "ips": ["123.123.2.2"], "__type__": "sts.entities.hosts.HostInterface", "name": "eth2"}, "packet": "EjRWeAECEjRWeAICCABFAABIuv0AAEABxb17ewICe3sBAggABjdQaW5nUGluZ1BpbmdQaW5nUGluZ1BpbmdQaW5nUGluZ1BpbmdQaW5nUGluZ1Bpbmc="}, "time": [1401405090, 892638], "replay_time": [1401497003, 832485], "host_id": null, "round": 147, "prunable": true}
{"dependent_labels": [], "class": "TrafficInjection", "fingerprint": ["TrafficInjection", {"interface": {"hw_addr": "12:34:56:78:01:02", "ips": ["123.123.1.2"], "__type__": "sts.entities.hosts.HostInterface", "name": "eth1"}, "packet": "EjRWeAICEjRWeAECCABFAABIuv4AAEABxbx7ewECe3sCAgAADjdQaW5nUGluZ1BpbmdQaW5nUGluZ1BpbmdQaW5nUGluZ1BpbmdQaW5nUGluZ1Bpbmc="}, null], "timed_out": false, "label": "e1253", "dp_event": {"interface": {"hw_addr": "12:34:56:78:01:02", "ips": ["123.123.1.2"], "__type__": "sts.entities.hosts.HostInterface", "name": "eth1"}, "packet": "EjRWeAICEjRWeAECCABFAABIuv4AAEABxbx7ewECe3sCAgAADjdQaW5nUGluZ1BpbmdQaW5nUGluZ1BpbmdQaW5nUGluZ1BpbmdQaW5nUGluZ1Bpbmc="}, "time": [1401405099, 907442], "replay_time": [1401497012, 853584], "host_id": null, "round": 150, "prunable": true}
{"legacy_invariant_check": false, "class": "CheckInvariants", "fingerprint": "N/A", "timed_out": false, "label": "e1254", "dependent_labels": [], "invariant_name": "InvariantChecker.check_liveness", "invariant_check_name": "InvariantChecker.check_liveness", "time": [1401405099, 907916], "replay_time": [1401497014, 372966], "invariant_check": null, "round": 150, "prunable": true}
{"dependent_labels": [], "class": "TrafficInjection", "fingerprint": ["TrafficInjection", {"interface": {"hw_addr": "12:34:56:78:02:02", "ips": ["123.123.2.2"], "__type__": "sts.entities.hosts.HostInterface", "name": "eth2"}, "packet": "EjRWeAECEjRWeAICCABFAABIuv8AAEABxbt7ewICe3sBAgAADjdQaW5nUGluZ1BpbmdQaW5nUGluZ1BpbmdQaW5nUGluZ1BpbmdQaW5nUGluZ1Bpbmc="}, null], "timed_out": false, "label": "e1281", "dp_event": {"interface": {"hw_addr": "12:34:56:78:02:02", "ips": ["123.123.2.2"], "__type__": "sts.entities.hosts.HostInterface", "name": "eth2"}, "packet": "EjRWeAECEjRWeAICCABFAABIuv8AAEABxbt7ewICe3sBAgAADjdQaW5nUGluZ1BpbmdQaW5nUGluZ1BpbmdQaW5nUGluZ1BpbmdQaW5nUGluZ1Bpbmc="}, "time": [1401405110, 239043], "replay_time": [1401497024, 712244], "host_id": null, "round": 153, "prunable": true}
{"dependent_labels": [], "class": "TrafficInjection", "fingerprint": ["TrafficInjection", {"interface": {"hw_addr": "12:34:56:78:02:02", "ips": ["123.123.2.2"], "__type__": "sts.entities.hosts.HostInterface", "name": "eth2"}, "packet": "EjRWeAECEjRWeAICCABFAABIuwAAAEABxbp7ewICe3sBAggABjdQaW5nUGluZ1BpbmdQaW5nUGluZ1BpbmdQaW5nUGluZ1BpbmdQaW5nUGluZ1Bpbmc="}, null], "timed_out": false, "label": "e1295", "dp_event": {"interface": {"hw_addr": "12:34:56:78:02:02", "ips": ["123.123.2.2"], "__type__": "sts.entities.hosts.HostInterface", "name": "eth2"}, "packet": "EjRWeAECEjRWeAICCABFAABIuwAAAEABxbp7ewICe3sBAggABjdQaW5nUGluZ1BpbmdQaW5nUGluZ1BpbmdQaW5nUGluZ1BpbmdQaW5nUGluZ1Bpbmc="}, "time": [1401405113, 247178], "replay_time": [1401497027, 724166], "host_id": null, "round": 154, "prunable": true}
{"dependent_labels": [], "class": "TrafficInjection", "fingerprint": ["TrafficInjection", {"interface": {"hw_addr": "12:34:56:78:01:02", "ips": ["123.123.1.2"], "__type__": "sts.entities.hosts.HostInterface", "name": "eth1"}, "packet": "EjRWeAICEjRWeAECCABFAABIuwEAAEABxbl7ewECe3sCAgAADjdQaW5nUGluZ1BpbmdQaW5nUGluZ1BpbmdQaW5nUGluZ1BpbmdQaW5nUGluZ1Bpbmc="}, null], "timed_out": false, "label": "e1300", "dp_event": {"interface": {"hw_addr": "12:34:56:78:01:02", "ips": ["123.123.1.2"], "__type__": "sts.entities.hosts.HostInterface", "name": "eth1"}, "packet": "EjRWeAICEjRWeAECCABFAABIuwEAAEABxbl7ewECe3sCAgAADjdQaW5nUGluZ1BpbmdQaW5nUGluZ1BpbmdQaW5nUGluZ1BpbmdQaW5nUGluZ1Bpbmc="}, "time": [1401405119, 251968], "replay_time": [1401497033, 736222], "host_id": null, "round": 156, "prunable": true}
{"dependent_labels": [], "class": "TrafficInjection", "fingerprint": ["TrafficInjection", {"interface": {"hw_addr": "12:34:56:78:01:02", "ips": ["123.123.1.2"], "__type__": "sts.entities.hosts.HostInterface", "name": "eth1"}, "packet": "EjRWeAICEjRWeAECCABFAABIuwIAAEABxbh7ewECe3sCAgAADjdQaW5nUGluZ1BpbmdQaW5nUGluZ1BpbmdQaW5nUGluZ1BpbmdQaW5nUGluZ1Bpbmc="}, null], "timed_out": false, "label": "e1303", "dp_event": {"interface": {"hw_addr": "12:34:56:78:01:02", "ips": ["123.123.1.2"], "__type__": "sts.entities.hosts.HostInterface", "name": "eth1"}, "packet": "EjRWeAICEjRWeAECCABFAABIuwIAAEABxbh7ewECe3sCAgAADjdQaW5nUGluZ1BpbmdQaW5nUGluZ1BpbmdQaW5nUGluZ1BpbmdQaW5nUGluZ1Bpbmc="}, "time": [1401405122, 254204], "replay_time": [1401497036, 742792], "host_id": null, "round": 157, "prunable": true}
{"dependent_labels": [], "class": "TrafficInjection", "fingerprint": ["TrafficInjection", {"interface": {"hw_addr": "12:34:56:78:02:02", "ips": ["123.123.2.2"], "__type__": "sts.entities.hosts.HostInterface", "name": "eth2"}, "packet": "EjRWeAECEjRWeAICCABFAABIuwMAAEABxbd7ewICe3sBAggABjdQaW5nUGluZ1BpbmdQaW5nUGluZ1BpbmdQaW5nUGluZ1BpbmdQaW5nUGluZ1Bpbmc="}, null], "timed_out": false, "label": "e1325", "dp_event": {"interface": {"hw_addr": "12:34:56:78:02:02", "ips": ["123.123.2.2"], "__type__": "sts.entities.hosts.HostInterface", "name": "eth2"}, "packet": "EjRWeAECEjRWeAICCABFAABIuwMAAEABxbd7ewICe3sBAggABjdQaW5nUGluZ1BpbmdQaW5nUGluZ1BpbmdQaW5nUGluZ1BpbmdQaW5nUGluZ1Bpbmc="}, "time": [1401405128, 267893], "replay_time": [1401497042, 763830], "host_id": null, "round": 159, "prunable": true}
{"dependent_labels": [], "class": "TrafficInjection", "fingerprint": ["TrafficInjection", {"interface": {"hw_addr": "12:34:56:78:02:02", "ips": ["123.123.2.2"], "__type__": "sts.entities.hosts.HostInterface", "name": "eth2"}, "packet": "EjRWeAECEjRWeAICCABFAABIuwQAAEABxbZ7ewICe3sBAgAADjdQaW5nUGluZ1BpbmdQaW5nUGluZ1BpbmdQaW5nUGluZ1BpbmdQaW5nUGluZ1Bpbmc="}, null], "timed_out": false, "label": "e1332", "dp_event": {"interface": {"hw_addr": "12:34:56:78:02:02", "ips": ["123.123.2.2"], "__type__": "sts.entities.hosts.HostInterface", "name": "eth2"}, "packet": "EjRWeAECEjRWeAICCABFAABIuwQAAEABxbZ7ewICe3sBAgAADjdQaW5nUGluZ1BpbmdQaW5nUGluZ1BpbmdQaW5nUGluZ1BpbmdQaW5nUGluZ1Bpbmc="}, "time": [1401405134, 273691], "replay_time": [1401497048, 775621], "host_id": null, "round": 161, "prunable": true}
{"dependent_labels": [], "class": "TrafficInjection", "fingerprint": ["TrafficInjection", {"interface": {"hw_addr": "12:34:56:78:02:02", "ips": ["123.123.2.2"], "__type__": "sts.entities.hosts.HostInterface", "name": "eth2"}, "packet": "EjRWeAECEjRWeAICCABFAABIuwUAAEABxbV7ewICe3sBAggABjdQaW5nUGluZ1BpbmdQaW5nUGluZ1BpbmdQaW5nUGluZ1BpbmdQaW5nUGluZ1Bpbmc="}, null], "timed_out": false, "label": "e1335", "dp_event": {"interface": {"hw_addr": "12:34:56:78:02:02", "ips": ["123.123.2.2"], "__type__": "sts.entities.hosts.HostInterface", "name": "eth2"}, "packet": "EjRWeAECEjRWeAICCABFAABIuwUAAEABxbV7ewICe3sBAggABjdQaW5nUGluZ1BpbmdQaW5nUGluZ1BpbmdQaW5nUGluZ1BpbmdQaW5nUGluZ1Bpbmc="}, "time": [1401405137, 275931], "replay_time": [1401497051, 782621], "host_id": null, "round": 162, "prunable": true}
{"dependent_labels": [], "class": "TrafficInjection", "fingerprint": ["TrafficInjection", {"interface": {"hw_addr": "12:34:56:78:02:02", "ips": ["123.123.2.2"], "__type__": "sts.entities.hosts.HostInterface", "name": "eth2"}, "packet": "EjRWeAECEjRWeAICCABFAABIuwYAAEABxbR7ewICe3sBAgAADjdQaW5nUGluZ1BpbmdQaW5nUGluZ1BpbmdQaW5nUGluZ1BpbmdQaW5nUGluZ1Bpbmc="}, null], "timed_out": false, "label": "e1346", "dp_event": {"interface": {"hw_addr": "12:34:56:78:02:02", "ips": ["123.123.2.2"], "__type__": "sts.entities.hosts.HostInterface", "name": "eth2"}, "packet": "EjRWeAECEjRWeAICCABFAABIuwYAAEABxbR7ewICe3sBAgAADjdQaW5nUGluZ1BpbmdQaW5nUGluZ1BpbmdQaW5nUGluZ1BpbmdQaW5nUGluZ1Bpbmc="}, "time": [1401405140, 275885], "replay_time": [1401497054, 786986], "host_id": null, "round": 163, "prunable": true}
{"class": "ControllerFailure", "fingerprint": ["ControllerFailure", "c1"], "controller_id": "c1", "timed_out": false, "dependent_labels": [], "time": [1401405146, 289894], "replay_time": [1401497061, 441371], "label": "e1364", "round": 165, "prunable": true}
{"dependent_labels": [], "class": "TrafficInjection", "fingerprint": ["TrafficInjection", {"interface": {"hw_addr": "12:34:56:78:01:02", "ips": ["123.123.1.2"], "__type__": "sts.entities.hosts.HostInterface", "name": "eth1"}, "packet": "EjRWeAICEjRWeAECCABFAABIuwcAAEABxbN7ewECe3sCAggABjdQaW5nUGluZ1BpbmdQaW5nUGluZ1BpbmdQaW5nUGluZ1BpbmdQaW5nUGluZ1Bpbmc="}, null], "timed_out": false, "label": "e1366", "dp_event": {"interface": {"hw_addr": "12:34:56:78:01:02", "ips": ["123.123.1.2"], "__type__": "sts.entities.hosts.HostInterface", "name": "eth1"}, "packet": "EjRWeAICEjRWeAECCABFAABIuwcAAEABxbN7ewECe3sCAggABjdQaW5nUGluZ1BpbmdQaW5nUGluZ1BpbmdQaW5nUGluZ1BpbmdQaW5nUGluZ1Bpbmc="}, "time": [1401405149, 628519], "replay_time": [1401497064, 784687], "host_id": null, "round": 166, "prunable": true}
{"class": "ControllerRecovery", "fingerprint": ["ControllerRecovery", "c1"], "controller_id": "c1", "timed_out": false, "dependent_labels": [], "time": [1401405149, 629365], "replay_time": [1401497097, 671706], "label": "e1367", "round": 166, "prunable": true}
{"dependent_labels": [], "class": "TrafficInjection", "fingerprint": ["TrafficInjection", {"interface": {"hw_addr": "12:34:56:78:02:02", "ips": ["123.123.2.2"], "__type__": "sts.entities.hosts.HostInterface", "name": "eth2"}, "packet": "EjRWeAECEjRWeAICCABFAABIuwgAAEABxbJ7ewICe3sBAgAADjdQaW5nUGluZ1BpbmdQaW5nUGluZ1BpbmdQaW5nUGluZ1BpbmdQaW5nUGluZ1Bpbmc="}, null], "timed_out": false, "label": "e1377", "dp_event": {"interface": {"hw_addr": "12:34:56:78:02:02", "ips": ["123.123.2.2"], "__type__": "sts.entities.hosts.HostInterface", "name": "eth2"}, "packet": "EjRWeAECEjRWeAICCABFAABIuwgAAEABxbJ7ewICe3sBAgAADjdQaW5nUGluZ1BpbmdQaW5nUGluZ1BpbmdQaW5nUGluZ1BpbmdQaW5nUGluZ1Bpbmc="}, "time": [1401405185, 511968], "replay_time": [1401497133, 591967], "host_id": null, "round": 167, "prunable": true}
{"dependent_labels": [], "class": "TrafficInjection", "fingerprint": ["TrafficInjection", {"interface": {"hw_addr": "12:34:56:78:01:02", "ips": ["123.123.1.2"], "__type__": "sts.entities.hosts.HostInterface", "name": "eth1"}, "packet": "EjRWeAICEjRWeAECCABFAABIuwkAAEABxbF7ewECe3sCAggABjdQaW5nUGluZ1BpbmdQaW5nUGluZ1BpbmdQaW5nUGluZ1BpbmdQaW5nUGluZ1Bpbmc="}, null], "timed_out": false, "label": "e1394", "dp_event": {"interface": {"hw_addr": "12:34:56:78:01:02", "ips": ["123.123.1.2"], "__type__": "sts.entities.hosts.HostInterface", "name": "eth1"}, "packet": "EjRWeAICEjRWeAECCABFAABIuwkAAEABxbF7ewECe3sCAggABjdQaW5nUGluZ1BpbmdQaW5nUGluZ1BpbmdQaW5nUGluZ1BpbmdQaW5nUGluZ1Bpbmc="}, "time": [1401405188, 518789], "replay_time": [1401497136, 601892], "host_id": null, "round": 168, "prunable": true}
{"dependent_labels": [], "class": "TrafficInjection", "fingerprint": ["TrafficInjection", {"interface": {"hw_addr": "12:34:56:78:01:02", "ips": ["123.123.1.2"], "__type__": "sts.entities.hosts.HostInterface", "name": "eth1"}, "packet": "EjRWeAICEjRWeAECCABFAABIuwoAAEABxbB7ewECe3sCAggABjdQaW5nUGluZ1BpbmdQaW5nUGluZ1BpbmdQaW5nUGluZ1BpbmdQaW5nUGluZ1Bpbmc="}, null], "timed_out": false, "label": "e1413", "dp_event": {"interface": {"hw_addr": "12:34:56:78:01:02", "ips": ["123.123.1.2"], "__type__": "sts.entities.hosts.HostInterface", "name": "eth1"}, "packet": "EjRWeAICEjRWeAECCABFAABIuwoAAEABxbB7ewECe3sCAggABjdQaW5nUGluZ1BpbmdQaW5nUGluZ1BpbmdQaW5nUGluZ1BpbmdQaW5nUGluZ1Bpbmc="}, "time": [1401405191, 528074], "replay_time": [1401497139, 615006], "host_id": null, "round": 169, "prunable": true}
{"dependent_labels": [], "class": "TrafficInjection", "fingerprint": ["TrafficInjection", {"interface": {"hw_addr": "12:34:56:78:02:02", "ips": ["123.123.2.2"], "__type__": "sts.entities.hosts.HostInterface", "name": "eth2"}, "packet": "EjRWeAECEjRWeAICCABFAABIuwsAAEABxa97ewICe3sBAgAADjdQaW5nUGluZ1BpbmdQaW5nUGluZ1BpbmdQaW5nUGluZ1BpbmdQaW5nUGluZ1Bpbmc="}, null], "timed_out": false, "label": "e1425", "dp_event": {"interface": {"hw_addr": "12:34:56:78:02:02", "ips": ["123.123.2.2"], "__type__": "sts.entities.hosts.HostInterface", "name": "eth2"}, "packet": "EjRWeAECEjRWeAICCABFAABIuwsAAEABxa97ewICe3sBAgAADjdQaW5nUGluZ1BpbmdQaW5nUGluZ1BpbmdQaW5nUGluZ1BpbmdQaW5nUGluZ1Bpbmc="}, "time": [1401405194, 533760], "replay_time": [1401497142, 625003], "host_id": null, "round": 170, "prunable": true}
{"dependent_labels": [], "class": "TrafficInjection", "fingerprint": ["TrafficInjection", {"interface": {"hw_addr": "12:34:56:78:01:02", "ips": ["123.123.1.2"], "__type__": "sts.entities.hosts.HostInterface", "name": "eth1"}, "packet": "EjRWeAICEjRWeAECCABFAABIuwwAAEABxa57ewECe3sCAgAADjdQaW5nUGluZ1BpbmdQaW5nUGluZ1BpbmdQaW5nUGluZ1BpbmdQaW5nUGluZ1Bpbmc="}, null], "timed_out": false, "label": "e1431", "dp_event": {"interface": {"hw_addr": "12:34:56:78:01:02", "ips": ["123.123.1.2"], "__type__": "sts.entities.hosts.HostInterface", "name": "eth1"}, "packet": "EjRWeAICEjRWeAECCABFAABIuwwAAEABxa57ewECe3sCAgAADjdQaW5nUGluZ1BpbmdQaW5nUGluZ1BpbmdQaW5nUGluZ1BpbmdQaW5nUGluZ1Bpbmc="}, "time": [1401405197, 538011], "replay_time": [1401497145, 633126], "host_id": null, "round": 171, "prunable": true}
{"dependent_labels": [], "class": "TrafficInjection", "fingerprint": ["TrafficInjection", {"interface": {"hw_addr": "12:34:56:78:01:02", "ips": ["123.123.1.2"], "__type__": "sts.entities.hosts.HostInterface", "name": "eth1"}, "packet": "EjRWeAICEjRWeAECCABFAABIuw0AAEABxa17ewECe3sCAgAADjdQaW5nUGluZ1BpbmdQaW5nUGluZ1BpbmdQaW5nUGluZ1BpbmdQaW5nUGluZ1Bpbmc="}, null], "timed_out": false, "label": "e1441", "dp_event": {"interface": {"hw_addr": "12:34:56:78:01:02", "ips": ["123.123.1.2"], "__type__": "sts.entities.hosts.HostInterface", "name": "eth1"}, "packet": "EjRWeAICEjRWeAECCABFAABIuw0AAEABxa17ewECe3sCAgAADjdQaW5nUGluZ1BpbmdQaW5nUGluZ1BpbmdQaW5nUGluZ1BpbmdQaW5nUGluZ1Bpbmc="}, "time": [1401405200, 543883], "replay_time": [1401497148, 640490], "host_id": null, "round": 172, "prunable": true}
{"dependent_labels": [], "class": "TrafficInjection", "fingerprint": ["TrafficInjection", {"interface": {"hw_addr": "12:34:56:78:02:02", "ips": ["123.123.2.2"], "__type__": "sts.entities.hosts.HostInterface", "name": "eth2"}, "packet": "EjRWeAECEjRWeAICCABFAABIuw4AAEABxax7ewICe3sBAgAADjdQaW5nUGluZ1BpbmdQaW5nUGluZ1BpbmdQaW5nUGluZ1BpbmdQaW5nUGluZ1Bpbmc="}, null], "timed_out": false, "label": "e1442", "dp_event": {"interface": {"hw_addr": "12:34:56:78:02:02", "ips": ["123.123.2.2"], "__type__": "sts.entities.hosts.HostInterface", "name": "eth2"}, "packet": "EjRWeAECEjRWeAICCABFAABIuw4AAEABxax7ewICe3sBAgAADjdQaW5nUGluZ1BpbmdQaW5nUGluZ1BpbmdQaW5nUGluZ1BpbmdQaW5nUGluZ1Bpbmc="}, "time": [1401405200, 544386], "replay_time": [1401497148, 643558], "host_id": null, "round": 172, "prunable": true}
{"dependent_labels": [], "class": "TrafficInjection", "fingerprint": ["TrafficInjection", {"interface": {"hw_addr": "12:34:56:78:01:02", "ips": ["123.123.1.2"], "__type__": "sts.entities.hosts.HostInterface", "name": "eth1"}, "packet": "EjRWeAICEjRWeAECCABFAABIuw8AAEABxat7ewECe3sCAggABjdQaW5nUGluZ1BpbmdQaW5nUGluZ1BpbmdQaW5nUGluZ1BpbmdQaW5nUGluZ1Bpbmc="}, null], "timed_out": false, "label": "e1459", "dp_event": {"interface": {"hw_addr": "12:34:56:78:01:02", "ips": ["123.123.1.2"], "__type__": "sts.entities.hosts.HostInterface", "name": "eth1"}, "packet": "EjRWeAICEjRWeAECCABFAABIuw8AAEABxat7ewECe3sCAggABjdQaW5nUGluZ1BpbmdQaW5nUGluZ1BpbmdQaW5nUGluZ1BpbmdQaW5nUGluZ1Bpbmc="}, "time": [1401405203, 551924], "replay_time": [1401497151, 655569], "host_id": null, "round": 173, "prunable": true}
{"class": "ControllerFailure", "fingerprint": ["ControllerFailure", "c2"], "controller_id": "c2", "timed_out": false, "dependent_labels": [], "time": [1401405206, 556371], "replay_time": [1401497155, 52454], "label": "e1469", "round": 174, "prunable": true}
{"dependent_labels": [], "class": "TrafficInjection", "fingerprint": ["TrafficInjection", {"interface": {"hw_addr": "12:34:56:78:01:02", "ips": ["123.123.1.2"], "__type__": "sts.entities.hosts.HostInterface", "name": "eth1"}, "packet": "EjRWeAICEjRWeAECCABFAABIuxAAAEABxap7ewECe3sCAgAADjdQaW5nUGluZ1BpbmdQaW5nUGluZ1BpbmdQaW5nUGluZ1BpbmdQaW5nUGluZ1Bpbmc="}, null], "timed_out": false, "label": "e1473", "dp_event": {"interface": {"hw_addr": "12:34:56:78:01:02", "ips": ["123.123.1.2"], "__type__": "sts.entities.hosts.HostInterface", "name": "eth1"}, "packet": "EjRWeAICEjRWeAECCABFAABIuxAAAEABxap7ewECe3sCAgAADjdQaW5nUGluZ1BpbmdQaW5nUGluZ1BpbmdQaW5nUGluZ1BpbmdQaW5nUGluZ1Bpbmc="}, "time": [1401405209, 890678], "replay_time": [1401497158, 388202], "host_id": null, "round": 175, "prunable": true}
{"class": "ControllerRecovery", "fingerprint": ["ControllerRecovery", "c2"], "controller_id": "c2", "timed_out": false, "dependent_labels": [], "time": [1401405209, 891134], "replay_time": [1401497191, 104058], "label": "e1474", "round": 175, "prunable": true}
{"dependent_labels": [], "class": "TrafficInjection", "fingerprint": ["TrafficInjection", {"interface": {"hw_addr": "12:34:56:78:01:02", "ips": ["123.123.1.2"], "__type__": "sts.entities.hosts.HostInterface", "name": "eth1"}, "packet": "EjRWeAICEjRWeAECCABFAABIuxEAAEABxal7ewECe3sCAgAADjdQaW5nUGluZ1BpbmdQaW5nUGluZ1BpbmdQaW5nUGluZ1BpbmdQaW5nUGluZ1Bpbmc="}, null], "timed_out": false, "label": "e1490", "dp_event": {"interface": {"hw_addr": "12:34:56:78:01:02", "ips": ["123.123.1.2"], "__type__": "sts.entities.hosts.HostInterface", "name": "eth1"}, "packet": "EjRWeAICEjRWeAECCABFAABIuxEAAEABxal7ewECe3sCAgAADjdQaW5nUGluZ1BpbmdQaW5nUGluZ1BpbmdQaW5nUGluZ1BpbmdQaW5nUGluZ1Bpbmc="}, "time": [1401405254, 942449], "replay_time": [1401497236, 202041], "host_id": null, "round": 179, "prunable": true}
{"dependent_labels": [], "class": "TrafficInjection", "fingerprint": ["TrafficInjection", {"interface": {"hw_addr": "12:34:56:78:02:02", "ips": ["123.123.2.2"], "__type__": "sts.entities.hosts.HostInterface", "name": "eth2"}, "packet": "EjRWeAECEjRWeAICCABFAABIuxIAAEABxah7ewICe3sBAgAADjdQaW5nUGluZ1BpbmdQaW5nUGluZ1BpbmdQaW5nUGluZ1BpbmdQaW5nUGluZ1Bpbmc="}, null], "timed_out": false, "label": "e1491", "dp_event": {"interface": {"hw_addr": "12:34:56:78:02:02", "ips": ["123.123.2.2"], "__type__": "sts.entities.hosts.HostInterface", "name": "eth2"}, "packet": "EjRWeAECEjRWeAICCABFAABIuxIAAEABxah7ewICe3sBAgAADjdQaW5nUGluZ1BpbmdQaW5nUGluZ1BpbmdQaW5nUGluZ1BpbmdQaW5nUGluZ1Bpbmc="}, "time": [1401405254, 942967], "replay_time": [1401497236, 205361], "host_id": null, "round": 179, "prunable": true}
{"class": "ControllerFailure", "fingerprint": ["ControllerFailure", "c1"], "controller_id": "c1", "timed_out": false, "dependent_labels": [], "time": [1401405260, 948790], "replay_time": [1401497242, 618037], "label": "e1500", "round": 181, "prunable": true}
{"dependent_labels": [], "class": "TrafficInjection", "fingerprint": ["TrafficInjection", {"interface": {"hw_addr": "12:34:56:78:01:02", "ips": ["123.123.1.2"], "__type__": "sts.entities.hosts.HostInterface", "name": "eth1"}, "packet": "EjRWeAICEjRWeAECCABFAABIuxMAAEABxad7ewECe3sCAgAADjdQaW5nUGluZ1BpbmdQaW5nUGluZ1BpbmdQaW5nUGluZ1BpbmdQaW5nUGluZ1Bpbmc="}, null], "timed_out": false, "label": "e1509", "dp_event": {"interface": {"hw_addr": "12:34:56:78:01:02", "ips": ["123.123.1.2"], "__type__": "sts.entities.hosts.HostInterface", "name": "eth1"}, "packet": "EjRWeAICEjRWeAECCABFAABIuxMAAEABxad7ewECe3sCAgAADjdQaW5nUGluZ1BpbmdQaW5nUGluZ1BpbmdQaW5nUGluZ1BpbmdQaW5nUGluZ1Bpbmc="}, "time": [1401405264, 255616], "replay_time": [1401497245, 929337], "host_id": null, "round": 182, "prunable": true}
{"class": "ControllerRecovery", "fingerprint": ["ControllerRecovery", "c1"], "controller_id": "c1", "timed_out": false, "dependent_labels": [], "time": [1401405264, 256034], "replay_time": [1401497278, 670797], "label": "e1510", "round": 182, "prunable": true}
{"dependent_labels": [], "class": "TrafficInjection", "fingerprint": ["TrafficInjection", {"interface": {"hw_addr": "12:34:56:78:02:02", "ips": ["123.123.2.2"], "__type__": "sts.entities.hosts.HostInterface", "name": "eth2"}, "packet": "EjRWeAECEjRWeAICCABFAABIuxQAAEABxaZ7ewICe3sBAgAADjdQaW5nUGluZ1BpbmdQaW5nUGluZ1BpbmdQaW5nUGluZ1BpbmdQaW5nUGluZ1Bpbmc="}, null], "timed_out": false, "label": "e1564", "dp_event": {"interface": {"hw_addr": "12:34:56:78:02:02", "ips": ["123.123.2.2"], "__type__": "sts.entities.hosts.HostInterface", "name": "eth2"}, "packet": "EjRWeAECEjRWeAICCABFAABIuxQAAEABxaZ7ewICe3sBAgAADjdQaW5nUGluZ1BpbmdQaW5nUGluZ1BpbmdQaW5nUGluZ1BpbmdQaW5nUGluZ1Bpbmc="}, "time": [1401405312, 257664], "replay_time": [1401497326, 676869], "host_id": null, "round": 187, "prunable": true}
{"dependent_labels": [], "class": "TrafficInjection", "fingerprint": ["TrafficInjection", {"interface": {"hw_addr": "12:34:56:78:02:02", "ips": ["123.123.2.2"], "__type__": "sts.entities.hosts.HostInterface", "name": "eth2"}, "packet": "EjRWeAECEjRWeAICCABFAABIuxUAAEABxaV7ewICe3sBAgAADjdQaW5nUGluZ1BpbmdQaW5nUGluZ1BpbmdQaW5nUGluZ1BpbmdQaW5nUGluZ1Bpbmc="}, null], "timed_out": false, "label": "e1591", "dp_event": {"interface": {"hw_addr": "12:34:56:78:02:02", "ips": ["123.123.2.2"], "__type__": "sts.entities.hosts.HostInterface", "name": "eth2"}, "packet": "EjRWeAECEjRWeAICCABFAABIuxUAAEABxaV7ewICe3sBAgAADjdQaW5nUGluZ1BpbmdQaW5nUGluZ1BpbmdQaW5nUGluZ1BpbmdQaW5nUGluZ1Bpbmc="}, "time": [1401405321, 271752], "replay_time": [1401497335, 694181], "host_id": null, "round": 190, "prunable": true}
{"dependent_labels": [], "class": "TrafficInjection", "fingerprint": ["TrafficInjection", {"interface": {"hw_addr": "12:34:56:78:01:02", "ips": ["123.123.1.2"], "__type__": "sts.entities.hosts.HostInterface", "name": "eth1"}, "packet": "EjRWeAICEjRWeAECCABFAABIuxYAAEABxaR7ewECe3sCAggABjdQaW5nUGluZ1BpbmdQaW5nUGluZ1BpbmdQaW5nUGluZ1BpbmdQaW5nUGluZ1Bpbmc="}, null], "timed_out": false, "label": "e1607", "dp_event": {"interface": {"hw_addr": "12:34:56:78:01:02", "ips": ["123.123.1.2"], "__type__": "sts.entities.hosts.HostInterface", "name": "eth1"}, "packet": "EjRWeAICEjRWeAECCABFAABIuxYAAEABxaR7ewECe3sCAggABjdQaW5nUGluZ1BpbmdQaW5nUGluZ1BpbmdQaW5nUGluZ1BpbmdQaW5nUGluZ1Bpbmc="}, "time": [1401405330, 280451], "replay_time": [1401497344, 713702], "host_id": null, "round": 193, "prunable": true}
{"class": "ControllerFailure", "fingerprint": ["ControllerFailure", "c1"], "controller_id": "c1", "timed_out": false, "dependent_labels": [], "time": [1401405333, 283219], "replay_time": [1401497348, 345505], "label": "e1609", "round": 194, "prunable": true}
{"class": "ControllerRecovery", "fingerprint": ["ControllerRecovery", "c1"], "controller_id": "c1", "timed_out": false, "dependent_labels": [], "time": [1401405336, 622178], "replay_time": [1401497384, 993319], "label": "e1615", "round": 195, "prunable": true}
{"dependent_labels": [], "class": "TrafficInjection", "fingerprint": ["TrafficInjection", {"interface": {"hw_addr": "12:34:56:78:01:02", "ips": ["123.123.1.2"], "__type__": "sts.entities.hosts.HostInterface", "name": "eth1"}, "packet": "EjRWeAICEjRWeAECCABFAABIuxcAAEABxaN7ewECe3sCAggABjdQaW5nUGluZ1BpbmdQaW5nUGluZ1BpbmdQaW5nUGluZ1BpbmdQaW5nUGluZ1Bpbmc="}, null], "timed_out": false, "label": "e1645", "dp_event": {"interface": {"hw_addr": "12:34:56:78:01:02", "ips": ["123.123.1.2"], "__type__": "sts.entities.hosts.HostInterface", "name": "eth1"}, "packet": "EjRWeAICEjRWeAECCABFAABIuxcAAEABxaN7ewECe3sCAggABjdQaW5nUGluZ1BpbmdQaW5nUGluZ1BpbmdQaW5nUGluZ1BpbmdQaW5nUGluZ1Bpbmc="}, "time": [1401405375, 467538], "replay_time": [1401497423, 879088], "host_id": null, "round": 197, "prunable": true}
{"dependent_labels": [], "class": "TrafficInjection", "fingerprint": ["TrafficInjection", {"interface": {"hw_addr": "12:34:56:78:02:02", "ips": ["123.123.2.2"], "__type__": "sts.entities.hosts.HostInterface", "name": "eth2"}, "packet": "EjRWeAECEjRWeAICCABFAABIuxgAAEABxaJ7ewICe3sBAggABjdQaW5nUGluZ1BpbmdQaW5nUGluZ1BpbmdQaW5nUGluZ1BpbmdQaW5nUGluZ1Bpbmc="}, null], "timed_out": false, "label": "e1674", "dp_event": {"interface": {"hw_addr": "12:34:56:78:02:02", "ips": ["123.123.2.2"], "__type__": "sts.entities.hosts.HostInterface", "name": "eth2"}, "packet": "EjRWeAECEjRWeAICCABFAABIuxgAAEABxaJ7ewICe3sBAggABjdQaW5nUGluZ1BpbmdQaW5nUGluZ1BpbmdQaW5nUGluZ1BpbmdQaW5nUGluZ1Bpbmc="}, "time": [1401405384, 495476], "replay_time": [1401497432, 917360], "host_id": null, "round": 200, "prunable": true}
{"legacy_invariant_check": false, "class": "CheckInvariants", "fingerprint": "N/A", "timed_out": false, "label": "e1675", "dependent_labels": [], "invariant_name": "InvariantChecker.check_liveness", "invariant_check_name": "InvariantChecker.check_liveness", "time": [1401405384, 496047], "replay_time": [1401497434, 408816], "invariant_check": null, "round": 200, "prunable": true}
{"class": "ControllerFailure", "fingerprint": ["ControllerFailure", "c1"], "controller_id": "c1", "timed_out": false, "dependent_labels": [], "time": [1401405388, 773849], "replay_time": [1401497439, 42191], "label": "e1679", "round": 201, "prunable": true}
{"dependent_labels": [], "class": "TrafficInjection", "fingerprint": ["TrafficInjection", {"interface": {"hw_addr": "12:34:56:78:01:02", "ips": ["123.123.1.2"], "__type__": "sts.entities.hosts.HostInterface", "name": "eth1"}, "packet": "EjRWeAICEjRWeAECCABFAABIuxkAAEABxaF7ewECe3sCAggABjdQaW5nUGluZ1BpbmdQaW5nUGluZ1BpbmdQaW5nUGluZ1BpbmdQaW5nUGluZ1Bpbmc="}, null], "timed_out": false, "label": "e1681", "dp_event": {"interface": {"hw_addr": "12:34:56:78:01:02", "ips": ["123.123.1.2"], "__type__": "sts.entities.hosts.HostInterface", "name": "eth1"}, "packet": "EjRWeAICEjRWeAECCABFAABIuxkAAEABxaF7ewECe3sCAggABjdQaW5nUGluZ1BpbmdQaW5nUGluZ1BpbmdQaW5nUGluZ1BpbmdQaW5nUGluZ1Bpbmc="}, "time": [1401405392, 96079], "replay_time": [1401497442, 369125], "host_id": null, "round": 202, "prunable": true}
{"class": "ControllerRecovery", "fingerprint": ["ControllerRecovery", "c1"], "controller_id": "c1", "timed_out": false, "dependent_labels": [], "time": [1401405392, 96749], "replay_time": [1401497475, 409875], "label": "e1682", "round": 202, "prunable": true}
{"dependent_labels": [], "class": "TrafficInjection", "fingerprint": ["TrafficInjection", {"interface": {"hw_addr": "12:34:56:78:01:02", "ips": ["123.123.1.2"], "__type__": "sts.entities.hosts.HostInterface", "name": "eth1"}, "packet": "EjRWeAICEjRWeAECCABFAABIuxoAAEABxaB7ewECe3sCAggABjdQaW5nUGluZ1BpbmdQaW5nUGluZ1BpbmdQaW5nUGluZ1BpbmdQaW5nUGluZ1Bpbmc="}, null], "timed_out": false, "label": "e1732", "dp_event": {"interface": {"hw_addr": "12:34:56:78:01:02", "ips": ["123.123.1.2"], "__type__": "sts.entities.hosts.HostInterface", "name": "eth1"}, "packet": "EjRWeAICEjRWeAECCABFAABIuxoAAEABxaB7ewECe3sCAggABjdQaW5nUGluZ1BpbmdQaW5nUGluZ1BpbmdQaW5nUGluZ1BpbmdQaW5nUGluZ1Bpbmc="}, "time": [1401405437, 19065], "replay_time": [1401497520, 378715], "host_id": null, "round": 206, "prunable": true}
{"dependent_labels": [], "class": "TrafficInjection", "fingerprint": ["TrafficInjection", {"interface": {"hw_addr": "12:34:56:78:02:02", "ips": ["123.123.2.2"], "__type__": "sts.entities.hosts.HostInterface", "name": "eth2"}, "packet": "EjRWeAECEjRWeAICCABFAABIuxsAAEABxZ97ewICe3sBAggABjdQaW5nUGluZ1BpbmdQaW5nUGluZ1BpbmdQaW5nUGluZ1BpbmdQaW5nUGluZ1Bpbmc="}, null], "timed_out": false, "label": "e1756", "dp_event": {"interface": {"hw_addr": "12:34:56:78:02:02", "ips": ["123.123.2.2"], "__type__": "sts.entities.hosts.HostInterface", "name": "eth2"}, "packet": "EjRWeAECEjRWeAICCABFAABIuxsAAEABxZ97ewICe3sBAggABjdQaW5nUGluZ1BpbmdQaW5nUGluZ1BpbmdQaW5nUGluZ1BpbmdQaW5nUGluZ1Bpbmc="}, "time": [1401405446, 33239], "replay_time": [1401497529, 403291], "host_id": null, "round": 209, "prunable": true}
{"dependent_labels": [], "class": "TrafficInjection", "fingerprint": ["TrafficInjection", {"interface": {"hw_addr": "12:34:56:78:01:02", "ips": ["123.123.1.2"], "__type__": "sts.entities.hosts.HostInterface", "name": "eth1"}, "packet": "EjRWeAICEjRWeAECCABFAABIuxwAAEABxZ57ewECe3sCAgAADjdQaW5nUGluZ1BpbmdQaW5nUGluZ1BpbmdQaW5nUGluZ1BpbmdQaW5nUGluZ1Bpbmc="}, null], "timed_out": false, "label": "e1763", "dp_event": {"interface": {"hw_addr": "12:34:56:78:01:02", "ips": ["123.123.1.2"], "__type__": "sts.entities.hosts.HostInterface", "name": "eth1"}, "packet": "EjRWeAICEjRWeAECCABFAABIuxwAAEABxZ57ewECe3sCAgAADjdQaW5nUGluZ1BpbmdQaW5nUGluZ1BpbmdQaW5nUGluZ1BpbmdQaW5nUGluZ1Bpbmc="}, "time": [1401405449, 37510], "replay_time": [1401497532, 411993], "host_id": null, "round": 210, "prunable": true}
{"class": "ControllerFailure", "fingerprint": ["ControllerFailure", "c1"], "controller_id": "c1", "timed_out": false, "dependent_labels": [], "time": [1401405449, 37915], "replay_time": [1401497532, 789346], "label": "e1764", "round": 210, "prunable": true}
{"dependent_labels": [], "class": "TrafficInjection", "fingerprint": ["TrafficInjection", {"interface": {"hw_addr": "12:34:56:78:02:02", "ips": ["123.123.2.2"], "__type__": "sts.entities.hosts.HostInterface", "name": "eth2"}, "packet": "EjRWeAECEjRWeAICCABFAABIux0AAEABxZ17ewICe3sBAggABjdQaW5nUGluZ1BpbmdQaW5nUGluZ1BpbmdQaW5nUGluZ1BpbmdQaW5nUGluZ1Bpbmc="}, null], "timed_out": false, "label": "e1767", "dp_event": {"interface": {"hw_addr": "12:34:56:78:02:02", "ips": ["123.123.2.2"], "__type__": "sts.entities.hosts.HostInterface", "name": "eth2"}, "packet": "EjRWeAECEjRWeAICCABFAABIux0AAEABxZ17ewICe3sBAggABjdQaW5nUGluZ1BpbmdQaW5nUGluZ1BpbmdQaW5nUGluZ1BpbmdQaW5nUGluZ1Bpbmc="}, "time": [1401405452, 358577], "replay_time": [1401497536, 114669], "host_id": null, "round": 211, "prunable": true}
{"class": "ControllerRecovery", "fingerprint": ["ControllerRecovery", "c1"], "controller_id": "c1", "timed_out": false, "dependent_labels": [], "time": [1401405452, 359027], "replay_time": [1401497569, 291955], "label": "e1768", "round": 211, "prunable": true}
{"dependent_labels": [], "class": "TrafficInjection", "fingerprint": ["TrafficInjection", {"interface": {"hw_addr": "12:34:56:78:02:02", "ips": ["123.123.2.2"], "__type__": "sts.entities.hosts.HostInterface", "name": "eth2"}, "packet": "EjRWeAECEjRWeAICCABFAABIux4AAEABxZx7ewICe3sBAggABjdQaW5nUGluZ1BpbmdQaW5nUGluZ1BpbmdQaW5nUGluZ1BpbmdQaW5nUGluZ1Bpbmc="}, null], "timed_out": false, "label": "e1780", "dp_event": {"interface": {"hw_addr": "12:34:56:78:02:02", "ips": ["123.123.2.2"], "__type__": "sts.entities.hosts.HostInterface", "name": "eth2"}, "packet": "EjRWeAECEjRWeAICCABFAABIux4AAEABxZx7ewICe3sBAggABjdQaW5nUGluZ1BpbmdQaW5nUGluZ1BpbmdQaW5nUGluZ1BpbmdQaW5nUGluZ1Bpbmc="}, "time": [1401405488, 124110], "replay_time": [1401497605, 94207], "host_id": null, "round": 212, "prunable": true}
{"dependent_labels": [], "class": "TrafficInjection", "fingerprint": ["TrafficInjection", {"interface": {"hw_addr": "12:34:56:78:02:02", "ips": ["123.123.2.2"], "__type__": "sts.entities.hosts.HostInterface", "name": "eth2"}, "packet": "EjRWeAECEjRWeAICCABFAABIux8AAEABxZt7ewICe3sBAggABjdQaW5nUGluZ1BpbmdQaW5nUGluZ1BpbmdQaW5nUGluZ1BpbmdQaW5nUGluZ1Bpbmc="}, null], "timed_out": false, "label": "e1796", "dp_event": {"interface": {"hw_addr": "12:34:56:78:02:02", "ips": ["123.123.2.2"], "__type__": "sts.entities.hosts.HostInterface", "name": "eth2"}, "packet": "EjRWeAECEjRWeAICCABFAABIux8AAEABxZt7ewICe3sBAggABjdQaW5nUGluZ1BpbmdQaW5nUGluZ1BpbmdQaW5nUGluZ1BpbmdQaW5nUGluZ1Bpbmc="}, "time": [1401405491, 132059], "replay_time": [1401497608, 106082], "host_id": null, "round": 213, "prunable": true}
{"dependent_labels": [], "class": "TrafficInjection", "fingerprint": ["TrafficInjection", {"interface": {"hw_addr": "12:34:56:78:02:02", "ips": ["123.123.2.2"], "__type__": "sts.entities.hosts.HostInterface", "name": "eth2"}, "packet": "EjRWeAECEjRWeAICCABFAABIuyAAAEABxZp7ewICe3sBAgAADjdQaW5nUGluZ1BpbmdQaW5nUGluZ1BpbmdQaW5nUGluZ1BpbmdQaW5nUGluZ1Bpbmc="}, null], "timed_out": false, "label": "e1834", "dp_event": {"interface": {"hw_addr": "12:34:56:78:02:02", "ips": ["123.123.2.2"], "__type__": "sts.entities.hosts.HostInterface", "name": "eth2"}, "packet": "EjRWeAECEjRWeAICCABFAABIuyAAAEABxZp7ewICe3sBAgAADjdQaW5nUGluZ1BpbmdQaW5nUGluZ1BpbmdQaW5nUGluZ1BpbmdQaW5nUGluZ1Bpbmc="}, "time": [1401405503, 151014], "replay_time": [1401497620, 138466], "host_id": null, "round": 217, "prunable": true}
{"dependent_labels": [], "class": "TrafficInjection", "fingerprint": ["TrafficInjection", {"interface": {"hw_addr": "12:34:56:78:01:02", "ips": ["123.123.1.2"], "__type__": "sts.entities.hosts.HostInterface", "name": "eth1"}, "packet": "EjRWeAICEjRWeAECCABFAABIuyEAAEABxZl7ewECe3sCAggABjdQaW5nUGluZ1BpbmdQaW5nUGluZ1BpbmdQaW5nUGluZ1BpbmdQaW5nUGluZ1Bpbmc="}, null], "timed_out": false, "label": "e1848", "dp_event": {"interface": {"hw_addr": "12:34:56:78:01:02", "ips": ["123.123.1.2"], "__type__": "sts.entities.hosts.HostInterface", "name": "eth1"}, "packet": "EjRWeAICEjRWeAECCABFAABIuyEAAEABxZl7ewECe3sCAggABjdQaW5nUGluZ1BpbmdQaW5nUGluZ1BpbmdQaW5nUGluZ1BpbmdQaW5nUGluZ1Bpbmc="}, "time": [1401405506, 157730], "replay_time": [1401497623, 149683], "host_id": null, "round": 218, "prunable": true}
{"dependent_labels": [], "class": "TrafficInjection", "fingerprint": ["TrafficInjection", {"interface": {"hw_addr": "12:34:56:78:01:02", "ips": ["123.123.1.2"], "__type__": "sts.entities.hosts.HostInterface", "name": "eth1"}, "packet": "EjRWeAICEjRWeAECCABFAABIuyIAAEABxZh7ewECe3sCAggABjdQaW5nUGluZ1BpbmdQaW5nUGluZ1BpbmdQaW5nUGluZ1BpbmdQaW5nUGluZ1Bpbmc="}, null], "timed_out": false, "label": "e1858", "dp_event": {"interface": {"hw_addr": "12:34:56:78:01:02", "ips": ["123.123.1.2"], "__type__": "sts.entities.hosts.HostInterface", "name": "eth1"}, "packet": "EjRWeAICEjRWeAECCABFAABIuyIAAEABxZh7ewECe3sCAggABjdQaW5nUGluZ1BpbmdQaW5nUGluZ1BpbmdQaW5nUGluZ1BpbmdQaW5nUGluZ1Bpbmc="}, "time": [1401405509, 162425], "replay_time": [1401497626, 158849], "host_id": null, "round": 219, "prunable": true}
{"dependent_labels": [], "class": "TrafficInjection", "fingerprint": ["TrafficInjection", {"interface": {"hw_addr": "12:34:56:78:02:02", "ips": ["123.123.2.2"], "__type__": "sts.entities.hosts.HostInterface", "name": "eth2"}, "packet": "EjRWeAECEjRWeAICCABFAABIuyMAAEABxZd7ewICe3sBAggABjdQaW5nUGluZ1BpbmdQaW5nUGluZ1BpbmdQaW5nUGluZ1BpbmdQaW5nUGluZ1Bpbmc="}, null], "timed_out": false, "label": "e1875", "dp_event": {"interface": {"hw_addr": "12:34:56:78:02:02", "ips": ["123.123.2.2"], "__type__": "sts.entities.hosts.HostInterface", "name": "eth2"}, "packet": "EjRWeAECEjRWeAICCABFAABIuyMAAEABxZd7ewICe3sBAggABjdQaW5nUGluZ1BpbmdQaW5nUGluZ1BpbmdQaW5nUGluZ1BpbmdQaW5nUGluZ1Bpbmc="}, "time": [1401405524, 174444], "replay_time": [1401497641, 175657], "host_id": null, "round": 224, "prunable": true}
{"dependent_labels": [], "class": "TrafficInjection", "fingerprint": ["TrafficInjection", {"interface": {"hw_addr": "12:34:56:78:01:02", "ips": ["123.123.1.2"], "__type__": "sts.entities.hosts.HostInterface", "name": "eth1"}, "packet": "EjRWeAICEjRWeAECCABFAABIuyQAAEABxZZ7ewECe3sCAgAADjdQaW5nUGluZ1BpbmdQaW5nUGluZ1BpbmdQaW5nUGluZ1BpbmdQaW5nUGluZ1Bpbmc="}, null], "timed_out": false, "label": "e1880", "dp_event": {"interface": {"hw_addr": "12:34:56:78:01:02", "ips": ["123.123.1.2"], "__type__": "sts.entities.hosts.HostInterface", "name": "eth1"}, "packet": "EjRWeAICEjRWeAECCABFAABIuyQAAEABxZZ7ewECe3sCAgAADjdQaW5nUGluZ1BpbmdQaW5nUGluZ1BpbmdQaW5nUGluZ1BpbmdQaW5nUGluZ1Bpbmc="}, "time": [1401405530, 179061], "replay_time": [1401497647, 187499], "host_id": null, "round": 226, "prunable": true}
{"dependent_labels": [], "class": "TrafficInjection", "fingerprint": ["TrafficInjection", {"interface": {"hw_addr": "12:34:56:78:02:02", "ips": ["123.123.2.2"], "__type__": "sts.entities.hosts.HostInterface", "name": "eth2"}, "packet": "EjRWeAECEjRWeAICCABFAABIuyUAAEABxZV7ewICe3sBAgAADjdQaW5nUGluZ1BpbmdQaW5nUGluZ1BpbmdQaW5nUGluZ1BpbmdQaW5nUGluZ1Bpbmc="}, null], "timed_out": false, "label": "e1881", "dp_event": {"interface": {"hw_addr": "12:34:56:78:02:02", "ips": ["123.123.2.2"], "__type__": "sts.entities.hosts.HostInterface", "name": "eth2"}, "packet": "EjRWeAECEjRWeAICCABFAABIuyUAAEABxZV7ewICe3sBAgAADjdQaW5nUGluZ1BpbmdQaW5nUGluZ1BpbmdQaW5nUGluZ1BpbmdQaW5nUGluZ1Bpbmc="}, "time": [1401405530, 179637], "replay_time": [1401497647, 189113], "host_id": null, "round": 226, "prunable": true}
{"dependent_labels": [], "class": "TrafficInjection", "fingerprint": ["TrafficInjection", {"interface": {"hw_addr": "12:34:56:78:02:02", "ips": ["123.123.2.2"], "__type__": "sts.entities.hosts.HostInterface", "name": "eth2"}, "packet": "EjRWeAECEjRWeAICCABFAABIuyYAAEABxZR7ewICe3sBAgAADjdQaW5nUGluZ1BpbmdQaW5nUGluZ1BpbmdQaW5nUGluZ1BpbmdQaW5nUGluZ1Bpbmc="}, null], "timed_out": false, "label": "e1889", "dp_event": {"interface": {"hw_addr": "12:34:56:78:02:02", "ips": ["123.123.2.2"], "__type__": "sts.entities.hosts.HostInterface", "name": "eth2"}, "packet": "EjRWeAECEjRWeAICCABFAABIuyYAAEABxZR7ewICe3sBAgAADjdQaW5nUGluZ1BpbmdQaW5nUGluZ1BpbmdQaW5nUGluZ1BpbmdQaW5nUGluZ1Bpbmc="}, "time": [1401405533, 184114], "replay_time": [1401497650, 197873], "host_id": null, "round": 227, "prunable": true}
{"dependent_labels": [], "class": "TrafficInjection", "fingerprint": ["TrafficInjection", {"interface": {"hw_addr": "12:34:56:78:02:02", "ips": ["123.123.2.2"], "__type__": "sts.entities.hosts.HostInterface", "name": "eth2"}, "packet": "EjRWeAECEjRWeAICCABFAABIuycAAEABxZN7ewICe3sBAgAADjdQaW5nUGluZ1BpbmdQaW5nUGluZ1BpbmdQaW5nUGluZ1BpbmdQaW5nUGluZ1Bpbmc="}, null], "timed_out": false, "label": "e1899", "dp_event": {"interface": {"hw_addr": "12:34:56:78:02:02", "ips": ["123.123.2.2"], "__type__": "sts.entities.hosts.HostInterface", "name": "eth2"}, "packet": "EjRWeAECEjRWeAICCABFAABIuycAAEABxZN7ewICe3sBAgAADjdQaW5nUGluZ1BpbmdQaW5nUGluZ1BpbmdQaW5nUGluZ1BpbmdQaW5nUGluZ1Bpbmc="}, "time": [1401405536, 189414], "replay_time": [1401497653, 207026], "host_id": null, "round": 228, "prunable": true}
{"class": "ControllerFailure", "fingerprint": ["ControllerFailure", "c1"], "controller_id": "c1", "timed_out": false, "dependent_labels": [], "time": [1401405536, 189838], "replay_time": [1401497653, 629180], "label": "e1900", "round": 228, "prunable": true}
{"class": "ControllerFailure", "fingerprint": ["ControllerFailure", "c2"], "controller_id": "c2", "timed_out": false, "dependent_labels": [], "time": [1401405539, 496012], "replay_time": [1401497657, 343986], "label": "e1905", "round": 229, "prunable": true}
{"class": "ControllerRecovery", "fingerprint": ["ControllerRecovery", "c1"], "controller_id": "c1", "timed_out": false, "dependent_labels": [], "time": [1401405539, 812870], "replay_time": [1401497691, 102130], "label": "e1906", "round": 229, "prunable": true}
{"class": "ControllerRecovery", "fingerprint": ["ControllerRecovery", "c2"], "controller_id": "c2", "timed_out": false, "dependent_labels": [], "time": [1401405575, 513762], "replay_time": [1401497759, 305326], "label": "e1911", "round": 230, "prunable": true}
{"dependent_labels": [], "class": "TrafficInjection", "fingerprint": ["TrafficInjection", {"interface": {"hw_addr": "12:34:56:78:02:02", "ips": ["123.123.2.2"], "__type__": "sts.entities.hosts.HostInterface", "name": "eth2"}, "packet": "EjRWeAECEjRWeAICCABFAABIuygAAEABxZJ7ewICe3sBAgAADjdQaW5nUGluZ1BpbmdQaW5nUGluZ1BpbmdQaW5nUGluZ1BpbmdQaW5nUGluZ1Bpbmc="}, null], "timed_out": false, "label": "e1937", "dp_event": {"interface": {"hw_addr": "12:34:56:78:02:02", "ips": ["123.123.2.2"], "__type__": "sts.entities.hosts.HostInterface", "name": "eth2"}, "packet": "EjRWeAECEjRWeAICCABFAABIuygAAEABxZJ7ewICe3sBAgAADjdQaW5nUGluZ1BpbmdQaW5nUGluZ1BpbmdQaW5nUGluZ1BpbmdQaW5nUGluZ1Bpbmc="}, "time": [1401405620, 255985], "replay_time": [1401497804, 84317], "host_id": null, "round": 234, "prunable": true}
{"class": "ControllerFailure", "fingerprint": ["ControllerFailure", "c1"], "controller_id": "c1", "timed_out": false, "dependent_labels": [], "time": [1401405623, 258931], "replay_time": [1401497807, 451737], "label": "e1943", "round": 235, "prunable": true}
{"dependent_labels": [], "class": "TrafficInjection", "fingerprint": ["TrafficInjection", {"interface": {"hw_addr": "12:34:56:78:02:02", "ips": ["123.123.2.2"], "__type__": "sts.entities.hosts.HostInterface", "name": "eth2"}, "packet": "EjRWeAECEjRWeAICCABFAABIuykAAEABxZF7ewICe3sBAggABjdQaW5nUGluZ1BpbmdQaW5nUGluZ1BpbmdQaW5nUGluZ1BpbmdQaW5nUGluZ1Bpbmc="}, null], "timed_out": false, "label": "e1947", "dp_event": {"interface": {"hw_addr": "12:34:56:78:02:02", "ips": ["123.123.2.2"], "__type__": "sts.entities.hosts.HostInterface", "name": "eth2"}, "packet": "EjRWeAECEjRWeAICCABFAABIuykAAEABxZF7ewICe3sBAggABjdQaW5nUGluZ1BpbmdQaW5nUGluZ1BpbmdQaW5nUGluZ1BpbmdQaW5nUGluZ1Bpbmc="}, "time": [1401405626, 581080], "replay_time": [1401497810, 778592], "host_id": null, "round": 236, "prunable": true}
{"class": "ControllerRecovery", "fingerprint": ["ControllerRecovery", "c1"], "controller_id": "c1", "timed_out": false, "dependent_labels": [], "time": [1401405626, 581532], "replay_time": [1401497844, 361402], "label": "e1948", "round": 236, "prunable": true}
{"class": "ControllerFailure", "fingerprint": ["ControllerFailure", "c1"], "controller_id": "c1", "timed_out": false, "dependent_labels": [], "time": [1401405668, 548479], "replay_time": [1401497886, 796562], "label": "e1985", "round": 239, "prunable": true}
{"class": "ControllerRecovery", "fingerprint": ["ControllerRecovery", "c1"], "controller_id": "c1", "timed_out": false, "dependent_labels": [], "time": [1401405671, 875404], "replay_time": [1401497923, 400098], "label": "e1986", "round": 240, "prunable": true}
{"dependent_labels": [], "class": "TrafficInjection", "fingerprint": ["TrafficInjection", {"interface": {"hw_addr": "12:34:56:78:02:02", "ips": ["123.123.2.2"], "__type__": "sts.entities.hosts.HostInterface", "name": "eth2"}, "packet": "EjRWeAECEjRWeAICCABFAABIuyoAAEABxZB7ewICe3sBAggABjdQaW5nUGluZ1BpbmdQaW5nUGluZ1BpbmdQaW5nUGluZ1BpbmdQaW5nUGluZ1Bpbmc="}, null], "timed_out": false, "label": "e1995", "dp_event": {"interface": {"hw_addr": "12:34:56:78:02:02", "ips": ["123.123.2.2"], "__type__": "sts.entities.hosts.HostInterface", "name": "eth2"}, "packet": "EjRWeAECEjRWeAICCABFAABIuyoAAEABxZB7ewICe3sBAggABjdQaW5nUGluZ1BpbmdQaW5nUGluZ1BpbmdQaW5nUGluZ1BpbmdQaW5nUGluZ1Bpbmc="}, "time": [1401405707, 742576], "replay_time": [1401497959, 271484], "host_id": null, "round": 241, "prunable": true}
{"class": "ControllerFailure", "fingerprint": ["ControllerFailure", "c2"], "controller_id": "c2", "timed_out": false, "dependent_labels": [], "time": [1401405722, 765803], "replay_time": [1401497974, 704764], "label": "e2044", "round": 246, "prunable": true}
{"class": "ControllerRecovery", "fingerprint": ["ControllerRecovery", "c2"], "controller_id": "c2", "timed_out": false, "dependent_labels": [], "time": [1401405726, 98043], "replay_time": [1401498010, 472387], "label": "e2057", "round": 247, "prunable": true}
{"legacy_invariant_check": false, "class": "CheckInvariants", "fingerprint": "N/A", "timed_out": false, "label": "e2098", "dependent_labels": [], "invariant_name": "InvariantChecker.check_liveness", "invariant_check_name": "InvariantChecker.check_liveness", "time": [1401405767, 935185], "replay_time": [1401498053, 926855], "invariant_check": null, "round": 250, "prunable": true}
{"class": "InvariantViolation", "fingerprint": ["InvariantViolation"], "persistent": true, "timed_out": false, "dependent_labels": [], "time": [1401405769, 152123], "violations": ["c1"], "label": "e2099", "round": 250, "prunable": true}
{"class": "WaitTime", "fingerprint": ["WaitTime"], "timed_out": false, "label": "e2100", "wait_time": 1.0, "dependent_labels": [], "time": [1401405769, 152123], "replay_time": [1401498054, 929041], "round": -1, "prunable": true}
