2014-06-05 16:26:22,542 INFO [main] n.f.c.m.FloodlightModuleLoader [FloodlightModuleLoader.java:170] Loading modules from file ./conf/onos.properties
2014-06-05 16:26:22,546 DEBUG [main] n.f.c.m.FloodlightModuleLoader [FloodlightModuleLoader.java:206] Starting module loader
2014-06-05 16:26:22,581 DEBUG [main] n.f.c.m.FloodlightModuleLoader [FloodlightModuleLoader.java:95] Found module net.floodlightcontroller.core.FloodlightProvider
2014-06-05 16:26:22,648 DEBUG [main] n.f.c.m.FloodlightModuleLoader [FloodlightModuleLoader.java:95] Found module net.onrc.onos.ofcontroller.floodlightlistener.NetworkGraphPublisher
2014-06-05 16:26:22,710 DEBUG [main] n.f.c.m.FloodlightModuleLoader [FloodlightModuleLoader.java:95] Found module net.onrc.onos.ofcontroller.linkdiscovery.internal.LinkDiscoveryManager
2014-06-05 16:26:22,724 DEBUG [main] n.f.c.m.FloodlightModuleLoader [FloodlightModuleLoader.java:95] Found module net.floodlightcontroller.topology.TopologyManager
2014-06-05 16:26:22,795 DEBUG [main] n.f.c.m.FloodlightModuleLoader [FloodlightModuleLoader.java:95] Found module net.floodlightcontroller.forwarding.Forwarding
2014-06-05 16:26:22,803 DEBUG [main] n.f.c.m.FloodlightModuleLoader [FloodlightModuleLoader.java:95] Found module net.floodlightcontroller.restserver.RestApiServer
2014-06-05 16:26:22,809 DEBUG [main] n.f.c.m.FloodlightModuleLoader [FloodlightModuleLoader.java:95] Found module net.floodlightcontroller.threadpool.ThreadPool
2014-06-05 16:26:22,833 DEBUG [main] n.f.c.m.FloodlightModuleLoader [FloodlightModuleLoader.java:95] Found module net.floodlightcontroller.ui.web.StaticWebRoutable
2014-06-05 16:26:22,902 DEBUG [main] n.f.c.m.FloodlightModuleLoader [FloodlightModuleLoader.java:95] Found module net.floodlightcontroller.devicemanager.internal.DefaultEntityClassifier
2014-06-05 16:26:22,905 DEBUG [main] n.f.c.m.FloodlightModuleLoader [FloodlightModuleLoader.java:88] Could not find module: net.floodlightcontroller.core.module.IFloodlightModule: Provider net.floodlightcontroller.devicemanager.test.MockDeviceManager not found
2014-06-05 16:26:22,905 DEBUG [main] n.f.c.m.FloodlightModuleLoader [FloodlightModuleLoader.java:88] Could not find module: net.floodlightcontroller.core.module.IFloodlightModule: Provider net.floodlightcontroller.core.test.MockFloodlightProvider not found
2014-06-05 16:26:22,907 DEBUG [main] n.f.c.m.FloodlightModuleLoader [FloodlightModuleLoader.java:88] Could not find module: net.floodlightcontroller.core.module.IFloodlightModule: Provider net.floodlightcontroller.core.test.MockThreadPoolService not found
2014-06-05 16:26:24,821 DEBUG [main] n.f.c.m.FloodlightModuleLoader [FloodlightModuleLoader.java:95] Found module net.onrc.onos.datagrid.HazelcastDatagrid
2014-06-05 16:26:25,600 DEBUG [main] n.f.c.m.FloodlightModuleLoader [FloodlightModuleLoader.java:95] Found module net.onrc.onos.ofcontroller.flowmanager.FlowManager
2014-06-05 16:26:26,633 DEBUG [main] n.o.o.g.GraphDBConnection [GraphDBConnection.java:59] GraphDBConnection::Setting Config File 
2014-06-05 16:26:26,634 DEBUG [main] n.f.c.m.FloodlightModuleLoader [FloodlightModuleLoader.java:95] Found module net.onrc.onos.ofcontroller.flowprogrammer.FlowProgrammer
2014-06-05 16:26:26,733 DEBUG [main] n.f.c.m.FloodlightModuleLoader [FloodlightModuleLoader.java:95] Found module net.onrc.onos.ofcontroller.topology.TopologyManager
2014-06-05 16:26:26,930 DEBUG [main] n.f.c.m.FloodlightModuleLoader [FloodlightModuleLoader.java:95] Found module net.onrc.onos.ofcontroller.bgproute.BgpRoute
2014-06-05 16:26:26,959 DEBUG [main] n.f.c.m.FloodlightModuleLoader [FloodlightModuleLoader.java:95] Found module net.onrc.onos.registry.controller.ZookeeperRegistry
2014-06-05 16:26:26,964 DEBUG [main] n.f.c.m.FloodlightModuleLoader [FloodlightModuleLoader.java:95] Found module net.onrc.onos.registry.controller.StandaloneRegistry
2014-06-05 16:26:26,982 DEBUG [main] n.f.c.m.FloodlightModuleLoader [FloodlightModuleLoader.java:95] Found module net.onrc.onos.ofcontroller.forwarding.Forwarding
2014-06-05 16:26:27,012 DEBUG [main] n.f.c.m.FloodlightModuleLoader [FloodlightModuleLoader.java:95] Found module net.onrc.onos.ofcontroller.proxyarp.ProxyArpManager
2014-06-05 16:26:27,017 DEBUG [main] n.f.c.m.FloodlightModuleLoader [FloodlightModuleLoader.java:95] Found module net.onrc.onos.ofcontroller.core.config.DefaultConfiguration
2014-06-05 16:26:27,026 DEBUG [main] n.f.c.m.FloodlightModuleLoader [FloodlightModuleLoader.java:95] Found module net.onrc.onos.ofcontroller.devicemanager.OnosDeviceManager
2014-06-05 16:26:27,026 DEBUG [main] n.f.c.m.FloodlightModuleLoader [FloodlightModuleLoader.java:416] Setting net.floodlightcontroller.threadpool.ThreadPool@5a407d55  as provider for net.floodlightcontroller.threadpool.IThreadPoolService
2014-06-05 16:26:27,027 DEBUG [main] n.f.c.m.FloodlightModuleLoader [FloodlightModuleLoader.java:416] Setting net.onrc.onos.ofcontroller.core.config.DefaultConfiguration@2e37dbea  as provider for net.onrc.onos.ofcontroller.core.config.IConfigInfoService
2014-06-05 16:26:27,027 DEBUG [main] n.f.c.m.FloodlightModuleLoader [FloodlightModuleLoader.java:416] Setting net.floodlightcontroller.restserver.RestApiServer@5b742cea  as provider for net.floodlightcontroller.restserver.IRestApiService
2014-06-05 16:26:27,067 DEBUG [main] n.f.c.m.FloodlightModuleLoader [FloodlightModuleLoader.java:416] Setting net.floodlightcontroller.core.internal.Controller@550ebbaa  as provider for net.floodlightcontroller.core.IFloodlightProviderService
2014-06-05 16:26:27,068 DEBUG [main] n.f.c.m.FloodlightModuleLoader [FloodlightModuleLoader.java:416] Setting net.onrc.onos.datagrid.HazelcastDatagrid@6efe72b9  as provider for net.onrc.onos.datagrid.IDatagridService
2014-06-05 16:26:27,068 DEBUG [main] n.f.c.m.FloodlightModuleLoader [FloodlightModuleLoader.java:416] Setting net.onrc.onos.ofcontroller.flowprogrammer.FlowSynchronizer@3a42c186  as provider for net.onrc.onos.ofcontroller.flowprogrammer.IFlowSyncService
2014-06-05 16:26:27,068 DEBUG [main] n.f.c.m.FloodlightModuleLoader [FloodlightModuleLoader.java:416] Setting net.onrc.onos.ofcontroller.flowprogrammer.FlowPusher@74af624b  as provider for net.onrc.onos.ofcontroller.flowprogrammer.IFlowPusherService
2014-06-05 16:26:27,068 DEBUG [main] n.f.c.m.FloodlightModuleLoader [FloodlightModuleLoader.java:416] Setting net.onrc.onos.registry.controller.ZookeeperRegistry@24dee999  as provider for net.onrc.onos.registry.controller.IControllerRegistryService
2014-06-05 16:26:27,069 DEBUG [main] n.f.c.m.FloodlightModuleLoader [FloodlightModuleLoader.java:416] Setting net.onrc.onos.ofcontroller.linkdiscovery.internal.LinkDiscoveryManager@1081ee9f  as provider for net.onrc.onos.ofcontroller.linkdiscovery.ILinkDiscoveryService
2014-06-05 16:26:27,069 DEBUG [main] n.f.c.m.FloodlightModuleLoader [FloodlightModuleLoader.java:416] Setting net.onrc.onos.ofcontroller.floodlightlistener.NetworkGraphPublisher@6e75bb62  as provider for net.onrc.onos.ofcontroller.floodlightlistener.INetworkGraphService
2014-06-05 16:26:27,069 DEBUG [main] n.f.c.m.FloodlightModuleLoader [FloodlightModuleLoader.java:416] Setting net.onrc.onos.ofcontroller.flowmanager.FlowManager@5c356519  as provider for net.onrc.onos.ofcontroller.flowmanager.IFlowService
2014-06-05 16:26:27,069 DEBUG [main] n.f.c.m.FloodlightModuleLoader [FloodlightModuleLoader.java:416] Setting net.onrc.onos.ofcontroller.topology.TopologyManager@3adec164  as provider for net.onrc.onos.ofcontroller.topology.ITopologyNetService
2014-06-05 16:26:27,070 DEBUG [main] n.f.c.m.FloodlightModuleLoader [FloodlightModuleLoader.java:416] Setting net.floodlightcontroller.topology.TopologyManager@4c586c96  as provider for net.floodlightcontroller.topology.ITopologyService
2014-06-05 16:26:27,070 DEBUG [main] n.f.c.m.FloodlightModuleLoader [FloodlightModuleLoader.java:416] Setting net.floodlightcontroller.topology.TopologyManager@4c586c96  as provider for net.floodlightcontroller.routing.IRoutingService
2014-06-05 16:26:27,070 DEBUG [main] n.f.c.m.FloodlightModuleLoader [FloodlightModuleLoader.java:416] Setting net.onrc.onos.ofcontroller.proxyarp.ProxyArpManager@1aa5d24b  as provider for net.onrc.onos.ofcontroller.proxyarp.IProxyArpService
2014-06-05 16:26:27,071 DEBUG [main] n.f.c.m.FloodlightModuleLoader [FloodlightModuleLoader.java:416] Setting net.onrc.onos.ofcontroller.devicemanager.OnosDeviceManager@32457189  as provider for net.onrc.onos.ofcontroller.devicemanager.IOnosDeviceService
2014-06-05 16:26:27,071 DEBUG [main] n.f.c.m.FloodlightModuleLoader [FloodlightModuleLoader.java:416] Setting net.onrc.onos.ofcontroller.forwarding.Forwarding@5d688dcf  as provider for net.onrc.onos.ofcontroller.forwarding.IForwardingService
2014-06-05 16:26:27,071 DEBUG [main] n.f.c.m.FloodlightModuleLoader [FloodlightModuleLoader.java:439] Initializing net.floodlightcontroller.threadpool.ThreadPool
2014-06-05 16:26:27,071 DEBUG [main] n.f.c.m.FloodlightModuleLoader [FloodlightModuleLoader.java:439] Initializing net.onrc.onos.ofcontroller.core.config.DefaultConfiguration
2014-06-05 16:26:27,072 DEBUG [main] n.f.c.m.FloodlightModuleLoader [FloodlightModuleLoader.java:439] Initializing net.floodlightcontroller.restserver.RestApiServer
2014-06-05 16:26:27,072 DEBUG [main] n.f.r.RestApiServer [RestApiServer.java:187] REST port set to 8080
2014-06-05 16:26:27,072 DEBUG [main] n.f.c.m.FloodlightModuleLoader [FloodlightModuleLoader.java:439] Initializing net.floodlightcontroller.core.FloodlightProvider
2014-06-05 16:26:27,102 DEBUG [main] n.f.c.i.Controller [Controller.java:1761] OpenFlow port set to 6633
2014-06-05 16:26:27,102 DEBUG [main] n.f.c.i.Controller [Controller.java:1766] Number of worker threads set to 16
2014-06-05 16:26:27,103 DEBUG [main] n.f.c.i.Controller [Controller.java:1781] ControllerId set to onosdev2
2014-06-05 16:26:27,159 DEBUG [main] n.f.c.m.FloodlightModuleLoader [FloodlightModuleLoader.java:439] Initializing net.floodlightcontroller.ui.web.StaticWebRoutable
2014-06-05 16:26:27,160 DEBUG [main] n.f.c.m.FloodlightModuleLoader [FloodlightModuleLoader.java:439] Initializing net.onrc.onos.datagrid.HazelcastDatagrid
2014-06-05 16:26:27,196 INFO [main] c.h.c.FileSystemXmlConfig [Slf4jFactory.java:47] Configuring Hazelcast from '/vagrant/ONOS/conf/hazelcast.xml'.
2014-06-05 16:26:27,316 DEBUG [main] n.f.c.m.FloodlightModuleLoader [FloodlightModuleLoader.java:439] Initializing net.onrc.onos.ofcontroller.flowprogrammer.FlowProgrammer
2014-06-05 16:26:28,092 DEBUG [main] n.f.c.m.FloodlightModuleLoader [FloodlightModuleLoader.java:439] Initializing net.onrc.onos.registry.controller.ZookeeperRegistry
2014-06-05 16:26:28,092 INFO [main] n.o.o.r.c.ZookeeperRegistry [ZookeeperRegistry.java:474] Initialising the Zookeeper Registry - Zookeeper connection required
2014-06-05 16:26:28,093 INFO [main] n.o.o.r.c.ZookeeperRegistry [ZookeeperRegistry.java:482] Setting Zookeeper connection string to localhost:2181
2014-06-05 16:26:28,234 INFO [main] c.n.c.f.i.CuratorFrameworkImpl [CuratorFrameworkImpl.java:220] Starting
2014-06-05 16:26:28,235 DEBUG [main] c.n.c.CuratorZookeeperClient [CuratorZookeeperClient.java:173] Starting
2014-06-05 16:26:28,238 DEBUG [main] c.n.c.ConnectionState [ConnectionState.java:98] Starting
2014-06-05 16:26:28,238 DEBUG [main] c.n.c.ConnectionState [ConnectionState.java:199] reset
2014-06-05 16:26:28,318 INFO [main-EventThread] c.n.c.f.s.ConnectionStateManager [ConnectionStateManager.java:151] State change: CONNECTED
2014-06-05 16:26:28,320 WARN [ConnectionStateManager-0] c.n.c.f.s.ConnectionStateManager [ConnectionStateManager.java:169] There are no ConnectionStateListeners registered.
2014-06-05 16:26:28,728 DEBUG [main] n.f.c.m.FloodlightModuleLoader [FloodlightModuleLoader.java:439] Initializing net.onrc.onos.ofcontroller.linkdiscovery.internal.LinkDiscoveryManager
2014-06-05 16:26:28,789 DEBUG [main] n.f.c.m.FloodlightModuleLoader [FloodlightModuleLoader.java:439] Initializing net.onrc.onos.ofcontroller.floodlightlistener.NetworkGraphPublisher
2014-06-05 16:26:28,791 DEBUG [main] n.o.o.g.GraphDBConnection [GraphDBConnection.java:59] GraphDBConnection::Setting Config File /tmp/cassandra.titan
2014-06-05 16:26:29,635 INFO [main] c.t.t.d.Backend [Backend.java:148] Initiated backend operations thread pool of size 2
2014-06-05 16:26:34,700 DEBUG [main] n.o.o.o.f.NetworkGraphPublisher [NetworkGraphPublisher.java:470] Initializing NetworkGraphPublisher module with /tmp/cassandra.titan
2014-06-05 16:26:34,701 DEBUG [main] n.f.c.m.FloodlightModuleLoader [FloodlightModuleLoader.java:439] Initializing net.onrc.onos.ofcontroller.flowmanager.FlowManager
2014-06-05 16:26:34,705 DEBUG [main] n.f.c.m.FloodlightModuleLoader [FloodlightModuleLoader.java:439] Initializing net.onrc.onos.ofcontroller.topology.TopologyManager
2014-06-05 16:26:34,709 DEBUG [main] n.f.c.m.FloodlightModuleLoader [FloodlightModuleLoader.java:439] Initializing net.floodlightcontroller.topology.TopologyManager
2014-06-05 16:26:34,774 DEBUG [main] n.f.c.m.FloodlightModuleLoader [FloodlightModuleLoader.java:439] Initializing net.onrc.onos.ofcontroller.proxyarp.ProxyArpManager
2014-06-05 16:26:34,831 DEBUG [main] n.f.c.m.FloodlightModuleLoader [FloodlightModuleLoader.java:439] Initializing net.onrc.onos.ofcontroller.devicemanager.OnosDeviceManager
2014-06-05 16:26:34,831 DEBUG [main] n.f.c.m.FloodlightModuleLoader [FloodlightModuleLoader.java:439] Initializing net.onrc.onos.ofcontroller.forwarding.Forwarding
2014-06-05 16:26:34,834 DEBUG [main] n.f.c.m.FloodlightModuleLoader [FloodlightModuleLoader.java:453] Starting net.floodlightcontroller.threadpool.ThreadPool
2014-06-05 16:26:34,836 DEBUG [main] n.f.c.m.FloodlightModuleLoader [FloodlightModuleLoader.java:453] Starting net.onrc.onos.ofcontroller.core.config.DefaultConfiguration
2014-06-05 16:26:34,836 DEBUG [main] n.f.c.m.FloodlightModuleLoader [FloodlightModuleLoader.java:453] Starting net.floodlightcontroller.restserver.RestApiServer
2014-06-05 16:26:34,837 DEBUG [main] n.f.c.m.FloodlightModuleLoader [FloodlightModuleLoader.java:453] Starting net.floodlightcontroller.core.FloodlightProvider
2014-06-05 16:26:35,238 DEBUG [main] n.f.c.m.FloodlightModuleLoader [FloodlightModuleLoader.java:453] Starting net.floodlightcontroller.ui.web.StaticWebRoutable
2014-06-05 16:26:35,239 DEBUG [main] n.f.c.m.FloodlightModuleLoader [FloodlightModuleLoader.java:453] Starting net.onrc.onos.datagrid.HazelcastDatagrid
2014-06-05 16:26:36,164 INFO [main] c.h.i.DefaultAddressPicker [Slf4jFactory.java:47] Prefer IPv4 stack is true.
2014-06-05 16:26:36,206 DEBUG [main] c.h.i.DefaultAddressPicker [Slf4jFactory.java:41] inet reuseAddress:true
2014-06-05 16:26:36,208 DEBUG [main] c.h.i.DefaultAddressPicker [Slf4jFactory.java:41] Trying to bind inet socket address:0.0.0.0/0.0.0.0:5701
2014-06-05 16:26:36,209 DEBUG [main] c.h.i.DefaultAddressPicker [Slf4jFactory.java:41] Bind successful to inet socket address:0.0.0.0/0.0.0.0:5701
2014-06-05 16:26:36,222 INFO [main] c.h.i.DefaultAddressPicker [Slf4jFactory.java:47] Picked Address[192.168.56.12]:5701, using socket ServerSocket[addr=/0.0.0.0,localport=5701], bind any local is true
2014-06-05 16:26:36,223 DEBUG [main] c.h.i.DefaultAddressPicker [Slf4jFactory.java:41] Using public address the same as the bind address. Address[192.168.56.12]:5701
2014-06-05 16:26:36,653 DEBUG [main] c.h.c.ClusterService [Slf4jFactory.java:81] [192.168.56.12]:5701 [dev] Updating members -> [Member [192.168.56.12]:5701 this]
2014-06-05 16:26:36,717 INFO [main] c.h.system [Slf4jFactory.java:83] [192.168.56.12]:5701 [dev] Hazelcast Community Edition 3.0.2 (20130906) starting at Address[192.168.56.12]:5701
2014-06-05 16:26:36,717 INFO [main] c.h.system [Slf4jFactory.java:83] [192.168.56.12]:5701 [dev] Copyright (C) 2008-2013 Hazelcast.com
2014-06-05 16:26:36,742 INFO [main] c.h.i.Node [Slf4jFactory.java:83] [192.168.56.12]:5701 [dev] Creating MulticastJoiner
2014-06-05 16:26:36,761 INFO [main] c.h.c.LifecycleService [Slf4jFactory.java:83] [192.168.56.12]:5701 [dev] Address[192.168.56.12]:5701 is STARTING
2014-06-05 16:26:36,762 DEBUG [main] c.h.i.Node [Slf4jFactory.java:81] [192.168.56.12]:5701 [dev] We are asked to start and completelyShutdown is false
2014-06-05 16:26:36,763 DEBUG [main] c.h.s.i.ServiceManager [Slf4jFactory.java:81] [192.168.56.12]:5701 [dev] Registering core services...
2014-06-05 16:26:36,763 DEBUG [main] c.h.s.i.ServiceManager [Slf4jFactory.java:81] [192.168.56.12]:5701 [dev] Registering service: 'hz:core:clusterService'
2014-06-05 16:26:36,765 DEBUG [main] c.h.s.i.ServiceManager [Slf4jFactory.java:81] [192.168.56.12]:5701 [dev] Registering service: 'hz:core:partitionService'
2014-06-05 16:26:36,766 DEBUG [main] c.h.s.i.ServiceManager [Slf4jFactory.java:81] [192.168.56.12]:5701 [dev] Registering service: 'hz:core:proxyService'
2014-06-05 16:26:36,768 DEBUG [main] c.h.s.i.ServiceManager [Slf4jFactory.java:81] [192.168.56.12]:5701 [dev] Registering service: 'hz:core:txManagerService'
2014-06-05 16:26:36,768 DEBUG [main] c.h.s.i.ServiceManager [Slf4jFactory.java:81] [192.168.56.12]:5701 [dev] Registering service: 'hz:core:clientEngine'
2014-06-05 16:26:36,769 DEBUG [main] c.h.s.i.ServiceManager [Slf4jFactory.java:81] [192.168.56.12]:5701 [dev] Registering default services...
2014-06-05 16:26:36,818 DEBUG [main] c.h.s.i.ServiceManager [Slf4jFactory.java:81] [192.168.56.12]:5701 [dev] Registering service: 'hz:impl:mapService'
2014-06-05 16:26:36,848 DEBUG [main] c.h.s.i.ServiceManager [Slf4jFactory.java:81] [192.168.56.12]:5701 [dev] Registering service: 'hz:impl:lockService'
2014-06-05 16:26:36,869 DEBUG [main] c.h.s.i.ServiceManager [Slf4jFactory.java:81] [192.168.56.12]:5701 [dev] Registering service: 'hz:impl:queueService'
2014-06-05 16:26:36,888 DEBUG [main] c.h.s.i.ServiceManager [Slf4jFactory.java:81] [192.168.56.12]:5701 [dev] Registering service: 'hz:impl:topicService'
2014-06-05 16:26:36,903 DEBUG [main] c.h.s.i.ServiceManager [Slf4jFactory.java:81] [192.168.56.12]:5701 [dev] Registering service: 'hz:impl:collectionService'
2014-06-05 16:26:36,909 DEBUG [main] c.h.s.i.ServiceManager [Slf4jFactory.java:81] [192.168.56.12]:5701 [dev] Registering service: 'hz:impl:executorService'
2014-06-05 16:26:36,925 DEBUG [main] c.h.s.i.ServiceManager [Slf4jFactory.java:81] [192.168.56.12]:5701 [dev] Registering service: 'hz:impl:atomicLongService'
2014-06-05 16:26:36,936 DEBUG [main] c.h.s.i.ServiceManager [Slf4jFactory.java:81] [192.168.56.12]:5701 [dev] Registering service: 'hz:impl:countDownLatchService'
2014-06-05 16:26:36,948 DEBUG [main] c.h.s.i.ServiceManager [Slf4jFactory.java:81] [192.168.56.12]:5701 [dev] Registering service: 'hz:impl:semaphoreService'
2014-06-05 16:26:36,954 DEBUG [main] c.h.s.i.ServiceManager [Slf4jFactory.java:81] [192.168.56.12]:5701 [dev] Registering service: 'hz:impl:idGeneratorService'
2014-06-05 16:26:36,957 DEBUG [main] c.h.s.i.ServiceManager [Slf4jFactory.java:81] [192.168.56.12]:5701 [dev] Initializing service -> PartitionManager[0] {

migrationQ: 0
}
2014-06-05 16:26:36,968 DEBUG [main] c.h.s.i.ServiceManager [Slf4jFactory.java:81] [192.168.56.12]:5701 [dev] Initializing service -> ClusterService{address=Address[192.168.56.12]:5701}
2014-06-05 16:26:36,985 DEBUG [main] c.h.s.i.ServiceManager [Slf4jFactory.java:81] [192.168.56.12]:5701 [dev] Initializing service -> com.hazelcast.concurrent.atomiclong.AtomicLongService@733dc4f2
2014-06-05 16:26:36,986 DEBUG [main] c.h.s.i.ServiceManager [Slf4jFactory.java:81] [192.168.56.12]:5701 [dev] Initializing service -> com.hazelcast.concurrent.countdownlatch.CountDownLatchService@5c4d26f9
2014-06-05 16:26:36,988 DEBUG [main] c.h.s.i.ServiceManager [Slf4jFactory.java:81] [192.168.56.12]:5701 [dev] Initializing service -> com.hazelcast.transaction.impl.TransactionManagerServiceImpl@4d39d4c6
2014-06-05 16:26:36,988 DEBUG [main] c.h.s.i.ServiceManager [Slf4jFactory.java:81] [192.168.56.12]:5701 [dev] Initializing service -> com.hazelcast.concurrent.semaphore.SemaphoreService@fc03ac6
2014-06-05 16:26:36,992 DEBUG [main] c.h.s.i.ServiceManager [Slf4jFactory.java:81] [192.168.56.12]:5701 [dev] Initializing service -> com.hazelcast.collection.CollectionService@1552a53e
2014-06-05 16:26:36,999 DEBUG [main] c.h.s.i.ServiceManager [Slf4jFactory.java:81] [192.168.56.12]:5701 [dev] Initializing service -> com.hazelcast.map.MapService@fa3bcaa
2014-06-05 16:26:37,009 DEBUG [main] c.h.s.i.ServiceManager [Slf4jFactory.java:81] [192.168.56.12]:5701 [dev] Initializing service -> com.hazelcast.client.ClientEngineImpl@9c3b915
2014-06-05 16:26:37,010 DEBUG [main] c.h.s.i.ServiceManager [Slf4jFactory.java:81] [192.168.56.12]:5701 [dev] Initializing service -> com.hazelcast.topic.TopicService@1206cda0
2014-06-05 16:26:37,012 DEBUG [main] c.h.s.i.ServiceManager [Slf4jFactory.java:81] [192.168.56.12]:5701 [dev] Initializing service -> com.hazelcast.concurrent.idgen.IdGeneratorService@7ca5cc9e
2014-06-05 16:26:37,013 DEBUG [main] c.h.s.i.ServiceManager [Slf4jFactory.java:81] [192.168.56.12]:5701 [dev] Initializing service -> com.hazelcast.queue.QueueService@691cd900
2014-06-05 16:26:37,017 DEBUG [main] c.h.s.i.ServiceManager [Slf4jFactory.java:81] [192.168.56.12]:5701 [dev] Initializing service -> com.hazelcast.executor.DistributedExecutorService@64eac4e9
2014-06-05 16:26:37,018 DEBUG [main] c.h.s.i.ServiceManager [Slf4jFactory.java:81] [192.168.56.12]:5701 [dev] Initializing service -> com.hazelcast.concurrent.lock.LockServiceImpl@7125d0c1
2014-06-05 16:26:37,029 DEBUG [main] c.h.n.TcpIpConnectionManager [Slf4jFactory.java:81] [192.168.56.12]:5701 [dev] Starting ConnectionManager and IO selectors.
2014-06-05 16:26:37,069 DEBUG [main] c.h.i.Node [Slf4jFactory.java:81] [192.168.56.12]:5701 [dev] Adding ShutdownHook
2014-06-05 16:26:37,071 DEBUG [main] c.h.i.Node [Slf4jFactory.java:81] [192.168.56.12]:5701 [dev] finished starting threads, calling join
2014-06-05 16:26:37,071 DEBUG [hz._hzInstance_1_dev.IO.thread-Acceptor] c.h.n.SocketAcceptor [Slf4jFactory.java:81] [192.168.56.12]:5701 [dev] Starting SocketAcceptor on sun.nio.ch.ServerSocketChannelImpl[/0.0.0.0:5701]
2014-06-05 16:26:40,294 DEBUG [main] c.h.c.MulticastJoiner [Slf4jFactory.java:81] [192.168.56.12]:5701 [dev] Joining to master node: null
2014-06-05 16:26:40,294 DEBUG [main] c.h.i.Node [Slf4jFactory.java:81] [192.168.56.12]:5701 [dev] This node is being set as the master
2014-06-05 16:26:40,295 INFO [main] c.h.c.MulticastJoiner [Slf4jFactory.java:83] [192.168.56.12]:5701 [dev] 


Members [1] {
	Member [192.168.56.12]:5701 this
}

2014-06-05 16:26:40,319 DEBUG [main] c.h.i.Node [Slf4jFactory.java:81] [192.168.56.12]:5701 [dev] Starting health monitor
2014-06-05 16:26:40,330 INFO [main] c.h.c.LifecycleService [Slf4jFactory.java:83] [192.168.56.12]:5701 [dev] Address[192.168.56.12]:5701 is STARTED
2014-06-05 16:26:40,373 DEBUG [main] n.f.c.m.FloodlightModuleLoader [FloodlightModuleLoader.java:453] Starting net.onrc.onos.ofcontroller.flowprogrammer.FlowProgrammer
2014-06-05 16:26:40,381 DEBUG [main] n.f.c.m.FloodlightModuleLoader [FloodlightModuleLoader.java:453] Starting net.onrc.onos.registry.controller.ZookeeperRegistry
2014-06-05 16:26:40,405 DEBUG [pool-8-thread-1] n.o.o.r.c.ZookeeperRegistry [ZookeeperRegistry.java:179] Cluster leadership changed, now true
2014-06-05 16:26:40,411 DEBUG [main] n.f.c.m.FloodlightModuleLoader [FloodlightModuleLoader.java:453] Starting net.onrc.onos.ofcontroller.linkdiscovery.internal.LinkDiscoveryManager
2014-06-05 16:26:40,432 INFO [main] n.o.o.o.l.i.LinkDiscoveryManager [LinkDiscoveryManager.java:731] IIIII read controller id: 443175442348285297
2014-06-05 16:26:40,434 DEBUG [main] n.f.c.m.FloodlightModuleLoader [FloodlightModuleLoader.java:453] Starting net.onrc.onos.ofcontroller.floodlightlistener.NetworkGraphPublisher
2014-06-05 16:26:40,434 DEBUG [main] n.o.o.o.f.NetworkGraphPublisher [NetworkGraphPublisher.java:483] Adding EventListener
2014-06-05 16:26:40,439 DEBUG [main] n.o.o.g.GraphDBConnection [GraphDBConnection.java:139] Registered listener class net.onrc.onos.graph.LocalTopologyEventListener
2014-06-05 16:26:40,443 DEBUG [main] n.f.c.m.FloodlightModuleLoader [FloodlightModuleLoader.java:453] Starting net.onrc.onos.ofcontroller.flowmanager.FlowManager
2014-06-05 16:26:41,341 DEBUG [main] n.f.c.m.FloodlightModuleLoader [FloodlightModuleLoader.java:453] Starting net.onrc.onos.ofcontroller.topology.TopologyManager
2014-06-05 16:26:41,344 INFO [FlowEventHandler 48] c.h.p.PartitionService [Slf4jFactory.java:83] [192.168.56.12]:5701 [dev] Initializing cluster partition table first arrangement...
2014-06-05 16:26:41,350 DEBUG [main] n.f.c.m.FloodlightModuleLoader [FloodlightModuleLoader.java:453] Starting net.floodlightcontroller.topology.TopologyManager
2014-06-05 16:26:41,385 DEBUG [main] n.f.c.m.FloodlightModuleLoader [FloodlightModuleLoader.java:453] Starting net.onrc.onos.ofcontroller.proxyarp.ProxyArpManager
2014-06-05 16:26:41,385 INFO [main] n.o.o.o.p.ProxyArpManager [ProxyArpManager.java:184] vlan set to 0
2014-06-05 16:26:41,405 DEBUG [main] n.f.c.m.FloodlightModuleLoader [FloodlightModuleLoader.java:453] Starting net.onrc.onos.ofcontroller.devicemanager.OnosDeviceManager
2014-06-05 16:26:41,406 DEBUG [main] n.f.c.m.FloodlightModuleLoader [FloodlightModuleLoader.java:453] Starting net.onrc.onos.ofcontroller.forwarding.Forwarding
2014-06-05 16:26:41,407 DEBUG [main] n.f.r.RestApiServer [RestApiServer.java:137] REST API routables: CoreWebRoutable (/wm/floodlight/core), OnosInternalWebRoutable (/wm/onos/internal), StaticWebRoutable (/wm/floodlight/ui/), DatagridWebRoutable (/wm/onos/datagrid), FlowProgrammerWebRoutable (/wm/onos/flowprogrammer), RegistryWebRoutable (/wm/onos/registry), LinkDiscoveryWebRoutable (/wm/onos/linkdiscovery), FlowWebRoutable (/wm/onos/flows), OnosTopologyWebRoutable (/wm/onos/topology), TopologyWebRoutable (/wm/floodlight/topology), ArpWebRoutable (/wm/arp), 
2014-06-05 16:26:42,022 DEBUG [main] n.f.c.i.Controller [Controller.java:1490] OFListeners for PACKET_IN: linkdiscovery,onosdevicemanager,proxyarpmanager,onosforwarding,topology,
2014-06-05 16:26:42,023 DEBUG [main] n.f.c.i.Controller [Controller.java:1490] OFListeners for FLOW_REMOVED: FlowProgrammer,
2014-06-05 16:26:42,023 DEBUG [main] n.f.c.i.Controller [Controller.java:1490] OFListeners for PORT_STATUS: linkdiscovery,
2014-06-05 16:26:42,023 DEBUG [main] n.f.c.i.Controller [Controller.java:1490] OFListeners for BARRIER_REPLY: flowpusher,
2014-06-05 16:26:42,303 INFO [main] n.f.c.i.Controller [Controller.java:1724] Listening for switch connections on 0.0.0.0/0.0.0.0:6633
2014-06-05 16:26:55,431 DEBUG [pool-2-thread-15] n.o.o.o.l.i.LinkDiscoveryManager [LinkDiscoveryManager.java:350] Sending LLDP out on all ports.
2014-06-05 16:27:10,441 DEBUG [pool-2-thread-12] n.o.o.o.l.i.LinkDiscoveryManager [LinkDiscoveryManager.java:350] Sending LLDP out on all ports.
2014-06-05 16:27:25,449 DEBUG [pool-2-thread-15] n.o.o.o.l.i.LinkDiscoveryManager [LinkDiscoveryManager.java:350] Sending LLDP out on all ports.
2014-06-05 16:27:28,812 DEBUG [hz.ShutdownThread] c.h.i.Node [Slf4jFactory.java:81] [192.168.56.12]:5701 [dev] ** we are being asked to shutdown when active = true
2014-06-05 16:27:28,812 DEBUG [hz.ShutdownThread] c.h.i.Node [Slf4jFactory.java:81] [192.168.56.12]:5701 [dev] Shutting down client command service
2014-06-05 16:27:28,813 DEBUG [hz.ShutdownThread] c.h.i.Node [Slf4jFactory.java:81] [192.168.56.12]:5701 [dev] Shutting down node engine
2014-06-05 16:27:28,813 DEBUG [hz.ShutdownThread] c.h.s.NodeEngine [Slf4jFactory.java:81] [192.168.56.12]:5701 [dev] Shutting down services...
2014-06-05 16:27:28,814 DEBUG [hz.ShutdownThread] c.h.s.WaitNotifyService [Slf4jFactory.java:81] [192.168.56.12]:5701 [dev] Stopping tasks...
2014-06-05 16:27:28,816 DEBUG [hz.ShutdownThread] c.h.s.i.ServiceManager [Slf4jFactory.java:81] [192.168.56.12]:5701 [dev] Stopping services...
2014-06-05 16:27:28,816 DEBUG [hz.ShutdownThread] c.h.s.i.ServiceManager [Slf4jFactory.java:81] [192.168.56.12]:5701 [dev] Shutting down service -> com.hazelcast.concurrent.lock.LockServiceImpl@7125d0c1
2014-06-05 16:27:28,824 DEBUG [hz.ShutdownThread] c.h.s.i.ServiceManager [Slf4jFactory.java:81] [192.168.56.12]:5701 [dev] Shutting down service -> com.hazelcast.executor.DistributedExecutorService@64eac4e9
2014-06-05 16:27:28,824 DEBUG [hz.ShutdownThread] c.h.s.i.ServiceManager [Slf4jFactory.java:81] [192.168.56.12]:5701 [dev] Shutting down service -> com.hazelcast.queue.QueueService@691cd900
2014-06-05 16:27:28,827 DEBUG [hz.ShutdownThread] c.h.s.i.ServiceManager [Slf4jFactory.java:81] [192.168.56.12]:5701 [dev] Shutting down service -> com.hazelcast.concurrent.idgen.IdGeneratorService@7ca5cc9e
2014-06-05 16:27:28,831 DEBUG [hz.ShutdownThread] c.h.s.i.ServiceManager [Slf4jFactory.java:81] [192.168.56.12]:5701 [dev] Shutting down service -> com.hazelcast.topic.TopicService@1206cda0
2014-06-05 16:27:28,832 DEBUG [hz.ShutdownThread] c.h.s.i.ServiceManager [Slf4jFactory.java:81] [192.168.56.12]:5701 [dev] Shutting down service -> com.hazelcast.map.MapService@fa3bcaa
2014-06-05 16:27:28,840 DEBUG [hz.ShutdownThread] c.h.s.i.ServiceManager [Slf4jFactory.java:81] [192.168.56.12]:5701 [dev] Shutting down service -> com.hazelcast.collection.CollectionService@1552a53e
2014-06-05 16:27:28,849 DEBUG [hz.ShutdownThread] c.h.s.i.ServiceManager [Slf4jFactory.java:81] [192.168.56.12]:5701 [dev] Shutting down service -> com.hazelcast.concurrent.semaphore.SemaphoreService@fc03ac6
2014-06-05 16:27:28,853 DEBUG [hz.ShutdownThread] c.h.s.i.ServiceManager [Slf4jFactory.java:81] [192.168.56.12]:5701 [dev] Shutting down service -> com.hazelcast.transaction.impl.TransactionManagerServiceImpl@4d39d4c6
2014-06-05 16:27:28,857 DEBUG [hz.ShutdownThread] c.h.s.i.ServiceManager [Slf4jFactory.java:81] [192.168.56.12]:5701 [dev] Shutting down service -> com.hazelcast.concurrent.countdownlatch.CountDownLatchService@5c4d26f9
2014-06-05 16:27:28,857 DEBUG [hz.ShutdownThread] c.h.s.i.ServiceManager [Slf4jFactory.java:81] [192.168.56.12]:5701 [dev] Shutting down service -> com.hazelcast.concurrent.atomiclong.AtomicLongService@733dc4f2
2014-06-05 16:27:28,858 DEBUG [hz.ShutdownThread] c.h.s.i.ServiceManager [Slf4jFactory.java:81] [192.168.56.12]:5701 [dev] Shutting down service -> PartitionManager[271] {

migrationQ: 0
}
2014-06-05 16:27:28,858 DEBUG [hz.ShutdownThread] c.h.p.PartitionService [Slf4jFactory.java:81] [192.168.56.12]:5701 [dev] Shutting down the partition service
2014-06-05 16:27:28,858 DEBUG [hz._hzInstance_1_dev.migration] c.h.p.PartitionService [Slf4jFactory.java:81] [192.168.56.12]:5701 [dev] MigrationThread is interrupted: null
2014-06-05 16:27:28,860 DEBUG [hz.ShutdownThread] c.h.s.i.ServiceManager [Slf4jFactory.java:81] [192.168.56.12]:5701 [dev] Shutting down service -> ClusterService{address=Address[192.168.56.12]:5701}
2014-06-05 16:27:28,861 DEBUG [hz.ShutdownThread] c.h.s.i.ServiceManager [Slf4jFactory.java:81] [192.168.56.12]:5701 [dev] Shutting down service -> com.hazelcast.client.ClientEngineImpl@9c3b915
2014-06-05 16:27:28,864 DEBUG [hz.ShutdownThread] c.h.s.ExecutionService [Slf4jFactory.java:81] [192.168.56.12]:5701 [dev] Stopping executors...
2014-06-05 16:27:28,866 DEBUG [hz.ShutdownThread] c.h.s.EventService [Slf4jFactory.java:81] [192.168.56.12]:5701 [dev] Stopping event executor...
2014-06-05 16:27:28,867 DEBUG [hz.ShutdownThread] c.h.s.OperationService [Slf4jFactory.java:81] [192.168.56.12]:5701 [dev] Stopping operation threads...
2014-06-05 16:27:28,869 DEBUG [hz.ShutdownThread] c.h.i.Node [Slf4jFactory.java:81] [192.168.56.12]:5701 [dev] Shutting down multicast service
2014-06-05 16:27:28,874 DEBUG [hz.ShutdownThread] c.h.i.Node [Slf4jFactory.java:81] [192.168.56.12]:5701 [dev] Shutting down connection manager
2014-06-05 16:27:28,875 DEBUG [hz.ShutdownThread] c.h.n.TcpIpConnectionManager [Slf4jFactory.java:81] [192.168.56.12]:5701 [dev] Stopping ConnectionManager
2014-06-05 16:27:28,875 DEBUG [hz.ShutdownThread] c.h.n.TcpIpConnectionManager [Slf4jFactory.java:81] [192.168.56.12]:5701 [dev] Shutting down SocketAcceptor thread.
2014-06-05 16:27:28,877 DEBUG [hz._hzInstance_1_dev.IO.thread-Acceptor] c.h.n.SocketAcceptor [Slf4jFactory.java:81] [192.168.56.12]:5701 [dev] Closing selector hz._hzInstance_1_dev.IO.thread-Acceptor
2014-06-05 16:27:28,881 DEBUG [hz.ShutdownThread] c.h.n.TcpIpConnectionManager [Slf4jFactory.java:81] [192.168.56.12]:5701 [dev] Shutting down IO selectors... Total: 3
2014-06-05 16:27:28,883 DEBUG [hz._hzInstance_1_dev.IO.thread-in-0] c.h.n.InSelectorImpl [Slf4jFactory.java:81] [192.168.56.12]:5701 [dev] hz._hzInstance_1_dev.IO.thread-in-0 is interrupted!
2014-06-05 16:27:28,883 DEBUG [hz._hzInstance_1_dev.IO.thread-in-0] c.h.n.InSelectorImpl [Slf4jFactory.java:81] [192.168.56.12]:5701 [dev] Closing selector hz._hzInstance_1_dev.IO.thread-in-0
2014-06-05 16:27:28,884 DEBUG [hz._hzInstance_1_dev.IO.thread-out-0] c.h.n.OutSelectorImpl [Slf4jFactory.java:81] [192.168.56.12]:5701 [dev] hz._hzInstance_1_dev.IO.thread-out-0 is interrupted!
2014-06-05 16:27:28,885 DEBUG [hz._hzInstance_1_dev.IO.thread-out-0] c.h.n.OutSelectorImpl [Slf4jFactory.java:81] [192.168.56.12]:5701 [dev] Closing selector hz._hzInstance_1_dev.IO.thread-out-0
2014-06-05 16:27:28,885 DEBUG [hz._hzInstance_1_dev.IO.thread-out-1] c.h.n.OutSelectorImpl [Slf4jFactory.java:81] [192.168.56.12]:5701 [dev] hz._hzInstance_1_dev.IO.thread-out-1 is interrupted!
2014-06-05 16:27:28,886 DEBUG [hz._hzInstance_1_dev.IO.thread-out-1] c.h.n.OutSelectorImpl [Slf4jFactory.java:81] [192.168.56.12]:5701 [dev] Closing selector hz._hzInstance_1_dev.IO.thread-out-1
2014-06-05 16:27:28,884 DEBUG [hz._hzInstance_1_dev.IO.thread-in-1] c.h.n.InSelectorImpl [Slf4jFactory.java:81] [192.168.56.12]:5701 [dev] hz._hzInstance_1_dev.IO.thread-in-1 is interrupted!
2014-06-05 16:27:28,889 DEBUG [hz._hzInstance_1_dev.IO.thread-in-1] c.h.n.InSelectorImpl [Slf4jFactory.java:81] [192.168.56.12]:5701 [dev] Closing selector hz._hzInstance_1_dev.IO.thread-in-1
2014-06-05 16:27:28,885 DEBUG [hz.ShutdownThread] c.h.n.TcpIpConnectionManager [Slf4jFactory.java:81] [192.168.56.12]:5701 [dev] Closing server socket channel: sun.nio.ch.ServerSocketChannelImpl[/0.0.0.0:5701]
2014-06-05 16:27:28,885 DEBUG [hz._hzInstance_1_dev.IO.thread-out-2] c.h.n.OutSelectorImpl [Slf4jFactory.java:81] [192.168.56.12]:5701 [dev] hz._hzInstance_1_dev.IO.thread-out-2 is interrupted!
2014-06-05 16:27:28,896 DEBUG [hz._hzInstance_1_dev.IO.thread-out-2] c.h.n.OutSelectorImpl [Slf4jFactory.java:81] [192.168.56.12]:5701 [dev] Closing selector hz._hzInstance_1_dev.IO.thread-out-2
2014-06-05 16:27:28,885 DEBUG [hz._hzInstance_1_dev.IO.thread-in-2] c.h.n.InSelectorImpl [Slf4jFactory.java:81] [192.168.56.12]:5701 [dev] hz._hzInstance_1_dev.IO.thread-in-2 is interrupted!
2014-06-05 16:27:28,900 DEBUG [hz._hzInstance_1_dev.IO.thread-in-2] c.h.n.InSelectorImpl [Slf4jFactory.java:81] [192.168.56.12]:5701 [dev] Closing selector hz._hzInstance_1_dev.IO.thread-in-2
2014-06-05 16:27:28,895 INFO [hz.ShutdownThread] c.h.initializer [Slf4jFactory.java:83] [192.168.56.12]:5701 [dev] Destroying node initializer.
2014-06-05 16:27:28,904 DEBUG [hz.ShutdownThread] c.h.i.Node [Slf4jFactory.java:81] [192.168.56.12]:5701 [dev] Shutting down thread hz._hzInstance_1_dev.HealthMonitor
2014-06-05 16:27:28,905 INFO [hz.ShutdownThread] c.h.i.Node [Slf4jFactory.java:83] [192.168.56.12]:5701 [dev] Hazelcast Shutdown is completed in 93 ms.
