{"name": null, "timeout_disallowed": false, "fingerprint": ["ControllerStateChange", "%s going up...", "c1"], "controller_id": "c1", "value": ["('POX 0.0.0',)"], "timed_out": false, "dependent_labels": [], "time": [1371927139, 307361], "label": "i1", "class": "ControllerStateChange", "round": -1, "prunable": true}
{"name": null, "timeout_disallowed": false, "fingerprint": ["ControllerStateChange", "Running on %s", "c1"], "controller_id": "c1", "value": ["('CPython (2.7.3/Apr 12 2012 11:28:34)',)"], "timed_out": false, "dependent_labels": [], "time": [1371927139, 309055], "label": "i2", "class": "ControllerStateChange", "round": -1, "prunable": true}
{"name": null, "timeout_disallowed": false, "fingerprint": ["ControllerStateChange", "%s is up.", "c1"], "controller_id": "c1", "value": ["('POX 0.0.0',)"], "timed_out": false, "dependent_labels": [], "time": [1371927139, 310952], "label": "i3", "class": "ControllerStateChange", "round": -1, "prunable": true}
{"name": null, "timeout_disallowed": false, "fingerprint": ["ControllerStateChange", "Listening for connections on ('127.0.0.1', 6633)", "c1"], "controller_id": "c1", "value": ["()"], "timed_out": false, "dependent_labels": [], "time": [1371927139, 314169], "label": "i4", "class": "ControllerStateChange", "round": -1, "prunable": true}
{"fingerprint": ["ConnectToControllers"], "dependent_labels": [], "time": [1371927139, 316685], "timeout_disallowed": false, "prunable": true, "class": "ConnectToControllers", "timed_out": false, "round": -1, "label": "i5"}
{"timeout_disallowed": false, "time": [1371927139, 319052], "controller_id": "c1", "fingerprint": ["ControlMessageReceive", {"class": "ofp_hello"}, 1, ["c", "1"]], "timed_out": false, "dependent_labels": [], "dpid": 1, "label": "i6", "class": "ControlMessageReceive", "round": -1, "prunable": true}
{"timeout_disallowed": false, "time": [1371927139, 319601], "controller_id": "c1", "fingerprint": ["ControlMessageSend", {"class": "ofp_hello"}, 1, ["c", "1"]], "timed_out": false, "dependent_labels": [], "dpid": 1, "label": "i7", "class": "ControlMessageSend", "round": -1, "prunable": true}
{"timeout_disallowed": false, "time": [1371927139, 359573], "controller_id": "c1", "fingerprint": ["ControlMessageReceive", {"class": "ofp_hello"}, 2, ["c", "1"]], "timed_out": false, "dependent_labels": [], "dpid": 2, "label": "i8", "class": "ControlMessageReceive", "round": -1, "prunable": true}
{"timeout_disallowed": false, "time": [1371927139, 360118], "controller_id": "c1", "fingerprint": ["ControlMessageReceive", {"class": "ofp_features_request"}, 1, ["c", "1"]], "timed_out": false, "dependent_labels": [], "dpid": 1, "label": "i9", "class": "ControlMessageReceive", "round": -1, "prunable": true}
{"timeout_disallowed": false, "time": [1371927139, 360531], "controller_id": "c1", "fingerprint": ["ControlMessageSend", {"class": "ofp_hello"}, 2, ["c", "1"]], "timed_out": false, "dependent_labels": [], "dpid": 2, "label": "i10", "class": "ControlMessageSend", "round": -1, "prunable": true}
{"timeout_disallowed": false, "time": [1371927139, 360992], "controller_id": "c1", "fingerprint": ["ControlMessageSend", {"datapath_id": 1, "class": "ofp_features_reply"}, 1, ["c", "1"]], "timed_out": false, "dependent_labels": [], "dpid": 1, "label": "i11", "class": "ControlMessageSend", "round": -1, "prunable": true}
{"timeout_disallowed": false, "time": [1371927139, 362169], "controller_id": "c1", "fingerprint": ["ControlMessageReceive", {"class": "ofp_features_request"}, 2, ["c", "1"]], "timed_out": false, "dependent_labels": [], "dpid": 2, "label": "i12", "class": "ControlMessageReceive", "round": -1, "prunable": true}
{"timeout_disallowed": false, "time": [1371927139, 364720], "controller_id": "c1", "fingerprint": ["ControlMessageReceive", {"class": "ofp_set_config"}, 1, ["c", "1"]], "timed_out": false, "dependent_labels": [], "dpid": 1, "label": "i13", "class": "ControlMessageReceive", "round": -1, "prunable": true}
{"timeout_disallowed": false, "time": [1371927139, 404205], "controller_id": "c1", "fingerprint": ["ControlMessageReceive", {"class": "ofp_barrier_request"}, 1, ["c", "1"]], "timed_out": false, "dependent_labels": [], "dpid": 1, "label": "i14", "class": "ControlMessageReceive", "round": -1, "prunable": true}
{"timeout_disallowed": false, "time": [1371927139, 404933], "controller_id": "c1", "fingerprint": ["ControlMessageReceive", {"hard_timeout": 0, "actions": [], "priority": 32768, "idle_timeout": 0, "command": "delete", "out_port": 65535, "flags": 0, "class": "ofp_flow_mod", "match": "x^L"}, 1, ["c", "1"]], "timed_out": false, "dependent_labels": [], "dpid": 1, "label": "i15", "class": "ControlMessageReceive", "round": -1, "prunable": true}
{"timeout_disallowed": false, "time": [1371927139, 405797], "controller_id": "c1", "fingerprint": ["ControlMessageSend", {"datapath_id": 2, "class": "ofp_features_reply"}, 2, ["c", "1"]], "timed_out": false, "dependent_labels": [], "dpid": 2, "label": "i16", "class": "ControlMessageSend", "round": -1, "prunable": true}
{"timeout_disallowed": false, "time": [1371927139, 406292], "controller_id": "c1", "fingerprint": ["ControlMessageSend", {"class": "ofp_barrier_reply"}, 1, ["c", "1"]], "timed_out": false, "dependent_labels": [], "dpid": 1, "label": "i17", "class": "ControlMessageSend", "round": -1, "prunable": true}
{"name": null, "timeout_disallowed": false, "fingerprint": ["ControllerStateChange", "of_01 %s Connected to %s", "c1"], "controller_id": "c1", "value": ["('[Con 1/1]', '00-00-00-00-00-01')"], "timed_out": false, "dependent_labels": [], "time": [1371927139, 411396], "label": "i18", "class": "ControllerStateChange", "round": -1, "prunable": true}
{"name": null, "timeout_disallowed": false, "fingerprint": ["ControllerStateChange", "Connect %s", "c1"], "controller_id": "c1", "value": ["(<pox.openflow.of_01.Connection object at 0x10afe50>,)"], "timed_out": false, "dependent_labels": [], "time": [1371927139, 413989], "label": "i19", "class": "ControllerStateChange", "round": -1, "prunable": true}
{"name": null, "timeout_disallowed": false, "fingerprint": ["ControllerStateChange", "Installing flow for %s", "c1"], "controller_id": "c1", "value": ["('00-00-00-00-00-01',)"], "timed_out": false, "dependent_labels": [], "time": [1371927139, 416227], "label": "i20", "class": "ControllerStateChange", "round": -1, "prunable": true}
{"timeout_disallowed": false, "time": [1371927139, 448369], "controller_id": "c1", "fingerprint": ["ControlMessageReceive", {"hard_timeout": 0, "actions": ["output(65533)"], "priority": 32768, "idle_timeout": 0, "command": "add", "out_port": 65535, "flags": 0, "class": "ofp_flow_mod", "match": "dl_dst:01:23:20:00:00:01,dl_type:35020"}, 1, ["c", "1"]], "timed_out": false, "dependent_labels": [], "dpid": 1, "label": "i21", "class": "ControlMessageReceive", "round": -1, "prunable": true}
{"timeout_disallowed": false, "time": [1371927139, 449301], "controller_id": "c1", "fingerprint": ["ControlMessageReceive", {"hard_timeout": 0, "actions": [], "priority": 32768, "idle_timeout": 0, "command": "delete", "out_port": 65535, "flags": 0, "class": "ofp_flow_mod", "match": "x^L"}, 2, ["c", "1"]], "timed_out": false, "dependent_labels": [], "dpid": 2, "label": "i22", "class": "ControlMessageReceive", "round": -1, "prunable": true}
{"timeout_disallowed": false, "time": [1371927139, 450035], "controller_id": "c1", "fingerprint": ["ControlMessageReceive", {"class": "ofp_set_config"}, 2, ["c", "1"]], "timed_out": false, "dependent_labels": [], "dpid": 2, "label": "i23", "class": "ControlMessageReceive", "round": -1, "prunable": true}
{"timeout_disallowed": false, "time": [1371927139, 450487], "controller_id": "c1", "fingerprint": ["ControlMessageReceive", {"class": "ofp_barrier_request"}, 2, ["c", "1"]], "timed_out": false, "dependent_labels": [], "dpid": 2, "label": "i24", "class": "ControlMessageReceive", "round": -1, "prunable": true}
{"timeout_disallowed": false, "time": [1371927139, 450872], "controller_id": "c1", "fingerprint": ["ControlMessageSend", {"class": "ofp_barrier_reply"}, 2, ["c", "1"]], "timed_out": false, "dependent_labels": [], "dpid": 2, "label": "i25", "class": "ControlMessageSend", "round": -1, "prunable": true}
{"name": null, "timeout_disallowed": false, "fingerprint": ["ControllerStateChange", "of_01 %s Connected to %s", "c1"], "controller_id": "c1", "value": ["('[Con 2/2]', '00-00-00-00-00-02')"], "timed_out": false, "dependent_labels": [], "time": [1371927139, 453115], "label": "i26", "class": "ControllerStateChange", "round": -1, "prunable": true}
{"name": null, "timeout_disallowed": false, "fingerprint": ["ControllerStateChange", "Connect %s", "c1"], "controller_id": "c1", "value": ["(<pox.openflow.of_01.Connection object at 0x10afe90>,)"], "timed_out": false, "dependent_labels": [], "time": [1371927139, 455301], "label": "i27", "class": "ControllerStateChange", "round": -1, "prunable": true}
{"name": null, "timeout_disallowed": false, "fingerprint": ["ControllerStateChange", "Installing flow for %s", "c1"], "controller_id": "c1", "value": ["('00-00-00-00-00-02',)"], "timed_out": false, "dependent_labels": [], "time": [1371927139, 456916], "label": "i28", "class": "ControllerStateChange", "round": -1, "prunable": true}
{"timeout_disallowed": false, "time": [1371927139, 457313], "controller_id": "c1", "fingerprint": ["ControlMessageReceive", {"hard_timeout": 0, "actions": ["output(65533)"], "priority": 32768, "idle_timeout": 0, "command": "add", "out_port": 65535, "flags": 0, "class": "ofp_flow_mod", "match": "dl_dst:01:23:20:00:00:01,dl_type:35020"}, 2, ["c", "1"]], "timed_out": false, "dependent_labels": [], "dpid": 2, "label": "i29", "class": "ControlMessageReceive", "round": -1, "prunable": true}
{"dependent_labels": [], "class": "TrafficInjection", "fingerprint": ["TrafficInjection", {"interface": {"hw_addr": "12:34:56:78:02:02", "ips": ["123.123.2.2"], "name": "eth2"}, "packet": "////////EjRWeAICCAYAAQgABgQAARI0VngCAnt7AgIAAAAAAAB7ewEC"}], "timed_out": false, "label": "e30", "dp_event": {"interface": {"hw_addr": "12:34:56:78:02:02", "ips": ["123.123.2.2"], "name": "eth2"}, "packet": "////////EjRWeAICCAYAAQgABgQAARI0VngCAnt7AgIAAAAAAAB7ewEC"}, "time": [1371927139, 458143], "host_id": null, "round": -1, "prunable": true}
{"timeout_disallowed": false, "fingerprint": ["DataplanePermit", {"class": "arp"}, "host:[IPAddr('123.123.2.2')]", "12:34:56:78:02:02"], "timed_out": false, "label": "i31", "passive": false, "dependent_labels": [], "time": [1371927139, 458885], "class": "DataplanePermit", "round": -1, "prunable": true}
{"timeout_disallowed": false, "time": [1371927139, 459220], "controller_id": "c1", "fingerprint": ["ControlMessageSend", {"data": {"class": "arp"}, "class": "ofp_packet_in", "in_port": 2}, 2, ["c", "1"]], "timed_out": false, "dependent_labels": [], "dpid": 2, "label": "i32", "class": "ControlMessageSend", "round": -1, "prunable": true}
{"name": null, "timeout_disallowed": false, "fingerprint": ["ControllerStateChange", "Learned %s at %s.%i", "c1"], "controller_id": "c1", "value": ["(EthAddr('12:34:56:78:02:02'), 00-00-00-00-00-02, 2)"], "timed_out": false, "dependent_labels": [], "time": [1371927139, 464982], "label": "i33", "class": "ControllerStateChange", "round": -1, "prunable": true}
{"name": null, "timeout_disallowed": false, "fingerprint": ["ControllerStateChange", "Flood multicast from %s", "c1"], "controller_id": "c1", "value": ["(EthAddr('12:34:56:78:02:02'),)"], "timed_out": false, "dependent_labels": [], "time": [1371927139, 466627], "label": "i34", "class": "ControllerStateChange", "round": -1, "prunable": true}
{"timeout_disallowed": false, "time": [1371927139, 467222], "controller_id": "c1", "fingerprint": ["ControlMessageReceive", {"in_port": 2, "data": [], "class": "ofp_packet_out", "actions": ["output(65531)"]}, 2, ["c", "1"]], "timed_out": false, "dependent_labels": [], "dpid": 2, "label": "i35", "class": "ControlMessageReceive", "round": -1, "prunable": true}
{"timeout_disallowed": false, "fingerprint": ["DataplanePermit", {"class": "arp"}, 2, 1], "timed_out": false, "label": "i36", "passive": false, "dependent_labels": [], "time": [1371927139, 468124], "class": "DataplanePermit", "round": -1, "prunable": true}
{"timeout_disallowed": false, "time": [1371927139, 468583], "controller_id": "c1", "fingerprint": ["ControlMessageSend", {"data": {"class": "arp"}, "class": "ofp_packet_in", "in_port": 1}, 1, ["c", "1"]], "timed_out": false, "dependent_labels": [], "dpid": 1, "label": "i37", "class": "ControlMessageSend", "round": -1, "prunable": true}
{"name": null, "timeout_disallowed": false, "fingerprint": ["ControllerStateChange", "%s moved from %s.%i to %s.%i?", "c1"], "controller_id": "c1", "value": ["(EthAddr('12:34:56:78:02:02'), '00-00-00-00-00-02', 2, '00-00-00-00-00-01', 1)"], "timed_out": false, "dependent_labels": [], "time": [1371927139, 472555], "label": "i38", "class": "ControllerStateChange", "round": -1, "prunable": true}
{"name": null, "timeout_disallowed": false, "fingerprint": ["ControllerStateChange", "Learned %s at %s.%i", "c1"], "controller_id": "c1", "value": ["(EthAddr('12:34:56:78:02:02'), 00-00-00-00-00-01, 1)"], "timed_out": false, "dependent_labels": [], "time": [1371927139, 474054], "label": "i39", "class": "ControllerStateChange", "round": -1, "prunable": true}
{"name": null, "timeout_disallowed": false, "fingerprint": ["ControllerStateChange", "Flood multicast from %s", "c1"], "controller_id": "c1", "value": ["(EthAddr('12:34:56:78:02:02'),)"], "timed_out": false, "dependent_labels": [], "time": [1371927139, 475785], "label": "i40", "class": "ControllerStateChange", "round": -1, "prunable": true}
{"timeout_disallowed": false, "time": [1371927139, 476326], "controller_id": "c1", "fingerprint": ["ControlMessageReceive", {"in_port": 1, "data": [], "class": "ofp_packet_out", "actions": ["output(65531)"]}, 1, ["c", "1"]], "timed_out": false, "dependent_labels": [], "dpid": 1, "label": "i41", "class": "ControlMessageReceive", "round": -1, "prunable": true}
{"timeout_disallowed": false, "fingerprint": ["DataplanePermit", {"class": "arp"}, 1, 2], "timed_out": false, "label": "i42", "passive": false, "dependent_labels": [], "time": [1371927139, 477234], "class": "DataplanePermit", "round": -1, "prunable": true}
{"timeout_disallowed": false, "time": [1371927139, 512002], "controller_id": "c1", "fingerprint": ["ControlMessageReceive", {"in_port": 65535, "data": {"class": "lldp"}, "class": "ofp_packet_out", "actions": ["output(1)"]}, 1, ["c", "1"]], "timed_out": false, "dependent_labels": [], "dpid": 1, "label": "i43", "class": "ControlMessageReceive", "round": -1, "prunable": true}
{"class": "DataplaneDrop", "fingerprint": ["DataplaneDrop", {"class": "lldp"}, 1, 1], "timed_out": false, "label": "e44", "passive": false, "dependent_labels": [], "time": [1371927139, 512598], "round": -1, "prunable": true}
{"legacy_invariant_check": false, "class": "CheckInvariants", "fingerprint": "N/A", "timed_out": false, "label": "e45", "dependent_labels": [], "invariant_name": "check_for_loops_or_connectivity", "invariant_check_name": "check_for_loops_or_connectivity", "time": [1371927139, 514333], "invariant_check": null, "round": -1, "prunable": true}
{"dependent_labels": [], "class": "TrafficInjection", "fingerprint": ["TrafficInjection", {"interface": {"hw_addr": "12:34:56:78:01:02", "ips": ["123.123.1.2"], "name": "eth1"}, "packet": "EjRWeAICEjRWeAECCAYAAQgABgQAAhI0VngBAnt7AQISNFZ4AgJ7ewIC"}], "timed_out": false, "label": "e46", "dp_event": {"interface": {"hw_addr": "12:34:56:78:01:02", "ips": ["123.123.1.2"], "name": "eth1"}, "packet": "EjRWeAICEjRWeAECCAYAAQgABgQAAhI0VngBAnt7AQISNFZ4AgJ7ewIC"}, "time": [1371927139, 514984], "host_id": null, "round": -1, "prunable": true}
{"timeout_disallowed": false, "fingerprint": ["DataplanePermit", {"class": "arp"}, "host:[IPAddr('123.123.1.2')]", "12:34:56:78:01:02"], "timed_out": false, "label": "i47", "passive": false, "dependent_labels": [], "time": [1371927139, 516013], "class": "DataplanePermit", "round": -1, "prunable": true}
{"timeout_disallowed": false, "time": [1371927139, 516485], "controller_id": "c1", "fingerprint": ["ControlMessageSend", {"data": {"class": "arp"}, "class": "ofp_packet_in", "in_port": 2}, 1, ["c", "1"]], "timed_out": false, "dependent_labels": [], "dpid": 1, "label": "i48", "class": "ControlMessageSend", "round": -1, "prunable": true}
{"name": null, "timeout_disallowed": false, "fingerprint": ["ControllerStateChange", "Learned %s at %s.%i", "c1"], "controller_id": "c1", "value": ["(EthAddr('12:34:56:78:01:02'), 00-00-00-00-00-01, 2)"], "timed_out": false, "dependent_labels": [], "time": [1371927139, 520016], "label": "i49", "class": "ControllerStateChange", "round": -1, "prunable": true}
{"name": null, "timeout_disallowed": false, "fingerprint": ["ControllerStateChange", "Installing path for %s -> %s %04x (%i hops)", "c1"], "controller_id": "c1", "value": ["(EthAddr('12:34:56:78:01:02'), EthAddr('12:34:56:78:02:02'), 2054, 1)"], "timed_out": false, "dependent_labels": [], "time": [1371927139, 521339], "label": "i50", "class": "ControllerStateChange", "round": -1, "prunable": true}
{"timeout_disallowed": false, "time": [1371927139, 522077], "controller_id": "c1", "fingerprint": ["ControlMessageReceive", {"hard_timeout": 30, "actions": ["output(1)"], "priority": 32768, "idle_timeout": 10, "command": "add", "out_port": 65535, "flags": 0, "class": "ofp_flow_mod", "match": "dl_src:12:34:56:78:01:02,dl_dst:12:34:56:78:02:02,dl_vlan:65535,dl_vlan_pcp:0,dl_type:2054,nw_proto:2,nw_src:123.123.1.2/32,nw_dst:123.123.2.2/32"}, 1, ["c", "1"]], "timed_out": false, "dependent_labels": [], "dpid": 1, "label": "i51", "class": "ControlMessageReceive", "round": -1, "prunable": true}
{"timeout_disallowed": false, "fingerprint": ["DataplanePermit", {"class": "arp"}, 1, 1], "timed_out": false, "label": "i52", "passive": false, "dependent_labels": [], "time": [1371927139, 523221], "class": "DataplanePermit", "round": -1, "prunable": true}
{"timeout_disallowed": false, "time": [1371927139, 523707], "controller_id": "c1", "fingerprint": ["ControlMessageSend", {"data": {"class": "arp"}, "class": "ofp_packet_in", "in_port": 1}, 2, ["c", "1"]], "timed_out": false, "dependent_labels": [], "dpid": 2, "label": "i53", "class": "ControlMessageSend", "round": -1, "prunable": true}
{"name": null, "timeout_disallowed": false, "fingerprint": ["ControllerStateChange", "%s moved from %s.%i to %s.%i?", "c1"], "controller_id": "c1", "value": ["(EthAddr('12:34:56:78:01:02'), '00-00-00-00-00-01', 2, '00-00-00-00-00-02', 1)"], "timed_out": false, "dependent_labels": [], "time": [1371927139, 527073], "label": "i54", "class": "ControllerStateChange", "round": -1, "prunable": true}
{"name": null, "timeout_disallowed": false, "fingerprint": ["ControllerStateChange", "Learned %s at %s.%i", "c1"], "controller_id": "c1", "value": ["(EthAddr('12:34:56:78:01:02'), 00-00-00-00-00-02, 1)"], "timed_out": false, "dependent_labels": [], "time": [1371927139, 528535], "label": "i55", "class": "ControllerStateChange", "round": -1, "prunable": true}
{"name": null, "timeout_disallowed": false, "fingerprint": ["ControllerStateChange", "Can't get from %s to %s", "c1"], "controller_id": "c1", "value": ["(EthAddr('12:34:56:78:01:02'), EthAddr('12:34:56:78:02:02'))"], "timed_out": false, "dependent_labels": [], "time": [1371927139, 529923], "label": "i56", "class": "ControllerStateChange", "round": -1, "prunable": true}
{"new_ingress_port_no": 3, "class": "HostMigration", "fingerprint": ["HostMigration", 1, 2, 1, 3, "host:[IPAddr('123.123.1.2')]"], "timed_out": false, "label": "e57", "dependent_labels": [], "new_ingress_dpid": 1, "time": [1371927139, 530477], "old_ingress_port_no": 2, "host_id": "host:[IPAddr('123.123.1.2')]", "old_ingress_dpid": 1, "round": -1, "prunable": true}
{"dependent_labels": [], "class": "TrafficInjection", "fingerprint": ["TrafficInjection", {"interface": {"hw_addr": "12:34:56:78:01:02", "ips": ["123.123.1.2"], "name": "eth1"}, "packet": "EjRWeAECEjRWeAECCABFAABI6n4AAEABlzx7ewECe3sBAggABjdQaW5nUGluZ1BpbmdQaW5nUGluZ1BpbmdQaW5nUGluZ1BpbmdQaW5nUGluZ1Bpbmc="}], "timed_out": false, "label": "e58", "dp_event": {"interface": {"hw_addr": "12:34:56:78:01:02", "ips": ["123.123.1.2"], "name": "eth1"}, "packet": "EjRWeAECEjRWeAECCABFAABI6n4AAEABlzx7ewECe3sBAggABjdQaW5nUGluZ1BpbmdQaW5nUGluZ1BpbmdQaW5nUGluZ1BpbmdQaW5nUGluZ1Bpbmc="}, "time": [1371927139, 531217], "host_id": null, "round": -1, "prunable": true}
{"timeout_disallowed": false, "fingerprint": ["DataplanePermit", {"dl_dst": "12:34:56:78:01:02", "nw_src": "123.123.1.2", "dl_src": "12:34:56:78:01:02", "nw_dst": "123.123.1.2"}, "host:[IPAddr('123.123.1.2')]", "12:34:56:78:01:02"], "timed_out": false, "label": "i59", "passive": false, "dependent_labels": [], "time": [1371927139, 532489], "class": "DataplanePermit", "round": -1, "prunable": true}
{"timeout_disallowed": false, "time": [1371927139, 533050], "controller_id": "c1", "fingerprint": ["ControlMessageSend", {"reason": 1, "class": "ofp_port_status", "desc": [2, "00:00:00:00:01:02"]}, 1, ["c", "1"]], "timed_out": false, "dependent_labels": [], "dpid": 1, "label": "i60", "class": "ControlMessageSend", "round": -1, "prunable": true}
{"timeout_disallowed": false, "time": [1371927139, 533689], "controller_id": "c1", "fingerprint": ["ControlMessageSend", {"data": {"dl_dst": "12:34:56:78:01:02", "nw_src": "123.123.1.2", "dl_src": "12:34:56:78:01:02", "nw_dst": "123.123.1.2"}, "class": "ofp_packet_in", "in_port": 3}, 1, ["c", "1"]], "timed_out": false, "dependent_labels": [], "dpid": 1, "label": "i61", "class": "ControlMessageSend", "round": -1, "prunable": true}
{"timeout_disallowed": false, "time": [1371927139, 534450], "controller_id": "c1", "fingerprint": ["ControlMessageSend", {"reason": 0, "class": "ofp_port_status", "desc": [3, "00:00:00:00:01:02"]}, 1, ["c", "1"]], "timed_out": false, "dependent_labels": [], "dpid": 1, "label": "i62", "class": "ControlMessageSend", "round": -1, "prunable": true}
{"name": null, "timeout_disallowed": false, "fingerprint": ["ControllerStateChange", "%s moved from %s.%i to %s.%i?", "c1"], "controller_id": "c1", "value": ["(EthAddr('12:34:56:78:01:02'), '00-00-00-00-00-02', 1, '00-00-00-00-00-01', 3)"], "timed_out": false, "dependent_labels": [], "time": [1371927139, 566631], "label": "i63", "class": "ControllerStateChange", "round": -1, "prunable": true}
{"name": null, "timeout_disallowed": false, "fingerprint": ["ControllerStateChange", "Learned %s at %s.%i", "c1"], "controller_id": "c1", "value": ["(EthAddr('12:34:56:78:01:02'), 00-00-00-00-00-01, 3)"], "timed_out": false, "dependent_labels": [], "time": [1371927139, 569562], "label": "i64", "class": "ControllerStateChange", "round": -1, "prunable": true}
{"name": null, "timeout_disallowed": false, "fingerprint": ["ControllerStateChange", "Installing path for %s -> %s %04x (%i hops)", "c1"], "controller_id": "c1", "value": ["(EthAddr('12:34:56:78:01:02'), EthAddr('12:34:56:78:01:02'), 2048, 1)"], "timed_out": false, "dependent_labels": [], "time": [1371927139, 571242], "label": "i65", "class": "ControllerStateChange", "round": -1, "prunable": true}
{"timeout_disallowed": false, "time": [1371927139, 572115], "controller_id": "c1", "fingerprint": ["ControlMessageReceive", {"hard_timeout": 30, "actions": ["output(3)"], "priority": 32768, "idle_timeout": 10, "command": "add", "out_port": 65535, "flags": 0, "class": "ofp_flow_mod", "match": "dl_src:12:34:56:78:01:02,dl_dst:12:34:56:78:01:02,dl_vlan:65535,dl_vlan_pcp:0,dl_type:2048,nw_tos:0,nw_proto:1,nw_src:123.123.1.2/32,nw_dst:123.123.1.2/32,tp_src:8,tp_dst:0"}, 1, ["c", "1"]], "timed_out": false, "dependent_labels": [], "dpid": 1, "label": "i66", "class": "ControlMessageReceive", "round": -1, "prunable": true}
{"dependent_labels": [], "class": "TrafficInjection", "fingerprint": ["TrafficInjection", {"interface": {"hw_addr": "12:34:56:78:02:02", "ips": ["123.123.2.2"], "name": "eth2"}, "packet": "EjRWeAECEjRWeAICCABFAAAcISgAAEABX797ewICe3sBAggAGS9waW5n"}], "timed_out": false, "label": "e67", "dp_event": {"interface": {"hw_addr": "12:34:56:78:02:02", "ips": ["123.123.2.2"], "name": "eth2"}, "packet": "EjRWeAECEjRWeAICCABFAAAcISgAAEABX797ewICe3sBAggAGS9waW5n"}, "time": [1371927139, 573219], "host_id": null, "round": -1, "prunable": true}
{"class": "DataplaneDrop", "fingerprint": ["DataplaneDrop", {"dl_dst": "12:34:56:78:01:02", "nw_src": "123.123.2.2", "dl_src": "12:34:56:78:02:02", "nw_dst": "123.123.1.2"}, "host:[IPAddr('123.123.2.2')]", "12:34:56:78:02:02"], "timed_out": false, "label": "e68", "passive": false, "dependent_labels": [], "time": [1371927139, 573867], "round": -1, "prunable": true}
{"new_ingress_port_no": 3, "class": "HostMigration", "fingerprint": ["HostMigration", 2, 2, 2, 3, "host:[IPAddr('123.123.2.2')]"], "timed_out": false, "label": "e69", "dependent_labels": [], "new_ingress_dpid": 2, "time": [1371927139, 574586], "old_ingress_port_no": 2, "host_id": "host:[IPAddr('123.123.2.2')]", "old_ingress_dpid": 2, "round": -1, "prunable": true}
{"dependent_labels": [], "class": "TrafficInjection", "fingerprint": ["TrafficInjection", {"interface": {"hw_addr": "12:34:56:78:02:02", "ips": ["123.123.2.2"], "name": "eth2"}, "packet": "EjRWeAICEjRWeAICCABFAABI6oAAAEABlTp7ewICe3sCAggABjdQaW5nUGluZ1BpbmdQaW5nUGluZ1BpbmdQaW5nUGluZ1BpbmdQaW5nUGluZ1Bpbmc="}], "timed_out": false, "label": "e70", "dp_event": {"interface": {"hw_addr": "12:34:56:78:02:02", "ips": ["123.123.2.2"], "name": "eth2"}, "packet": "EjRWeAICEjRWeAICCABFAABI6oAAAEABlTp7ewICe3sCAggABjdQaW5nUGluZ1BpbmdQaW5nUGluZ1BpbmdQaW5nUGluZ1BpbmdQaW5nUGluZ1Bpbmc="}, "time": [1371927139, 575279], "host_id": null, "round": -1, "prunable": true}
{"class": "DataplaneDrop", "fingerprint": ["DataplaneDrop", {"dl_dst": "12:34:56:78:02:02", "nw_src": "123.123.2.2", "dl_src": "12:34:56:78:02:02", "nw_dst": "123.123.2.2"}, "host:[IPAddr('123.123.2.2')]", "12:34:56:78:02:02"], "timed_out": false, "label": "e71", "passive": false, "dependent_labels": [], "time": [1371927139, 575949], "round": -1, "prunable": true}
{"timeout_disallowed": false, "time": [1371927139, 576557], "controller_id": "c1", "fingerprint": ["ControlMessageSend", {"reason": 1, "class": "ofp_port_status", "desc": [2, "00:00:00:00:02:02"]}, 2, ["c", "1"]], "timed_out": false, "dependent_labels": [], "dpid": 2, "label": "i72", "class": "ControlMessageSend", "round": -1, "prunable": true}
{"timeout_disallowed": false, "time": [1371927139, 577130], "controller_id": "c1", "fingerprint": ["ControlMessageSend", {"reason": 0, "class": "ofp_port_status", "desc": [3, "00:00:00:00:02:02"]}, 2, ["c", "1"]], "timed_out": false, "dependent_labels": [], "dpid": 2, "label": "i73", "class": "ControlMessageSend", "round": -1, "prunable": true}
{"legacy_invariant_check": false, "class": "CheckInvariants", "fingerprint": "N/A", "timed_out": false, "label": "e74", "dependent_labels": [], "invariant_name": "check_for_loops_or_connectivity", "invariant_check_name": "check_for_loops_or_connectivity", "time": [1371927139, 583162], "invariant_check": null, "round": -1, "prunable": true}
{"dependent_labels": [], "class": "TrafficInjection", "fingerprint": ["TrafficInjection", {"interface": {"hw_addr": "12:34:56:78:01:02", "ips": ["123.123.1.2"], "name": "eth1"}, "packet": "EjRWeAICEjRWeAECCABFAAAcISkAAEABX757ewECe3sCAgAAISlwb25n"}], "timed_out": false, "label": "e75", "dp_event": {"interface": {"hw_addr": "12:34:56:78:01:02", "ips": ["123.123.1.2"], "name": "eth1"}, "packet": "EjRWeAICEjRWeAECCABFAAAcISkAAEABX757ewECe3sCAgAAISlwb25n"}, "time": [1371927139, 583618], "host_id": null, "round": -1, "prunable": true}
{"timeout_disallowed": false, "fingerprint": ["DataplanePermit", {"dl_dst": "12:34:56:78:02:02", "nw_src": "123.123.1.2", "dl_src": "12:34:56:78:01:02", "nw_dst": "123.123.2.2"}, "host:[IPAddr('123.123.1.2')]", "12:34:56:78:01:02"], "timed_out": false, "label": "i76", "passive": false, "dependent_labels": [], "time": [1371927139, 584428], "class": "DataplanePermit", "round": -1, "prunable": true}
{"timeout_disallowed": false, "time": [1371927139, 584847], "controller_id": "c1", "fingerprint": ["ControlMessageSend", {"data": {"dl_dst": "12:34:56:78:02:02", "nw_src": "123.123.1.2", "dl_src": "12:34:56:78:01:02", "nw_dst": "123.123.2.2"}, "class": "ofp_packet_in", "in_port": 3}, 1, ["c", "1"]], "timed_out": false, "dependent_labels": [], "dpid": 1, "label": "i77", "class": "ControlMessageSend", "round": -1, "prunable": true}
{"name": null, "timeout_disallowed": false, "fingerprint": ["ControllerStateChange", "Installing path for %s -> %s %04x (%i hops)", "c1"], "controller_id": "c1", "value": ["(EthAddr('12:34:56:78:01:02'), EthAddr('12:34:56:78:02:02'), 2048, 1)"], "timed_out": false, "dependent_labels": [], "time": [1371927139, 626798], "label": "i78", "class": "ControllerStateChange", "round": -1, "prunable": true}
{"timeout_disallowed": false, "time": [1371927139, 627685], "controller_id": "c1", "fingerprint": ["ControlMessageReceive", {"hard_timeout": 30, "actions": ["output(1)"], "priority": 32768, "idle_timeout": 10, "command": "add", "out_port": 65535, "flags": 0, "class": "ofp_flow_mod", "match": "dl_src:12:34:56:78:01:02,dl_dst:12:34:56:78:02:02,dl_vlan:65535,dl_vlan_pcp:0,dl_type:2048,nw_tos:0,nw_proto:1,nw_src:123.123.1.2/32,nw_dst:123.123.2.2/32,tp_src:0,tp_dst:0"}, 1, ["c", "1"]], "timed_out": false, "dependent_labels": [], "dpid": 1, "label": "i79", "class": "ControlMessageReceive", "round": -1, "prunable": true}
{"timeout_disallowed": false, "fingerprint": ["DataplanePermit", {"dl_dst": "12:34:56:78:02:02", "nw_src": "123.123.1.2", "dl_src": "12:34:56:78:01:02", "nw_dst": "123.123.2.2"}, 1, 1], "timed_out": false, "label": "i80", "passive": false, "dependent_labels": [], "time": [1371927139, 629000], "class": "DataplanePermit", "round": -1, "prunable": true}
{"timeout_disallowed": false, "time": [1371927139, 629674], "controller_id": "c1", "fingerprint": ["ControlMessageSend", {"data": {"dl_dst": "12:34:56:78:02:02", "nw_src": "123.123.1.2", "dl_src": "12:34:56:78:01:02", "nw_dst": "123.123.2.2"}, "class": "ofp_packet_in", "in_port": 1}, 2, ["c", "1"]], "timed_out": false, "dependent_labels": [], "dpid": 2, "label": "i81", "class": "ControlMessageSend", "round": -1, "prunable": true}
{"name": null, "timeout_disallowed": false, "fingerprint": ["ControllerStateChange", "%s moved from %s.%i to %s.%i?", "c1"], "controller_id": "c1", "value": ["(EthAddr('12:34:56:78:01:02'), '00-00-00-00-00-01', 3, '00-00-00-00-00-02', 1)"], "timed_out": false, "dependent_labels": [], "time": [1371927139, 633969], "label": "i82", "class": "ControllerStateChange", "round": -1, "prunable": true}
{"name": null, "timeout_disallowed": false, "fingerprint": ["ControllerStateChange", "Learned %s at %s.%i", "c1"], "controller_id": "c1", "value": ["(EthAddr('12:34:56:78:01:02'), 00-00-00-00-00-02, 1)"], "timed_out": false, "dependent_labels": [], "time": [1371927139, 635676], "label": "i83", "class": "ControllerStateChange", "round": -1, "prunable": true}
{"name": null, "timeout_disallowed": false, "fingerprint": ["ControllerStateChange", "Can't get from %s to %s", "c1"], "controller_id": "c1", "value": ["(EthAddr('12:34:56:78:01:02'), EthAddr('12:34:56:78:02:02'))"], "timed_out": false, "dependent_labels": [], "time": [1371927139, 637300], "label": "i84", "class": "ControllerStateChange", "round": -1, "prunable": true}
{"name": null, "timeout_disallowed": false, "fingerprint": ["ControllerStateChange", "Dest unreachable (%s -> %s)", "c1"], "controller_id": "c1", "value": ["(EthAddr('12:34:56:78:01:02'), EthAddr('12:34:56:78:02:02'))"], "timed_out": false, "dependent_labels": [], "time": [1371927139, 639496], "label": "i85", "class": "ControllerStateChange", "round": -1, "prunable": true}
{"timeout_disallowed": false, "time": [1371927139, 640290], "controller_id": "c1", "fingerprint": ["ControlMessageReceive", {"in_port": 65535, "data": {"dl_dst": "12:34:56:78:01:02", "nw_src": "123.123.2.2", "dl_src": "00:00:00:00:00:02", "nw_dst": "123.123.1.2"}, "class": "ofp_packet_out", "actions": ["output(1)"]}, 2, ["c", "1"]], "timed_out": false, "dependent_labels": [], "dpid": 2, "label": "i86", "class": "ControlMessageReceive", "round": -1, "prunable": true}
{"timeout_disallowed": false, "fingerprint": ["DataplanePermit", {"dl_dst": "12:34:56:78:01:02", "nw_src": "123.123.2.2", "dl_src": "00:00:00:00:00:02", "nw_dst": "123.123.1.2"}, 2, 1], "timed_out": false, "label": "i87", "passive": false, "dependent_labels": [], "time": [1371927139, 641730], "class": "DataplanePermit", "round": -1, "prunable": true}
{"timeout_disallowed": false, "time": [1371927139, 642407], "controller_id": "c1", "fingerprint": ["ControlMessageSend", {"data": {"dl_dst": "12:34:56:78:01:02", "nw_src": "123.123.2.2", "dl_src": "00:00:00:00:00:02", "nw_dst": "123.123.1.2"}, "class": "ofp_packet_in", "in_port": 1}, 1, ["c", "1"]], "timed_out": false, "dependent_labels": [], "dpid": 1, "label": "i88", "class": "ControlMessageSend", "round": -1, "prunable": true}
{"name": null, "timeout_disallowed": false, "fingerprint": ["ControllerStateChange", "Learned %s at %s.%i", "c1"], "controller_id": "c1", "value": ["(EthAddr('00:00:00:00:00:02'), 00-00-00-00-00-01, 1)"], "timed_out": false, "dependent_labels": [], "time": [1371927139, 646813], "label": "i89", "class": "ControllerStateChange", "round": -1, "prunable": true}
{"name": null, "timeout_disallowed": false, "fingerprint": ["ControllerStateChange", "Can't get from %s to %s", "c1"], "controller_id": "c1", "value": ["(EthAddr('00:00:00:00:00:02'), EthAddr('12:34:56:78:01:02'))"], "timed_out": false, "dependent_labels": [], "time": [1371927139, 648368], "label": "i90", "class": "ControllerStateChange", "round": -1, "prunable": true}
{"name": null, "timeout_disallowed": false, "fingerprint": ["ControllerStateChange", "Dest unreachable (%s -> %s)", "c1"], "controller_id": "c1", "value": ["(EthAddr('00:00:00:00:00:02'), EthAddr('12:34:56:78:01:02'))"], "timed_out": false, "dependent_labels": [], "time": [1371927139, 650546], "label": "i91", "class": "ControllerStateChange", "round": -1, "prunable": true}
{"timeout_disallowed": false, "time": [1371927139, 651365], "controller_id": "c1", "fingerprint": ["ControlMessageReceive", {"in_port": 65535, "data": {"dl_dst": "00:00:00:00:00:02", "nw_src": "123.123.1.2", "dl_src": "00:00:00:00:00:01", "nw_dst": "123.123.2.2"}, "class": "ofp_packet_out", "actions": ["output(1)"]}, 1, ["c", "1"]], "timed_out": false, "dependent_labels": [], "dpid": 1, "label": "i92", "class": "ControlMessageReceive", "round": -1, "prunable": true}
{"new_ingress_port_no": 4, "class": "HostMigration", "fingerprint": ["HostMigration", 2, 3, 1, 4, "host:[IPAddr('123.123.2.2')]"], "timed_out": false, "label": "e93", "dependent_labels": [], "new_ingress_dpid": 1, "time": [1371927139, 652253], "old_ingress_port_no": 3, "host_id": "host:[IPAddr('123.123.2.2')]", "old_ingress_dpid": 2, "round": -1, "prunable": true}
{"dependent_labels": [], "class": "TrafficInjection", "fingerprint": ["TrafficInjection", {"interface": {"hw_addr": "12:34:56:78:02:02", "ips": ["123.123.2.2"], "name": "eth2"}, "packet": "EjRWeAICEjRWeAICCABFAABI6o0AAEABlS17ewICe3sCAggABjdQaW5nUGluZ1BpbmdQaW5nUGluZ1BpbmdQaW5nUGluZ1BpbmdQaW5nUGluZ1Bpbmc="}], "timed_out": false, "label": "e94", "dp_event": {"interface": {"hw_addr": "12:34:56:78:02:02", "ips": ["123.123.2.2"], "name": "eth2"}, "packet": "EjRWeAICEjRWeAICCABFAABI6o0AAEABlS17ewICe3sCAggABjdQaW5nUGluZ1BpbmdQaW5nUGluZ1BpbmdQaW5nUGluZ1BpbmdQaW5nUGluZ1Bpbmc="}, "time": [1371927139, 652951], "host_id": null, "round": -1, "prunable": true}
{"class": "DataplaneDrop", "fingerprint": ["DataplaneDrop", {"dl_dst": "00:00:00:00:00:02", "nw_src": "123.123.1.2", "dl_src": "00:00:00:00:00:01", "nw_dst": "123.123.2.2"}, 1, 1], "timed_out": false, "label": "e95", "passive": false, "dependent_labels": [], "time": [1371927139, 653604], "round": -1, "prunable": true}
{"timeout_disallowed": false, "fingerprint": ["DataplanePermit", {"dl_dst": "12:34:56:78:02:02", "nw_src": "123.123.2.2", "dl_src": "12:34:56:78:02:02", "nw_dst": "123.123.2.2"}, "host:[IPAddr('123.123.2.2')]", "12:34:56:78:02:02"], "timed_out": false, "label": "i96", "passive": false, "dependent_labels": [], "time": [1371927139, 654805], "class": "DataplanePermit", "round": -1, "prunable": true}
{"timeout_disallowed": false, "time": [1371927139, 655455], "controller_id": "c1", "fingerprint": ["ControlMessageSend", {"reason": 1, "class": "ofp_port_status", "desc": [3, "00:00:00:00:02:02"]}, 2, ["c", "1"]], "timed_out": false, "dependent_labels": [], "dpid": 2, "label": "i97", "class": "ControlMessageSend", "round": -1, "prunable": true}
{"timeout_disallowed": false, "time": [1371927139, 656076], "controller_id": "c1", "fingerprint": ["ControlMessageSend", {"data": {"dl_dst": "12:34:56:78:02:02", "nw_src": "123.123.2.2", "dl_src": "12:34:56:78:02:02", "nw_dst": "123.123.2.2"}, "class": "ofp_packet_in", "in_port": 4}, 1, ["c", "1"]], "timed_out": false, "dependent_labels": [], "dpid": 1, "label": "i98", "class": "ControlMessageSend", "round": -1, "prunable": true}
{"timeout_disallowed": false, "time": [1371927139, 656841], "controller_id": "c1", "fingerprint": ["ControlMessageSend", {"reason": 0, "class": "ofp_port_status", "desc": [4, "00:00:00:00:02:02"]}, 1, ["c", "1"]], "timed_out": false, "dependent_labels": [], "dpid": 1, "label": "i99", "class": "ControlMessageSend", "round": -1, "prunable": true}
{"name": null, "timeout_disallowed": false, "fingerprint": ["ControllerStateChange", "%s moved from %s.%i to %s.%i?", "c1"], "controller_id": "c1", "value": ["(EthAddr('12:34:56:78:02:02'), '00-00-00-00-00-01', 1, '00-00-00-00-00-01', 4)"], "timed_out": false, "dependent_labels": [], "time": [1371927139, 697659], "label": "i100", "class": "ControllerStateChange", "round": -1, "prunable": true}
{"name": null, "timeout_disallowed": false, "fingerprint": ["ControllerStateChange", "Learned %s at %s.%i", "c1"], "controller_id": "c1", "value": ["(EthAddr('12:34:56:78:02:02'), 00-00-00-00-00-01, 4)"], "timed_out": false, "dependent_labels": [], "time": [1371927139, 700563], "label": "i101", "class": "ControllerStateChange", "round": -1, "prunable": true}
{"name": null, "timeout_disallowed": false, "fingerprint": ["ControllerStateChange", "Installing path for %s -> %s %04x (%i hops)", "c1"], "controller_id": "c1", "value": ["(EthAddr('12:34:56:78:02:02'), EthAddr('12:34:56:78:02:02'), 2048, 1)"], "timed_out": false, "dependent_labels": [], "time": [1371927139, 702247], "label": "i102", "class": "ControllerStateChange", "round": -1, "prunable": true}
{"timeout_disallowed": false, "time": [1371927139, 703179], "controller_id": "c1", "fingerprint": ["ControlMessageReceive", {"hard_timeout": 30, "actions": ["output(4)"], "priority": 32768, "idle_timeout": 10, "command": "add", "out_port": 65535, "flags": 0, "class": "ofp_flow_mod", "match": "dl_src:12:34:56:78:02:02,dl_dst:12:34:56:78:02:02,dl_vlan:65535,dl_vlan_pcp:0,dl_type:2048,nw_tos:0,nw_proto:1,nw_src:123.123.2.2/32,nw_dst:123.123.2.2/32,tp_src:8,tp_dst:0"}, 1, ["c", "1"]], "timed_out": false, "dependent_labels": [], "dpid": 1, "label": "i103", "class": "ControlMessageReceive", "round": -1, "prunable": true}
{"dependent_labels": [], "class": "TrafficInjection", "fingerprint": ["TrafficInjection", {"interface": {"hw_addr": "12:34:56:78:02:02", "ips": ["123.123.2.2"], "name": "eth2"}, "packet": "////////EjRWeAICCAYAAQgABgQAARI0VngCAnt7AgIAAAAAAAB7ewEC"}], "timed_out": false, "label": "e104", "dp_event": {"interface": {"hw_addr": "12:34:56:78:02:02", "ips": ["123.123.2.2"], "name": "eth2"}, "packet": "////////EjRWeAICCAYAAQgABgQAARI0VngCAnt7AgIAAAAAAAB7ewEC"}, "time": [1371927139, 704254], "host_id": null, "round": -1, "prunable": true}
{"class": "DataplaneDrop", "fingerprint": ["DataplaneDrop", {"class": "arp"}, "host:[IPAddr('123.123.2.2')]", "12:34:56:78:02:02"], "timed_out": false, "label": "e105", "passive": false, "dependent_labels": [], "time": [1371927139, 704862], "round": -1, "prunable": true}
{"new_ingress_port_no": 5, "class": "HostMigration", "fingerprint": ["HostMigration", 1, 3, 1, 5, "host:[IPAddr('123.123.1.2')]"], "timed_out": false, "label": "e106", "dependent_labels": [], "new_ingress_dpid": 1, "time": [1371927139, 705433], "old_ingress_port_no": 3, "host_id": "host:[IPAddr('123.123.1.2')]", "old_ingress_dpid": 1, "round": -1, "prunable": true}
{"dependent_labels": [], "class": "TrafficInjection", "fingerprint": ["TrafficInjection", {"interface": {"hw_addr": "12:34:56:78:01:02", "ips": ["123.123.1.2"], "name": "eth1"}, "packet": "EjRWeAECEjRWeAECCABFAABI6o8AAEABlyt7ewECe3sBAggABjdQaW5nUGluZ1BpbmdQaW5nUGluZ1BpbmdQaW5nUGluZ1BpbmdQaW5nUGluZ1Bpbmc="}], "timed_out": false, "label": "e107", "dp_event": {"interface": {"hw_addr": "12:34:56:78:01:02", "ips": ["123.123.1.2"], "name": "eth1"}, "packet": "EjRWeAECEjRWeAECCABFAABI6o8AAEABlyt7ewECe3sBAggABjdQaW5nUGluZ1BpbmdQaW5nUGluZ1BpbmdQaW5nUGluZ1BpbmdQaW5nUGluZ1Bpbmc="}, "time": [1371927139, 706125], "host_id": null, "round": -1, "prunable": true}
{"timeout_disallowed": false, "fingerprint": ["DataplanePermit", {"dl_dst": "12:34:56:78:01:02", "nw_src": "123.123.1.2", "dl_src": "12:34:56:78:01:02", "nw_dst": "123.123.1.2"}, "host:[IPAddr('123.123.1.2')]", "12:34:56:78:01:02"], "timed_out": false, "label": "i108", "passive": false, "dependent_labels": [], "time": [1371927139, 707561], "class": "DataplanePermit", "round": -1, "prunable": true}
{"timeout_disallowed": false, "time": [1371927139, 708176], "controller_id": "c1", "fingerprint": ["ControlMessageSend", {"reason": 0, "class": "ofp_port_status", "desc": [5, "00:00:00:00:01:02"]}, 1, ["c", "1"]], "timed_out": false, "dependent_labels": [], "dpid": 1, "label": "i109", "class": "ControlMessageSend", "round": -1, "prunable": true}
{"timeout_disallowed": false, "time": [1371927139, 708746], "controller_id": "c1", "fingerprint": ["ControlMessageSend", {"reason": 1, "class": "ofp_port_status", "desc": [3, "00:00:00:00:01:02"]}, 1, ["c", "1"]], "timed_out": false, "dependent_labels": [], "dpid": 1, "label": "i110", "class": "ControlMessageSend", "round": -1, "prunable": true}
{"class": "DataplaneDrop", "fingerprint": ["DataplaneDrop", {"dl_dst": "12:34:56:78:01:02", "nw_src": "123.123.1.2", "dl_src": "12:34:56:78:01:02", "nw_dst": "123.123.1.2"}, 1, 3], "timed_out": false, "label": "e111", "passive": false, "dependent_labels": [], "time": [1371927139, 709276], "round": -1, "prunable": true}
{"legacy_invariant_check": false, "class": "CheckInvariants", "fingerprint": "N/A", "timed_out": false, "label": "e112", "dependent_labels": [], "invariant_name": "check_for_loops_or_connectivity", "invariant_check_name": "check_for_loops_or_connectivity", "time": [1371927139, 718212], "invariant_check": null, "round": -1, "prunable": true}
{"timeout_disallowed": false, "time": [1371927140, 329583], "controller_id": "c1", "fingerprint": ["ControlMessageSend", {"reason": 0, "class": "ofp_port_status", "desc": [6, "00:00:00:00:02:02"]}, 1, ["c", "1"]], "timed_out": true, "dependent_labels": [], "dpid": 1, "label": "i118", "class": "ControlMessageSend", "round": -1, "prunable": true}
{"timeout_disallowed": false, "time": [1371927140, 931153], "controller_id": "c1", "fingerprint": ["ControlMessageSend", {"reason": 1, "class": "ofp_port_status", "desc": [4, "00:00:00:00:02:02"]}, 1, ["c", "1"]], "timed_out": true, "dependent_labels": [], "dpid": 1, "label": "i119", "class": "ControlMessageSend", "round": -1, "prunable": true}
{"timeout_disallowed": false, "fingerprint": ["DataplanePermit", {"dl_dst": "12:34:56:78:02:02", "nw_src": "123.123.2.2", "dl_src": "12:34:56:78:02:02", "nw_dst": "123.123.2.2"}, "host:[IPAddr('123.123.2.2')]", "12:34:56:78:02:02"], "timed_out": true, "label": "i123", "passive": false, "dependent_labels": [], "time": [1371927141, 581817], "class": "DataplanePermit", "round": -1, "prunable": true}
{"timeout_disallowed": false, "fingerprint": ["DataplanePermit", {"dl_dst": "12:34:56:78:01:02", "nw_src": "123.123.2.2", "dl_src": "12:34:56:78:02:02", "nw_dst": "123.123.1.2"}, "host:[IPAddr('123.123.2.2')]", "12:34:56:78:02:02"], "timed_out": true, "label": "i124", "passive": false, "dependent_labels": [], "time": [1371927142, 225235], "class": "DataplanePermit", "round": -1, "prunable": true}
{"timeout_disallowed": false, "time": [1371927142, 826853], "controller_id": "c1", "fingerprint": ["ControlMessageSend", {"data": {"dl_dst": "12:34:56:78:02:02", "nw_src": "123.123.2.2", "dl_src": "12:34:56:78:02:02", "nw_dst": "123.123.2.2"}, "class": "ofp_packet_in", "in_port": 7}, 1, ["c", "1"]], "timed_out": true, "dependent_labels": [], "dpid": 1, "label": "i125", "class": "ControlMessageSend", "round": -1, "prunable": true}
{"timeout_disallowed": false, "time": [1371927143, 479497], "controller_id": "c1", "fingerprint": ["ControlMessageSend", {"reason": 0, "class": "ofp_port_status", "desc": [7, "00:00:00:00:02:02"]}, 1, ["c", "1"]], "timed_out": true, "dependent_labels": [], "dpid": 1, "label": "i126", "class": "ControlMessageSend", "round": -1, "prunable": true}
{"timeout_disallowed": false, "time": [1371927144, 81086], "controller_id": "c1", "fingerprint": ["ControlMessageSend", {"reason": 1, "class": "ofp_port_status", "desc": [6, "00:00:00:00:02:02"]}, 1, ["c", "1"]], "timed_out": true, "dependent_labels": [], "dpid": 1, "label": "i127", "class": "ControlMessageSend", "round": -1, "prunable": true}
{"timeout_disallowed": false, "time": [1371927144, 733503], "controller_id": "c1", "fingerprint": ["ControlMessageSend", {"data": {"dl_dst": "12:34:56:78:01:02", "nw_src": "123.123.2.2", "dl_src": "12:34:56:78:02:02", "nw_dst": "123.123.1.2"}, "class": "ofp_packet_in", "in_port": 7}, 1, ["c", "1"]], "timed_out": true, "dependent_labels": [], "dpid": 1, "label": "i128", "class": "ControlMessageSend", "round": -1, "prunable": true}
{"name": null, "timeout_disallowed": false, "fingerprint": ["ControllerStateChange", "%s moved from %s.%i to %s.%i?", "c1"], "controller_id": "c1", "value": ["(EthAddr('12:34:56:78:02:02'), '00-00-00-00-00-01', 4, '00-00-00-00-00-01', 7)"], "timed_out": true, "dependent_labels": [], "time": [1371927145, 335193], "label": "i129", "class": "ControllerStateChange", "round": -1, "prunable": true}
{"name": null, "timeout_disallowed": false, "fingerprint": ["ControllerStateChange", "Learned %s at %s.%i", "c1"], "controller_id": "c1", "value": ["(EthAddr('12:34:56:78:02:02'), 00-00-00-00-00-01, 7)"], "timed_out": true, "dependent_labels": [], "time": [1371927145, 986937], "label": "i130", "class": "ControllerStateChange", "round": -1, "prunable": true}
{"name": null, "timeout_disallowed": false, "fingerprint": ["ControllerStateChange", "Installing path for %s -> %s %04x (%i hops)", "c1"], "controller_id": "c1", "value": ["(EthAddr('12:34:56:78:02:02'), EthAddr('12:34:56:78:02:02'), 2048, 1)"], "timed_out": true, "dependent_labels": [], "time": [1371927146, 588364], "label": "i131", "class": "ControllerStateChange", "round": -1, "prunable": true}
{"name": null, "timeout_disallowed": false, "fingerprint": ["ControllerStateChange", "Can't get from %s to %s", "c1"], "controller_id": "c1", "value": ["(EthAddr('12:34:56:78:02:02'), EthAddr('12:34:56:78:01:02'))"], "timed_out": true, "dependent_labels": [], "time": [1371927147, 241031], "label": "i132", "class": "ControllerStateChange", "round": -1, "prunable": true}
{"name": null, "timeout_disallowed": false, "fingerprint": ["ControllerStateChange", "Dest unreachable (%s -> %s)", "c1"], "controller_id": "c1", "value": ["(EthAddr('12:34:56:78:02:02'), EthAddr('12:34:56:78:01:02'))"], "timed_out": true, "dependent_labels": [], "time": [1371927147, 842397], "label": "i133", "class": "ControllerStateChange", "round": -1, "prunable": true}
{"timeout_disallowed": false, "time": [1371927148, 495348], "controller_id": "c1", "fingerprint": ["ControlMessageReceive", {"hard_timeout": 30, "actions": ["output(7)"], "priority": 32768, "idle_timeout": 10, "command": "add", "out_port": 65535, "flags": 0, "class": "ofp_flow_mod", "match": "dl_src:12:34:56:78:02:02,dl_dst:12:34:56:78:02:02,dl_vlan:65535,dl_vlan_pcp:0,dl_type:2048,nw_tos:0,nw_proto:1,nw_src:123.123.2.2/32,nw_dst:123.123.2.2/32,tp_src:0,tp_dst:0"}, 1, ["c", "1"]], "timed_out": true, "dependent_labels": [], "dpid": 1, "label": "i134", "class": "ControlMessageReceive", "round": -1, "prunable": true}
{"timeout_disallowed": false, "time": [1371927149, 97187], "controller_id": "c1", "fingerprint": ["ControlMessageReceive", {"in_port": 65535, "data": {"dl_dst": "12:34:56:78:02:02", "nw_src": "123.123.1.2", "dl_src": "00:00:00:00:00:01", "nw_dst": "123.123.2.2"}, "class": "ofp_packet_out", "actions": ["output(7)"]}, 1, ["c", "1"]], "timed_out": true, "dependent_labels": [], "dpid": 1, "label": "i135", "class": "ControlMessageReceive", "round": -1, "prunable": true}
{"timeout_disallowed": false, "fingerprint": ["DataplanePermit", {"dl_dst": "12:34:56:78:02:02", "nw_src": "123.123.1.2", "dl_src": "12:34:56:78:01:02", "nw_dst": "123.123.2.2"}, "host:[IPAddr('123.123.1.2')]", "12:34:56:78:01:02"], "timed_out": true, "label": "i139", "passive": false, "dependent_labels": [], "time": [1371927149, 750090], "class": "DataplanePermit", "round": -1, "prunable": true}
{"timeout_disallowed": false, "fingerprint": ["DataplanePermit", {"dl_dst": "12:34:56:78:02:02", "nw_src": "123.123.1.2", "dl_src": "12:34:56:78:01:02", "nw_dst": "123.123.2.2"}, 1, 1], "timed_out": true, "label": "i140", "passive": false, "dependent_labels": [], "time": [1371927150, 413160], "class": "DataplanePermit", "round": -1, "prunable": true}
{"timeout_disallowed": false, "time": [1371927151, 14790], "controller_id": "c1", "fingerprint": ["ControlMessageSend", {"data": {"dl_dst": "12:34:56:78:02:02", "nw_src": "123.123.1.2", "dl_src": "12:34:56:78:01:02", "nw_dst": "123.123.2.2"}, "class": "ofp_packet_in", "in_port": 1}, 2, ["c", "1"]], "timed_out": true, "dependent_labels": [], "dpid": 2, "label": "i141", "class": "ControlMessageSend", "round": -1, "prunable": true}
{"name": null, "timeout_disallowed": false, "fingerprint": ["ControllerStateChange", "Can't get from %s to %s", "c1"], "controller_id": "c1", "value": ["(EthAddr('12:34:56:78:01:02'), EthAddr('12:34:56:78:02:02'))"], "timed_out": true, "dependent_labels": [], "time": [1371927151, 564140], "label": "i142", "class": "ControllerStateChange", "round": -1, "prunable": true}
{"name": null, "timeout_disallowed": false, "fingerprint": ["ControllerStateChange", "Dest unreachable (%s -> %s)", "c1"], "controller_id": "c1", "value": ["(EthAddr('12:34:56:78:01:02'), EthAddr('12:34:56:78:02:02'))"], "timed_out": true, "dependent_labels": [], "time": [1371927152, 165511], "label": "i143", "class": "ControllerStateChange", "round": -1, "prunable": true}
{"timeout_disallowed": false, "time": [1371927152, 818443], "controller_id": "c1", "fingerprint": ["ControlMessageReceive", {"in_port": 65535, "data": {"dl_dst": "12:34:56:78:01:02", "nw_src": "123.123.2.2", "dl_src": "00:00:00:00:00:02", "nw_dst": "123.123.1.2"}, "class": "ofp_packet_out", "actions": ["output(1)"]}, 2, ["c", "1"]], "timed_out": true, "dependent_labels": [], "dpid": 2, "label": "i144", "class": "ControlMessageReceive", "round": -1, "prunable": true}
{"timeout_disallowed": false, "fingerprint": ["DataplanePermit", {"dl_dst": "12:34:56:78:01:02", "nw_src": "123.123.2.2", "dl_src": "00:00:00:00:00:02", "nw_dst": "123.123.1.2"}, 2, 1], "timed_out": true, "label": "i145", "passive": false, "dependent_labels": [], "time": [1371927153, 420173], "class": "DataplanePermit", "round": -1, "prunable": true}
{"timeout_disallowed": false, "time": [1371927153, 420978], "controller_id": "c1", "fingerprint": ["ControlMessageReceive", {"in_port": 65535, "data": {"class": "lldp"}, "class": "ofp_packet_out", "actions": ["output(1)"]}, 2, ["c", "1"]], "timed_out": false, "dependent_labels": [], "dpid": 2, "label": "i146", "class": "ControlMessageReceive", "round": -1, "prunable": true}
{"timeout_disallowed": false, "time": [1371927154, 72710], "controller_id": "c1", "fingerprint": ["ControlMessageSend", {"data": {"dl_dst": "12:34:56:78:01:02", "nw_src": "123.123.2.2", "dl_src": "00:00:00:00:00:02", "nw_dst": "123.123.1.2"}, "class": "ofp_packet_in", "in_port": 1}, 1, ["c", "1"]], "timed_out": true, "dependent_labels": [], "dpid": 1, "label": "i147", "class": "ControlMessageSend", "round": -1, "prunable": true}
{"name": null, "timeout_disallowed": false, "fingerprint": ["ControllerStateChange", "Can't get from %s to %s", "c1"], "controller_id": "c1", "value": ["(EthAddr('00:00:00:00:00:02'), EthAddr('12:34:56:78:01:02'))"], "timed_out": true, "dependent_labels": [], "time": [1371927154, 674412], "label": "i148", "class": "ControllerStateChange", "round": -1, "prunable": true}
{"name": null, "timeout_disallowed": false, "fingerprint": ["ControllerStateChange", "Dest unreachable (%s -> %s)", "c1"], "controller_id": "c1", "value": ["(EthAddr('00:00:00:00:00:02'), EthAddr('12:34:56:78:01:02'))"], "timed_out": true, "dependent_labels": [], "time": [1371927155, 326911], "label": "i149", "class": "ControllerStateChange", "round": -1, "prunable": true}
{"timeout_disallowed": false, "fingerprint": ["DataplanePermit", {"class": "lldp"}, 2, 1], "timed_out": false, "label": "i150", "passive": false, "dependent_labels": [], "time": [1371927155, 328011], "class": "DataplanePermit", "round": -1, "prunable": true}
{"timeout_disallowed": false, "time": [1371927155, 929536], "controller_id": "c1", "fingerprint": ["ControlMessageReceive", {"in_port": 65535, "data": {"dl_dst": "00:00:00:00:00:02", "nw_src": "123.123.1.2", "dl_src": "00:00:00:00:00:01", "nw_dst": "123.123.2.2"}, "class": "ofp_packet_out", "actions": ["output(1)"]}, 1, ["c", "1"]], "timed_out": true, "dependent_labels": [], "dpid": 1, "label": "i151", "class": "ControlMessageReceive", "round": -1, "prunable": true}
{"timeout_disallowed": false, "time": [1371927155, 930331], "controller_id": "c1", "fingerprint": ["ControlMessageSend", {"data": {"class": "lldp"}, "class": "ofp_packet_in", "in_port": 1}, 1, ["c", "1"]], "timed_out": false, "dependent_labels": [], "dpid": 1, "label": "i152", "class": "ControlMessageSend", "round": -1, "prunable": true}
{"name": null, "timeout_disallowed": false, "fingerprint": ["ControllerStateChange", "link detected: %s.%i -> %s.%i", "c1"], "controller_id": "c1", "value": ["('00-00-00-00-00-02', 1, '00-00-00-00-00-01', 1)"], "timed_out": false, "dependent_labels": [], "time": [1371927155, 934703], "label": "i153", "class": "ControllerStateChange", "round": -1, "prunable": true}
{"name": null, "timeout_disallowed": false, "fingerprint": ["ControllerStateChange", "Unlearned %s", "c1"], "controller_id": "c1", "value": ["(EthAddr('00:00:00:00:00:02'),)"], "timed_out": false, "dependent_labels": [], "time": [1371927155, 936271], "label": "i154", "class": "ControllerStateChange", "round": -1, "prunable": true}
{"name": null, "timeout_disallowed": false, "fingerprint": ["ControllerStateChange", "Unlearned %s", "c1"], "controller_id": "c1", "value": ["(EthAddr('12:34:56:78:01:02'),)"], "timed_out": false, "dependent_labels": [], "time": [1371927155, 938038], "label": "i155", "class": "ControllerStateChange", "round": -1, "prunable": true}
{"class": "DataplaneDrop", "fingerprint": ["DataplaneDrop", {"dl_dst": "00:00:00:00:00:02", "nw_src": "123.123.1.2", "dl_src": "00:00:00:00:00:01", "nw_dst": "123.123.2.2"}, 1, 1], "timed_out": true, "label": "e156", "passive": false, "dependent_labels": [], "time": [1371927155, 938318], "round": -1, "prunable": true}
{"timeout_disallowed": false, "time": [1371927155, 939073], "controller_id": "c1", "fingerprint": ["ControlMessageReceive", {"hard_timeout": 0, "actions": [], "priority": 32768, "idle_timeout": 0, "command": "delete", "out_port": 65535, "flags": 0, "class": "ofp_flow_mod", "match": "x^L"}, 2, ["c", "1"]], "timed_out": false, "dependent_labels": [], "dpid": 2, "label": "i157", "class": "ControlMessageReceive", "round": -1, "prunable": true}
{"timeout_disallowed": false, "time": [1371927155, 940065], "controller_id": "c1", "fingerprint": ["ControlMessageReceive", {"hard_timeout": 0, "actions": [], "priority": 32768, "idle_timeout": 0, "command": "delete", "out_port": 65535, "flags": 0, "class": "ofp_flow_mod", "match": "x^L"}, 1, ["c", "1"]], "timed_out": false, "dependent_labels": [], "dpid": 1, "label": "i158", "class": "ControlMessageReceive", "round": -1, "prunable": true}
{"timeout_disallowed": false, "time": [1371927155, 940888], "controller_id": "c1", "fingerprint": ["ControlMessageReceive", {"in_port": 1, "data": [], "class": "ofp_packet_out", "actions": []}, 1, ["c", "1"]], "timed_out": false, "dependent_labels": [], "dpid": 1, "label": "i159", "class": "ControlMessageReceive", "round": -1, "prunable": true}
{"dependent_labels": [], "class": "TrafficInjection", "fingerprint": ["TrafficInjection", {"interface": {"hw_addr": "12:34:56:78:02:02", "ips": ["123.123.2.2"], "name": "eth2"}, "packet": "////////EjRWeAICCAYAAQgABgQAARI0VngCAnt7AgIAAAAAAAB7ewEC"}], "timed_out": false, "label": "e160", "dp_event": {"interface": {"hw_addr": "12:34:56:78:02:02", "ips": ["123.123.2.2"], "name": "eth2"}, "packet": "////////EjRWeAICCAYAAQgABgQAARI0VngCAnt7AgIAAAAAAAB7ewEC"}, "time": [1371927155, 941732], "host_id": null, "round": -1, "prunable": true}
{"class": "DataplaneDrop", "fingerprint": ["DataplaneDrop", {"class": "arp"}, "host:[IPAddr('123.123.2.2')]", "12:34:56:78:02:02"], "timed_out": false, "label": "e161", "passive": false, "dependent_labels": [], "time": [1371927155, 942350], "round": -1, "prunable": true}
{"timeout_disallowed": false, "time": [1371927155, 943012], "controller_id": "c1", "fingerprint": ["ControlMessageReceive", {"in_port": 65535, "data": {"class": "lldp"}, "class": "ofp_packet_out", "actions": ["output(1)"]}, 1, ["c", "1"]], "timed_out": false, "dependent_labels": [], "dpid": 1, "label": "i162", "class": "ControlMessageReceive", "round": -1, "prunable": true}
{"timeout_disallowed": false, "fingerprint": ["DataplanePermit", {"class": "lldp"}, 1, 1], "timed_out": false, "label": "i163", "passive": false, "dependent_labels": [], "time": [1371927155, 944101], "class": "DataplanePermit", "round": -1, "prunable": true}
{"timeout_disallowed": false, "time": [1371927155, 944600], "controller_id": "c1", "fingerprint": ["ControlMessageSend", {"data": {"class": "lldp"}, "class": "ofp_packet_in", "in_port": 1}, 2, ["c", "1"]], "timed_out": false, "dependent_labels": [], "dpid": 2, "label": "i164", "class": "ControlMessageSend", "round": -1, "prunable": true}
{"name": null, "timeout_disallowed": false, "fingerprint": ["ControllerStateChange", "link detected: %s.%i -> %s.%i", "c1"], "controller_id": "c1", "value": ["('00-00-00-00-00-01', 1, '00-00-00-00-00-02', 1)"], "timed_out": false, "dependent_labels": [], "time": [1371927155, 952777], "label": "i165", "class": "ControllerStateChange", "round": -1, "prunable": true}
{"timeout_disallowed": false, "time": [1371927155, 988194], "controller_id": "c1", "fingerprint": ["ControlMessageReceive", {"in_port": 1, "data": [], "class": "ofp_packet_out", "actions": []}, 2, ["c", "1"]], "timed_out": false, "dependent_labels": [], "dpid": 2, "label": "i166", "class": "ControlMessageReceive", "round": -1, "prunable": true}
{"timeout_disallowed": false, "time": [1371927155, 988872], "controller_id": "c1", "fingerprint": ["ControlMessageReceive", {"hard_timeout": 0, "actions": [], "priority": 32768, "idle_timeout": 0, "command": "delete", "out_port": 65535, "flags": 0, "class": "ofp_flow_mod", "match": "x^L"}, 2, ["c", "1"]], "timed_out": false, "dependent_labels": [], "dpid": 2, "label": "i167", "class": "ControlMessageReceive", "round": -1, "prunable": true}
{"timeout_disallowed": false, "time": [1371927155, 989782], "controller_id": "c1", "fingerprint": ["ControlMessageReceive", {"hard_timeout": 0, "actions": [], "priority": 32768, "idle_timeout": 0, "command": "delete", "out_port": 65535, "flags": 0, "class": "ofp_flow_mod", "match": "x^L"}, 1, ["c", "1"]], "timed_out": false, "dependent_labels": [], "dpid": 1, "label": "i168", "class": "ControlMessageReceive", "round": -1, "prunable": true}
{"legacy_invariant_check": false, "class": "CheckInvariants", "fingerprint": "N/A", "timed_out": false, "label": "e169", "dependent_labels": [], "invariant_name": "check_for_loops_or_connectivity", "invariant_check_name": "check_for_loops_or_connectivity", "time": [1371927156, 337], "invariant_check": null, "round": -1, "prunable": true}
{"dependent_labels": [], "class": "TrafficInjection", "fingerprint": ["TrafficInjection", {"interface": {"hw_addr": "12:34:56:78:01:02", "ips": ["123.123.1.2"], "name": "eth1"}, "packet": "EjRWeAICEjRWeAECCAYAAQgABgQAAhI0VngBAnt7AQISNFZ4AgJ7ewIC"}], "timed_out": false, "label": "e170", "dp_event": {"interface": {"hw_addr": "12:34:56:78:01:02", "ips": ["123.123.1.2"], "name": "eth1"}, "packet": "EjRWeAICEjRWeAECCAYAAQgABgQAAhI0VngBAnt7AQISNFZ4AgJ7ewIC"}, "time": [1371927156, 757], "host_id": null, "round": -1, "prunable": true}
{"timeout_disallowed": false, "fingerprint": ["DataplanePermit", {"class": "arp"}, "host:[IPAddr('123.123.1.2')]", "12:34:56:78:01:02"], "timed_out": false, "label": "i171", "passive": false, "dependent_labels": [], "time": [1371927156, 1414], "class": "DataplanePermit", "round": -1, "prunable": true}
{"timeout_disallowed": false, "fingerprint": ["DataplanePermit", {"class": "arp"}, 1, 1], "timed_out": false, "label": "i172", "passive": false, "dependent_labels": [], "time": [1371927156, 1940], "class": "DataplanePermit", "round": -1, "prunable": true}
{"timeout_disallowed": false, "time": [1371927156, 2253], "controller_id": "c1", "fingerprint": ["ControlMessageSend", {"data": {"class": "arp"}, "class": "ofp_packet_in", "in_port": 1}, 2, ["c", "1"]], "timed_out": false, "dependent_labels": [], "dpid": 2, "label": "i173", "class": "ControlMessageSend", "round": -1, "prunable": true}
{"new_ingress_port_no": 4, "class": "HostMigration", "fingerprint": ["HostMigration", 1, 4, 2, 4, "host:[IPAddr('123.123.2.2')]"], "timed_out": false, "label": "e174", "dependent_labels": [], "new_ingress_dpid": 2, "time": [1371927156, 2697], "old_ingress_port_no": 4, "host_id": "host:[IPAddr('123.123.2.2')]", "old_ingress_dpid": 1, "round": -1, "prunable": true}
{"name": null, "timeout_disallowed": false, "fingerprint": ["ControllerStateChange", "Learned %s at %s.%i", "c1"], "controller_id": "c1", "value": ["(EthAddr('12:34:56:78:01:02'), 00-00-00-00-00-02, 1)"], "timed_out": false, "dependent_labels": [], "time": [1371927156, 5983], "label": "i176", "class": "ControllerStateChange", "round": -1, "prunable": true}
{"name": null, "timeout_disallowed": false, "fingerprint": ["ControllerStateChange", "Installing path for %s -> %s %04x (%i hops)", "c1"], "controller_id": "c1", "value": ["(EthAddr('12:34:56:78:01:02'), EthAddr('12:34:56:78:02:02'), 2054, 2)"], "timed_out": false, "dependent_labels": [], "time": [1371927156, 7328], "label": "i177", "class": "ControllerStateChange", "round": -1, "prunable": true}
{"timeout_disallowed": false, "fingerprint": ["DataplanePermit", {"dl_dst": "12:34:56:78:02:02", "nw_src": "123.123.2.2", "dl_src": "12:34:56:78:02:02", "nw_dst": "123.123.2.2"}, "host:[IPAddr('123.123.2.2')]", "12:34:56:78:02:02"], "timed_out": true, "label": "i178", "passive": false, "dependent_labels": [], "time": [1371927156, 626393], "class": "DataplanePermit", "round": -1, "prunable": true}
{"timeout_disallowed": false, "time": [1371927156, 627478], "controller_id": "c1", "fingerprint": ["ControlMessageReceive", {"hard_timeout": 30, "actions": ["output(1)"], "priority": 32768, "idle_timeout": 10, "command": "add", "out_port": 65535, "flags": 0, "class": "ofp_flow_mod", "match": "dl_src:12:34:56:78:01:02,dl_dst:12:34:56:78:02:02,dl_vlan:65535,dl_vlan_pcp:0,dl_type:2054,nw_proto:2,nw_src:123.123.1.2/32,nw_dst:123.123.2.2/32"}, 2, ["c", "1"]], "timed_out": false, "dependent_labels": [], "dpid": 2, "label": "i179", "class": "ControlMessageReceive", "round": -1, "prunable": true}
{"timeout_disallowed": false, "time": [1371927157, 231724], "controller_id": "c1", "fingerprint": ["ControlMessageReceive", {"hard_timeout": 30, "actions": ["output(7)"], "priority": 32768, "idle_timeout": 10, "command": "add", "out_port": 65535, "flags": 0, "class": "ofp_flow_mod", "match": "dl_src:12:34:56:78:01:02,dl_dst:12:34:56:78:02:02,dl_vlan:65535,dl_vlan_pcp:0,dl_type:2054,nw_proto:2,nw_src:123.123.1.2/32,nw_dst:123.123.2.2/32"}, 1, ["c", "1"]], "timed_out": true, "dependent_labels": [], "dpid": 1, "label": "i180", "class": "ControlMessageReceive", "round": -1, "prunable": true}
{"timeout_disallowed": false, "time": [1371927157, 232544], "controller_id": "c1", "fingerprint": ["ControlMessageSend", {"reason": 0, "class": "ofp_port_status", "desc": [4, "00:00:00:00:02:02"]}, 2, ["c", "1"]], "timed_out": false, "dependent_labels": [], "dpid": 2, "label": "i181", "class": "ControlMessageSend", "round": -1, "prunable": true}
{"timeout_disallowed": false, "time": [1371927157, 838903], "controller_id": "c1", "fingerprint": ["ControlMessageSend", {"reason": 1, "class": "ofp_port_status", "desc": [7, "00:00:00:00:02:02"]}, 1, ["c", "1"]], "timed_out": true, "dependent_labels": [], "dpid": 1, "label": "i182", "class": "ControlMessageSend", "round": -1, "prunable": true}
{"timeout_disallowed": false, "time": [1371927158, 442226], "controller_id": "c1", "fingerprint": ["ControlMessageSend", {"data": {"dl_dst": "12:34:56:78:02:02", "nw_src": "123.123.2.2", "dl_src": "12:34:56:78:02:02", "nw_dst": "123.123.2.2"}, "class": "ofp_packet_in", "in_port": 4}, 2, ["c", "1"]], "timed_out": true, "dependent_labels": [], "dpid": 2, "label": "i183", "class": "ControlMessageSend", "round": -1, "prunable": true}
{"name": null, "timeout_disallowed": false, "fingerprint": ["ControllerStateChange", "%s moved from %s.%i to %s.%i?", "c1"], "controller_id": "c1", "value": ["(EthAddr('12:34:56:78:02:02'), '00-00-00-00-00-01', 7, '00-00-00-00-00-02', 4)"], "timed_out": true, "dependent_labels": [], "time": [1371927159, 43990], "label": "i184", "class": "ControllerStateChange", "round": -1, "prunable": true}
{"name": null, "timeout_disallowed": false, "fingerprint": ["ControllerStateChange", "Learned %s at %s.%i", "c1"], "controller_id": "c1", "value": ["(EthAddr('12:34:56:78:02:02'), 00-00-00-00-00-02, 4)"], "timed_out": true, "dependent_labels": [], "time": [1371927159, 646556], "label": "i185", "class": "ControllerStateChange", "round": -1, "prunable": true}
{"name": null, "timeout_disallowed": false, "fingerprint": ["ControllerStateChange", "Installing path for %s -> %s %04x (%i hops)", "c1"], "controller_id": "c1", "value": ["(EthAddr('12:34:56:78:02:02'), EthAddr('12:34:56:78:02:02'), 2048, 1)"], "timed_out": true, "dependent_labels": [], "time": [1371927160, 247782], "label": "i186", "class": "ControllerStateChange", "round": -1, "prunable": true}
{"timeout_disallowed": false, "time": [1371927160, 851343], "controller_id": "c1", "fingerprint": ["ControlMessageReceive", {"hard_timeout": 30, "actions": ["output(4)"], "priority": 32768, "idle_timeout": 10, "command": "add", "out_port": 65535, "flags": 0, "class": "ofp_flow_mod", "match": "dl_src:12:34:56:78:02:02,dl_dst:12:34:56:78:02:02,dl_vlan:65535,dl_vlan_pcp:0,dl_type:2048,nw_tos:0,nw_proto:1,nw_src:123.123.2.2/32,nw_dst:123.123.2.2/32,tp_src:0,tp_dst:0"}, 2, ["c", "1"]], "timed_out": true, "dependent_labels": [], "dpid": 2, "label": "i187", "class": "ControlMessageReceive", "round": -1, "prunable": true}
{"timeout_disallowed": false, "fingerprint": ["DataplanePermit", {"dl_dst": "12:34:56:78:01:02", "nw_src": "123.123.2.2", "dl_src": "12:34:56:78:02:02", "nw_dst": "123.123.1.2"}, "host:[IPAddr('123.123.2.2')]", "12:34:56:78:02:02"], "timed_out": true, "label": "i189", "passive": false, "dependent_labels": [], "time": [1371927161, 362451], "class": "DataplanePermit", "round": -1, "prunable": true}
{"timeout_disallowed": false, "time": [1371927161, 993800], "controller_id": "c1", "fingerprint": ["ControlMessageSend", {"data": {"dl_dst": "12:34:56:78:01:02", "nw_src": "123.123.2.2", "dl_src": "12:34:56:78:02:02", "nw_dst": "123.123.1.2"}, "class": "ofp_packet_in", "in_port": 4}, 2, ["c", "1"]], "timed_out": true, "dependent_labels": [], "dpid": 2, "label": "i190", "class": "ControlMessageSend", "round": -1, "prunable": true}
{"name": null, "timeout_disallowed": false, "fingerprint": ["ControllerStateChange", "Installing path for %s -> %s %04x (%i hops)", "c1"], "controller_id": "c1", "value": ["(EthAddr('12:34:56:78:02:02'), EthAddr('12:34:56:78:01:02'), 2048, 1)"], "timed_out": true, "dependent_labels": [], "time": [1371927162, 630986], "label": "i191", "class": "ControllerStateChange", "round": -1, "prunable": true}
{"timeout_disallowed": false, "time": [1371927163, 229567], "controller_id": "c1", "fingerprint": ["ControlMessageReceive", {"hard_timeout": 30, "actions": ["output(1)"], "priority": 32768, "idle_timeout": 10, "command": "add", "out_port": 65535, "flags": 0, "class": "ofp_flow_mod", "match": "dl_src:12:34:56:78:02:02,dl_dst:12:34:56:78:01:02,dl_vlan:65535,dl_vlan_pcp:0,dl_type:2048,nw_tos:0,nw_proto:1,nw_src:123.123.2.2/32,nw_dst:123.123.1.2/32,tp_src:8,tp_dst:0"}, 2, ["c", "1"]], "timed_out": true, "dependent_labels": [], "dpid": 2, "label": "i192", "class": "ControlMessageReceive", "round": -1, "prunable": true}
{"timeout_disallowed": false, "fingerprint": ["DataplanePermit", {"dl_dst": "12:34:56:78:01:02", "nw_src": "123.123.2.2", "dl_src": "12:34:56:78:02:02", "nw_dst": "123.123.1.2"}, 2, 1], "timed_out": true, "label": "i193", "passive": false, "dependent_labels": [], "time": [1371927163, 831249], "class": "DataplanePermit", "round": -1, "prunable": true}
{"timeout_disallowed": false, "time": [1371927164, 434188], "controller_id": "c1", "fingerprint": ["ControlMessageSend", {"data": {"dl_dst": "12:34:56:78:01:02", "nw_src": "123.123.2.2", "dl_src": "12:34:56:78:02:02", "nw_dst": "123.123.1.2"}, "class": "ofp_packet_in", "in_port": 1}, 1, ["c", "1"]], "timed_out": true, "dependent_labels": [], "dpid": 1, "label": "i194", "class": "ControlMessageSend", "round": -1, "prunable": true}
{"name": null, "timeout_disallowed": false, "fingerprint": ["ControllerStateChange", "Packet from %s arrived at %s.%i without flow", "c1"], "controller_id": "c1", "value": ["(EthAddr('12:34:56:78:02:02'), '00-00-00-00-00-01', 1)"], "timed_out": true, "dependent_labels": [], "time": [1371927165, 35393], "label": "i197", "class": "ControllerStateChange", "round": -1, "prunable": true}
{"name": null, "timeout_disallowed": false, "fingerprint": ["ControllerStateChange", "Installing path for %s -> %s %04x (%i hops)", "c1"], "controller_id": "c1", "value": ["(EthAddr('12:34:56:78:02:02'), EthAddr('12:34:56:78:01:02'), 2048, 2)"], "timed_out": true, "dependent_labels": [], "time": [1371927165, 638831], "label": "i198", "class": "ControllerStateChange", "round": -1, "prunable": true}
{"timeout_disallowed": false, "fingerprint": ["DataplanePermit", {"dl_dst": "12:34:56:78:01:02", "nw_src": "123.123.1.2", "dl_src": "12:34:56:78:01:02", "nw_dst": "123.123.1.2"}, "host:[IPAddr('123.123.1.2')]", "12:34:56:78:01:02"], "timed_out": true, "label": "i199", "passive": false, "dependent_labels": [], "time": [1371927166, 236459], "class": "DataplanePermit", "round": -1, "prunable": true}
{"timeout_disallowed": false, "time": [1371927166, 838120], "controller_id": "c1", "fingerprint": ["ControlMessageReceive", {"hard_timeout": 30, "actions": ["output(1)"], "priority": 32768, "idle_timeout": 10, "command": "add", "out_port": 65535, "flags": 0, "class": "ofp_flow_mod", "match": "dl_src:12:34:56:78:02:02,dl_dst:12:34:56:78:01:02,dl_vlan:65535,dl_vlan_pcp:0,dl_type:2048,nw_tos:0,nw_proto:1,nw_src:123.123.2.2/32,nw_dst:123.123.1.2/32,tp_src:8,tp_dst:0"}, 1, ["c", "1"]], "timed_out": true, "dependent_labels": [], "dpid": 1, "label": "i200", "class": "ControlMessageReceive", "round": -1, "prunable": true}
{"timeout_disallowed": false, "time": [1371927167, 440906], "controller_id": "c1", "fingerprint": ["ControlMessageReceive", {"hard_timeout": 30, "actions": ["output(1)"], "priority": 32768, "idle_timeout": 10, "command": "add", "out_port": 65535, "flags": 0, "class": "ofp_flow_mod", "match": "dl_src:12:34:56:78:02:02,dl_dst:12:34:56:78:01:02,dl_vlan:65535,dl_vlan_pcp:0,dl_type:2048,nw_tos:0,nw_proto:1,nw_src:123.123.2.2/32,nw_dst:123.123.1.2/32,tp_src:8,tp_dst:0"}, 2, ["c", "1"]], "timed_out": true, "dependent_labels": [], "dpid": 2, "label": "i201", "class": "ControlMessageReceive", "round": -1, "prunable": true}
{"timeout_disallowed": false, "time": [1371927168, 42067], "controller_id": "c1", "fingerprint": ["ControlMessageSend", {"reason": 1, "class": "ofp_port_status", "desc": [5, "00:00:00:00:01:02"]}, 1, ["c", "1"]], "timed_out": true, "dependent_labels": [], "dpid": 1, "label": "i202", "class": "ControlMessageSend", "round": -1, "prunable": true}
{"timeout_disallowed": false, "time": [1371927168, 645808], "controller_id": "c1", "fingerprint": ["ControlMessageSend", {"data": {"dl_dst": "12:34:56:78:01:02", "nw_src": "123.123.1.2", "dl_src": "12:34:56:78:01:02", "nw_dst": "123.123.1.2"}, "class": "ofp_packet_in", "in_port": 8}, 1, ["c", "1"]], "timed_out": true, "dependent_labels": [], "dpid": 1, "label": "i203", "class": "ControlMessageSend", "round": -1, "prunable": true}
{"timeout_disallowed": false, "time": [1371927169, 248613], "controller_id": "c1", "fingerprint": ["ControlMessageSend", {"reason": 0, "class": "ofp_port_status", "desc": [8, "00:00:00:00:01:02"]}, 1, ["c", "1"]], "timed_out": true, "dependent_labels": [], "dpid": 1, "label": "i204", "class": "ControlMessageSend", "round": -1, "prunable": true}
{"name": null, "timeout_disallowed": false, "fingerprint": ["ControllerStateChange", "%s moved from %s.%i to %s.%i?", "c1"], "controller_id": "c1", "value": ["(EthAddr('12:34:56:78:01:02'), '00-00-00-00-00-02', 1, '00-00-00-00-00-01', 8)"], "timed_out": true, "dependent_labels": [], "time": [1371927169, 850187], "label": "i205", "class": "ControllerStateChange", "round": -1, "prunable": true}
{"name": null, "timeout_disallowed": false, "fingerprint": ["ControllerStateChange", "Learned %s at %s.%i", "c1"], "controller_id": "c1", "value": ["(EthAddr('12:34:56:78:01:02'), 00-00-00-00-00-01, 8)"], "timed_out": true, "dependent_labels": [], "time": [1371927170, 452955], "label": "i206", "class": "ControllerStateChange", "round": -1, "prunable": true}
{"name": null, "timeout_disallowed": false, "fingerprint": ["ControllerStateChange", "Installing path for %s -> %s %04x (%i hops)", "c1"], "controller_id": "c1", "value": ["(EthAddr('12:34:56:78:01:02'), EthAddr('12:34:56:78:01:02'), 2048, 1)"], "timed_out": true, "dependent_labels": [], "time": [1371927171, 54158], "label": "i207", "class": "ControllerStateChange", "round": -1, "prunable": true}
{"timeout_disallowed": false, "time": [1371927171, 657747], "controller_id": "c1", "fingerprint": ["ControlMessageReceive", {"hard_timeout": 30, "actions": ["output(8)"], "priority": 32768, "idle_timeout": 10, "command": "add", "out_port": 65535, "flags": 0, "class": "ofp_flow_mod", "match": "dl_src:12:34:56:78:01:02,dl_dst:12:34:56:78:01:02,dl_vlan:65535,dl_vlan_pcp:0,dl_type:2048,nw_tos:0,nw_proto:1,nw_src:123.123.1.2/32,nw_dst:123.123.1.2/32,tp_src:0,tp_dst:0"}, 1, ["c", "1"]], "timed_out": true, "dependent_labels": [], "dpid": 1, "label": "i208", "class": "ControlMessageReceive", "round": -1, "prunable": true}
{"fingerprint": ["InvariantViolation"], "dependent_labels": [], "time": [1371927172, 170526], "violations": ["{'hs_history': [x^L, dl_src:12:34:56:78:01:02,dl_dst:12:34:56:78:02:02,dl_vlan:65535,dl_vlan_pcp:0,dl_type:2054,nw_proto:2,nw_src:123.123.1.2/32,nw_dst:123.123.2.2/32], 'hdr': dl_src:12:34:56:78:01:02,dl_dst:12:34:56:78:02:02,dl_vlan:65535,dl_vlan_pcp:0,dl_type:2054,nw_proto:2,nw_src:123.123.1.2/32,nw_dst:123.123.2.2/32, 'visits': [200001, 100001], 'port': 200001}", "{'hs_history': [x^L, dl_src:12:34:56:78:01:02,dl_dst:12:34:56:78:02:02,dl_vlan:65535,dl_vlan_pcp:0,dl_type:2054,nw_proto:2,nw_src:123.123.1.2/32,nw_dst:123.123.2.2/32], 'hdr': dl_src:12:34:56:78:01:02,dl_dst:12:34:56:78:02:02,dl_vlan:65535,dl_vlan_pcp:0,dl_type:2054,nw_proto:2,nw_src:123.123.1.2/32,nw_dst:123.123.2.2/32, 'visits': [100001, 200001], 'port': 100001}"], "prunable": true, "class": "InvariantViolation", "timed_out": false, "round": -1, "label": "e215"}
{"wait_time": 1.0, "dependent_labels": [], "fingerprint": ["WaitTime"], "time": [1371927172, 170526], "class": "WaitTime", "prunable": true, "timed_out": false, "round": -1, "label": "e216"}
