{
  "ambiguous_counts": {},
  "ambiguous_events": {},
  "config": "SimulationConfig(controller_configs=[ControllerConfig(start_cmd='./pox.py --verbose sts.syncproto.pox_syncer --blocking=False openflow.discovery forwarding.l2_multi sts.util.socket_mux.pox_monkeypatcher openflow.of_01 --address=__address__ --port=__port__', address='127.0.0.1', port=6633, cwd='pox', sync='tcp:localhost:18899')],\n                 topology_class=MeshTopology,\n                 topology_params=\"num_switches=2\",\n                 patch_panel_class=BufferedPatchPanel,\n                 multiplex_sockets=True)",
  "early_internal_events": {
    "1": []
  },
  "initial_verification_runs_needed": 0,
  "iteration_size": {
    "0": 38
  },
  "matched_events": {
    "1": {
      "CheckInvariants": 5,
      "ConnectToControllers": 1,
      "ControlMessageReceive": 40,
      "ControlMessageSend": 39,
      "ControllerStateChange": 58,
      "DataplaneDrop": 8,
      "DataplanePermit": 24,
      "HostMigration": 7,
      "TrafficInjection": 17
    }
  },
  "new_internal_events": {
    "1": [
      "PendingReceive(dpid=2, controller_id='c1', fingerprint=OFFingerprint{'actions': ('output(2)',), 'data': DPFingerprint{'class': 'lldp'}, 'class': 'ofp_packet_out', 'in_port': 65535})",
      "PendingReceive(dpid=2, controller_id='c1', fingerprint=OFFingerprint{'actions': ('output(1)',), 'data': DPFingerprint{'class': 'lldp'}, 'class': 'ofp_packet_out', 'in_port': 65535})"
    ]
  },
  "original_duration_seconds": 13.335306882858276,
  "peeker": false,
  "prune_duration_seconds": 0,
  "prune_start_epoch": 1371418795.449703,
  "replay_duration_seconds": 4.214958906173706,
  "replay_end_epoch": 1371418795.449266,
  "replay_start_epoch": 1371418791.234307,
  "runtime_stats_file": "experiments/updated_debug_branch_loop_mcs/intermcs_3_/runtime_stats.json",
  "timed_out_events": {
    "1": {
      "ControlMessageSend": 3
    }
  },
  "total_events": 210,
  "total_inputs": 45,
  "total_inputs_replayed": 340,
  "total_replays": 10,
  "violation_found_in_run": {
    "0": 3
  }
}