{"timeout_disallowed": true, "fingerprint": ["ConnectToControllers"], "timed_out": false, "label": "e1", "dependent_labels": [], "time": [1390978897, 677350], "replay_time": [1390978936, 759052], "class": "ConnectToControllers", "round": 0, "prunable": false}
{"pass_through_sends": false, "timeout_disallowed": false, "time": [1390978898, 692084], "controller_id": "c1", "fingerprint": ["ControlMessageReceive", {"class": "ofp_hello"}, 1, ["c", "1"]], "timed_out": false, "dependent_labels": [], "ignore_whitelisted_packets": false, "dpid": 1, "replay_time": [1390978936, 782515], "label": "i2", "class": "ControlMessageReceive", "b64_packet": "AQAACAAAAAE=", "round": 1, "prunable": true}
{"pass_through_sends": false, "timeout_disallowed": false, "time": [1390978898, 692937], "controller_id": "c1", "fingerprint": ["ControlMessageSend", {"class": "ofp_hello"}, 1, ["c", "1"]], "timed_out": false, "dependent_labels": [], "ignore_whitelisted_packets": false, "dpid": 1, "replay_time": [1390978936, 783668], "label": "i3", "class": "ControlMessageSend", "b64_packet": "AQAACAAAAAE=", "round": 1, "prunable": true}
{"end_port_no": 3, "dependent_labels": ["e52"], "start_dpid": 1, "fingerprint": ["LinkFailure", 1, 3, 2, 3], "timed_out": false, "label": "e4", "start_port_no": 3, "end_dpid": 2, "time": [1390978898, 693635], "replay_time": [1390978936, 784660], "class": "LinkFailure", "round": 1, "prunable": true}
{"end_port_no": 3, "dependent_labels": ["e27"], "start_dpid": 1, "fingerprint": ["LinkFailure", 1, 2, 3, 3], "timed_out": false, "label": "e5", "start_port_no": 2, "end_dpid": 3, "time": [1390978898, 694236], "replay_time": [1390978936, 785371], "class": "LinkFailure", "round": 1, "prunable": true}
{"end_port_no": 2, "dependent_labels": ["e28"], "start_dpid": 2, "fingerprint": ["LinkFailure", 2, 2, 3, 2], "timed_out": false, "label": "e6", "start_port_no": 2, "end_dpid": 3, "time": [1390978898, 694731], "replay_time": [1390978936, 786084], "class": "LinkFailure", "round": 1, "prunable": true}
{"end_port_no": 3, "dependent_labels": ["e30"], "start_dpid": 2, "fingerprint": ["LinkFailure", 2, 3, 1, 3], "timed_out": false, "label": "e7", "start_port_no": 3, "end_dpid": 1, "time": [1390978898, 695194], "replay_time": [1390978936, 786617], "class": "LinkFailure", "round": 1, "prunable": true}
{"end_port_no": 1, "dependent_labels": ["e29"], "start_dpid": 3, "fingerprint": ["LinkFailure", 3, 1, 4, 1], "timed_out": false, "label": "e8", "start_port_no": 1, "end_dpid": 4, "time": [1390978898, 695651], "replay_time": [1390978936, 786968], "class": "LinkFailure", "round": 1, "prunable": true}
{"end_port_no": 1, "dependent_labels": ["e55"], "start_dpid": 4, "fingerprint": ["LinkFailure", 4, 3, 1, 1], "timed_out": false, "label": "e9", "start_port_no": 3, "end_dpid": 1, "time": [1390978898, 696106], "replay_time": [1390978936, 787290], "class": "LinkFailure", "round": 1, "prunable": true}
{"legacy_invariant_check": false, "class": "CheckInvariants", "fingerprint": "N/A", "timed_out": false, "label": "e10", "dependent_labels": [], "invariant_name": "InvariantChecker.check_liveness", "invariant_check_name": "InvariantChecker.check_liveness", "time": [1390978898, 696718], "replay_time": [1390978936, 787579], "invariant_check": null, "round": 1, "prunable": true}
{"pass_through_sends": false, "timeout_disallowed": false, "time": [1390978898, 797655], "controller_id": "c1", "fingerprint": ["ControlMessageReceive", {"class": "ofp_hello"}, 4, ["c", "1"]], "timed_out": false, "dependent_labels": [], "ignore_whitelisted_packets": false, "dpid": 4, "replay_time": [1390978936, 788124], "label": "i11", "class": "ControlMessageReceive", "b64_packet": "AQAACAAAAAQ=", "round": 2, "prunable": true}
{"pass_through_sends": false, "timeout_disallowed": false, "time": [1390978898, 798458], "controller_id": "c1", "fingerprint": ["ControlMessageReceive", {"class": "ofp_hello"}, 3, ["c", "1"]], "timed_out": false, "dependent_labels": [], "ignore_whitelisted_packets": false, "dpid": 3, "replay_time": [1390978936, 788524], "label": "i12", "class": "ControlMessageReceive", "b64_packet": "AQAACAAAAAM=", "round": 2, "prunable": true}
{"pass_through_sends": false, "timeout_disallowed": false, "time": [1390978898, 798938], "controller_id": "c1", "fingerprint": ["ControlMessageReceive", {"class": "ofp_hello"}, 2, ["c", "1"]], "timed_out": false, "dependent_labels": [], "ignore_whitelisted_packets": false, "dpid": 2, "replay_time": [1390978936, 788896], "label": "i13", "class": "ControlMessageReceive", "b64_packet": "AQAACAAAAAI=", "round": 2, "prunable": true}
{"pass_through_sends": false, "timeout_disallowed": false, "time": [1390978898, 799390], "controller_id": "c1", "fingerprint": ["ControlMessageReceive", {"class": "ofp_features_request"}, 1, ["c", "1"]], "timed_out": false, "dependent_labels": [], "ignore_whitelisted_packets": false, "dpid": 1, "replay_time": [1390978936, 789472], "label": "i14", "class": "ControlMessageReceive", "b64_packet": "AQUACAAAAAU=", "round": 2, "prunable": true}
{"pass_through_sends": false, "timeout_disallowed": false, "time": [1390978898, 800149], "controller_id": "c1", "fingerprint": ["ControlMessageSend", {"reason": 2, "class": "ofp_port_status", "desc": [3, "00:00:00:00:04:03"]}, 4, ["c", "1"]], "timed_out": false, "dependent_labels": [], "ignore_whitelisted_packets": false, "dpid": 4, "replay_time": [1390978936, 789814], "label": "i15", "class": "ControlMessageSend", "b64_packet": "AQwAQAAAAA0CAAAAAAAAAAADAAAAAAQDZXRoMwAAAAAAAAAAAAAAAAAAAAAAAAABAAAAAAAAAAAAAAAAAAAAAA==", "round": 2, "prunable": true}
{"pass_through_sends": false, "timeout_disallowed": false, "time": [1390978898, 800667], "controller_id": "c1", "fingerprint": ["ControlMessageSend", {"reason": 2, "class": "ofp_port_status", "desc": [3, "00:00:00:00:01:03"]}, 1, ["c", "1"]], "timed_out": false, "dependent_labels": [], "ignore_whitelisted_packets": false, "dpid": 1, "replay_time": [1390978936, 790227], "label": "i16", "class": "ControlMessageSend", "b64_packet": "AQwAQAAAAAMCAAAAAAAAAAADAAAAAAEDZXRoMwAAAAAAAAAAAAAAAAAAAAAAAAABAAAAAAAAAAAAAAAAAAAAAA==", "round": 2, "prunable": true}
{"pass_through_sends": false, "timeout_disallowed": false, "time": [1390978898, 801103], "controller_id": "c1", "fingerprint": ["ControlMessageSend", {"class": "ofp_hello"}, 3, ["c", "1"]], "timed_out": false, "dependent_labels": [], "ignore_whitelisted_packets": false, "dpid": 3, "replay_time": [1390978936, 790587], "label": "i17", "class": "ControlMessageSend", "b64_packet": "AQAACAAAABE=", "round": 2, "prunable": true}
{"pass_through_sends": false, "timeout_disallowed": false, "time": [1390978898, 801438], "controller_id": "c1", "fingerprint": ["ControlMessageSend", {"reason": 2, "class": "ofp_port_status", "desc": [3, "00:00:00:00:02:03"]}, 2, ["c", "1"]], "timed_out": false, "dependent_labels": [], "ignore_whitelisted_packets": false, "dpid": 2, "replay_time": [1390978936, 790899], "label": "i18", "class": "ControlMessageSend", "b64_packet": "AQwAQAAAAAkCAAAAAAAAAAADAAAAAAIDZXRoMwAAAAAAAAAAAAAAAAAAAAAAAAABAAAAAAAAAAAAAAAAAAAAAA==", "round": 2, "prunable": true}
{"pass_through_sends": false, "timeout_disallowed": false, "time": [1390978898, 801912], "controller_id": "c1", "fingerprint": ["ControlMessageSend", {"datapath_id": 1, "class": "ofp_features_reply"}, 1, ["c", "1"]], "timed_out": false, "dependent_labels": [], "ignore_whitelisted_packets": false, "dpid": 1, "replay_time": [1390978936, 791273], "label": "i19", "class": "ControlMessageSend", "b64_packet": "AQYA4AAAAAUAAAAAAAAAAQAAAGQBAAAAAAAA7wAAB/8AAQAAAAABAWV0aDEAAAAAAAAAAAAAAAAAAAAAAAAAAAAAAAAAAAAAAAAAAAAAAAAAAgAAAAABAmV0aDIAAAAAAAAAAAAAAAAAAAAAAAAAAQAAAAAAAAAAAAAAAAAAAAAAAwAAAAABA2V0aDMAAAAAAAAAAAAAAAAAAAAAAAAAAQAAAAAAAAAAAAAAAAAAAAAABAAAAAABBGV0aDQAAAAAAAAAAAAAAAAAAAAAAAAAAAAAAAAAAAAAAAAAAAAAAAA=", "round": 2, "prunable": true}
{"pass_through_sends": false, "timeout_disallowed": false, "time": [1390978898, 802359], "controller_id": "c1", "fingerprint": ["ControlMessageSend", {"reason": 2, "class": "ofp_port_status", "desc": [2, "00:00:00:00:01:02"]}, 1, ["c", "1"]], "timed_out": false, "dependent_labels": [], "ignore_whitelisted_packets": false, "dpid": 1, "replay_time": [1390978936, 791616], "label": "i20", "class": "ControlMessageSend", "b64_packet": "AQwAQAAAAAUCAAAAAAAAAAACAAAAAAECZXRoMgAAAAAAAAAAAAAAAAAAAAAAAAABAAAAAAAAAAAAAAAAAAAAAA==", "round": 2, "prunable": true}
{"pass_through_sends": false, "timeout_disallowed": false, "time": [1390978898, 802829], "controller_id": "c1", "fingerprint": ["ControlMessageSend", {"reason": 2, "class": "ofp_port_status", "desc": [2, "00:00:00:00:02:02"]}, 2, ["c", "1"]], "timed_out": false, "dependent_labels": [], "ignore_whitelisted_packets": false, "dpid": 2, "replay_time": [1390978936, 792009], "label": "i21", "class": "ControlMessageSend", "b64_packet": "AQwAQAAAAAcCAAAAAAAAAAACAAAAAAICZXRoMgAAAAAAAAAAAAAAAAAAAAAAAAABAAAAAAAAAAAAAAAAAAAAAA==", "round": 2, "prunable": true}
{"pass_through_sends": false, "timeout_disallowed": false, "time": [1390978898, 803247], "controller_id": "c1", "fingerprint": ["ControlMessageSend", {"class": "ofp_hello"}, 2, ["c", "1"]], "timed_out": false, "dependent_labels": [], "ignore_whitelisted_packets": false, "dpid": 2, "replay_time": [1390978936, 792338], "label": "i22", "class": "ControlMessageSend", "b64_packet": "AQAACAAAABM=", "round": 2, "prunable": true}
{"pass_through_sends": false, "timeout_disallowed": false, "time": [1390978898, 803586], "controller_id": "c1", "fingerprint": ["ControlMessageSend", {"class": "ofp_hello"}, 4, ["c", "1"]], "timed_out": false, "dependent_labels": [], "ignore_whitelisted_packets": false, "dpid": 4, "replay_time": [1390978936, 792616], "label": "i23", "class": "ControlMessageSend", "b64_packet": "AQAACAAAAA8=", "round": 2, "prunable": true}
{"pass_through_sends": false, "timeout_disallowed": false, "time": [1390978898, 803914], "controller_id": "c1", "fingerprint": ["ControlMessageSend", {"reason": 2, "class": "ofp_port_status", "desc": [1, "00:00:00:00:03:01"]}, 3, ["c", "1"]], "timed_out": false, "dependent_labels": [], "ignore_whitelisted_packets": false, "dpid": 3, "replay_time": [1390978936, 792925], "label": "i24", "class": "ControlMessageSend", "b64_packet": "AQwAQAAAAAsCAAAAAAAAAAABAAAAAAMBZXRoMQAAAAAAAAAAAAAAAAAAAAAAAAABAAAAAAAAAAAAAAAAAAAAAA==", "round": 2, "prunable": true}
{"end_port_no": 1, "dependent_labels": ["e53"], "start_dpid": 4, "fingerprint": ["LinkFailure", 4, 2, 2, 1], "timed_out": false, "label": "e25", "start_port_no": 2, "end_dpid": 2, "time": [1390978898, 804639], "replay_time": [1390978936, 793341], "class": "LinkFailure", "round": 2, "prunable": true}
{"end_port_no": 2, "dependent_labels": ["e54"], "start_dpid": 3, "fingerprint": ["LinkFailure", 3, 3, 1, 2], "timed_out": false, "label": "e26", "start_port_no": 3, "end_dpid": 1, "time": [1390978898, 805172], "replay_time": [1390978936, 793663], "class": "LinkFailure", "round": 2, "prunable": true}
{"end_port_no": 3, "dependent_labels": [], "start_dpid": 1, "fingerprint": ["LinkRecovery", 1, 2, 3, 3], "timed_out": false, "label": "e27", "start_port_no": 2, "end_dpid": 3, "time": [1390978898, 805669], "replay_time": [1390978936, 793990], "class": "LinkRecovery", "round": 2, "prunable": true}
{"end_port_no": 2, "dependent_labels": [], "start_dpid": 2, "fingerprint": ["LinkRecovery", 2, 2, 3, 2], "timed_out": false, "label": "e28", "start_port_no": 2, "end_dpid": 3, "time": [1390978898, 806148], "replay_time": [1390978936, 794304], "class": "LinkRecovery", "round": 2, "prunable": true}
{"end_port_no": 1, "dependent_labels": [], "start_dpid": 3, "fingerprint": ["LinkRecovery", 3, 1, 4, 1], "timed_out": false, "label": "e29", "start_port_no": 1, "end_dpid": 4, "time": [1390978898, 806547], "replay_time": [1390978936, 794620], "class": "LinkRecovery", "round": 2, "prunable": true}
{"end_port_no": 3, "dependent_labels": [], "start_dpid": 2, "fingerprint": ["LinkRecovery", 2, 3, 1, 3], "timed_out": false, "label": "e30", "start_port_no": 3, "end_dpid": 1, "time": [1390978898, 806774], "replay_time": [1390978936, 794919], "class": "LinkRecovery", "round": 2, "prunable": true}
{"legacy_invariant_check": false, "class": "CheckInvariants", "fingerprint": "N/A", "timed_out": false, "label": "e31", "dependent_labels": [], "invariant_name": "InvariantChecker.check_liveness", "invariant_check_name": "InvariantChecker.check_liveness", "time": [1390978898, 807031], "replay_time": [1390978936, 795158], "invariant_check": null, "round": 2, "prunable": true}
{"pass_through_sends": false, "timeout_disallowed": false, "time": [1390978898, 907545], "controller_id": "c1", "fingerprint": ["ControlMessageReceive", {"class": "ofp_barrier_request"}, 1, ["c", "1"]], "timed_out": false, "dependent_labels": [], "ignore_whitelisted_packets": false, "dpid": 1, "replay_time": [1390978936, 839644], "label": "i32", "class": "ControlMessageReceive", "b64_packet": "ARIACAAAAAg=", "round": 3, "prunable": true}
{"pass_through_sends": false, "timeout_disallowed": false, "time": [1390978898, 907923], "controller_id": "c1", "fingerprint": ["ControlMessageReceive", {"class": "ofp_set_config"}, 1, ["c", "1"]], "timed_out": false, "dependent_labels": [], "ignore_whitelisted_packets": false, "dpid": 1, "replay_time": [1390978936, 840131], "label": "i33", "class": "ControlMessageReceive", "b64_packet": "AQkADAAAAAYAAACA", "round": 3, "prunable": true}
{"pass_through_sends": false, "timeout_disallowed": false, "time": [1390978898, 908123], "controller_id": "c1", "fingerprint": ["ControlMessageReceive", {"class": "ofp_features_request"}, 3, ["c", "1"]], "timed_out": false, "dependent_labels": [], "ignore_whitelisted_packets": false, "dpid": 3, "replay_time": [1390978936, 840571], "label": "i34", "class": "ControlMessageReceive", "b64_packet": "AQUACAAAAAs=", "round": 3, "prunable": true}
{"pass_through_sends": false, "timeout_disallowed": false, "time": [1390978898, 908556], "controller_id": "c1", "fingerprint": ["ControlMessageReceive", {"class": "ofp_features_request"}, 2, ["c", "1"]], "timed_out": false, "dependent_labels": [], "ignore_whitelisted_packets": false, "dpid": 2, "replay_time": [1390978936, 840972], "label": "i35", "class": "ControlMessageReceive", "b64_packet": "AQUACAAAAAk=", "round": 3, "prunable": true}
{"pass_through_sends": false, "timeout_disallowed": false, "time": [1390978898, 908883], "controller_id": "c1", "fingerprint": ["ControlMessageReceive", {"hard_timeout": 0, "actions": [], "priority": 32768, "idle_timeout": 0, "command": "delete", "out_port": 65535, "flags": 0, "class": "ofp_flow_mod", "match": "x^L,in_port:None"}, 1, ["c", "1"]], "timed_out": false, "dependent_labels": [], "ignore_whitelisted_packets": false, "dpid": 1, "replay_time": [1390978936, 841505], "label": "i36", "class": "ControlMessageReceive", "b64_packet": "AQ4ASAAAAAcAEAAfAAAAAAAAAAAAAAAAAAAAAAAAAAAAAAAAAAAAAAAAAAAAAAAAAAAAAAAAAAAAAwAAAACAAP///////wAA", "round": 3, "prunable": true}
{"pass_through_sends": false, "timeout_disallowed": false, "time": [1390978898, 909425], "controller_id": "c1", "fingerprint": ["ControlMessageReceive", {"class": "ofp_features_request"}, 4, ["c", "1"]], "timed_out": false, "dependent_labels": [], "ignore_whitelisted_packets": false, "dpid": 4, "replay_time": [1390978936, 842122], "label": "i37", "class": "ControlMessageReceive", "b64_packet": "AQUACAAAAAo=", "round": 3, "prunable": true}
{"pass_through_sends": false, "timeout_disallowed": false, "time": [1390978898, 909715], "controller_id": "c1", "fingerprint": ["ControlMessageSend", {"reason": 2, "class": "ofp_port_status", "desc": [2, "00:00:00:00:04:02"]}, 4, ["c", "1"]], "timed_out": false, "dependent_labels": [], "ignore_whitelisted_packets": false, "dpid": 4, "replay_time": [1390978936, 842479], "label": "i38", "class": "ControlMessageSend", "b64_packet": "AQwAQAAAABUCAAAAAAAAAAACAAAAAAQCZXRoMgAAAAAAAAAAAAAAAAAAAAAAAAABAAAAAAAAAAAAAAAAAAAAAA==", "round": 3, "prunable": true}
{"pass_through_sends": false, "timeout_disallowed": false, "time": [1390978898, 909927], "controller_id": "c1", "fingerprint": ["ControlMessageSend", {"class": "ofp_barrier_reply"}, 1, ["c", "1"]], "timed_out": false, "dependent_labels": [], "ignore_whitelisted_packets": false, "dpid": 1, "replay_time": [1390978936, 842803], "label": "i39", "class": "ControlMessageSend", "b64_packet": "ARMACAAAAAg=", "round": 3, "prunable": true}
{"pass_through_sends": false, "timeout_disallowed": false, "time": [1390978898, 910079], "controller_id": "c1", "fingerprint": ["ControlMessageSend", {"reason": 2, "class": "ofp_port_status", "desc": [3, "00:00:00:00:03:03"]}, 3, ["c", "1"]], "timed_out": false, "dependent_labels": [], "ignore_whitelisted_packets": false, "dpid": 3, "replay_time": [1390978936, 843158], "label": "i40", "class": "ControlMessageSend", "b64_packet": "AQwAQAAAABcCAAAAAAAAAAADAAAAAAMDZXRoMwAAAAAAAAAAAAAAAAAAAAAAAAABAAAAAAAAAAAAAAAAAAAAAA==", "round": 3, "prunable": true}
{"pass_through_sends": false, "timeout_disallowed": false, "time": [1390978898, 910284], "controller_id": "c1", "fingerprint": ["ControlMessageSend", {"reason": 2, "class": "ofp_port_status", "desc": [3, "00:00:00:00:02:03"]}, 2, ["c", "1"]], "timed_out": false, "dependent_labels": [], "ignore_whitelisted_packets": false, "dpid": 2, "replay_time": [1390978936, 843521], "label": "i41", "class": "ControlMessageSend", "b64_packet": "AQwAQAAAAB8CAAAAAAAAAAADAAAAAAIDZXRoMwAAAAAAAAAAAAAAAAAAAAAAAAAAAAAAAAAAAAAAAAAAAAAAAA==", "round": 3, "prunable": true}
{"pass_through_sends": false, "timeout_disallowed": false, "time": [1390978898, 910541], "controller_id": "c1", "fingerprint": ["ControlMessageSend", {"datapath_id": 2, "class": "ofp_features_reply"}, 2, ["c", "1"]], "timed_out": false, "dependent_labels": [], "ignore_whitelisted_packets": false, "dpid": 2, "replay_time": [1390978936, 843891], "label": "i42", "class": "ControlMessageSend", "b64_packet": "AQYA4AAAAAkAAAAAAAAAAgAAAGQBAAAAAAAA7wAAB/8AAQAAAAACAWV0aDEAAAAAAAAAAAAAAAAAAAAAAAAAAAAAAAAAAAAAAAAAAAAAAAAAAgAAAAACAmV0aDIAAAAAAAAAAAAAAAAAAAAAAAAAAAAAAAAAAAAAAAAAAAAAAAAAAwAAAAACA2V0aDMAAAAAAAAAAAAAAAAAAAAAAAAAAAAAAAAAAAAAAAAAAAAAAAAABAAAAAACBGV0aDQAAAAAAAAAAAAAAAAAAAAAAAAAAAAAAAAAAAAAAAAAAAAAAAA=", "round": 3, "prunable": true}
{"pass_through_sends": false, "timeout_disallowed": false, "time": [1390978898, 910769], "controller_id": "c1", "fingerprint": ["ControlMessageSend", {"reason": 2, "class": "ofp_port_status", "desc": [2, "00:00:00:00:01:02"]}, 1, ["c", "1"]], "timed_out": false, "dependent_labels": [], "ignore_whitelisted_packets": false, "dpid": 1, "replay_time": [1390978936, 844234], "label": "i43", "class": "ControlMessageSend", "b64_packet": "AQwAQAAAABkCAAAAAAAAAAACAAAAAAECZXRoMgAAAAAAAAAAAAAAAAAAAAAAAAAAAAAAAAAAAAAAAAAAAAAAAA==", "round": 3, "prunable": true}
{"pass_through_sends": false, "timeout_disallowed": false, "time": [1390978898, 910972], "controller_id": "c1", "fingerprint": ["ControlMessageSend", {"reason": 2, "class": "ofp_port_status", "desc": [2, "00:00:00:00:02:02"]}, 2, ["c", "1"]], "timed_out": false, "dependent_labels": [], "ignore_whitelisted_packets": false, "dpid": 2, "replay_time": [1390978936, 844576], "label": "i44", "class": "ControlMessageSend", "b64_packet": "AQwAQAAAABsCAAAAAAAAAAACAAAAAAICZXRoMgAAAAAAAAAAAAAAAAAAAAAAAAAAAAAAAAAAAAAAAAAAAAAAAA==", "round": 3, "prunable": true}
{"pass_through_sends": false, "timeout_disallowed": false, "time": [1390978898, 911187], "controller_id": "c1", "fingerprint": ["ControlMessageSend", {"datapath_id": 3, "class": "ofp_features_reply"}, 3, ["c", "1"]], "timed_out": false, "dependent_labels": [], "ignore_whitelisted_packets": false, "dpid": 3, "replay_time": [1390978936, 844946], "label": "i45", "class": "ControlMessageSend", "b64_packet": "AQYA4AAAAAsAAAAAAAAAAwAAAGQBAAAAAAAA7wAAB/8AAQAAAAADAWV0aDEAAAAAAAAAAAAAAAAAAAAAAAAAAAAAAAAAAAAAAAAAAAAAAAAAAgAAAAADAmV0aDIAAAAAAAAAAAAAAAAAAAAAAAAAAAAAAAAAAAAAAAAAAAAAAAAAAwAAAAADA2V0aDMAAAAAAAAAAAAAAAAAAAAAAAAAAQAAAAAAAAAAAAAAAAAAAAAABAAAAAADBGV0aDQAAAAAAAAAAAAAAAAAAAAAAAAAAAAAAAAAAAAAAAAAAAAAAAA=", "round": 3, "prunable": true}
{"pass_through_sends": false, "timeout_disallowed": false, "time": [1390978898, 911390], "controller_id": "c1", "fingerprint": ["ControlMessageSend", {"reason": 2, "class": "ofp_port_status", "desc": [1, "00:00:00:00:03:01"]}, 3, ["c", "1"]], "timed_out": false, "dependent_labels": [], "ignore_whitelisted_packets": false, "dpid": 3, "replay_time": [1390978936, 845301], "label": "i46", "class": "ControlMessageSend", "b64_packet": "AQwAQAAAAB0CAAAAAAAAAAABAAAAAAMBZXRoMQAAAAAAAAAAAAAAAAAAAAAAAAAAAAAAAAAAAAAAAAAAAAAAAA==", "round": 3, "prunable": true}
{"pass_through_sends": false, "timeout_disallowed": false, "time": [1390978898, 911609], "controller_id": "c1", "fingerprint": ["ControlMessageSend", {"datapath_id": 4, "class": "ofp_features_reply"}, 4, ["c", "1"]], "timed_out": false, "dependent_labels": [], "ignore_whitelisted_packets": false, "dpid": 4, "replay_time": [1390978936, 845676], "label": "i47", "class": "ControlMessageSend", "b64_packet": "AQYA4AAAAAoAAAAAAAAABAAAAGQBAAAAAAAA7wAAB/8AAQAAAAAEAWV0aDEAAAAAAAAAAAAAAAAAAAAAAAAAAAAAAAAAAAAAAAAAAAAAAAAAAgAAAAAEAmV0aDIAAAAAAAAAAAAAAAAAAAAAAAAAAQAAAAAAAAAAAAAAAAAAAAAAAwAAAAAEA2V0aDMAAAAAAAAAAAAAAAAAAAAAAAAAAQAAAAAAAAAAAAAAAAAAAAAABAAAAAAEBGV0aDQAAAAAAAAAAAAAAAAAAAAAAAAAAAAAAAAAAAAAAAAAAAAAAAA=", "round": 3, "prunable": true}
{"end_port_no": 3, "dependent_labels": ["e83"], "start_dpid": 1, "fingerprint": ["LinkFailure", 1, 1, 4, 3], "timed_out": false, "label": "e48", "start_port_no": 1, "end_dpid": 4, "time": [1390978898, 911945], "replay_time": [1390978936, 846132], "class": "LinkFailure", "round": 3, "prunable": true}
{"end_port_no": 3, "dependent_labels": ["e82"], "start_dpid": 2, "fingerprint": ["LinkFailure", 2, 3, 1, 3], "timed_out": false, "label": "e49", "start_port_no": 3, "end_dpid": 1, "time": [1390978898, 912214], "replay_time": [1390978936, 846496], "class": "LinkFailure", "round": 3, "prunable": true}
{"end_port_no": 1, "dependent_labels": ["e84"], "start_dpid": 3, "fingerprint": ["LinkFailure", 3, 1, 4, 1], "timed_out": false, "label": "e50", "start_port_no": 1, "end_dpid": 4, "time": [1390978898, 912429], "replay_time": [1390978936, 846815], "class": "LinkFailure", "round": 3, "prunable": true}
{"end_port_no": 2, "dependent_labels": ["e81"], "start_dpid": 3, "fingerprint": ["LinkFailure", 3, 2, 2, 2], "timed_out": false, "label": "e51", "start_port_no": 2, "end_dpid": 2, "time": [1390978898, 912645], "replay_time": [1390978936, 847152], "class": "LinkFailure", "round": 3, "prunable": true}
{"end_port_no": 3, "dependent_labels": [], "start_dpid": 1, "fingerprint": ["LinkRecovery", 1, 3, 2, 3], "timed_out": false, "label": "e52", "start_port_no": 3, "end_dpid": 2, "time": [1390978898, 912878], "replay_time": [1390978936, 847470], "class": "LinkRecovery", "round": 3, "prunable": true}
{"end_port_no": 1, "dependent_labels": [], "start_dpid": 4, "fingerprint": ["LinkRecovery", 4, 2, 2, 1], "timed_out": false, "label": "e53", "start_port_no": 2, "end_dpid": 2, "time": [1390978898, 913091], "replay_time": [1390978936, 847776], "class": "LinkRecovery", "round": 3, "prunable": true}
{"end_port_no": 2, "dependent_labels": [], "start_dpid": 3, "fingerprint": ["LinkRecovery", 3, 3, 1, 2], "timed_out": false, "label": "e54", "start_port_no": 3, "end_dpid": 1, "time": [1390978898, 913298], "replay_time": [1390978936, 848082], "class": "LinkRecovery", "round": 3, "prunable": true}
{"end_port_no": 1, "dependent_labels": [], "start_dpid": 4, "fingerprint": ["LinkRecovery", 4, 3, 1, 1], "timed_out": false, "label": "e55", "start_port_no": 3, "end_dpid": 1, "time": [1390978898, 913503], "replay_time": [1390978936, 848380], "class": "LinkRecovery", "round": 3, "prunable": true}
{"legacy_invariant_check": false, "class": "CheckInvariants", "fingerprint": "N/A", "timed_out": false, "label": "e56", "dependent_labels": [], "invariant_name": "InvariantChecker.check_liveness", "invariant_check_name": "InvariantChecker.check_liveness", "time": [1390978898, 913756], "replay_time": [1390978936, 848647], "invariant_check": null, "round": 3, "prunable": true}
{"pass_through_sends": false, "timeout_disallowed": false, "time": [1390978899, 14329], "controller_id": "c1", "fingerprint": ["ControlMessageReceive", {"hard_timeout": 0, "actions": [], "priority": 32768, "idle_timeout": 0, "command": "delete", "out_port": 65535, "flags": 0, "class": "ofp_flow_mod", "match": "x^L,in_port:None"}, 4, ["c", "1"]], "timed_out": false, "dependent_labels": [], "ignore_whitelisted_packets": false, "dpid": 4, "replay_time": [1390978936, 866220], "label": "i57", "class": "ControlMessageReceive", "b64_packet": "AQ4ASAAAAA0AEAAfAAAAAAAAAAAAAAAAAAAAAAAAAAAAAAAAAAAAAAAAAAAAAAAAAAAAAAAAAAAAAwAAAACAAP///////wAA", "round": 4, "prunable": true}
{"pass_through_sends": false, "timeout_disallowed": false, "time": [1390978899, 15606], "controller_id": "c1", "fingerprint": ["ControlMessageReceive", {"class": "ofp_barrier_request"}, 2, ["c", "1"]], "timed_out": false, "dependent_labels": [], "ignore_whitelisted_packets": false, "dpid": 2, "replay_time": [1390978936, 867486], "label": "i58", "class": "ControlMessageReceive", "b64_packet": "ARIACAAAABY=", "round": 4, "prunable": true}
{"pass_through_sends": false, "timeout_disallowed": false, "time": [1390978899, 16091], "controller_id": "c1", "fingerprint": ["ControlMessageReceive", {"class": "ofp_set_config"}, 4, ["c", "1"]], "timed_out": false, "dependent_labels": [], "ignore_whitelisted_packets": false, "dpid": 4, "replay_time": [1390978936, 867885], "label": "i59", "class": "ControlMessageReceive", "b64_packet": "AQkADAAAAAwAAACA", "round": 4, "prunable": true}
{"pass_through_sends": false, "timeout_disallowed": false, "time": [1390978899, 16487], "controller_id": "c1", "fingerprint": ["ControlMessageReceive", {"class": "ofp_set_config"}, 2, ["c", "1"]], "timed_out": false, "dependent_labels": [], "ignore_whitelisted_packets": false, "dpid": 2, "replay_time": [1390978936, 868217], "label": "i60", "class": "ControlMessageReceive", "b64_packet": "AQkADAAAABQAAACA", "round": 4, "prunable": true}
{"pass_through_sends": false, "timeout_disallowed": false, "time": [1390978899, 16849], "controller_id": "c1", "fingerprint": ["ControlMessageReceive", {"class": "ofp_set_config"}, 3, ["c", "1"]], "timed_out": false, "dependent_labels": [], "ignore_whitelisted_packets": false, "dpid": 3, "replay_time": [1390978936, 868895], "label": "i61", "class": "ControlMessageReceive", "b64_packet": "AQkADAAAABcAAACA", "round": 4, "prunable": true}
{"pass_through_sends": false, "timeout_disallowed": false, "time": [1390978899, 17207], "controller_id": "c1", "fingerprint": ["ControlMessageReceive", {"class": "ofp_barrier_request"}, 3, ["c", "1"]], "timed_out": false, "dependent_labels": [], "ignore_whitelisted_packets": false, "dpid": 3, "replay_time": [1390978936, 869229], "label": "i62", "class": "ControlMessageReceive", "b64_packet": "ARIACAAAABk=", "round": 4, "prunable": true}
{"pass_through_sends": false, "timeout_disallowed": false, "time": [1390978899, 17798], "controller_id": "c1", "fingerprint": ["ControlMessageReceive", {"hard_timeout": 0, "actions": ["output(65533)"], "priority": 65000, "idle_timeout": 0, "command": "add", "out_port": 65535, "flags": 0, "class": "ofp_flow_mod", "match": "dl_dst:01:23:20:00:00:01,dl_type:35020,in_port:None"}, 1, ["c", "1"]], "timed_out": false, "dependent_labels": [], "ignore_whitelisted_packets": false, "dpid": 1, "replay_time": [1390978936, 869999], "label": "i63", "class": "ControlMessageReceive", "b64_packet": "AQ4AUAAAAA8AEAAHAAAAAAAAAAABIyAAAAEAAAAAiMwAAAAAAAAAAAAAAAAAAAAAAAAAAAAAAAAAAAAAAAD96P///////wAAAAAACP/9//8=", "round": 4, "prunable": true}
{"pass_through_sends": false, "timeout_disallowed": false, "time": [1390978899, 19498], "controller_id": "c1", "fingerprint": ["ControlMessageReceive", {"hard_timeout": 0, "actions": [], "priority": 32768, "idle_timeout": 0, "command": "delete", "out_port": 65535, "flags": 0, "class": "ofp_flow_mod", "match": "x^L,in_port:None"}, 2, ["c", "1"]], "timed_out": false, "dependent_labels": [], "ignore_whitelisted_packets": false, "dpid": 2, "replay_time": [1390978936, 870706], "label": "i64", "class": "ControlMessageReceive", "b64_packet": "AQ4ASAAAABUAEAAfAAAAAAAAAAAAAAAAAAAAAAAAAAAAAAAAAAAAAAAAAAAAAAAAAAAAAAAAAAAAAwAAAACAAP///////wAA", "round": 4, "prunable": true}
{"pass_through_sends": false, "timeout_disallowed": false, "time": [1390978899, 20503], "controller_id": "c1", "fingerprint": ["ControlMessageReceive", {"class": "ofp_barrier_request"}, 4, ["c", "1"]], "timed_out": false, "dependent_labels": [], "ignore_whitelisted_packets": false, "dpid": 4, "replay_time": [1390978936, 871215], "label": "i65", "class": "ControlMessageReceive", "b64_packet": "ARIACAAAAA4=", "round": 4, "prunable": true}
{"pass_through_sends": false, "timeout_disallowed": false, "time": [1390978899, 21001], "controller_id": "c1", "fingerprint": ["ControlMessageReceive", {"hard_timeout": 0, "actions": [], "priority": 32768, "idle_timeout": 0, "command": "delete", "out_port": 65535, "flags": 0, "class": "ofp_flow_mod", "match": "x^L,in_port:None"}, 3, ["c", "1"]], "timed_out": false, "dependent_labels": [], "ignore_whitelisted_packets": false, "dpid": 3, "replay_time": [1390978936, 871708], "label": "i66", "class": "ControlMessageReceive", "b64_packet": "AQ4ASAAAABgAEAAfAAAAAAAAAAAAAAAAAAAAAAAAAAAAAAAAAAAAAAAAAAAAAAAAAAAAAAAAAAAAAwAAAACAAP///////wAA", "round": 4, "prunable": true}
{"pass_through_sends": false, "timeout_disallowed": false, "time": [1390978899, 22026], "controller_id": "c1", "fingerprint": ["ControlMessageSend", {"reason": 2, "class": "ofp_port_status", "desc": [3, "00:00:00:00:04:03"]}, 4, ["c", "1"]], "timed_out": false, "dependent_labels": [], "ignore_whitelisted_packets": false, "dpid": 4, "replay_time": [1390978936, 872215], "label": "i67", "class": "ControlMessageSend", "b64_packet": "AQwAQAAAAC8CAAAAAAAAAAADAAAAAAQDZXRoMwAAAAAAAAAAAAAAAAAAAAAAAAAAAAAAAAAAAAAAAAAAAAAAAA==", "round": 4, "prunable": true}
{"pass_through_sends": false, "timeout_disallowed": false, "time": [1390978899, 22499], "controller_id": "c1", "fingerprint": ["ControlMessageSend", {"reason": 2, "class": "ofp_port_status", "desc": [1, "00:00:00:00:01:01"]}, 1, ["c", "1"]], "timed_out": false, "dependent_labels": [], "ignore_whitelisted_packets": false, "dpid": 1, "replay_time": [1390978936, 872565], "label": "i68", "class": "ControlMessageSend", "b64_packet": "AQwAQAAAACECAAAAAAAAAAABAAAAAAEBZXRoMQAAAAAAAAAAAAAAAAAAAAAAAAABAAAAAAAAAAAAAAAAAAAAAA==", "round": 4, "prunable": true}
{"pass_through_sends": false, "timeout_disallowed": false, "time": [1390978899, 22704], "controller_id": "c1", "fingerprint": ["ControlMessageSend", {"reason": 2, "class": "ofp_port_status", "desc": [3, "00:00:00:00:03:03"]}, 3, ["c", "1"]], "timed_out": false, "dependent_labels": [], "ignore_whitelisted_packets": false, "dpid": 3, "replay_time": [1390978936, 872910], "label": "i69", "class": "ControlMessageSend", "b64_packet": "AQwAQAAAAC0CAAAAAAAAAAADAAAAAAMDZXRoMwAAAAAAAAAAAAAAAAAAAAAAAAAAAAAAAAAAAAAAAAAAAAAAAA==", "round": 4, "prunable": true}
{"pass_through_sends": false, "timeout_disallowed": false, "time": [1390978899, 22907], "controller_id": "c1", "fingerprint": ["ControlMessageSend", {"reason": 2, "class": "ofp_port_status", "desc": [3, "00:00:00:00:01:03"]}, 1, ["c", "1"]], "timed_out": false, "dependent_labels": [], "ignore_whitelisted_packets": false, "dpid": 1, "replay_time": [1390978936, 873244], "label": "i70", "class": "ControlMessageSend", "b64_packet": "AQwAQAAAACkCAAAAAAAAAAADAAAAAAEDZXRoMwAAAAAAAAAAAAAAAAAAAAAAAAAAAAAAAAAAAAAAAAAAAAAAAA==", "round": 4, "prunable": true}
{"pass_through_sends": false, "timeout_disallowed": false, "time": [1390978899, 23115], "controller_id": "c1", "fingerprint": ["ControlMessageSend", {"class": "ofp_barrier_reply"}, 2, ["c", "1"]], "timed_out": false, "dependent_labels": [], "ignore_whitelisted_packets": false, "dpid": 2, "replay_time": [1390978936, 873557], "label": "i71", "class": "ControlMessageSend", "b64_packet": "ARMACAAAABY=", "round": 4, "prunable": true}
{"pass_through_sends": false, "timeout_disallowed": false, "time": [1390978899, 23266], "controller_id": "c1", "fingerprint": ["ControlMessageSend", {"reason": 2, "class": "ofp_port_status", "desc": [2, "00:00:00:00:04:02"]}, 4, ["c", "1"]], "timed_out": false, "dependent_labels": [], "ignore_whitelisted_packets": false, "dpid": 4, "replay_time": [1390978936, 873857], "label": "i72", "class": "ControlMessageSend", "b64_packet": "AQwAQAAAACsCAAAAAAAAAAACAAAAAAQCZXRoMgAAAAAAAAAAAAAAAAAAAAAAAAAAAAAAAAAAAAAAAAAAAAAAAA==", "round": 4, "prunable": true}
{"pass_through_sends": false, "timeout_disallowed": false, "time": [1390978899, 23464], "controller_id": "c1", "fingerprint": ["ControlMessageSend", {"reason": 2, "class": "ofp_port_status", "desc": [3, "00:00:00:00:02:03"]}, 2, ["c", "1"]], "timed_out": false, "dependent_labels": [], "ignore_whitelisted_packets": false, "dpid": 2, "replay_time": [1390978936, 874221], "label": "i73", "class": "ControlMessageSend", "b64_packet": "AQwAQAAAACMCAAAAAAAAAAADAAAAAAIDZXRoMwAAAAAAAAAAAAAAAAAAAAAAAAABAAAAAAAAAAAAAAAAAAAAAA==", "round": 4, "prunable": true}
{"pass_through_sends": false, "timeout_disallowed": false, "time": [1390978899, 23653], "controller_id": "c1", "fingerprint": ["ControlMessageSend", {"class": "ofp_barrier_reply"}, 3, ["c", "1"]], "timed_out": false, "dependent_labels": [], "ignore_whitelisted_packets": false, "dpid": 3, "replay_time": [1390978936, 874539], "label": "i74", "class": "ControlMessageSend", "b64_packet": "ARMACAAAABk=", "round": 4, "prunable": true}
{"pass_through_sends": false, "timeout_disallowed": false, "time": [1390978899, 23800], "controller_id": "c1", "fingerprint": ["ControlMessageSend", {"reason": 2, "class": "ofp_port_status", "desc": [2, "00:00:00:00:03:02"]}, 3, ["c", "1"]], "timed_out": false, "dependent_labels": [], "ignore_whitelisted_packets": false, "dpid": 3, "replay_time": [1390978936, 874833], "label": "i75", "class": "ControlMessageSend", "b64_packet": "AQwAQAAAACcCAAAAAAAAAAACAAAAAAMCZXRoMgAAAAAAAAAAAAAAAAAAAAAAAAABAAAAAAAAAAAAAAAAAAAAAA==", "round": 4, "prunable": true}
{"pass_through_sends": false, "timeout_disallowed": false, "time": [1390978899, 23996], "controller_id": "c1", "fingerprint": ["ControlMessageSend", {"reason": 2, "class": "ofp_port_status", "desc": [1, "00:00:00:00:03:01"]}, 3, ["c", "1"]], "timed_out": false, "dependent_labels": [], "ignore_whitelisted_packets": false, "dpid": 3, "replay_time": [1390978936, 875179], "label": "i76", "class": "ControlMessageSend", "b64_packet": "AQwAQAAAACUCAAAAAAAAAAABAAAAAAMBZXRoMQAAAAAAAAAAAAAAAAAAAAAAAAABAAAAAAAAAAAAAAAAAAAAAA==", "round": 4, "prunable": true}
{"end_port_no": 3, "dependent_labels": ["e102"], "start_dpid": 1, "fingerprint": ["LinkFailure", 1, 3, 2, 3], "timed_out": false, "label": "e77", "start_port_no": 3, "end_dpid": 2, "time": [1390978899, 24317], "replay_time": [1390978936, 875609], "class": "LinkFailure", "round": 4, "prunable": true}
{"end_port_no": 1, "dependent_labels": ["e105"], "start_dpid": 4, "fingerprint": ["LinkFailure", 4, 2, 2, 1], "timed_out": false, "label": "e78", "start_port_no": 2, "end_dpid": 2, "time": [1390978899, 24574], "replay_time": [1390978936, 875926], "class": "LinkFailure", "round": 4, "prunable": true}
{"end_port_no": 3, "dependent_labels": ["e103"], "start_dpid": 1, "fingerprint": ["LinkFailure", 1, 2, 3, 3], "timed_out": false, "label": "e79", "start_port_no": 2, "end_dpid": 3, "time": [1390978899, 24791], "replay_time": [1390978936, 876233], "class": "LinkFailure", "round": 4, "prunable": true}
{"end_port_no": 1, "dependent_labels": ["e104"], "start_dpid": 4, "fingerprint": ["LinkFailure", 4, 1, 3, 1], "timed_out": false, "label": "e80", "start_port_no": 1, "end_dpid": 3, "time": [1390978899, 25002], "replay_time": [1390978936, 876544], "class": "LinkFailure", "round": 4, "prunable": true}
{"end_port_no": 2, "dependent_labels": [], "start_dpid": 3, "fingerprint": ["LinkRecovery", 3, 2, 2, 2], "timed_out": false, "label": "e81", "start_port_no": 2, "end_dpid": 2, "time": [1390978899, 25222], "replay_time": [1390978936, 876859], "class": "LinkRecovery", "round": 4, "prunable": true}
{"end_port_no": 3, "dependent_labels": [], "start_dpid": 2, "fingerprint": ["LinkRecovery", 2, 3, 1, 3], "timed_out": false, "label": "e82", "start_port_no": 3, "end_dpid": 1, "time": [1390978899, 25447], "replay_time": [1390978936, 877166], "class": "LinkRecovery", "round": 4, "prunable": true}
{"end_port_no": 3, "dependent_labels": [], "start_dpid": 1, "fingerprint": ["LinkRecovery", 1, 1, 4, 3], "timed_out": false, "label": "e83", "start_port_no": 1, "end_dpid": 4, "time": [1390978899, 25656], "replay_time": [1390978936, 877464], "class": "LinkRecovery", "round": 4, "prunable": true}
{"end_port_no": 1, "dependent_labels": [], "start_dpid": 3, "fingerprint": ["LinkRecovery", 3, 1, 4, 1], "timed_out": false, "label": "e84", "start_port_no": 1, "end_dpid": 4, "time": [1390978899, 25856], "replay_time": [1390978936, 877776], "class": "LinkRecovery", "round": 4, "prunable": true}
{"legacy_invariant_check": false, "class": "CheckInvariants", "fingerprint": "N/A", "timed_out": false, "label": "e85", "dependent_labels": [], "invariant_name": "InvariantChecker.check_liveness", "invariant_check_name": "InvariantChecker.check_liveness", "time": [1390978899, 26103], "replay_time": [1390978936, 878025], "invariant_check": null, "round": 4, "prunable": true}
{"pass_through_sends": false, "timeout_disallowed": false, "time": [1390978899, 126847], "controller_id": "c1", "fingerprint": ["ControlMessageReceive", {"hard_timeout": 0, "actions": ["output(65533)"], "priority": 65000, "idle_timeout": 0, "command": "add", "out_port": 65535, "flags": 0, "class": "ofp_flow_mod", "match": "dl_dst:01:23:20:00:00:01,dl_type:35020,in_port:None"}, 2, ["c", "1"]], "timed_out": false, "dependent_labels": [], "ignore_whitelisted_packets": false, "dpid": 2, "replay_time": [1390978936, 885579], "label": "i86", "class": "ControlMessageReceive", "b64_packet": "AQ4AUAAAABoAEAAHAAAAAAAAAAABIyAAAAEAAAAAiMwAAAAAAAAAAAAAAAAAAAAAAAAAAAAAAAAAAAAAAAD96P///////wAAAAAACP/9//8=", "round": 5, "prunable": true}
{"pass_through_sends": false, "timeout_disallowed": false, "time": [1390978899, 128656], "controller_id": "c1", "fingerprint": ["ControlMessageReceive", {"hard_timeout": 0, "actions": ["output(65533)"], "priority": 65000, "idle_timeout": 0, "command": "add", "out_port": 65535, "flags": 0, "class": "ofp_flow_mod", "match": "dl_dst:01:23:20:00:00:01,dl_type:35020,in_port:None"}, 3, ["c", "1"]], "timed_out": false, "dependent_labels": [], "ignore_whitelisted_packets": false, "dpid": 3, "replay_time": [1390978936, 887743], "label": "i87", "class": "ControlMessageReceive", "b64_packet": "AQ4AUAAAAB8AEAAHAAAAAAAAAAABIyAAAAEAAAAAiMwAAAAAAAAAAAAAAAAAAAAAAAAAAAAAAAAAAAAAAAD96P///////wAAAAAACP/9//8=", "round": 5, "prunable": true}
{"pass_through_sends": false, "timeout_disallowed": false, "time": [1390978899, 130141], "controller_id": "c1", "fingerprint": ["ControlMessageSend", {"reason": 2, "class": "ofp_port_status", "desc": [2, "00:00:00:00:04:02"]}, 4, ["c", "1"]], "timed_out": false, "dependent_labels": [], "ignore_whitelisted_packets": false, "dpid": 4, "replay_time": [1390978936, 888320], "label": "i88", "class": "ControlMessageSend", "b64_packet": "AQwAQAAAADMCAAAAAAAAAAACAAAAAAQCZXRoMgAAAAAAAAAAAAAAAAAAAAAAAAABAAAAAAAAAAAAAAAAAAAAAA==", "round": 5, "prunable": true}
{"pass_through_sends": false, "timeout_disallowed": false, "time": [1390978899, 130551], "controller_id": "c1", "fingerprint": ["ControlMessageSend", {"reason": 2, "class": "ofp_port_status", "desc": [1, "00:00:00:00:04:01"]}, 4, ["c", "1"]], "timed_out": false, "dependent_labels": [], "ignore_whitelisted_packets": false, "dpid": 4, "replay_time": [1390978936, 888701], "label": "i89", "class": "ControlMessageSend", "b64_packet": "AQwAQAAAADcCAAAAAAAAAAABAAAAAAQBZXRoMQAAAAAAAAAAAAAAAAAAAAAAAAABAAAAAAAAAAAAAAAAAAAAAA==", "round": 5, "prunable": true}
{"pass_through_sends": false, "timeout_disallowed": false, "time": [1390978899, 130766], "controller_id": "c1", "fingerprint": ["ControlMessageSend", {"reason": 2, "class": "ofp_port_status", "desc": [3, "00:00:00:00:01:03"]}, 1, ["c", "1"]], "timed_out": false, "dependent_labels": [], "ignore_whitelisted_packets": false, "dpid": 1, "replay_time": [1390978936, 889053], "label": "i90", "class": "ControlMessageSend", "b64_packet": "AQwAQAAAADECAAAAAAAAAAADAAAAAAEDZXRoMwAAAAAAAAAAAAAAAAAAAAAAAAABAAAAAAAAAAAAAAAAAAAAAA==", "round": 5, "prunable": true}
{"pass_through_sends": false, "timeout_disallowed": false, "time": [1390978899, 131019], "controller_id": "c1", "fingerprint": ["ControlMessageSend", {"reason": 2, "class": "ofp_port_status", "desc": [1, "00:00:00:00:01:01"]}, 1, ["c", "1"]], "timed_out": false, "dependent_labels": [], "ignore_whitelisted_packets": false, "dpid": 1, "replay_time": [1390978936, 889397], "label": "i91", "class": "ControlMessageSend", "b64_packet": "AQwAQAAAAD0CAAAAAAAAAAABAAAAAAEBZXRoMQAAAAAAAAAAAAAAAAAAAAAAAAAAAAAAAAAAAAAAAAAAAAAAAA==", "round": 5, "prunable": true}
{"pass_through_sends": false, "timeout_disallowed": false, "time": [1390978899, 131228], "controller_id": "c1", "fingerprint": ["ControlMessageSend", {"reason": 2, "class": "ofp_port_status", "desc": [3, "00:00:00:00:02:03"]}, 2, ["c", "1"]], "timed_out": false, "dependent_labels": [], "ignore_whitelisted_packets": false, "dpid": 2, "replay_time": [1390978936, 889751], "label": "i92", "class": "ControlMessageSend", "b64_packet": "AQwAQAAAADsCAAAAAAAAAAADAAAAAAIDZXRoMwAAAAAAAAAAAAAAAAAAAAAAAAAAAAAAAAAAAAAAAAAAAAAAAA==", "round": 5, "prunable": true}
{"pass_through_sends": false, "timeout_disallowed": false, "time": [1390978899, 131431], "controller_id": "c1", "fingerprint": ["ControlMessageSend", {"reason": 2, "class": "ofp_port_status", "desc": [2, "00:00:00:00:01:02"]}, 1, ["c", "1"]], "timed_out": false, "dependent_labels": [], "ignore_whitelisted_packets": false, "dpid": 1, "replay_time": [1390978936, 890095], "label": "i93", "class": "ControlMessageSend", "b64_packet": "AQwAQAAAADUCAAAAAAAAAAACAAAAAAECZXRoMgAAAAAAAAAAAAAAAAAAAAAAAAABAAAAAAAAAAAAAAAAAAAAAA==", "round": 5, "prunable": true}
{"pass_through_sends": false, "timeout_disallowed": false, "time": [1390978899, 131634], "controller_id": "c1", "fingerprint": ["ControlMessageSend", {"reason": 2, "class": "ofp_port_status", "desc": [2, "00:00:00:00:03:02"]}, 3, ["c", "1"]], "timed_out": false, "dependent_labels": [], "ignore_whitelisted_packets": false, "dpid": 3, "replay_time": [1390978936, 890455], "label": "i94", "class": "ControlMessageSend", "b64_packet": "AQwAQAAAADkCAAAAAAAAAAACAAAAAAMCZXRoMgAAAAAAAAAAAAAAAAAAAAAAAAAAAAAAAAAAAAAAAAAAAAAAAA==", "round": 5, "prunable": true}
{"pass_through_sends": false, "timeout_disallowed": false, "time": [1390978899, 131833], "controller_id": "c1", "fingerprint": ["ControlMessageSend", {"reason": 2, "class": "ofp_port_status", "desc": [1, "00:00:00:00:03:01"]}, 3, ["c", "1"]], "timed_out": false, "dependent_labels": [], "ignore_whitelisted_packets": false, "dpid": 3, "replay_time": [1390978936, 890796], "label": "i95", "class": "ControlMessageSend", "b64_packet": "AQwAQAAAAD8CAAAAAAAAAAABAAAAAAMBZXRoMQAAAAAAAAAAAAAAAAAAAAAAAAAAAAAAAAAAAAAAAAAAAAAAAA==", "round": 5, "prunable": true}
{"end_port_no": 2, "dependent_labels": ["e123"], "start_dpid": 2, "fingerprint": ["LinkFailure", 2, 1, 4, 2], "timed_out": false, "label": "e96", "start_port_no": 1, "end_dpid": 4, "time": [1390978899, 132164], "replay_time": [1390978936, 891240], "class": "LinkFailure", "round": 5, "prunable": true}
{"end_port_no": 3, "dependent_labels": ["e120"], "start_dpid": 2, "fingerprint": ["LinkFailure", 2, 3, 1, 3], "timed_out": false, "label": "e97", "start_port_no": 3, "end_dpid": 1, "time": [1390978899, 132419], "replay_time": [1390978936, 891552], "class": "LinkFailure", "round": 5, "prunable": true}
{"end_port_no": 2, "dependent_labels": ["e124"], "start_dpid": 2, "fingerprint": ["LinkFailure", 2, 2, 3, 2], "timed_out": false, "label": "e98", "start_port_no": 2, "end_dpid": 3, "time": [1390978899, 132703], "replay_time": [1390978936, 891857], "class": "LinkFailure", "round": 5, "prunable": true}
{"end_port_no": 1, "dependent_labels": ["e119"], "start_dpid": 3, "fingerprint": ["LinkFailure", 3, 1, 4, 1], "timed_out": false, "label": "e99", "start_port_no": 1, "end_dpid": 4, "time": [1390978899, 132913], "replay_time": [1390978936, 892173], "class": "LinkFailure", "round": 5, "prunable": true}
{"end_port_no": 2, "dependent_labels": ["e122"], "start_dpid": 3, "fingerprint": ["LinkFailure", 3, 3, 1, 2], "timed_out": false, "label": "e100", "start_port_no": 3, "end_dpid": 1, "time": [1390978899, 133126], "replay_time": [1390978936, 892479], "class": "LinkFailure", "round": 5, "prunable": true}
{"end_port_no": 2, "dependent_labels": ["e121"], "start_dpid": 3, "fingerprint": ["LinkFailure", 3, 2, 2, 2], "timed_out": false, "label": "e101", "start_port_no": 2, "end_dpid": 2, "time": [1390978899, 133337], "replay_time": [1390978936, 892810], "class": "LinkFailure", "round": 5, "prunable": true}
{"end_port_no": 3, "dependent_labels": [], "start_dpid": 1, "fingerprint": ["LinkRecovery", 1, 3, 2, 3], "timed_out": false, "label": "e102", "start_port_no": 3, "end_dpid": 2, "time": [1390978899, 133570], "replay_time": [1390978936, 893129], "class": "LinkRecovery", "round": 5, "prunable": true}
{"end_port_no": 3, "dependent_labels": [], "start_dpid": 1, "fingerprint": ["LinkRecovery", 1, 2, 3, 3], "timed_out": false, "label": "e103", "start_port_no": 2, "end_dpid": 3, "time": [1390978899, 133778], "replay_time": [1390978936, 893430], "class": "LinkRecovery", "round": 5, "prunable": true}
{"end_port_no": 1, "dependent_labels": [], "start_dpid": 4, "fingerprint": ["LinkRecovery", 4, 1, 3, 1], "timed_out": false, "label": "e104", "start_port_no": 1, "end_dpid": 3, "time": [1390978899, 133978], "replay_time": [1390978936, 893733], "class": "LinkRecovery", "round": 5, "prunable": true}
{"end_port_no": 1, "dependent_labels": [], "start_dpid": 4, "fingerprint": ["LinkRecovery", 4, 2, 2, 1], "timed_out": false, "label": "e105", "start_port_no": 2, "end_dpid": 2, "time": [1390978899, 134185], "replay_time": [1390978936, 894029], "class": "LinkRecovery", "round": 5, "prunable": true}
{"legacy_invariant_check": false, "class": "CheckInvariants", "fingerprint": "N/A", "timed_out": false, "label": "e106", "dependent_labels": [], "invariant_name": "InvariantChecker.check_liveness", "invariant_check_name": "InvariantChecker.check_liveness", "time": [1390978899, 134440], "replay_time": [1390978936, 894290], "invariant_check": null, "round": 5, "prunable": true}
{"pass_through_sends": false, "timeout_disallowed": false, "time": [1390978899, 235015], "controller_id": "c1", "fingerprint": ["ControlMessageSend", {"reason": 2, "class": "ofp_port_status", "desc": [2, "00:00:00:00:04:02"]}, 4, ["c", "1"]], "timed_out": false, "dependent_labels": [], "ignore_whitelisted_packets": false, "dpid": 4, "replay_time": [1390978936, 894555], "label": "i107", "class": "ControlMessageSend", "b64_packet": "AQwAQAAAAFMCAAAAAAAAAAACAAAAAAQCZXRoMgAAAAAAAAAAAAAAAAAAAAAAAAAAAAAAAAAAAAAAAAAAAAAAAA==", "round": 6, "prunable": true}
{"pass_through_sends": false, "timeout_disallowed": false, "time": [1390978899, 235590], "controller_id": "c1", "fingerprint": ["ControlMessageSend", {"reason": 2, "class": "ofp_port_status", "desc": [3, "00:00:00:00:03:03"]}, 3, ["c", "1"]], "timed_out": false, "dependent_labels": [], "ignore_whitelisted_packets": false, "dpid": 3, "replay_time": [1390978936, 894952], "label": "i108", "class": "ControlMessageSend", "b64_packet": "AQwAQAAAAEkCAAAAAAAAAAADAAAAAAMDZXRoMwAAAAAAAAAAAAAAAAAAAAAAAAABAAAAAAAAAAAAAAAAAAAAAA==", "round": 6, "prunable": true}
{"pass_through_sends": false, "timeout_disallowed": false, "time": [1390978899, 236047], "controller_id": "c1", "fingerprint": ["ControlMessageSend", {"reason": 2, "class": "ofp_port_status", "desc": [1, "00:00:00:00:04:01"]}, 4, ["c", "1"]], "timed_out": false, "dependent_labels": [], "ignore_whitelisted_packets": false, "dpid": 4, "replay_time": [1390978936, 895298], "label": "i109", "class": "ControlMessageSend", "b64_packet": "AQwAQAAAAFECAAAAAAAAAAABAAAAAAQBZXRoMQAAAAAAAAAAAAAAAAAAAAAAAAAAAAAAAAAAAAAAAAAAAAAAAA==", "round": 6, "prunable": true}
{"pass_through_sends": false, "timeout_disallowed": false, "time": [1390978899, 236491], "controller_id": "c1", "fingerprint": ["ControlMessageSend", {"reason": 2, "class": "ofp_port_status", "desc": [3, "00:00:00:00:01:03"]}, 1, ["c", "1"]], "timed_out": false, "dependent_labels": [], "ignore_whitelisted_packets": false, "dpid": 1, "replay_time": [1390978936, 895641], "label": "i110", "class": "ControlMessageSend", "b64_packet": "AQwAQAAAAE0CAAAAAAAAAAADAAAAAAEDZXRoMwAAAAAAAAAAAAAAAAAAAAAAAAAAAAAAAAAAAAAAAAAAAAAAAA==", "round": 6, "prunable": true}
{"pass_through_sends": false, "timeout_disallowed": false, "time": [1390978899, 236928], "controller_id": "c1", "fingerprint": ["ControlMessageSend", {"reason": 2, "class": "ofp_port_status", "desc": [3, "00:00:00:00:02:03"]}, 2, ["c", "1"]], "timed_out": false, "dependent_labels": [], "ignore_whitelisted_packets": false, "dpid": 2, "replay_time": [1390978936, 896000], "label": "i111", "class": "ControlMessageSend", "b64_packet": "AQwAQAAAAEMCAAAAAAAAAAADAAAAAAIDZXRoMwAAAAAAAAAAAAAAAAAAAAAAAAABAAAAAAAAAAAAAAAAAAAAAA==", "round": 6, "prunable": true}
{"pass_through_sends": false, "timeout_disallowed": false, "time": [1390978899, 237429], "controller_id": "c1", "fingerprint": ["ControlMessageSend", {"reason": 2, "class": "ofp_port_status", "desc": [2, "00:00:00:00:01:02"]}, 1, ["c", "1"]], "timed_out": false, "dependent_labels": [], "ignore_whitelisted_packets": false, "dpid": 1, "replay_time": [1390978936, 896343], "label": "i112", "class": "ControlMessageSend", "b64_packet": "AQwAQAAAAE8CAAAAAAAAAAACAAAAAAECZXRoMgAAAAAAAAAAAAAAAAAAAAAAAAAAAAAAAAAAAAAAAAAAAAAAAA==", "round": 6, "prunable": true}
{"pass_through_sends": false, "timeout_disallowed": false, "time": [1390978899, 237866], "controller_id": "c1", "fingerprint": ["ControlMessageSend", {"reason": 2, "class": "ofp_port_status", "desc": [1, "00:00:00:00:02:01"]}, 2, ["c", "1"]], "timed_out": false, "dependent_labels": [], "ignore_whitelisted_packets": false, "dpid": 2, "replay_time": [1390978936, 896682], "label": "i113", "class": "ControlMessageSend", "b64_packet": "AQwAQAAAAEECAAAAAAAAAAABAAAAAAIBZXRoMQAAAAAAAAAAAAAAAAAAAAAAAAABAAAAAAAAAAAAAAAAAAAAAA==", "round": 6, "prunable": true}
{"pass_through_sends": false, "timeout_disallowed": false, "time": [1390978899, 238292], "controller_id": "c1", "fingerprint": ["ControlMessageSend", {"reason": 2, "class": "ofp_port_status", "desc": [2, "00:00:00:00:02:02"]}, 2, ["c", "1"]], "timed_out": false, "dependent_labels": [], "ignore_whitelisted_packets": false, "dpid": 2, "replay_time": [1390978936, 897019], "label": "i114", "class": "ControlMessageSend", "b64_packet": "AQwAQAAAAEUCAAAAAAAAAAACAAAAAAICZXRoMgAAAAAAAAAAAAAAAAAAAAAAAAABAAAAAAAAAAAAAAAAAAAAAA==", "round": 6, "prunable": true}
{"pass_through_sends": false, "timeout_disallowed": false, "time": [1390978899, 238764], "controller_id": "c1", "fingerprint": ["ControlMessageSend", {"reason": 2, "class": "ofp_port_status", "desc": [2, "00:00:00:00:03:02"]}, 3, ["c", "1"]], "timed_out": false, "dependent_labels": [], "ignore_whitelisted_packets": false, "dpid": 3, "replay_time": [1390978936, 897358], "label": "i115", "class": "ControlMessageSend", "b64_packet": "AQwAQAAAAEsCAAAAAAAAAAACAAAAAAMCZXRoMgAAAAAAAAAAAAAAAAAAAAAAAAABAAAAAAAAAAAAAAAAAAAAAA==", "round": 6, "prunable": true}
{"pass_through_sends": false, "timeout_disallowed": false, "time": [1390978899, 239194], "controller_id": "c1", "fingerprint": ["ControlMessageSend", {"reason": 2, "class": "ofp_port_status", "desc": [1, "00:00:00:00:03:01"]}, 3, ["c", "1"]], "timed_out": false, "dependent_labels": [], "ignore_whitelisted_packets": false, "dpid": 3, "replay_time": [1390978936, 897722], "label": "i116", "class": "ControlMessageSend", "b64_packet": "AQwAQAAAAEcCAAAAAAAAAAABAAAAAAMBZXRoMQAAAAAAAAAAAAAAAAAAAAAAAAABAAAAAAAAAAAAAAAAAAAAAA==", "round": 6, "prunable": true}
{"end_port_no": 1, "dependent_labels": ["e142"], "start_dpid": 4, "fingerprint": ["LinkFailure", 4, 1, 3, 1], "timed_out": false, "label": "e117", "start_port_no": 1, "end_dpid": 3, "time": [1390978899, 239879], "replay_time": [1390978936, 898187], "class": "LinkFailure", "round": 6, "prunable": true}
{"end_port_no": 1, "dependent_labels": ["e143"], "start_dpid": 4, "fingerprint": ["LinkFailure", 4, 3, 1, 1], "timed_out": false, "label": "e118", "start_port_no": 3, "end_dpid": 1, "time": [1390978899, 240406], "replay_time": [1390978936, 898522], "class": "LinkFailure", "round": 6, "prunable": true}
{"end_port_no": 1, "dependent_labels": [], "start_dpid": 3, "fingerprint": ["LinkRecovery", 3, 1, 4, 1], "timed_out": false, "label": "e119", "start_port_no": 1, "end_dpid": 4, "time": [1390978899, 240872], "replay_time": [1390978936, 898843], "class": "LinkRecovery", "round": 6, "prunable": true}
{"end_port_no": 3, "dependent_labels": [], "start_dpid": 2, "fingerprint": ["LinkRecovery", 2, 3, 1, 3], "timed_out": false, "label": "e120", "start_port_no": 3, "end_dpid": 1, "time": [1390978899, 241330], "replay_time": [1390978936, 899181], "class": "LinkRecovery", "round": 6, "prunable": true}
{"end_port_no": 2, "dependent_labels": [], "start_dpid": 3, "fingerprint": ["LinkRecovery", 3, 2, 2, 2], "timed_out": false, "label": "e121", "start_port_no": 2, "end_dpid": 2, "time": [1390978899, 241766], "replay_time": [1390978936, 899487], "class": "LinkRecovery", "round": 6, "prunable": true}
{"end_port_no": 2, "dependent_labels": [], "start_dpid": 3, "fingerprint": ["LinkRecovery", 3, 3, 1, 2], "timed_out": false, "label": "e122", "start_port_no": 3, "end_dpid": 1, "time": [1390978899, 242200], "replay_time": [1390978936, 899789], "class": "LinkRecovery", "round": 6, "prunable": true}
{"end_port_no": 2, "dependent_labels": [], "start_dpid": 2, "fingerprint": ["LinkRecovery", 2, 1, 4, 2], "timed_out": false, "label": "e123", "start_port_no": 1, "end_dpid": 4, "time": [1390978899, 242690], "replay_time": [1390978936, 900097], "class": "LinkRecovery", "round": 6, "prunable": true}
{"end_port_no": 2, "dependent_labels": [], "start_dpid": 2, "fingerprint": ["LinkRecovery", 2, 2, 3, 2], "timed_out": false, "label": "e124", "start_port_no": 2, "end_dpid": 3, "time": [1390978899, 243113], "replay_time": [1390978936, 900403], "class": "LinkRecovery", "round": 6, "prunable": true}
{"legacy_invariant_check": false, "class": "CheckInvariants", "fingerprint": "N/A", "timed_out": false, "label": "e125", "dependent_labels": [], "invariant_name": "InvariantChecker.check_liveness", "invariant_check_name": "InvariantChecker.check_liveness", "time": [1390978899, 243621], "replay_time": [1390978936, 900672], "invariant_check": null, "round": 6, "prunable": true}
{"pass_through_sends": false, "timeout_disallowed": false, "time": [1390978899, 344335], "controller_id": "c1", "fingerprint": ["ControlMessageSend", {"reason": 2, "class": "ofp_port_status", "desc": [3, "00:00:00:00:04:03"]}, 4, ["c", "1"]], "timed_out": false, "dependent_labels": [], "ignore_whitelisted_packets": false, "dpid": 4, "replay_time": [1390978936, 900940], "label": "i126", "class": "ControlMessageSend", "b64_packet": "AQwAQAAAAFcCAAAAAAAAAAADAAAAAAQDZXRoMwAAAAAAAAAAAAAAAAAAAAAAAAABAAAAAAAAAAAAAAAAAAAAAA==", "round": 7, "prunable": true}
{"pass_through_sends": false, "timeout_disallowed": false, "time": [1390978899, 344681], "controller_id": "c1", "fingerprint": ["ControlMessageSend", {"reason": 2, "class": "ofp_port_status", "desc": [3, "00:00:00:00:03:03"]}, 3, ["c", "1"]], "timed_out": false, "dependent_labels": [], "ignore_whitelisted_packets": false, "dpid": 3, "replay_time": [1390978936, 901355], "label": "i127", "class": "ControlMessageSend", "b64_packet": "AQwAQAAAAF8CAAAAAAAAAAADAAAAAAMDZXRoMwAAAAAAAAAAAAAAAAAAAAAAAAAAAAAAAAAAAAAAAAAAAAAAAA==", "round": 7, "prunable": true}
{"pass_through_sends": false, "timeout_disallowed": false, "time": [1390978899, 344898], "controller_id": "c1", "fingerprint": ["ControlMessageSend", {"reason": 2, "class": "ofp_port_status", "desc": [1, "00:00:00:00:04:01"]}, 4, ["c", "1"]], "timed_out": false, "dependent_labels": [], "ignore_whitelisted_packets": false, "dpid": 4, "replay_time": [1390978936, 901694], "label": "i128", "class": "ControlMessageSend", "b64_packet": "AQwAQAAAAFUCAAAAAAAAAAABAAAAAAQBZXRoMQAAAAAAAAAAAAAAAAAAAAAAAAABAAAAAAAAAAAAAAAAAAAAAA==", "round": 7, "prunable": true}
{"pass_through_sends": false, "timeout_disallowed": false, "time": [1390978899, 345108], "controller_id": "c1", "fingerprint": ["ControlMessageSend", {"reason": 2, "class": "ofp_port_status", "desc": [3, "00:00:00:00:02:03"]}, 2, ["c", "1"]], "timed_out": false, "dependent_labels": [], "ignore_whitelisted_packets": false, "dpid": 2, "replay_time": [1390978936, 902029], "label": "i129", "class": "ControlMessageSend", "b64_packet": "AQwAQAAAAFsCAAAAAAAAAAADAAAAAAIDZXRoMwAAAAAAAAAAAAAAAAAAAAAAAAAAAAAAAAAAAAAAAAAAAAAAAA==", "round": 7, "prunable": true}
{"pass_through_sends": false, "timeout_disallowed": false, "time": [1390978899, 345313], "controller_id": "c1", "fingerprint": ["ControlMessageSend", {"reason": 2, "class": "ofp_port_status", "desc": [1, "00:00:00:00:02:01"]}, 2, ["c", "1"]], "timed_out": false, "dependent_labels": [], "ignore_whitelisted_packets": false, "dpid": 2, "replay_time": [1390978936, 902392], "label": "i130", "class": "ControlMessageSend", "b64_packet": "AQwAQAAAAGECAAAAAAAAAAABAAAAAAIBZXRoMQAAAAAAAAAAAAAAAAAAAAAAAAAAAAAAAAAAAAAAAAAAAAAAAA==", "round": 7, "prunable": true}
{"pass_through_sends": false, "timeout_disallowed": false, "time": [1390978899, 345516], "controller_id": "c1", "fingerprint": ["ControlMessageSend", {"reason": 2, "class": "ofp_port_status", "desc": [2, "00:00:00:00:02:02"]}, 2, ["c", "1"]], "timed_out": false, "dependent_labels": [], "ignore_whitelisted_packets": false, "dpid": 2, "replay_time": [1390978936, 902727], "label": "i131", "class": "ControlMessageSend", "b64_packet": "AQwAQAAAAGMCAAAAAAAAAAACAAAAAAICZXRoMgAAAAAAAAAAAAAAAAAAAAAAAAAAAAAAAAAAAAAAAAAAAAAAAA==", "round": 7, "prunable": true}
{"pass_through_sends": false, "timeout_disallowed": false, "time": [1390978899, 345720], "controller_id": "c1", "fingerprint": ["ControlMessageSend", {"reason": 2, "class": "ofp_port_status", "desc": [2, "00:00:00:00:03:02"]}, 3, ["c", "1"]], "timed_out": false, "dependent_labels": [], "ignore_whitelisted_packets": false, "dpid": 3, "replay_time": [1390978936, 903058], "label": "i132", "class": "ControlMessageSend", "b64_packet": "AQwAQAAAAF0CAAAAAAAAAAACAAAAAAMCZXRoMgAAAAAAAAAAAAAAAAAAAAAAAAAAAAAAAAAAAAAAAAAAAAAAAA==", "round": 7, "prunable": true}
{"pass_through_sends": false, "timeout_disallowed": false, "time": [1390978899, 345978], "controller_id": "c1", "fingerprint": ["ControlMessageSend", {"reason": 2, "class": "ofp_port_status", "desc": [1, "00:00:00:00:03:01"]}, 3, ["c", "1"]], "timed_out": false, "dependent_labels": [], "ignore_whitelisted_packets": false, "dpid": 3, "replay_time": [1390978936, 903391], "label": "i133", "class": "ControlMessageSend", "b64_packet": "AQwAQAAAAFkCAAAAAAAAAAABAAAAAAMBZXRoMQAAAAAAAAAAAAAAAAAAAAAAAAAAAAAAAAAAAAAAAAAAAAAAAA==", "round": 7, "prunable": true}
{"end_port_no": 1, "dependent_labels": [], "start_dpid": 4, "fingerprint": ["LinkRecovery", 4, 1, 3, 1], "timed_out": false, "label": "e142", "start_port_no": 1, "end_dpid": 3, "time": [1390978899, 348118], "replay_time": [1390978936, 903802], "class": "LinkRecovery", "round": 7, "prunable": true}
{"end_port_no": 1, "dependent_labels": [], "start_dpid": 4, "fingerprint": ["LinkRecovery", 4, 3, 1, 1], "timed_out": false, "label": "e143", "start_port_no": 3, "end_dpid": 1, "time": [1390978899, 348346], "replay_time": [1390978936, 904109], "class": "LinkRecovery", "round": 7, "prunable": true}
{"pass_through_sends": false, "timeout_disallowed": false, "time": [1390978899, 449130], "controller_id": "c1", "fingerprint": ["ControlMessageSend", {"reason": 2, "class": "ofp_port_status", "desc": [3, "00:00:00:00:04:03"]}, 4, ["c", "1"]], "timed_out": false, "dependent_labels": [], "ignore_whitelisted_packets": false, "dpid": 4, "replay_time": [1390978936, 904369], "label": "i145", "class": "ControlMessageSend", "b64_packet": "AQwAQAAAAHcCAAAAAAAAAAADAAAAAAQDZXRoMwAAAAAAAAAAAAAAAAAAAAAAAAAAAAAAAAAAAAAAAAAAAAAAAA==", "round": 8, "prunable": true}
{"pass_through_sends": false, "timeout_disallowed": false, "time": [1390978899, 449541], "controller_id": "c1", "fingerprint": ["ControlMessageSend", {"reason": 2, "class": "ofp_port_status", "desc": [1, "00:00:00:00:01:01"]}, 1, ["c", "1"]], "timed_out": true, "dependent_labels": [], "ignore_whitelisted_packets": false, "dpid": 1, "replay_time": [1390978937, 537162], "label": "i146", "class": "ControlMessageSend", "b64_packet": "AQwAQAAAAGcCAAAAAAAAAAABAAAAAAEBZXRoMQAAAAAAAAAAAAAAAAAAAAAAAAABAAAAAAAAAAAAAAAAAAAAAA==", "round": 8, "prunable": true}
{"pass_through_sends": false, "timeout_disallowed": false, "time": [1390978899, 449761], "controller_id": "c1", "fingerprint": ["ControlMessageSend", {"reason": 2, "class": "ofp_port_status", "desc": [3, "00:00:00:00:03:03"]}, 3, ["c", "1"]], "timed_out": true, "dependent_labels": [], "ignore_whitelisted_packets": false, "dpid": 3, "replay_time": [1390978938, 165383], "label": "i147", "class": "ControlMessageSend", "b64_packet": "AQwAQAAAAGsCAAAAAAAAAAADAAAAAAMDZXRoMwAAAAAAAAAAAAAAAAAAAAAAAAABAAAAAAAAAAAAAAAAAAAAAA==", "round": 8, "prunable": true}
{"pass_through_sends": false, "timeout_disallowed": false, "time": [1390978899, 449971], "controller_id": "c1", "fingerprint": ["ControlMessageSend", {"reason": 2, "class": "ofp_port_status", "desc": [1, "00:00:00:00:04:01"]}, 4, ["c", "1"]], "timed_out": false, "dependent_labels": [], "ignore_whitelisted_packets": false, "dpid": 4, "replay_time": [1390978938, 165948], "label": "i148", "class": "ControlMessageSend", "b64_packet": "AQwAQAAAAHUCAAAAAAAAAAABAAAAAAQBZXRoMQAAAAAAAAAAAAAAAAAAAAAAAAAAAAAAAAAAAAAAAAAAAAAAAA==", "round": 8, "prunable": true}
{"pass_through_sends": false, "timeout_disallowed": false, "time": [1390978899, 450186], "controller_id": "c1", "fingerprint": ["ControlMessageSend", {"reason": 2, "class": "ofp_port_status", "desc": [3, "00:00:00:00:01:03"]}, 1, ["c", "1"]], "timed_out": true, "dependent_labels": [], "ignore_whitelisted_packets": false, "dpid": 1, "replay_time": [1390978938, 657167], "label": "i149", "class": "ControlMessageSend", "b64_packet": "AQwAQAAAAGUCAAAAAAAAAAADAAAAAAEDZXRoMwAAAAAAAAAAAAAAAAAAAAAAAAABAAAAAAAAAAAAAAAAAAAAAA==", "round": 8, "prunable": true}
{"pass_through_sends": false, "timeout_disallowed": false, "time": [1390978899, 450417], "controller_id": "c1", "fingerprint": ["ControlMessageSend", {"reason": 2, "class": "ofp_port_status", "desc": [2, "00:00:00:00:04:02"]}, 4, ["c", "1"]], "timed_out": true, "dependent_labels": [], "ignore_whitelisted_packets": false, "dpid": 4, "replay_time": [1390978939, 322097], "label": "i150", "class": "ControlMessageSend", "b64_packet": "AQwAQAAAAHMCAAAAAAAAAAACAAAAAAQCZXRoMgAAAAAAAAAAAAAAAAAAAAAAAAABAAAAAAAAAAAAAAAAAAAAAA==", "round": 8, "prunable": true}
{"pass_through_sends": false, "timeout_disallowed": false, "time": [1390978899, 450623], "controller_id": "c1", "fingerprint": ["ControlMessageSend", {"reason": 2, "class": "ofp_port_status", "desc": [3, "00:00:00:00:02:03"]}, 2, ["c", "1"]], "timed_out": true, "dependent_labels": [], "ignore_whitelisted_packets": false, "dpid": 2, "replay_time": [1390978939, 987397], "label": "i151", "class": "ControlMessageSend", "b64_packet": "AQwAQAAAAHECAAAAAAAAAAADAAAAAAIDZXRoMwAAAAAAAAAAAAAAAAAAAAAAAAABAAAAAAAAAAAAAAAAAAAAAA==", "round": 8, "prunable": true}
{"pass_through_sends": false, "timeout_disallowed": false, "time": [1390978899, 450827], "controller_id": "c1", "fingerprint": ["ControlMessageSend", {"reason": 2, "class": "ofp_port_status", "desc": [2, "00:00:00:00:01:02"]}, 1, ["c", "1"]], "timed_out": true, "dependent_labels": [], "ignore_whitelisted_packets": false, "dpid": 1, "replay_time": [1390978940, 515792], "label": "i152", "class": "ControlMessageSend", "b64_packet": "AQwAQAAAAGkCAAAAAAAAAAACAAAAAAECZXRoMgAAAAAAAAAAAAAAAAAAAAAAAAABAAAAAAAAAAAAAAAAAAAAAA==", "round": 8, "prunable": true}
{"pass_through_sends": false, "timeout_disallowed": false, "time": [1390978899, 451035], "controller_id": "c1", "fingerprint": ["ControlMessageSend", {"reason": 2, "class": "ofp_port_status", "desc": [2, "00:00:00:00:03:02"]}, 3, ["c", "1"]], "timed_out": true, "dependent_labels": [], "ignore_whitelisted_packets": false, "dpid": 3, "replay_time": [1390978941, 180757], "label": "i153", "class": "ControlMessageSend", "b64_packet": "AQwAQAAAAG8CAAAAAAAAAAACAAAAAAMCZXRoMgAAAAAAAAAAAAAAAAAAAAAAAAABAAAAAAAAAAAAAAAAAAAAAA==", "round": 8, "prunable": true}
{"pass_through_sends": false, "timeout_disallowed": false, "time": [1390978899, 451254], "controller_id": "c1", "fingerprint": ["ControlMessageSend", {"reason": 2, "class": "ofp_port_status", "desc": [1, "00:00:00:00:03:01"]}, 3, ["c", "1"]], "timed_out": true, "dependent_labels": [], "ignore_whitelisted_packets": false, "dpid": 3, "replay_time": [1390978941, 845578], "label": "i154", "class": "ControlMessageSend", "b64_packet": "AQwAQAAAAG0CAAAAAAAAAAABAAAAAAMBZXRoMQAAAAAAAAAAAAAAAAAAAAAAAAABAAAAAAAAAAAAAAAAAAAAAA==", "round": 8, "prunable": true}
{"pass_through_sends": false, "timeout_disallowed": false, "time": [1390978899, 554247], "controller_id": "c1", "fingerprint": ["ControlMessageReceive", {"in_port": 65535, "data": {"class": "lldp"}, "class": "ofp_packet_out", "actions": ["output(1)"]}, 1, ["c", "1"]], "timed_out": false, "dependent_labels": [], "ignore_whitelisted_packets": false, "dpid": 1, "replay_time": [1390978941, 846673], "label": "i166", "class": "ControlMessageReceive", "b64_packet": "AQ0AQQAAABD///////8ACAAAAAgAAQAAASMgAAABAAAAAAEBiMwCBwdkcGlkOjEEAgIxBgIAeAwGZHBpZDoxAAA=", "round": 9, "prunable": true}
{"pass_through_sends": false, "timeout_disallowed": false, "time": [1390978899, 554922], "controller_id": "c1", "fingerprint": ["ControlMessageSend", {"reason": 2, "class": "ofp_port_status", "desc": [3, "00:00:00:00:04:03"]}, 4, ["c", "1"]], "timed_out": true, "dependent_labels": [], "ignore_whitelisted_packets": false, "dpid": 4, "replay_time": [1390978942, 531769], "label": "i167", "class": "ControlMessageSend", "b64_packet": "AQwAQAAAAHkCAAAAAAAAAAADAAAAAAQDZXRoMwAAAAAAAAAAAAAAAAAAAAAAAAABAAAAAAAAAAAAAAAAAAAAAA==", "round": 9, "prunable": true}
{"pass_through_sends": false, "timeout_disallowed": false, "time": [1390978899, 555158], "controller_id": "c1", "fingerprint": ["ControlMessageSend", {"reason": 2, "class": "ofp_port_status", "desc": [1, "00:00:00:00:01:01"]}, 1, ["c", "1"]], "timed_out": true, "dependent_labels": [], "ignore_whitelisted_packets": false, "dpid": 1, "replay_time": [1390978943, 196407], "label": "i168", "class": "ControlMessageSend", "b64_packet": "AQwAQAAAAIECAAAAAAAAAAABAAAAAAEBZXRoMQAAAAAAAAAAAAAAAAAAAAAAAAAAAAAAAAAAAAAAAAAAAAAAAA==", "round": 9, "prunable": true}
{"pass_through_sends": false, "timeout_disallowed": false, "time": [1390978899, 555375], "controller_id": "c1", "fingerprint": ["ControlMessageSend", {"reason": 2, "class": "ofp_port_status", "desc": [3, "00:00:00:00:03:03"]}, 3, ["c", "1"]], "timed_out": true, "dependent_labels": [], "ignore_whitelisted_packets": false, "dpid": 3, "replay_time": [1390978943, 878508], "label": "i169", "class": "ControlMessageSend", "b64_packet": "AQwAQAAAAH8CAAAAAAAAAAADAAAAAAMDZXRoMwAAAAAAAAAAAAAAAAAAAAAAAAAAAAAAAAAAAAAAAAAAAAAAAA==", "round": 9, "prunable": true}
{"pass_through_sends": false, "timeout_disallowed": false, "time": [1390978899, 555590], "controller_id": "c1", "fingerprint": ["ControlMessageSend", {"reason": 2, "class": "ofp_port_status", "desc": [3, "00:00:00:00:01:03"]}, 1, ["c", "1"]], "timed_out": true, "dependent_labels": [], "ignore_whitelisted_packets": false, "dpid": 1, "replay_time": [1390978944, 543351], "label": "i170", "class": "ControlMessageSend", "b64_packet": "AQwAQAAAAIkCAAAAAAAAAAADAAAAAAEDZXRoMwAAAAAAAAAAAAAAAAAAAAAAAAAAAAAAAAAAAAAAAAAAAAAAAA==", "round": 9, "prunable": true}
{"pass_through_sends": false, "timeout_disallowed": false, "time": [1390978899, 555798], "controller_id": "c1", "fingerprint": ["ControlMessageSend", {"reason": 2, "class": "ofp_port_status", "desc": [3, "00:00:00:00:02:03"]}, 2, ["c", "1"]], "timed_out": true, "dependent_labels": [], "ignore_whitelisted_packets": false, "dpid": 2, "replay_time": [1390978945, 71536], "label": "i171", "class": "ControlMessageSend", "b64_packet": "AQwAQAAAAIcCAAAAAAAAAAADAAAAAAIDZXRoMwAAAAAAAAAAAAAAAAAAAAAAAAAAAAAAAAAAAAAAAAAAAAAAAA==", "round": 9, "prunable": true}
{"pass_through_sends": false, "timeout_disallowed": false, "time": [1390978899, 556007], "controller_id": "c1", "fingerprint": ["ControlMessageSend", {"reason": 2, "class": "ofp_port_status", "desc": [2, "00:00:00:00:01:02"]}, 1, ["c", "1"]], "timed_out": true, "dependent_labels": [], "ignore_whitelisted_packets": false, "dpid": 1, "replay_time": [1390978945, 736643], "label": "i172", "class": "ControlMessageSend", "b64_packet": "AQwAQAAAAIsCAAAAAAAAAAACAAAAAAECZXRoMgAAAAAAAAAAAAAAAAAAAAAAAAAAAAAAAAAAAAAAAAAAAAAAAA==", "round": 9, "prunable": true}
{"pass_through_sends": false, "timeout_disallowed": false, "time": [1390978899, 556212], "controller_id": "c1", "fingerprint": ["ControlMessageSend", {"reason": 2, "class": "ofp_port_status", "desc": [1, "00:00:00:00:02:01"]}, 2, ["c", "1"]], "timed_out": true, "dependent_labels": [], "ignore_whitelisted_packets": false, "dpid": 2, "replay_time": [1390978946, 401373], "label": "i173", "class": "ControlMessageSend", "b64_packet": "AQwAQAAAAH0CAAAAAAAAAAABAAAAAAIBZXRoMQAAAAAAAAAAAAAAAAAAAAAAAAABAAAAAAAAAAAAAAAAAAAAAA==", "round": 9, "prunable": true}
{"pass_through_sends": false, "timeout_disallowed": false, "time": [1390978899, 556415], "controller_id": "c1", "fingerprint": ["ControlMessageSend", {"reason": 2, "class": "ofp_port_status", "desc": [2, "00:00:00:00:02:02"]}, 2, ["c", "1"]], "timed_out": true, "dependent_labels": [], "ignore_whitelisted_packets": false, "dpid": 2, "replay_time": [1390978946, 929903], "label": "i174", "class": "ControlMessageSend", "b64_packet": "AQwAQAAAAHsCAAAAAAAAAAACAAAAAAICZXRoMgAAAAAAAAAAAAAAAAAAAAAAAAABAAAAAAAAAAAAAAAAAAAAAA==", "round": 9, "prunable": true}
{"pass_through_sends": false, "timeout_disallowed": false, "time": [1390978899, 556631], "controller_id": "c1", "fingerprint": ["ControlMessageSend", {"reason": 2, "class": "ofp_port_status", "desc": [2, "00:00:00:00:03:02"]}, 3, ["c", "1"]], "timed_out": true, "dependent_labels": [], "ignore_whitelisted_packets": false, "dpid": 3, "replay_time": [1390978947, 594870], "label": "i175", "class": "ControlMessageSend", "b64_packet": "AQwAQAAAAIUCAAAAAAAAAAACAAAAAAMCZXRoMgAAAAAAAAAAAAAAAAAAAAAAAAAAAAAAAAAAAAAAAAAAAAAAAA==", "round": 9, "prunable": true}
{"pass_through_sends": false, "timeout_disallowed": false, "time": [1390978899, 556833], "controller_id": "c1", "fingerprint": ["ControlMessageSend", {"reason": 2, "class": "ofp_port_status", "desc": [1, "00:00:00:00:03:01"]}, 3, ["c", "1"]], "timed_out": true, "dependent_labels": [], "ignore_whitelisted_packets": false, "dpid": 3, "replay_time": [1390978948, 259752], "label": "i176", "class": "ControlMessageSend", "b64_packet": "AQwAQAAAAIMCAAAAAAAAAAABAAAAAAMBZXRoMQAAAAAAAAAAAAAAAAAAAAAAAAAAAAAAAAAAAAAAAAAAAAAAAA==", "round": 9, "prunable": true}
{"timeout_disallowed": false, "fingerprint": ["DataplanePermit", {"class": "lldp"}, 1, 1], "timed_out": false, "label": "i184", "passive": false, "dependent_labels": [], "time": [1390978899, 659070], "replay_time": [1390978948, 260902], "class": "DataplanePermit", "round": 10, "prunable": true}
{"pass_through_sends": false, "timeout_disallowed": false, "time": [1390978899, 659811], "controller_id": "c1", "fingerprint": ["ControlMessageSend", {"reason": 2, "class": "ofp_port_status", "desc": [3, "00:00:00:00:04:03"]}, 4, ["c", "1"]], "timed_out": true, "dependent_labels": [], "ignore_whitelisted_packets": false, "dpid": 4, "replay_time": [1390978948, 952162], "label": "i185", "class": "ControlMessageSend", "b64_packet": "AQwAQAAAAJECAAAAAAAAAAADAAAAAAQDZXRoMwAAAAAAAAAAAAAAAAAAAAAAAAAAAAAAAAAAAAAAAAAAAAAAAA==", "round": 10, "prunable": true}
{"pass_through_sends": false, "timeout_disallowed": false, "time": [1390978899, 660067], "controller_id": "c1", "fingerprint": ["ControlMessageSend", {"reason": 2, "class": "ofp_port_status", "desc": [2, "00:00:00:00:04:02"]}, 4, ["c", "1"]], "timed_out": true, "dependent_labels": [], "ignore_whitelisted_packets": false, "dpid": 4, "replay_time": [1390978949, 617049], "label": "i186", "class": "ControlMessageSend", "b64_packet": "AQwAQAAAAJUCAAAAAAAAAAACAAAAAAQCZXRoMgAAAAAAAAAAAAAAAAAAAAAAAAAAAAAAAAAAAAAAAAAAAAAAAA==", "round": 10, "prunable": true}
{"pass_through_sends": false, "timeout_disallowed": false, "time": [1390978899, 660309], "controller_id": "c1", "fingerprint": ["ControlMessageSend", {"reason": 2, "class": "ofp_port_status", "desc": [3, "00:00:00:00:01:03"]}, 1, ["c", "1"]], "timed_out": true, "dependent_labels": [], "ignore_whitelisted_packets": false, "dpid": 1, "replay_time": [1390978950, 146082], "label": "i187", "class": "ControlMessageSend", "b64_packet": "AQwAQAAAAI0CAAAAAAAAAAADAAAAAAEDZXRoMwAAAAAAAAAAAAAAAAAAAAAAAAABAAAAAAAAAAAAAAAAAAAAAA==", "round": 10, "prunable": true}
{"pass_through_sends": false, "timeout_disallowed": false, "time": [1390978899, 660522], "controller_id": "c1", "fingerprint": ["ControlMessageSend", {"data": {"class": "lldp"}, "class": "ofp_packet_in", "in_port": 3}, 4, ["c", "1"]], "timed_out": false, "dependent_labels": [], "ignore_whitelisted_packets": false, "dpid": 4, "replay_time": [1390978950, 146672], "label": "i188", "class": "ControlMessageSend", "b64_packet": "AQoAOwAAAAEAAAABADsAAwAAASMgAAABAAAAAAEBiMwCBwdkcGlkOjEEAgIxBgIAeAwGZHBpZDoxAAA=", "round": 10, "prunable": true}
{"pass_through_sends": false, "timeout_disallowed": false, "time": [1390978899, 660763], "controller_id": "c1", "fingerprint": ["ControlMessageSend", {"reason": 2, "class": "ofp_port_status", "desc": [3, "00:00:00:00:02:03"]}, 2, ["c", "1"]], "timed_out": true, "dependent_labels": [], "ignore_whitelisted_packets": false, "dpid": 2, "replay_time": [1390978950, 753264], "label": "i189", "class": "ControlMessageSend", "b64_packet": "AQwAQAAAAI8CAAAAAAAAAAADAAAAAAIDZXRoMwAAAAAAAAAAAAAAAAAAAAAAAAABAAAAAAAAAAAAAAAAAAAAAA==", "round": 10, "prunable": true}
{"pass_through_sends": false, "timeout_disallowed": false, "time": [1390978899, 660968], "controller_id": "c1", "fingerprint": ["ControlMessageSend", {"reason": 2, "class": "ofp_port_status", "desc": [1, "00:00:00:00:02:01"]}, 2, ["c", "1"]], "timed_out": true, "dependent_labels": [], "ignore_whitelisted_packets": false, "dpid": 2, "replay_time": [1390978951, 354772], "label": "i190", "class": "ControlMessageSend", "b64_packet": "AQwAQAAAAJMCAAAAAAAAAAABAAAAAAIBZXRoMQAAAAAAAAAAAAAAAAAAAAAAAAAAAAAAAAAAAAAAAAAAAAAAAA==", "round": 10, "prunable": true}
{"pass_through_sends": false, "timeout_disallowed": false, "time": [1390978899, 661171], "controller_id": "c1", "fingerprint": ["ControlMessageSend", {"reason": 2, "class": "ofp_port_status", "desc": [2, "00:00:00:00:02:02"]}, 2, ["c", "1"]], "timed_out": true, "dependent_labels": [], "ignore_whitelisted_packets": false, "dpid": 2, "replay_time": [1390978951, 956329], "label": "i191", "class": "ControlMessageSend", "b64_packet": "AQwAQAAAAJcCAAAAAAAAAAACAAAAAAICZXRoMgAAAAAAAAAAAAAAAAAAAAAAAAAAAAAAAAAAAAAAAAAAAAAAAA==", "round": 10, "prunable": true}
{"pass_through_sends": false, "timeout_disallowed": false, "time": [1390978899, 765832], "controller_id": "c1", "fingerprint": ["ControlMessageReceive", {"in_port": 3, "data": [], "class": "ofp_packet_out", "actions": []}, 4, ["c", "1"]], "timed_out": false, "dependent_labels": [], "ignore_whitelisted_packets": false, "dpid": 4, "replay_time": [1390978951, 956882], "label": "i201", "class": "ControlMessageReceive", "b64_packet": "AQ0AEAAAACQAAAABAAMAAA==", "round": 11, "prunable": true}
{"pass_through_sends": false, "timeout_disallowed": false, "time": [1390978899, 766557], "controller_id": "c1", "fingerprint": ["ControlMessageSend", {"reason": 2, "class": "ofp_port_status", "desc": [3, "00:00:00:00:04:03"]}, 4, ["c", "1"]], "timed_out": true, "dependent_labels": [], "ignore_whitelisted_packets": false, "dpid": 4, "replay_time": [1390978952, 558313], "label": "i202", "class": "ControlMessageSend", "b64_packet": "AQwAQAAAAKMCAAAAAAAAAAADAAAAAAQDZXRoMwAAAAAAAAAAAAAAAAAAAAAAAAABAAAAAAAAAAAAAAAAAAAAAA==", "round": 11, "prunable": true}
{"pass_through_sends": false, "timeout_disallowed": false, "time": [1390978899, 767024], "controller_id": "c1", "fingerprint": ["ControlMessageSend", {"reason": 2, "class": "ofp_port_status", "desc": [1, "00:00:00:00:04:01"]}, 4, ["c", "1"]], "timed_out": true, "dependent_labels": [], "ignore_whitelisted_packets": false, "dpid": 4, "replay_time": [1390978953, 159840], "label": "i203", "class": "ControlMessageSend", "b64_packet": "AQwAQAAAAJsCAAAAAAAAAAABAAAAAAQBZXRoMQAAAAAAAAAAAAAAAAAAAAAAAAABAAAAAAAAAAAAAAAAAAAAAA==", "round": 11, "prunable": true}
{"pass_through_sends": false, "timeout_disallowed": false, "time": [1390978899, 767484], "controller_id": "c1", "fingerprint": ["ControlMessageSend", {"reason": 2, "class": "ofp_port_status", "desc": [3, "00:00:00:00:01:03"]}, 1, ["c", "1"]], "timed_out": true, "dependent_labels": [], "ignore_whitelisted_packets": false, "dpid": 1, "replay_time": [1390978953, 761403], "label": "i204", "class": "ControlMessageSend", "b64_packet": "AQwAQAAAAKcCAAAAAAAAAAADAAAAAAEDZXRoMwAAAAAAAAAAAAAAAAAAAAAAAAAAAAAAAAAAAAAAAAAAAAAAAA==", "round": 11, "prunable": true}
{"pass_through_sends": false, "timeout_disallowed": false, "time": [1390978899, 767935], "controller_id": "c1", "fingerprint": ["ControlMessageSend", {"reason": 2, "class": "ofp_port_status", "desc": [3, "00:00:00:00:02:03"]}, 2, ["c", "1"]], "timed_out": true, "dependent_labels": [], "ignore_whitelisted_packets": false, "dpid": 2, "replay_time": [1390978954, 362954], "label": "i205", "class": "ControlMessageSend", "b64_packet": "AQwAQAAAAKUCAAAAAAAAAAADAAAAAAIDZXRoMwAAAAAAAAAAAAAAAAAAAAAAAAAAAAAAAAAAAAAAAAAAAAAAAA==", "round": 11, "prunable": true}
{"pass_through_sends": false, "timeout_disallowed": false, "time": [1390978899, 768379], "controller_id": "c1", "fingerprint": ["ControlMessageSend", {"reason": 2, "class": "ofp_port_status", "desc": [1, "00:00:00:00:02:01"]}, 2, ["c", "1"]], "timed_out": true, "dependent_labels": [], "ignore_whitelisted_packets": false, "dpid": 2, "replay_time": [1390978954, 964831], "label": "i206", "class": "ControlMessageSend", "b64_packet": "AQwAQAAAAKECAAAAAAAAAAABAAAAAAIBZXRoMQAAAAAAAAAAAAAAAAAAAAAAAAABAAAAAAAAAAAAAAAAAAAAAA==", "round": 11, "prunable": true}
{"pass_through_sends": false, "timeout_disallowed": false, "time": [1390978899, 768865], "controller_id": "c1", "fingerprint": ["ControlMessageSend", {"reason": 2, "class": "ofp_port_status", "desc": [2, "00:00:00:00:01:02"]}, 1, ["c", "1"]], "timed_out": true, "dependent_labels": [], "ignore_whitelisted_packets": false, "dpid": 1, "replay_time": [1390978955, 567338], "label": "i207", "class": "ControlMessageSend", "b64_packet": "AQwAQAAAAJkCAAAAAAAAAAACAAAAAAECZXRoMgAAAAAAAAAAAAAAAAAAAAAAAAABAAAAAAAAAAAAAAAAAAAAAA==", "round": 11, "prunable": true}
{"pass_through_sends": false, "timeout_disallowed": false, "time": [1390978899, 769310], "controller_id": "c1", "fingerprint": ["ControlMessageSend", {"reason": 2, "class": "ofp_port_status", "desc": [2, "00:00:00:00:03:02"]}, 3, ["c", "1"]], "timed_out": true, "dependent_labels": [], "ignore_whitelisted_packets": false, "dpid": 3, "replay_time": [1390978956, 169246], "label": "i208", "class": "ControlMessageSend", "b64_packet": "AQwAQAAAAJ8CAAAAAAAAAAACAAAAAAMCZXRoMgAAAAAAAAAAAAAAAAAAAAAAAAABAAAAAAAAAAAAAAAAAAAAAA==", "round": 11, "prunable": true}
{"pass_through_sends": false, "timeout_disallowed": false, "time": [1390978899, 769763], "controller_id": "c1", "fingerprint": ["ControlMessageSend", {"reason": 2, "class": "ofp_port_status", "desc": [1, "00:00:00:00:03:01"]}, 3, ["c", "1"]], "timed_out": true, "dependent_labels": [], "ignore_whitelisted_packets": false, "dpid": 3, "replay_time": [1390978956, 771126], "label": "i209", "class": "ControlMessageSend", "b64_packet": "AQwAQAAAAJ0CAAAAAAAAAAABAAAAAAMBZXRoMQAAAAAAAAAAAAAAAAAAAAAAAAABAAAAAAAAAAAAAAAAAAAAAA==", "round": 11, "prunable": true}
{"class": "InvariantViolation", "fingerprint": ["InvariantViolation"], "persistent": true, "timed_out": false, "dependent_labels": [], "time": [1390978899, 775543], "violations": ["c1"], "label": "e221", "round": 11, "prunable": true}
{"class": "InvariantViolation", "fingerprint": ["InvariantViolation"], "persistent": false, "timed_out": false, "dependent_labels": [], "time": [1390978957, 272455], "violations": ["c1"], "label": "e222", "round": -1, "prunable": true}
{"wait_time": 1.0, "dependent_labels": [], "fingerprint": ["WaitTime"], "time": [1390978957, 272455], "class": "WaitTime", "prunable": true, "timed_out": false, "round": -1, "label": "e233"}
