{"name": null, "timeout_disallowed": false, "fingerprint": ["ControllerStateChange", "%s going up...", "c1", "c1"], "controller_id": "c1", "value": ["('POX 0.0.0',)"], "timed_out": false, "dependent_labels": [], "time": [1372281753, 127578], "label": "i1", "class": "ControllerStateChange", "round": -1, "prunable": true}
{"name": null, "timeout_disallowed": false, "fingerprint": ["ControllerStateChange", "Running on %s", "c1", "c1"], "controller_id": "c1", "value": ["('CPython (2.7.2+/Jul 20 2012 22:15:08)',)"], "timed_out": false, "dependent_labels": [], "time": [1372281753, 129265], "label": "i2", "class": "ControllerStateChange", "round": -1, "prunable": true}
{"name": null, "timeout_disallowed": false, "fingerprint": ["ControllerStateChange", "%s is up.", "c1", "c1"], "controller_id": "c1", "value": ["('POX 0.0.0',)"], "timed_out": false, "dependent_labels": [], "time": [1372281753, 130706], "label": "i3", "class": "ControllerStateChange", "round": -1, "prunable": true}
{"name": null, "timeout_disallowed": false, "fingerprint": ["ControllerStateChange", "Listening for connections on ('127.0.0.1', 6633)", "c1", "c1"], "controller_id": "c1", "value": ["()"], "timed_out": false, "dependent_labels": [], "time": [1372281753, 133870], "label": "i4", "class": "ControllerStateChange", "round": -1, "prunable": true}
{"fingerprint": ["ConnectToControllers"], "dependent_labels": [], "time": [1372281753, 136956], "timeout_disallowed": false, "prunable": true, "class": "ConnectToControllers", "timed_out": false, "round": -1, "label": "i5"}
{"timeout_disallowed": false, "time": [1372281753, 139333], "controller_id": "c1", "fingerprint": ["ControlMessageReceive", {"class": "ofp_hello"}, 1, ["c", "1"]], "timed_out": false, "dependent_labels": [], "dpid": 1, "label": "i6", "class": "ControlMessageReceive", "round": -1, "prunable": true}
{"timeout_disallowed": false, "time": [1372281753, 139828], "controller_id": "c1", "fingerprint": ["ControlMessageSend", {"class": "ofp_hello"}, 1, ["c", "1"]], "timed_out": false, "dependent_labels": [], "dpid": 1, "label": "i7", "class": "ControlMessageSend", "round": -1, "prunable": true}
{"timeout_disallowed": false, "time": [1372281753, 179580], "controller_id": "c1", "fingerprint": ["ControlMessageReceive", {"class": "ofp_hello"}, 2, ["c", "1"]], "timed_out": false, "dependent_labels": [], "dpid": 2, "label": "i8", "class": "ControlMessageReceive", "round": -1, "prunable": true}
{"timeout_disallowed": false, "time": [1372281753, 180103], "controller_id": "c1", "fingerprint": ["ControlMessageReceive", {"class": "ofp_features_request"}, 1, ["c", "1"]], "timed_out": false, "dependent_labels": [], "dpid": 1, "label": "i9", "class": "ControlMessageReceive", "round": -1, "prunable": true}
{"timeout_disallowed": false, "time": [1372281753, 180507], "controller_id": "c1", "fingerprint": ["ControlMessageSend", {"class": "ofp_hello"}, 2, ["c", "1"]], "timed_out": false, "dependent_labels": [], "dpid": 2, "label": "i10", "class": "ControlMessageSend", "round": -1, "prunable": true}
{"timeout_disallowed": false, "time": [1372281753, 180967], "controller_id": "c1", "fingerprint": ["ControlMessageSend", {"datapath_id": 1, "class": "ofp_features_reply"}, 1, ["c", "1"]], "timed_out": false, "dependent_labels": [], "dpid": 1, "label": "i11", "class": "ControlMessageSend", "round": -1, "prunable": true}
{"timeout_disallowed": false, "time": [1372281753, 182180], "controller_id": "c1", "fingerprint": ["ControlMessageReceive", {"class": "ofp_features_request"}, 2, ["c", "1"]], "timed_out": false, "dependent_labels": [], "dpid": 2, "label": "i12", "class": "ControlMessageReceive", "round": -1, "prunable": true}
{"timeout_disallowed": false, "time": [1372281753, 184736], "controller_id": "c1", "fingerprint": ["ControlMessageReceive", {"class": "ofp_set_config"}, 1, ["c", "1"]], "timed_out": false, "dependent_labels": [], "dpid": 1, "label": "i13", "class": "ControlMessageReceive", "round": -1, "prunable": true}
{"timeout_disallowed": false, "time": [1372281753, 228180], "controller_id": "c1", "fingerprint": ["ControlMessageReceive", {"class": "ofp_barrier_request"}, 1, ["c", "1"]], "timed_out": false, "dependent_labels": [], "dpid": 1, "label": "i14", "class": "ControlMessageReceive", "round": -1, "prunable": true}
{"timeout_disallowed": false, "time": [1372281753, 228896], "controller_id": "c1", "fingerprint": ["ControlMessageReceive", {"hard_timeout": 0, "actions": [], "priority": 32768, "idle_timeout": 0, "command": "delete", "out_port": 65535, "flags": 0, "class": "ofp_flow_mod", "match": "x^L"}, 1, ["c", "1"]], "timed_out": false, "dependent_labels": [], "dpid": 1, "label": "i15", "class": "ControlMessageReceive", "round": -1, "prunable": true}
{"timeout_disallowed": false, "time": [1372281753, 229745], "controller_id": "c1", "fingerprint": ["ControlMessageSend", {"datapath_id": 2, "class": "ofp_features_reply"}, 2, ["c", "1"]], "timed_out": false, "dependent_labels": [], "dpid": 2, "label": "i16", "class": "ControlMessageSend", "round": -1, "prunable": true}
{"timeout_disallowed": false, "time": [1372281753, 230248], "controller_id": "c1", "fingerprint": ["ControlMessageSend", {"class": "ofp_barrier_reply"}, 1, ["c", "1"]], "timed_out": false, "dependent_labels": [], "dpid": 1, "label": "i17", "class": "ControlMessageSend", "round": -1, "prunable": true}
{"name": null, "timeout_disallowed": false, "fingerprint": ["ControllerStateChange", "of_01 %s Connected to %s", "c1", "c1"], "controller_id": "c1", "value": ["('[Con 1/1]', '00-00-00-00-00-01')"], "timed_out": false, "dependent_labels": [], "time": [1372281753, 235376], "label": "i18", "class": "ControllerStateChange", "round": -1, "prunable": true}
{"name": null, "timeout_disallowed": false, "fingerprint": ["ControllerStateChange", "Connect %s", "c1", "c1"], "controller_id": "c1", "value": ["(<pox.openflow.of_01.Connection object at 0x299a450>,)"], "timed_out": false, "dependent_labels": [], "time": [1372281753, 237958], "label": "i19", "class": "ControllerStateChange", "round": -1, "prunable": true}
{"name": null, "timeout_disallowed": false, "fingerprint": ["ControllerStateChange", "Installing flow for %s", "c1", "c1"], "controller_id": "c1", "value": ["('00-00-00-00-00-01',)"], "timed_out": false, "dependent_labels": [], "time": [1372281753, 240172], "label": "i20", "class": "ControllerStateChange", "round": -1, "prunable": true}
{"timeout_disallowed": false, "time": [1372281753, 272407], "controller_id": "c1", "fingerprint": ["ControlMessageReceive", {"hard_timeout": 0, "actions": ["output(65533)"], "priority": 32768, "idle_timeout": 0, "command": "add", "out_port": 65535, "flags": 0, "class": "ofp_flow_mod", "match": "dl_dst:01:23:20:00:00:01,dl_type:35020"}, 1, ["c", "1"]], "timed_out": false, "dependent_labels": [], "dpid": 1, "label": "i21", "class": "ControlMessageReceive", "round": -1, "prunable": true}
{"timeout_disallowed": false, "time": [1372281753, 273404], "controller_id": "c1", "fingerprint": ["ControlMessageReceive", {"hard_timeout": 0, "actions": [], "priority": 32768, "idle_timeout": 0, "command": "delete", "out_port": 65535, "flags": 0, "class": "ofp_flow_mod", "match": "x^L"}, 2, ["c", "1"]], "timed_out": false, "dependent_labels": [], "dpid": 2, "label": "i22", "class": "ControlMessageReceive", "round": -1, "prunable": true}
{"timeout_disallowed": false, "time": [1372281753, 274199], "controller_id": "c1", "fingerprint": ["ControlMessageReceive", {"class": "ofp_set_config"}, 2, ["c", "1"]], "timed_out": false, "dependent_labels": [], "dpid": 2, "label": "i23", "class": "ControlMessageReceive", "round": -1, "prunable": true}
{"timeout_disallowed": false, "time": [1372281753, 274707], "controller_id": "c1", "fingerprint": ["ControlMessageReceive", {"class": "ofp_barrier_request"}, 2, ["c", "1"]], "timed_out": false, "dependent_labels": [], "dpid": 2, "label": "i24", "class": "ControlMessageReceive", "round": -1, "prunable": true}
{"timeout_disallowed": false, "time": [1372281753, 275166], "controller_id": "c1", "fingerprint": ["ControlMessageSend", {"class": "ofp_barrier_reply"}, 2, ["c", "1"]], "timed_out": false, "dependent_labels": [], "dpid": 2, "label": "i25", "class": "ControlMessageSend", "round": -1, "prunable": true}
{"name": null, "timeout_disallowed": false, "fingerprint": ["ControllerStateChange", "of_01 %s Connected to %s", "c1", "c1"], "controller_id": "c1", "value": ["('[Con 2/2]', '00-00-00-00-00-02')"], "timed_out": false, "dependent_labels": [], "time": [1372281753, 277321], "label": "i26", "class": "ControllerStateChange", "round": -1, "prunable": true}
{"name": null, "timeout_disallowed": false, "fingerprint": ["ControllerStateChange", "Connect %s", "c1", "c1"], "controller_id": "c1", "value": ["(<pox.openflow.of_01.Connection object at 0x299a490>,)"], "timed_out": false, "dependent_labels": [], "time": [1372281753, 279514], "label": "i27", "class": "ControllerStateChange", "round": -1, "prunable": true}
{"name": null, "timeout_disallowed": false, "fingerprint": ["ControllerStateChange", "Installing flow for %s", "c1", "c1"], "controller_id": "c1", "value": ["('00-00-00-00-00-02',)"], "timed_out": false, "dependent_labels": [], "time": [1372281753, 281187], "label": "i28", "class": "ControllerStateChange", "round": -1, "prunable": true}
{"timeout_disallowed": false, "time": [1372281753, 281586], "controller_id": "c1", "fingerprint": ["ControlMessageReceive", {"hard_timeout": 0, "actions": ["output(65533)"], "priority": 32768, "idle_timeout": 0, "command": "add", "out_port": 65535, "flags": 0, "class": "ofp_flow_mod", "match": "dl_dst:01:23:20:00:00:01,dl_type:35020"}, 2, ["c", "1"]], "timed_out": false, "dependent_labels": [], "dpid": 2, "label": "i29", "class": "ControlMessageReceive", "round": -1, "prunable": true}
{"dependent_labels": [], "class": "TrafficInjection", "fingerprint": ["TrafficInjection", {"interface": {"hw_addr": "12:34:56:78:02:02", "ips": ["123.123.2.2"], "name": "eth2"}, "packet": "////////EjRWeAICCAYAAQgABgQAARI0VngCAnt7AgIAAAAAAAB7ewEC"}, 2], "timed_out": false, "label": "e30", "dp_event": {"interface": {"hw_addr": "12:34:56:78:02:02", "ips": ["123.123.2.2"], "name": "eth2"}, "packet": "////////EjRWeAICCAYAAQgABgQAARI0VngCAnt7AgIAAAAAAAB7ewEC"}, "time": [1372281753, 282340], "host_id": 2, "round": -1, "prunable": true}
{"timeout_disallowed": false, "fingerprint": ["DataplanePermit", {"class": "arp"}, "host:[IPAddr('123.123.2.2')]", "12:34:56:78:02:02"], "timed_out": false, "label": "i31", "passive": false, "dependent_labels": [], "time": [1372281753, 283084], "class": "DataplanePermit", "round": -1, "prunable": true}
{"timeout_disallowed": false, "time": [1372281753, 283410], "controller_id": "c1", "fingerprint": ["ControlMessageSend", {"data": {"class": "arp"}, "class": "ofp_packet_in", "in_port": 2}, 2, ["c", "1"]], "timed_out": false, "dependent_labels": [], "dpid": 2, "label": "i32", "class": "ControlMessageSend", "round": -1, "prunable": true}
{"name": null, "timeout_disallowed": false, "fingerprint": ["ControllerStateChange", "Learned %s at %s.%i", "c1", "c1"], "controller_id": "c1", "value": ["(EthAddr('12:34:56:78:02:02'), 00-00-00-00-00-02, 2)"], "timed_out": false, "dependent_labels": [], "time": [1372281753, 288808], "label": "i33", "class": "ControllerStateChange", "round": -1, "prunable": true}
{"name": null, "timeout_disallowed": false, "fingerprint": ["ControllerStateChange", "Flood multicast from %s", "c1", "c1"], "controller_id": "c1", "value": ["(EthAddr('12:34:56:78:02:02'),)"], "timed_out": false, "dependent_labels": [], "time": [1372281753, 290676], "label": "i34", "class": "ControllerStateChange", "round": -1, "prunable": true}
{"timeout_disallowed": false, "time": [1372281753, 291227], "controller_id": "c1", "fingerprint": ["ControlMessageReceive", {"in_port": 2, "data": [], "class": "ofp_packet_out", "actions": ["output(65531)"]}, 2, ["c", "1"]], "timed_out": false, "dependent_labels": [], "dpid": 2, "label": "i35", "class": "ControlMessageReceive", "round": -1, "prunable": true}
{"timeout_disallowed": false, "fingerprint": ["DataplanePermit", {"class": "arp"}, 2, 1], "timed_out": false, "label": "i36", "passive": false, "dependent_labels": [], "time": [1372281753, 292150], "class": "DataplanePermit", "round": -1, "prunable": true}
{"timeout_disallowed": false, "time": [1372281753, 292638], "controller_id": "c1", "fingerprint": ["ControlMessageSend", {"data": {"class": "arp"}, "class": "ofp_packet_in", "in_port": 1}, 1, ["c", "1"]], "timed_out": false, "dependent_labels": [], "dpid": 1, "label": "i37", "class": "ControlMessageSend", "round": -1, "prunable": true}
{"name": null, "timeout_disallowed": false, "fingerprint": ["ControllerStateChange", "%s moved from %s.%i to %s.%i?", "c1", "c1"], "controller_id": "c1", "value": ["(EthAddr('12:34:56:78:02:02'), '00-00-00-00-00-02', 2, '00-00-00-00-00-01', 1)"], "timed_out": false, "dependent_labels": [], "time": [1372281753, 296756], "label": "i38", "class": "ControllerStateChange", "round": -1, "prunable": true}
{"name": null, "timeout_disallowed": false, "fingerprint": ["ControllerStateChange", "Learned %s at %s.%i", "c1", "c1"], "controller_id": "c1", "value": ["(EthAddr('12:34:56:78:02:02'), 00-00-00-00-00-01, 1)"], "timed_out": false, "dependent_labels": [], "time": [1372281753, 298350], "label": "i39", "class": "ControllerStateChange", "round": -1, "prunable": true}
{"name": null, "timeout_disallowed": false, "fingerprint": ["ControllerStateChange", "Flood multicast from %s", "c1", "c1"], "controller_id": "c1", "value": ["(EthAddr('12:34:56:78:02:02'),)"], "timed_out": false, "dependent_labels": [], "time": [1372281753, 300045], "label": "i40", "class": "ControllerStateChange", "round": -1, "prunable": true}
{"timeout_disallowed": false, "time": [1372281753, 300588], "controller_id": "c1", "fingerprint": ["ControlMessageReceive", {"in_port": 1, "data": [], "class": "ofp_packet_out", "actions": ["output(65531)"]}, 1, ["c", "1"]], "timed_out": false, "dependent_labels": [], "dpid": 1, "label": "i41", "class": "ControlMessageReceive", "round": -1, "prunable": true}
{"timeout_disallowed": false, "fingerprint": ["DataplanePermit", {"class": "arp"}, 1, 2], "timed_out": false, "label": "i42", "passive": false, "dependent_labels": [], "time": [1372281753, 301384], "class": "DataplanePermit", "round": -1, "prunable": true}
{"timeout_disallowed": false, "time": [1372281753, 339922], "controller_id": "c1", "fingerprint": ["ControlMessageReceive", {"in_port": 65535, "data": {"class": "lldp"}, "class": "ofp_packet_out", "actions": ["output(1)"]}, 1, ["c", "1"]], "timed_out": false, "dependent_labels": [], "dpid": 1, "label": "i43", "class": "ControlMessageReceive", "round": -1, "prunable": true}
{"class": "DataplaneDrop", "fingerprint": ["DataplaneDrop", {"class": "lldp"}, 1, 1], "timed_out": false, "label": "e44", "passive": false, "dependent_labels": [], "time": [1372281753, 340423], "round": -1, "prunable": true}
{"legacy_invariant_check": false, "class": "CheckInvariants", "fingerprint": "N/A", "timed_out": false, "label": "e45", "dependent_labels": [], "invariant_name": "check_for_loops_or_connectivity", "invariant_check_name": "check_for_loops_or_connectivity", "time": [1372281753, 341991], "invariant_check": null, "round": -1, "prunable": true}
{"dependent_labels": [], "class": "TrafficInjection", "fingerprint": ["TrafficInjection", {"interface": {"hw_addr": "12:34:56:78:01:02", "ips": ["123.123.1.2"], "name": "eth1"}, "packet": "EjRWeAICEjRWeAECCAYAAQgABgQAAhI0VngBAnt7AQISNFZ4AgJ7ewIC"}, 1], "timed_out": false, "label": "e46", "dp_event": {"interface": {"hw_addr": "12:34:56:78:01:02", "ips": ["123.123.1.2"], "name": "eth1"}, "packet": "EjRWeAICEjRWeAECCAYAAQgABgQAAhI0VngBAnt7AQISNFZ4AgJ7ewIC"}, "time": [1372281753, 342550], "host_id": 1, "round": -1, "prunable": true}
{"timeout_disallowed": false, "fingerprint": ["DataplanePermit", {"class": "arp"}, "host:[IPAddr('123.123.1.2')]", "12:34:56:78:01:02"], "timed_out": false, "label": "i47", "passive": false, "dependent_labels": [], "time": [1372281753, 343532], "class": "DataplanePermit", "round": -1, "prunable": true}
{"timeout_disallowed": false, "time": [1372281753, 343986], "controller_id": "c1", "fingerprint": ["ControlMessageSend", {"data": {"class": "arp"}, "class": "ofp_packet_in", "in_port": 2}, 1, ["c", "1"]], "timed_out": false, "dependent_labels": [], "dpid": 1, "label": "i48", "class": "ControlMessageSend", "round": -1, "prunable": true}
{"name": null, "timeout_disallowed": false, "fingerprint": ["ControllerStateChange", "Learned %s at %s.%i", "c1", "c1"], "controller_id": "c1", "value": ["(EthAddr('12:34:56:78:01:02'), 00-00-00-00-00-01, 2)"], "timed_out": false, "dependent_labels": [], "time": [1372281753, 348139], "label": "i49", "class": "ControllerStateChange", "round": -1, "prunable": true}
{"name": null, "timeout_disallowed": false, "fingerprint": ["ControllerStateChange", "Installing path for %s -> %s %04x (%i hops)", "c1", "c1"], "controller_id": "c1", "value": ["(EthAddr('12:34:56:78:01:02'), EthAddr('12:34:56:78:02:02'), 2054, 1)"], "timed_out": false, "dependent_labels": [], "time": [1372281753, 349728], "label": "i50", "class": "ControllerStateChange", "round": -1, "prunable": true}
{"timeout_disallowed": false, "time": [1372281753, 350497], "controller_id": "c1", "fingerprint": ["ControlMessageReceive", {"hard_timeout": 30, "actions": ["output(1)"], "priority": 32768, "idle_timeout": 10, "command": "add", "out_port": 65535, "flags": 0, "class": "ofp_flow_mod", "match": "dl_src:12:34:56:78:01:02,dl_dst:12:34:56:78:02:02,dl_vlan:65535,dl_vlan_pcp:0,dl_type:2054,nw_proto:2,nw_src:123.123.1.2/32,nw_dst:123.123.2.2/32"}, 1, ["c", "1"]], "timed_out": false, "dependent_labels": [], "dpid": 1, "label": "i51", "class": "ControlMessageReceive", "round": -1, "prunable": true}
{"timeout_disallowed": false, "fingerprint": ["DataplanePermit", {"class": "arp"}, 1, 1], "timed_out": false, "label": "i52", "passive": false, "dependent_labels": [], "time": [1372281753, 351637], "class": "DataplanePermit", "round": -1, "prunable": true}
{"timeout_disallowed": false, "time": [1372281753, 352103], "controller_id": "c1", "fingerprint": ["ControlMessageSend", {"data": {"class": "arp"}, "class": "ofp_packet_in", "in_port": 1}, 2, ["c", "1"]], "timed_out": false, "dependent_labels": [], "dpid": 2, "label": "i53", "class": "ControlMessageSend", "round": -1, "prunable": true}
{"new_ingress_port_no": 3, "class": "HostMigration", "fingerprint": ["HostMigration", 2, 2, 1, 3, 2], "timed_out": false, "label": "e54", "dependent_labels": [], "new_ingress_dpid": 1, "time": [1372281753, 352824], "old_ingress_port_no": 2, "host_id": 2, "old_ingress_dpid": 2, "round": -1, "prunable": true}
{"dependent_labels": [], "class": "TrafficInjection", "fingerprint": ["TrafficInjection", {"interface": {"hw_addr": "12:34:56:78:02:02", "ips": ["123.123.2.2"], "name": "eth2"}, "packet": "EjRWeAICEjRWeAICCABFAABIVV0AAEABKl57ewICe3sCAgAADjdQaW5nUGluZ1BpbmdQaW5nUGluZ1BpbmdQaW5nUGluZ1BpbmdQaW5nUGluZ1Bpbmc="}, 2], "timed_out": false, "label": "e55", "dp_event": {"interface": {"hw_addr": "12:34:56:78:02:02", "ips": ["123.123.2.2"], "name": "eth2"}, "packet": "EjRWeAICEjRWeAICCABFAABIVV0AAEABKl57ewICe3sCAgAADjdQaW5nUGluZ1BpbmdQaW5nUGluZ1BpbmdQaW5nUGluZ1BpbmdQaW5nUGluZ1Bpbmc="}, "time": [1372281753, 353509], "host_id": 2, "round": -1, "prunable": true}
{"name": null, "timeout_disallowed": false, "fingerprint": ["ControllerStateChange", "%s moved from %s.%i to %s.%i?", "c1", "c1"], "controller_id": "c1", "value": ["(EthAddr('12:34:56:78:01:02'), '00-00-00-00-00-01', 2, '00-00-00-00-00-02', 1)"], "timed_out": false, "dependent_labels": [], "time": [1372281753, 357810], "label": "i56", "class": "ControllerStateChange", "round": -1, "prunable": true}
{"name": null, "timeout_disallowed": false, "fingerprint": ["ControllerStateChange", "Learned %s at %s.%i", "c1", "c1"], "controller_id": "c1", "value": ["(EthAddr('12:34:56:78:01:02'), 00-00-00-00-00-02, 1)"], "timed_out": false, "dependent_labels": [], "time": [1372281753, 359520], "label": "i57", "class": "ControllerStateChange", "round": -1, "prunable": true}
{"name": null, "timeout_disallowed": false, "fingerprint": ["ControllerStateChange", "Can't get from %s to %s", "c1", "c1"], "controller_id": "c1", "value": ["(EthAddr('12:34:56:78:01:02'), EthAddr('12:34:56:78:02:02'))"], "timed_out": false, "dependent_labels": [], "time": [1372281753, 361135], "label": "i58", "class": "ControllerStateChange", "round": -1, "prunable": true}
{"timeout_disallowed": false, "fingerprint": ["DataplanePermit", {"dl_dst": "12:34:56:78:02:02", "nw_src": "123.123.2.2", "dl_src": "12:34:56:78:02:02", "nw_dst": "123.123.2.2"}, "host:[IPAddr('123.123.2.2')]", "12:34:56:78:02:02"], "timed_out": false, "label": "i59", "passive": false, "dependent_labels": [], "time": [1372281753, 362188], "class": "DataplanePermit", "round": -1, "prunable": true}
{"timeout_disallowed": false, "time": [1372281753, 362815], "controller_id": "c1", "fingerprint": ["ControlMessageSend", {"reason": 0, "class": "ofp_port_status", "desc": [3, "00:00:00:00:02:02"]}, 1, ["c", "1"]], "timed_out": false, "dependent_labels": [], "dpid": 1, "label": "i60", "class": "ControlMessageSend", "round": -1, "prunable": true}
{"timeout_disallowed": false, "time": [1372281753, 363409], "controller_id": "c1", "fingerprint": ["ControlMessageSend", {"reason": 1, "class": "ofp_port_status", "desc": [2, "00:00:00:00:02:02"]}, 2, ["c", "1"]], "timed_out": false, "dependent_labels": [], "dpid": 2, "label": "i61", "class": "ControlMessageSend", "round": -1, "prunable": true}
{"timeout_disallowed": false, "time": [1372281753, 364043], "controller_id": "c1", "fingerprint": ["ControlMessageSend", {"data": {"dl_dst": "12:34:56:78:02:02", "nw_src": "123.123.2.2", "dl_src": "12:34:56:78:02:02", "nw_dst": "123.123.2.2"}, "class": "ofp_packet_in", "in_port": 3}, 1, ["c", "1"]], "timed_out": false, "dependent_labels": [], "dpid": 1, "label": "i62", "class": "ControlMessageSend", "round": -1, "prunable": true}
{"name": null, "timeout_disallowed": false, "fingerprint": ["ControllerStateChange", "%s moved from %s.%i to %s.%i?", "c1", "c1"], "controller_id": "c1", "value": ["(EthAddr('12:34:56:78:02:02'), '00-00-00-00-00-01', 1, '00-00-00-00-00-01', 3)"], "timed_out": false, "dependent_labels": [], "time": [1372281753, 396736], "label": "i63", "class": "ControllerStateChange", "round": -1, "prunable": true}
{"name": null, "timeout_disallowed": false, "fingerprint": ["ControllerStateChange", "Learned %s at %s.%i", "c1", "c1"], "controller_id": "c1", "value": ["(EthAddr('12:34:56:78:02:02'), 00-00-00-00-00-01, 3)"], "timed_out": false, "dependent_labels": [], "time": [1372281753, 399619], "label": "i64", "class": "ControllerStateChange", "round": -1, "prunable": true}
{"name": null, "timeout_disallowed": false, "fingerprint": ["ControllerStateChange", "Installing path for %s -> %s %04x (%i hops)", "c1", "c1"], "controller_id": "c1", "value": ["(EthAddr('12:34:56:78:02:02'), EthAddr('12:34:56:78:02:02'), 2048, 1)"], "timed_out": false, "dependent_labels": [], "time": [1372281753, 401200], "label": "i65", "class": "ControllerStateChange", "round": -1, "prunable": true}
{"timeout_disallowed": false, "time": [1372281753, 402044], "controller_id": "c1", "fingerprint": ["ControlMessageReceive", {"hard_timeout": 30, "actions": ["output(3)"], "priority": 32768, "idle_timeout": 10, "command": "add", "out_port": 65535, "flags": 0, "class": "ofp_flow_mod", "match": "dl_src:12:34:56:78:02:02,dl_dst:12:34:56:78:02:02,dl_vlan:65535,dl_vlan_pcp:0,dl_type:2048,nw_tos:0,nw_proto:1,nw_src:123.123.2.2/32,nw_dst:123.123.2.2/32,tp_src:0,tp_dst:0"}, 1, ["c", "1"]], "timed_out": false, "dependent_labels": [], "dpid": 1, "label": "i66", "class": "ControlMessageReceive", "round": -1, "prunable": true}
{"dependent_labels": [], "class": "TrafficInjection", "fingerprint": ["TrafficInjection", {"interface": {"hw_addr": "12:34:56:78:02:02", "ips": ["123.123.2.2"], "name": "eth2"}, "packet": "EjRWeAECEjRWeAICCABFAAAcISgAAEABX797ewICe3sBAggAGS9waW5n"}, 2], "timed_out": false, "label": "e67", "dp_event": {"interface": {"hw_addr": "12:34:56:78:02:02", "ips": ["123.123.2.2"], "name": "eth2"}, "packet": "EjRWeAECEjRWeAICCABFAAAcISgAAEABX797ewICe3sBAggAGS9waW5n"}, "time": [1372281753, 403091], "host_id": 2, "round": -1, "prunable": true}
{"class": "DataplaneDrop", "fingerprint": ["DataplaneDrop", {"dl_dst": "12:34:56:78:01:02", "nw_src": "123.123.2.2", "dl_src": "12:34:56:78:02:02", "nw_dst": "123.123.1.2"}, "host:[IPAddr('123.123.2.2')]", "12:34:56:78:02:02"], "timed_out": false, "label": "e68", "passive": false, "dependent_labels": [], "time": [1372281753, 403676], "round": -1, "prunable": true}
{"new_ingress_port_no": 3, "class": "HostMigration", "fingerprint": ["HostMigration", 1, 2, 2, 3, 1], "timed_out": false, "label": "e69", "dependent_labels": [], "new_ingress_dpid": 2, "time": [1372281753, 404384], "old_ingress_port_no": 2, "host_id": 1, "old_ingress_dpid": 1, "round": -1, "prunable": true}
{"dependent_labels": [], "class": "TrafficInjection", "fingerprint": ["TrafficInjection", {"interface": {"hw_addr": "12:34:56:78:01:02", "ips": ["123.123.1.2"], "name": "eth1"}, "packet": "EjRWeAECEjRWeAECCABFAABIVV8AAEABLFx7ewECe3sBAgAADjdQaW5nUGluZ1BpbmdQaW5nUGluZ1BpbmdQaW5nUGluZ1BpbmdQaW5nUGluZ1Bpbmc="}, 1], "timed_out": false, "label": "e70", "dp_event": {"interface": {"hw_addr": "12:34:56:78:01:02", "ips": ["123.123.1.2"], "name": "eth1"}, "packet": "EjRWeAECEjRWeAECCABFAABIVV8AAEABLFx7ewECe3sBAgAADjdQaW5nUGluZ1BpbmdQaW5nUGluZ1BpbmdQaW5nUGluZ1BpbmdQaW5nUGluZ1Bpbmc="}, "time": [1372281753, 405028], "host_id": 1, "round": -1, "prunable": true}
{"timeout_disallowed": false, "fingerprint": ["DataplanePermit", {"dl_dst": "12:34:56:78:01:02", "nw_src": "123.123.1.2", "dl_src": "12:34:56:78:01:02", "nw_dst": "123.123.1.2"}, "host:[IPAddr('123.123.1.2')]", "12:34:56:78:01:02"], "timed_out": false, "label": "i71", "passive": false, "dependent_labels": [], "time": [1372281753, 406195], "class": "DataplanePermit", "round": -1, "prunable": true}
{"timeout_disallowed": false, "time": [1372281753, 406797], "controller_id": "c1", "fingerprint": ["ControlMessageSend", {"reason": 1, "class": "ofp_port_status", "desc": [2, "00:00:00:00:01:02"]}, 1, ["c", "1"]], "timed_out": false, "dependent_labels": [], "dpid": 1, "label": "i72", "class": "ControlMessageSend", "round": -1, "prunable": true}
{"timeout_disallowed": false, "time": [1372281753, 407369], "controller_id": "c1", "fingerprint": ["ControlMessageSend", {"reason": 0, "class": "ofp_port_status", "desc": [3, "00:00:00:00:01:02"]}, 2, ["c", "1"]], "timed_out": false, "dependent_labels": [], "dpid": 2, "label": "i73", "class": "ControlMessageSend", "round": -1, "prunable": true}
{"timeout_disallowed": false, "time": [1372281753, 407981], "controller_id": "c1", "fingerprint": ["ControlMessageSend", {"data": {"dl_dst": "12:34:56:78:01:02", "nw_src": "123.123.1.2", "dl_src": "12:34:56:78:01:02", "nw_dst": "123.123.1.2"}, "class": "ofp_packet_in", "in_port": 3}, 2, ["c", "1"]], "timed_out": false, "dependent_labels": [], "dpid": 2, "label": "i74", "class": "ControlMessageSend", "round": -1, "prunable": true}
{"name": null, "timeout_disallowed": false, "fingerprint": ["ControllerStateChange", "%s moved from %s.%i to %s.%i?", "c1", "c1"], "controller_id": "c1", "value": ["(EthAddr('12:34:56:78:01:02'), '00-00-00-00-00-02', 1, '00-00-00-00-00-02', 3)"], "timed_out": false, "dependent_labels": [], "time": [1372281753, 416119], "label": "i75", "class": "ControllerStateChange", "round": -1, "prunable": true}
{"name": null, "timeout_disallowed": false, "fingerprint": ["ControllerStateChange", "Learned %s at %s.%i", "c1", "c1"], "controller_id": "c1", "value": ["(EthAddr('12:34:56:78:01:02'), 00-00-00-00-00-02, 3)"], "timed_out": false, "dependent_labels": [], "time": [1372281753, 418992], "label": "i76", "class": "ControllerStateChange", "round": -1, "prunable": true}
{"name": null, "timeout_disallowed": false, "fingerprint": ["ControllerStateChange", "Installing path for %s -> %s %04x (%i hops)", "c1", "c1"], "controller_id": "c1", "value": ["(EthAddr('12:34:56:78:01:02'), EthAddr('12:34:56:78:01:02'), 2048, 1)"], "timed_out": false, "dependent_labels": [], "time": [1372281753, 420605], "label": "i77", "class": "ControllerStateChange", "round": -1, "prunable": true}
{"timeout_disallowed": false, "time": [1372281753, 421450], "controller_id": "c1", "fingerprint": ["ControlMessageReceive", {"hard_timeout": 30, "actions": ["output(3)"], "priority": 32768, "idle_timeout": 10, "command": "add", "out_port": 65535, "flags": 0, "class": "ofp_flow_mod", "match": "dl_src:12:34:56:78:01:02,dl_dst:12:34:56:78:01:02,dl_vlan:65535,dl_vlan_pcp:0,dl_type:2048,nw_tos:0,nw_proto:1,nw_src:123.123.1.2/32,nw_dst:123.123.1.2/32,tp_src:0,tp_dst:0"}, 2, ["c", "1"]], "timed_out": false, "dependent_labels": [], "dpid": 2, "label": "i78", "class": "ControlMessageReceive", "round": -1, "prunable": true}
{"legacy_invariant_check": false, "class": "CheckInvariants", "fingerprint": "N/A", "timed_out": false, "label": "e79", "dependent_labels": [], "invariant_name": "check_for_loops_or_connectivity", "invariant_check_name": "check_for_loops_or_connectivity", "time": [1372281753, 429950], "invariant_check": null, "round": -1, "prunable": true}
{"dependent_labels": [], "class": "TrafficInjection", "fingerprint": ["TrafficInjection", {"interface": {"hw_addr": "12:34:56:78:01:02", "ips": ["123.123.1.2"], "name": "eth1"}, "packet": "EjRWeAICEjRWeAECCABFAAAcISkAAEABX757ewECe3sCAgAAISlwb25n"}, 1], "timed_out": false, "label": "e80", "dp_event": {"interface": {"hw_addr": "12:34:56:78:01:02", "ips": ["123.123.1.2"], "name": "eth1"}, "packet": "EjRWeAICEjRWeAECCABFAAAcISkAAEABX757ewECe3sCAgAAISlwb25n"}, "time": [1372281753, 430572], "host_id": 1, "round": -1, "prunable": true}
{"timeout_disallowed": false, "fingerprint": ["DataplanePermit", {"dl_dst": "12:34:56:78:02:02", "nw_src": "123.123.1.2", "dl_src": "12:34:56:78:01:02", "nw_dst": "123.123.2.2"}, "host:[IPAddr('123.123.1.2')]", "12:34:56:78:01:02"], "timed_out": false, "label": "i81", "passive": false, "dependent_labels": [], "time": [1372281753, 431789], "class": "DataplanePermit", "round": -1, "prunable": true}
{"timeout_disallowed": false, "time": [1372281753, 432446], "controller_id": "c1", "fingerprint": ["ControlMessageSend", {"data": {"dl_dst": "12:34:56:78:02:02", "nw_src": "123.123.1.2", "dl_src": "12:34:56:78:01:02", "nw_dst": "123.123.2.2"}, "class": "ofp_packet_in", "in_port": 3}, 2, ["c", "1"]], "timed_out": false, "dependent_labels": [], "dpid": 2, "label": "i82", "class": "ControlMessageSend", "round": -1, "prunable": true}
{"name": null, "timeout_disallowed": false, "fingerprint": ["ControllerStateChange", "Can't get from %s to %s", "c1", "c1"], "controller_id": "c1", "value": ["(EthAddr('12:34:56:78:01:02'), EthAddr('12:34:56:78:02:02'))"], "timed_out": false, "dependent_labels": [], "time": [1372281753, 457623], "label": "i85", "class": "ControllerStateChange", "round": -1, "prunable": true}
{"name": null, "timeout_disallowed": false, "fingerprint": ["ControllerStateChange", "Dest unreachable (%s -> %s)", "c1", "c1"], "controller_id": "c1", "value": ["(EthAddr('12:34:56:78:01:02'), EthAddr('12:34:56:78:02:02'))"], "timed_out": false, "dependent_labels": [], "time": [1372281753, 459849], "label": "i86", "class": "ControllerStateChange", "round": -1, "prunable": true}
{"timeout_disallowed": false, "time": [1372281753, 460658], "controller_id": "c1", "fingerprint": ["ControlMessageReceive", {"in_port": 65535, "data": {"dl_dst": "12:34:56:78:01:02", "nw_src": "123.123.2.2", "dl_src": "00:00:00:00:00:02", "nw_dst": "123.123.1.2"}, "class": "ofp_packet_out", "actions": ["output(3)"]}, 2, ["c", "1"]], "timed_out": false, "dependent_labels": [], "dpid": 2, "label": "i88", "class": "ControlMessageReceive", "round": -1, "prunable": true}
{"timeout_disallowed": false, "time": [1372281754, 51727], "controller_id": "c1", "fingerprint": ["ControlMessageSend", {"reason": 0, "class": "ofp_port_status", "desc": [4, "00:00:00:00:02:02"]}, 1, ["c", "1"]], "timed_out": true, "dependent_labels": [], "dpid": 1, "label": "i89", "class": "ControlMessageSend", "round": -1, "prunable": true}
{"timeout_disallowed": false, "time": [1372281754, 594296], "controller_id": "c1", "fingerprint": ["ControlMessageSend", {"reason": 1, "class": "ofp_port_status", "desc": [3, "00:00:00:00:02:02"]}, 1, ["c", "1"]], "timed_out": true, "dependent_labels": [], "dpid": 1, "label": "i90", "class": "ControlMessageSend", "round": -1, "prunable": true}
{"timeout_disallowed": false, "time": [1372281754, 597670], "controller_id": "c1", "fingerprint": ["ControlMessageReceive", {"in_port": 65535, "data": {"class": "lldp"}, "class": "ofp_packet_out", "actions": ["output(1)"]}, 2, ["c", "1"]], "timed_out": false, "dependent_labels": [], "dpid": 2, "label": "i94", "class": "ControlMessageReceive", "round": -1, "prunable": true}
{"timeout_disallowed": false, "fingerprint": ["DataplanePermit", {"class": "lldp"}, 2, 1], "timed_out": false, "label": "i95", "passive": false, "dependent_labels": [], "time": [1372281754, 598792], "class": "DataplanePermit", "round": -1, "prunable": true}
{"timeout_disallowed": false, "time": [1372281754, 599318], "controller_id": "c1", "fingerprint": ["ControlMessageSend", {"data": {"class": "lldp"}, "class": "ofp_packet_in", "in_port": 1}, 1, ["c", "1"]], "timed_out": false, "dependent_labels": [], "dpid": 1, "label": "i96", "class": "ControlMessageSend", "round": -1, "prunable": true}
{"name": null, "timeout_disallowed": false, "fingerprint": ["ControllerStateChange", "link detected: %s.%i -> %s.%i", "c1", "c1"], "controller_id": "c1", "value": ["('00-00-00-00-00-02', 1, '00-00-00-00-00-01', 1)"], "timed_out": false, "dependent_labels": [], "time": [1372281754, 605186], "label": "i97", "class": "ControllerStateChange", "round": -1, "prunable": true}
{"timeout_disallowed": false, "time": [1372281754, 644017], "controller_id": "c1", "fingerprint": ["ControlMessageReceive", {"hard_timeout": 0, "actions": [], "priority": 32768, "idle_timeout": 0, "command": "delete", "out_port": 65535, "flags": 0, "class": "ofp_flow_mod", "match": "x^L"}, 2, ["c", "1"]], "timed_out": false, "dependent_labels": [], "dpid": 2, "label": "i98", "class": "ControlMessageReceive", "round": -1, "prunable": true}
{"timeout_disallowed": false, "time": [1372281754, 644927], "controller_id": "c1", "fingerprint": ["ControlMessageReceive", {"hard_timeout": 0, "actions": [], "priority": 32768, "idle_timeout": 0, "command": "delete", "out_port": 65535, "flags": 0, "class": "ofp_flow_mod", "match": "x^L"}, 1, ["c", "1"]], "timed_out": false, "dependent_labels": [], "dpid": 1, "label": "i99", "class": "ControlMessageReceive", "round": -1, "prunable": true}
{"timeout_disallowed": false, "time": [1372281754, 645694], "controller_id": "c1", "fingerprint": ["ControlMessageReceive", {"in_port": 1, "data": [], "class": "ofp_packet_out", "actions": []}, 1, ["c", "1"]], "timed_out": false, "dependent_labels": [], "dpid": 1, "label": "i100", "class": "ControlMessageReceive", "round": -1, "prunable": true}
{"legacy_invariant_check": false, "class": "CheckInvariants", "fingerprint": "N/A", "timed_out": false, "label": "e101", "dependent_labels": [], "invariant_name": "check_for_loops_or_connectivity", "invariant_check_name": "check_for_loops_or_connectivity", "time": [1372281754, 653693], "invariant_check": null, "round": -1, "prunable": true}
{"dependent_labels": [], "class": "TrafficInjection", "fingerprint": ["TrafficInjection", {"interface": {"hw_addr": "12:34:56:78:01:02", "ips": ["123.123.1.2"], "name": "eth1"}, "packet": "EjRWeAICEjRWeAECCAYAAQgABgQAAhI0VngBAnt7AQISNFZ4AgJ7ewIC"}, 1], "timed_out": false, "label": "e102", "dp_event": {"interface": {"hw_addr": "12:34:56:78:01:02", "ips": ["123.123.1.2"], "name": "eth1"}, "packet": "EjRWeAICEjRWeAECCAYAAQgABgQAAhI0VngBAnt7AQISNFZ4AgJ7ewIC"}, "time": [1372281754, 654243], "host_id": 1, "round": -1, "prunable": true}
{"timeout_disallowed": false, "fingerprint": ["DataplanePermit", {"class": "arp"}, "host:[IPAddr('123.123.1.2')]", "12:34:56:78:01:02"], "timed_out": false, "label": "i103", "passive": false, "dependent_labels": [], "time": [1372281754, 655423], "class": "DataplanePermit", "round": -1, "prunable": true}
{"timeout_disallowed": false, "time": [1372281754, 655923], "controller_id": "c1", "fingerprint": ["ControlMessageSend", {"data": {"class": "arp"}, "class": "ofp_packet_in", "in_port": 3}, 2, ["c", "1"]], "timed_out": false, "dependent_labels": [], "dpid": 2, "label": "i104", "class": "ControlMessageSend", "round": -1, "prunable": true}
{"name": null, "timeout_disallowed": false, "fingerprint": ["ControllerStateChange", "Can't get from %s to %s", "c1", "c1"], "controller_id": "c1", "value": ["(EthAddr('12:34:56:78:01:02'), EthAddr('12:34:56:78:02:02'))"], "timed_out": false, "dependent_labels": [], "time": [1372281754, 658527], "label": "i105", "class": "ControllerStateChange", "round": -1, "prunable": true}
{"timeout_disallowed": false, "time": [1372281754, 693508], "controller_id": "c1", "fingerprint": ["ControlMessageReceive", {"in_port": 65535, "data": {"class": "lldp"}, "class": "ofp_packet_out", "actions": ["output(1)"]}, 1, ["c", "1"]], "timed_out": false, "dependent_labels": [], "dpid": 1, "label": "i106", "class": "ControlMessageReceive", "round": -1, "prunable": true}
{"class": "DataplaneDrop", "fingerprint": ["DataplaneDrop", {"class": "lldp"}, 1, 1], "timed_out": false, "label": "e107", "passive": false, "dependent_labels": [], "time": [1372281754, 694064], "round": -1, "prunable": true}
{"timeout_disallowed": false, "fingerprint": ["DataplanePermit", {"dl_dst": "12:34:56:78:01:02", "nw_src": "123.123.2.2", "dl_src": "12:34:56:78:02:02", "nw_dst": "123.123.1.2"}, "host:[IPAddr('123.123.2.2')]", "12:34:56:78:02:02"], "timed_out": true, "label": "i109", "passive": false, "dependent_labels": [], "time": [1372281755, 296659], "class": "DataplanePermit", "round": -1, "prunable": true}
{"timeout_disallowed": false, "time": [1372281755, 946203], "controller_id": "c1", "fingerprint": ["ControlMessageSend", {"data": {"dl_dst": "12:34:56:78:01:02", "nw_src": "123.123.2.2", "dl_src": "12:34:56:78:02:02", "nw_dst": "123.123.1.2"}, "class": "ofp_packet_in", "in_port": 4}, 1, ["c", "1"]], "timed_out": true, "dependent_labels": [], "dpid": 1, "label": "i110", "class": "ControlMessageSend", "round": -1, "prunable": true}
{"name": null, "timeout_disallowed": false, "fingerprint": ["ControllerStateChange", "%s moved from %s.%i to %s.%i?", "c1", "c1"], "controller_id": "c1", "value": ["(EthAddr('12:34:56:78:02:02'), '00-00-00-00-00-01', 3, '00-00-00-00-00-01', 4)"], "timed_out": true, "dependent_labels": [], "time": [1372281756, 547946], "label": "i111", "class": "ControllerStateChange", "round": -1, "prunable": true}
{"name": null, "timeout_disallowed": false, "fingerprint": ["ControllerStateChange", "Learned %s at %s.%i", "c1", "c1"], "controller_id": "c1", "value": ["(EthAddr('12:34:56:78:02:02'), 00-00-00-00-00-01, 4)"], "timed_out": true, "dependent_labels": [], "time": [1372281757, 200431], "label": "i112", "class": "ControllerStateChange", "round": -1, "prunable": true}
{"name": null, "timeout_disallowed": false, "fingerprint": ["ControllerStateChange", "Can't get from %s to %s", "c1", "c1"], "controller_id": "c1", "value": ["(EthAddr('12:34:56:78:02:02'), EthAddr('12:34:56:78:01:02'))"], "timed_out": true, "dependent_labels": [], "time": [1372281757, 801843], "label": "i113", "class": "ControllerStateChange", "round": -1, "prunable": true}
{"name": null, "timeout_disallowed": false, "fingerprint": ["ControllerStateChange", "Dest unreachable (%s -> %s)", "c1", "c1"], "controller_id": "c1", "value": ["(EthAddr('12:34:56:78:02:02'), EthAddr('12:34:56:78:01:02'))"], "timed_out": true, "dependent_labels": [], "time": [1372281758, 454713], "label": "i114", "class": "ControllerStateChange", "round": -1, "prunable": true}
{"timeout_disallowed": false, "time": [1372281759, 56205], "controller_id": "c1", "fingerprint": ["ControlMessageReceive", {"in_port": 65535, "data": {"dl_dst": "12:34:56:78:02:02", "nw_src": "123.123.1.2", "dl_src": "00:00:00:00:00:01", "nw_dst": "123.123.2.2"}, "class": "ofp_packet_out", "actions": ["output(4)"]}, 1, ["c", "1"]], "timed_out": true, "dependent_labels": [], "dpid": 1, "label": "i115", "class": "ControlMessageReceive", "round": -1, "prunable": true}
{"timeout_disallowed": false, "fingerprint": ["DataplanePermit", {"dl_dst": "12:34:56:78:02:02", "nw_src": "123.123.1.2", "dl_src": "00:00:00:00:00:01", "nw_dst": "123.123.2.2"}, 1, 4], "timed_out": true, "label": "i116", "passive": false, "dependent_labels": [], "time": [1372281759, 709213], "class": "DataplanePermit", "round": -1, "prunable": true}
{"dependent_labels": [], "class": "TrafficInjection", "fingerprint": ["TrafficInjection", {"interface": {"hw_addr": "12:34:56:78:02:02", "ips": ["123.123.2.2"], "name": "eth2"}, "packet": "EjRWeAICEjRWeAICCABFAABIVWwAAEABKk97ewICe3sCAgAADjdQaW5nUGluZ1BpbmdQaW5nUGluZ1BpbmdQaW5nUGluZ1BpbmdQaW5nUGluZ1Bpbmc="}, 2], "timed_out": false, "label": "e118", "dp_event": {"interface": {"hw_addr": "12:34:56:78:02:02", "ips": ["123.123.2.2"], "name": "eth2"}, "packet": "EjRWeAICEjRWeAICCABFAABIVWwAAEABKk97ewICe3sCAgAADjdQaW5nUGluZ1BpbmdQaW5nUGluZ1BpbmdQaW5nUGluZ1BpbmdQaW5nUGluZ1Bpbmc="}, "time": [1372281759, 710113], "host_id": 2, "round": -1, "prunable": true}
{"timeout_disallowed": false, "fingerprint": ["DataplanePermit", {"dl_dst": "12:34:56:78:02:02", "nw_src": "123.123.2.2", "dl_src": "12:34:56:78:02:02", "nw_dst": "123.123.2.2"}, "host:[IPAddr('123.123.2.2')]", "12:34:56:78:02:02"], "timed_out": false, "label": "i119", "passive": false, "dependent_labels": [], "time": [1372281759, 711396], "class": "DataplanePermit", "round": -1, "prunable": true}
{"timeout_disallowed": false, "time": [1372281759, 712223], "controller_id": "c1", "fingerprint": ["ControlMessageReceive", {"in_port": 65535, "data": {"class": "lldp"}, "class": "ofp_packet_out", "actions": ["output(3)"]}, 2, ["c", "1"]], "timed_out": false, "dependent_labels": [], "dpid": 2, "label": "i120", "class": "ControlMessageReceive", "round": -1, "prunable": true}
{"timeout_disallowed": false, "time": [1372281760, 313853], "controller_id": "c1", "fingerprint": ["ControlMessageSend", {"reason": 0, "class": "ofp_port_status", "desc": [5, "00:00:00:00:02:02"]}, 1, ["c", "1"]], "timed_out": true, "dependent_labels": [], "dpid": 1, "label": "i121", "class": "ControlMessageSend", "round": -1, "prunable": true}
{"timeout_disallowed": false, "time": [1372281760, 963523], "controller_id": "c1", "fingerprint": ["ControlMessageSend", {"reason": 1, "class": "ofp_port_status", "desc": [4, "00:00:00:00:02:02"]}, 1, ["c", "1"]], "timed_out": true, "dependent_labels": [], "dpid": 1, "label": "i122", "class": "ControlMessageSend", "round": -1, "prunable": true}
{"legacy_invariant_check": false, "class": "CheckInvariants", "fingerprint": "N/A", "timed_out": false, "label": "e123", "dependent_labels": [], "invariant_name": "check_for_loops_or_connectivity", "invariant_check_name": "check_for_loops_or_connectivity", "time": [1372281760, 971499], "invariant_check": null, "round": -1, "prunable": true}
{"dependent_labels": [], "class": "TrafficInjection", "fingerprint": ["TrafficInjection", {"interface": {"hw_addr": "12:34:56:78:01:02", "ips": ["123.123.1.2"], "name": "eth1"}, "packet": "EjRWeAICEjRWeAECCABFAAAcISkAAEABX757ewECe3sCAgAAISlwb25n"}, 1], "timed_out": false, "label": "e124", "dp_event": {"interface": {"hw_addr": "12:34:56:78:01:02", "ips": ["123.123.1.2"], "name": "eth1"}, "packet": "EjRWeAICEjRWeAECCABFAAAcISkAAEABX757ewECe3sCAgAAISlwb25n"}, "time": [1372281760, 972184], "host_id": 1, "round": -1, "prunable": true}
{"timeout_disallowed": false, "fingerprint": ["DataplanePermit", {"dl_dst": "12:34:56:78:02:02", "nw_src": "123.123.1.2", "dl_src": "12:34:56:78:01:02", "nw_dst": "123.123.2.2"}, "host:[IPAddr('123.123.1.2')]", "12:34:56:78:01:02"], "timed_out": false, "label": "i125", "passive": false, "dependent_labels": [], "time": [1372281760, 973441], "class": "DataplanePermit", "round": -1, "prunable": true}
{"class": "DataplaneDrop", "fingerprint": ["DataplaneDrop", {"dl_dst": "12:34:56:78:02:02", "nw_src": "123.123.2.2", "dl_src": "12:34:56:78:02:02", "nw_dst": "123.123.2.2"}, 1, 3], "timed_out": true, "label": "e126", "passive": false, "dependent_labels": [], "time": [1372281760, 973874], "round": -1, "prunable": true}
{"timeout_disallowed": false, "fingerprint": ["DataplanePermit", {"class": "lldp"}, 2, 3], "timed_out": false, "label": "i127", "passive": false, "dependent_labels": [], "time": [1372281760, 974625], "class": "DataplanePermit", "round": -1, "prunable": true}
{"timeout_disallowed": false, "time": [1372281760, 975169], "controller_id": "c1", "fingerprint": ["ControlMessageSend", {"data": {"dl_dst": "12:34:56:78:02:02", "nw_src": "123.123.1.2", "dl_src": "12:34:56:78:01:02", "nw_dst": "123.123.2.2"}, "class": "ofp_packet_in", "in_port": 3}, 2, ["c", "1"]], "timed_out": false, "dependent_labels": [], "dpid": 2, "label": "i128", "class": "ControlMessageSend", "round": -1, "prunable": true}
{"name": null, "timeout_disallowed": false, "fingerprint": ["ControllerStateChange", "Can't get from %s to %s", "c1", "c1"], "controller_id": "c1", "value": ["(EthAddr('12:34:56:78:01:02'), EthAddr('12:34:56:78:02:02'))"], "timed_out": false, "dependent_labels": [], "time": [1372281760, 978498], "label": "i129", "class": "ControllerStateChange", "round": -1, "prunable": true}
{"name": null, "timeout_disallowed": false, "fingerprint": ["ControllerStateChange", "Dest unreachable (%s -> %s)", "c1", "c1"], "controller_id": "c1", "value": ["(EthAddr('12:34:56:78:01:02'), EthAddr('12:34:56:78:02:02'))"], "timed_out": false, "dependent_labels": [], "time": [1372281760, 980692], "label": "i130", "class": "ControllerStateChange", "round": -1, "prunable": true}
{"timeout_disallowed": false, "time": [1372281760, 981505], "controller_id": "c1", "fingerprint": ["ControlMessageReceive", {"in_port": 65535, "data": {"dl_dst": "12:34:56:78:01:02", "nw_src": "123.123.2.2", "dl_src": "00:00:00:00:00:02", "nw_dst": "123.123.1.2"}, "class": "ofp_packet_out", "actions": ["output(3)"]}, 2, ["c", "1"]], "timed_out": false, "dependent_labels": [], "dpid": 2, "label": "i131", "class": "ControlMessageReceive", "round": -1, "prunable": true}
{"timeout_disallowed": false, "fingerprint": ["DataplanePermit", {"dl_dst": "12:34:56:78:01:02", "nw_src": "123.123.2.2", "dl_src": "00:00:00:00:00:02", "nw_dst": "123.123.1.2"}, 2, 3], "timed_out": false, "label": "i132", "passive": false, "dependent_labels": [], "time": [1372281760, 982556], "class": "DataplanePermit", "round": -1, "prunable": true}
{"dependent_labels": [], "class": "TrafficInjection", "fingerprint": ["TrafficInjection", {"interface": {"hw_addr": "12:34:56:78:02:02", "ips": ["123.123.2.2"], "name": "eth2"}, "packet": "////////EjRWeAICCAYAAQgABgQAARI0VngCAnt7AgIAAAAAAAB7ewEC"}, 2], "timed_out": false, "label": "e133", "dp_event": {"interface": {"hw_addr": "12:34:56:78:02:02", "ips": ["123.123.2.2"], "name": "eth2"}, "packet": "////////EjRWeAICCAYAAQgABgQAARI0VngCAnt7AgIAAAAAAAB7ewEC"}, "time": [1372281760, 983414], "host_id": 2, "round": -1, "prunable": true}
{"timeout_disallowed": false, "fingerprint": ["DataplanePermit", {"class": "arp"}, "host:[IPAddr('123.123.2.2')]", "12:34:56:78:02:02"], "timed_out": false, "label": "i134", "passive": false, "dependent_labels": [], "time": [1372281760, 984540], "class": "DataplanePermit", "round": -1, "prunable": true}
{"timeout_disallowed": false, "time": [1372281761, 570206], "controller_id": "c1", "fingerprint": ["ControlMessageSend", {"data": {"class": "arp"}, "class": "ofp_packet_in", "in_port": 5}, 1, ["c", "1"]], "timed_out": true, "dependent_labels": [], "dpid": 1, "label": "i135", "class": "ControlMessageSend", "round": -1, "prunable": true}
{"name": null, "timeout_disallowed": false, "fingerprint": ["ControllerStateChange", "%s moved from %s.%i to %s.%i?", "c1", "c1"], "controller_id": "c1", "value": ["(EthAddr('12:34:56:78:02:02'), '00-00-00-00-00-01', 4, '00-00-00-00-00-01', 5)"], "timed_out": true, "dependent_labels": [], "time": [1372281762, 171796], "label": "i136", "class": "ControllerStateChange", "round": -1, "prunable": true}
{"name": null, "timeout_disallowed": false, "fingerprint": ["ControllerStateChange", "Learned %s at %s.%i", "c1", "c1"], "controller_id": "c1", "value": ["(EthAddr('12:34:56:78:02:02'), 00-00-00-00-00-01, 5)"], "timed_out": true, "dependent_labels": [], "time": [1372281762, 824503], "label": "i137", "class": "ControllerStateChange", "round": -1, "prunable": true}
{"name": null, "timeout_disallowed": false, "fingerprint": ["ControllerStateChange", "Flood multicast from %s", "c1", "c1"], "controller_id": "c1", "value": ["(EthAddr('12:34:56:78:02:02'),)"], "timed_out": true, "dependent_labels": [], "time": [1372281763, 425913], "label": "i138", "class": "ControllerStateChange", "round": -1, "prunable": true}
{"timeout_disallowed": false, "time": [1372281764, 78792], "controller_id": "c1", "fingerprint": ["ControlMessageReceive", {"in_port": 5, "data": [], "class": "ofp_packet_out", "actions": ["output(65531)"]}, 1, ["c", "1"]], "timed_out": true, "dependent_labels": [], "dpid": 1, "label": "i139", "class": "ControlMessageReceive", "round": -1, "prunable": true}
{"timeout_disallowed": false, "fingerprint": ["DataplanePermit", {"class": "arp"}, 1, 1], "timed_out": true, "label": "i140", "passive": false, "dependent_labels": [], "time": [1372281764, 680355], "class": "DataplanePermit", "round": -1, "prunable": true}
{"class": "DataplaneDrop", "fingerprint": ["DataplaneDrop", {"class": "arp"}, 1, 4], "timed_out": true, "label": "e141", "passive": false, "dependent_labels": [], "time": [1372281764, 680672], "round": -1, "prunable": true}
{"class": "DataplaneDrop", "fingerprint": ["DataplaneDrop", {"class": "arp"}, 1, 2], "timed_out": true, "label": "e142", "passive": false, "dependent_labels": [], "time": [1372281764, 680969], "round": -1, "prunable": true}
{"class": "DataplaneDrop", "fingerprint": ["DataplaneDrop", {"class": "arp"}, 1, 3], "timed_out": true, "label": "e143", "passive": false, "dependent_labels": [], "time": [1372281764, 681243], "round": -1, "prunable": true}
{"timeout_disallowed": false, "time": [1372281764, 681883], "controller_id": "c1", "fingerprint": ["ControlMessageReceive", {"in_port": 65535, "data": {"class": "lldp"}, "class": "ofp_packet_out", "actions": ["output(1)"]}, 2, ["c", "1"]], "timed_out": false, "dependent_labels": [], "dpid": 2, "label": "i144", "class": "ControlMessageReceive", "round": -1, "prunable": true}
{"timeout_disallowed": false, "time": [1372281765, 333083], "controller_id": "c1", "fingerprint": ["ControlMessageSend", {"data": {"class": "arp"}, "class": "ofp_packet_in", "in_port": 1}, 2, ["c", "1"]], "timed_out": true, "dependent_labels": [], "dpid": 2, "label": "i145", "class": "ControlMessageSend", "round": -1, "prunable": true}
{"name": null, "timeout_disallowed": false, "fingerprint": ["ControllerStateChange", "%s moved from %s.%i to %s.%i?", "c1", "c1"], "controller_id": "c1", "value": ["(EthAddr('12:34:56:78:02:02'), '00-00-00-00-00-01', 5, '00-00-00-00-00-02', 1)"], "timed_out": true, "dependent_labels": [], "time": [1372281765, 934706], "label": "i146", "class": "ControllerStateChange", "round": -1, "prunable": true}
{"name": null, "timeout_disallowed": false, "fingerprint": ["ControllerStateChange", "Learned %s at %s.%i", "c1", "c1"], "controller_id": "c1", "value": ["(EthAddr('12:34:56:78:02:02'), 00-00-00-00-00-02, 1)"], "timed_out": true, "dependent_labels": [], "time": [1372281766, 587297], "label": "i147", "class": "ControllerStateChange", "round": -1, "prunable": true}
{"name": null, "timeout_disallowed": false, "fingerprint": ["ControllerStateChange", "Flood multicast from %s", "c1", "c1"], "controller_id": "c1", "value": ["(EthAddr('12:34:56:78:02:02'),)"], "timed_out": true, "dependent_labels": [], "time": [1372281767, 188705], "label": "i148", "class": "ControllerStateChange", "round": -1, "prunable": true}
{"class": "DataplaneDrop", "fingerprint": ["DataplaneDrop", {"class": "lldp"}, 2, 1], "timed_out": false, "label": "e149", "passive": false, "dependent_labels": [], "time": [1372281767, 189042], "round": -1, "prunable": true}
{"timeout_disallowed": false, "time": [1372281767, 841425], "controller_id": "c1", "fingerprint": ["ControlMessageReceive", {"in_port": 1, "data": [], "class": "ofp_packet_out", "actions": ["output(65531)"]}, 2, ["c", "1"]], "timed_out": true, "dependent_labels": [], "dpid": 2, "label": "i150", "class": "ControlMessageReceive", "round": -1, "prunable": true}
{"timeout_disallowed": false, "fingerprint": ["DataplanePermit", {"class": "arp"}, 2, 3], "timed_out": true, "label": "i151", "passive": false, "dependent_labels": [], "time": [1372281768, 442972], "class": "DataplanePermit", "round": -1, "prunable": true}
{"class": "DataplaneDrop", "fingerprint": ["DataplaneDrop", {"class": "arp"}, 2, 2], "timed_out": true, "label": "e152", "passive": false, "dependent_labels": [], "time": [1372281768, 443326], "round": -1, "prunable": true}
{"new_ingress_port_no": 6, "class": "HostMigration", "fingerprint": ["HostMigration", 1, 3, 1, 6, 2], "timed_out": false, "label": "e153", "dependent_labels": [], "new_ingress_dpid": 1, "time": [1372281768, 443914], "old_ingress_port_no": 3, "host_id": 2, "old_ingress_dpid": 1, "round": -1, "prunable": true}
{"dependent_labels": [], "class": "TrafficInjection", "fingerprint": ["TrafficInjection", {"interface": {"hw_addr": "12:34:56:78:02:02", "ips": ["123.123.2.2"], "name": "eth2"}, "packet": "EjRWeAICEjRWeAICCABFAABIVXIAAEABKkl7ewICe3sCAgAADjdQaW5nUGluZ1BpbmdQaW5nUGluZ1BpbmdQaW5nUGluZ1BpbmdQaW5nUGluZ1Bpbmc="}, 2], "timed_out": false, "label": "e154", "dp_event": {"interface": {"hw_addr": "12:34:56:78:02:02", "ips": ["123.123.2.2"], "name": "eth2"}, "packet": "EjRWeAICEjRWeAICCABFAABIVXIAAEABKkl7ewICe3sCAgAADjdQaW5nUGluZ1BpbmdQaW5nUGluZ1BpbmdQaW5nUGluZ1BpbmdQaW5nUGluZ1Bpbmc="}, "time": [1372281768, 444624], "host_id": 2, "round": -1, "prunable": true}
{"new_ingress_port_no": 4, "class": "HostMigration", "fingerprint": ["HostMigration", 2, 3, 2, 4, 1], "timed_out": false, "label": "e155", "dependent_labels": [], "new_ingress_dpid": 2, "time": [1372281768, 445434], "old_ingress_port_no": 3, "host_id": 1, "old_ingress_dpid": 2, "round": -1, "prunable": true}
{"dependent_labels": [], "class": "TrafficInjection", "fingerprint": ["TrafficInjection", {"interface": {"hw_addr": "12:34:56:78:01:02", "ips": ["123.123.1.2"], "name": "eth1"}, "packet": "EjRWeAECEjRWeAECCABFAABIVXMAAEABLEh7ewECe3sBAgAADjdQaW5nUGluZ1BpbmdQaW5nUGluZ1BpbmdQaW5nUGluZ1BpbmdQaW5nUGluZ1Bpbmc="}, 1], "timed_out": false, "label": "e156", "dp_event": {"interface": {"hw_addr": "12:34:56:78:01:02", "ips": ["123.123.1.2"], "name": "eth1"}, "packet": "EjRWeAECEjRWeAECCABFAABIVXMAAEABLEh7ewECe3sBAgAADjdQaW5nUGluZ1BpbmdQaW5nUGluZ1BpbmdQaW5nUGluZ1BpbmdQaW5nUGluZ1Bpbmc="}, "time": [1372281768, 446116], "host_id": 1, "round": -1, "prunable": true}
{"timeout_disallowed": false, "fingerprint": ["DataplanePermit", {"dl_dst": "12:34:56:78:02:02", "nw_src": "123.123.2.2", "dl_src": "12:34:56:78:02:02", "nw_dst": "123.123.2.2"}, "host:[IPAddr('123.123.2.2')]", "12:34:56:78:02:02"], "timed_out": false, "label": "i157", "passive": false, "dependent_labels": [], "time": [1372281768, 447528], "class": "DataplanePermit", "round": -1, "prunable": true}
{"class": "DataplaneDrop", "fingerprint": ["DataplaneDrop", {"dl_dst": "12:34:56:78:01:02", "nw_src": "123.123.1.2", "dl_src": "12:34:56:78:01:02", "nw_dst": "123.123.1.2"}, "host:[IPAddr('123.123.1.2')]", "12:34:56:78:01:02"], "timed_out": false, "label": "e158", "passive": false, "dependent_labels": [], "time": [1372281768, 448048], "round": -1, "prunable": true}
{"timeout_disallowed": false, "time": [1372281768, 448672], "controller_id": "c1", "fingerprint": ["ControlMessageSend", {"reason": 0, "class": "ofp_port_status", "desc": [4, "00:00:00:00:01:02"]}, 2, ["c", "1"]], "timed_out": false, "dependent_labels": [], "dpid": 2, "label": "i159", "class": "ControlMessageSend", "round": -1, "prunable": true}
{"timeout_disallowed": false, "time": [1372281768, 449247], "controller_id": "c1", "fingerprint": ["ControlMessageSend", {"reason": 1, "class": "ofp_port_status", "desc": [3, "00:00:00:00:01:02"]}, 2, ["c", "1"]], "timed_out": false, "dependent_labels": [], "dpid": 2, "label": "i160", "class": "ControlMessageSend", "round": -1, "prunable": true}
{"timeout_disallowed": false, "time": [1372281769, 56911], "controller_id": "c1", "fingerprint": ["ControlMessageSend", {"reason": 1, "class": "ofp_port_status", "desc": [5, "00:00:00:00:02:02"]}, 1, ["c", "1"]], "timed_out": true, "dependent_labels": [], "dpid": 1, "label": "i161", "class": "ControlMessageSend", "round": -1, "prunable": true}
{"timeout_disallowed": false, "time": [1372281769, 57486], "controller_id": "c1", "fingerprint": ["ControlMessageSend", {"reason": 0, "class": "ofp_port_status", "desc": [6, "00:00:00:00:02:02"]}, 1, ["c", "1"]], "timed_out": false, "dependent_labels": [], "dpid": 1, "label": "i162", "class": "ControlMessageSend", "round": -1, "prunable": true}
{"class": "DataplaneDrop", "fingerprint": ["DataplaneDrop", {"dl_dst": "12:34:56:78:02:02", "nw_src": "123.123.2.2", "dl_src": "12:34:56:78:02:02", "nw_dst": "123.123.2.2"}, 1, 3], "timed_out": false, "label": "e163", "passive": false, "dependent_labels": [], "time": [1372281769, 57983], "round": -1, "prunable": true}
{"legacy_invariant_check": false, "class": "CheckInvariants", "fingerprint": "N/A", "timed_out": false, "label": "e164", "dependent_labels": [], "invariant_name": "check_for_loops_or_connectivity", "invariant_check_name": "check_for_loops_or_connectivity", "time": [1372281769, 66406], "invariant_check": null, "round": -1, "prunable": true}
{"dependent_labels": [], "class": "TrafficInjection", "fingerprint": ["TrafficInjection", {"interface": {"hw_addr": "12:34:56:78:01:02", "ips": ["123.123.1.2"], "name": "eth1"}, "packet": "EjRWeAICEjRWeAECCAYAAQgABgQAAhI0VngBAnt7AQISNFZ4AgJ7ewIC"}, 1], "timed_out": false, "label": "e165", "dp_event": {"interface": {"hw_addr": "12:34:56:78:01:02", "ips": ["123.123.1.2"], "name": "eth1"}, "packet": "EjRWeAICEjRWeAECCAYAAQgABgQAAhI0VngBAnt7AQISNFZ4AgJ7ewIC"}, "time": [1372281769, 67061], "host_id": 1, "round": -1, "prunable": true}
{"timeout_disallowed": false, "fingerprint": ["DataplanePermit", {"class": "arp"}, "host:[IPAddr('123.123.1.2')]", "12:34:56:78:01:02"], "timed_out": false, "label": "i166", "passive": false, "dependent_labels": [], "time": [1372281769, 67817], "class": "DataplanePermit", "round": -1, "prunable": true}
{"timeout_disallowed": false, "time": [1372281769, 68126], "controller_id": "c1", "fingerprint": ["ControlMessageSend", {"data": {"class": "arp"}, "class": "ofp_packet_in", "in_port": 4}, 2, ["c", "1"]], "timed_out": false, "dependent_labels": [], "dpid": 2, "label": "i167", "class": "ControlMessageSend", "round": -1, "prunable": true}
{"name": null, "timeout_disallowed": false, "fingerprint": ["ControllerStateChange", "%s moved from %s.%i to %s.%i?", "c1", "c1"], "controller_id": "c1", "value": ["(EthAddr('12:34:56:78:01:02'), '00-00-00-00-00-02', 3, '00-00-00-00-00-02', 4)"], "timed_out": false, "dependent_labels": [], "time": [1372281769, 70599], "label": "i168", "class": "ControllerStateChange", "round": -1, "prunable": true}
{"name": null, "timeout_disallowed": false, "fingerprint": ["ControllerStateChange", "Learned %s at %s.%i", "c1", "c1"], "controller_id": "c1", "value": ["(EthAddr('12:34:56:78:01:02'), 00-00-00-00-00-02, 4)"], "timed_out": false, "dependent_labels": [], "time": [1372281769, 72042], "label": "i169", "class": "ControllerStateChange", "round": -1, "prunable": true}
{"name": null, "timeout_disallowed": false, "fingerprint": ["ControllerStateChange", "Installing path for %s -> %s %04x (%i hops)", "c1", "c1"], "controller_id": "c1", "value": ["(EthAddr('12:34:56:78:01:02'), EthAddr('12:34:56:78:02:02'), 2054, 1)"], "timed_out": true, "dependent_labels": [], "time": [1372281769, 602783], "label": "i170", "class": "ControllerStateChange", "round": -1, "prunable": true}
{"name": null, "timeout_disallowed": false, "fingerprint": ["ControllerStateChange", "Can't get from %s to %s", "c1"], "controller_id": "c1", "value": ["(EthAddr('12:34:56:78:01:02'), EthAddr('12:34:56:78:02:02'))"], "timed_out": false, "dependent_labels": [], "new_internal_event": true, "time": [1372281769, 603173], "label": "i201", "class": "ControllerStateChange", "round": -1, "prunable": true}
{"timeout_disallowed": false, "time": [1372281770, 204823], "controller_id": "c1", "fingerprint": ["ControlMessageReceive", {"hard_timeout": 30, "actions": ["output(1)"], "priority": 32768, "idle_timeout": 10, "command": "add", "out_port": 65535, "flags": 0, "class": "ofp_flow_mod", "match": "dl_src:12:34:56:78:01:02,dl_dst:12:34:56:78:02:02,dl_vlan:65535,dl_vlan_pcp:0,dl_type:2054,nw_proto:2,nw_src:123.123.1.2/32,nw_dst:123.123.2.2/32"}, 2, ["c", "1"]], "timed_out": true, "dependent_labels": [], "dpid": 2, "label": "i171", "class": "ControlMessageReceive", "round": -1, "prunable": true}
{"timeout_disallowed": false, "fingerprint": ["DataplanePermit", {"class": "arp"}, 2, 1], "timed_out": true, "label": "i172", "passive": false, "dependent_labels": [], "time": [1372281770, 736597], "class": "DataplanePermit", "round": -1, "prunable": true}
{"new_ingress_port_no": 5, "class": "HostMigration", "fingerprint": ["HostMigration", 2, 4, 2, 5, 1], "timed_out": false, "label": "e173", "dependent_labels": [], "new_ingress_dpid": 2, "time": [1372281770, 737182], "old_ingress_port_no": 4, "host_id": 1, "old_ingress_dpid": 2, "round": -1, "prunable": true}
{"dependent_labels": [], "class": "TrafficInjection", "fingerprint": ["TrafficInjection", {"interface": {"hw_addr": "12:34:56:78:01:02", "ips": ["123.123.1.2"], "name": "eth1"}, "packet": "EjRWeAECEjRWeAECCABFAABIVXQAAEABLEd7ewECe3sBAggABjdQaW5nUGluZ1BpbmdQaW5nUGluZ1BpbmdQaW5nUGluZ1BpbmdQaW5nUGluZ1Bpbmc="}, 1], "timed_out": false, "label": "e174", "dp_event": {"interface": {"hw_addr": "12:34:56:78:01:02", "ips": ["123.123.1.2"], "name": "eth1"}, "packet": "EjRWeAECEjRWeAECCABFAABIVXQAAEABLEd7ewECe3sBAggABjdQaW5nUGluZ1BpbmdQaW5nUGluZ1BpbmdQaW5nUGluZ1BpbmdQaW5nUGluZ1Bpbmc="}, "time": [1372281770, 737873], "host_id": 1, "round": -1, "prunable": true}
{"timeout_disallowed": false, "fingerprint": ["DataplanePermit", {"dl_dst": "12:34:56:78:01:02", "nw_src": "123.123.1.2", "dl_src": "12:34:56:78:01:02", "nw_dst": "123.123.1.2"}, "host:[IPAddr('123.123.1.2')]", "12:34:56:78:01:02"], "timed_out": false, "label": "i175", "passive": false, "dependent_labels": [], "time": [1372281770, 739188], "class": "DataplanePermit", "round": -1, "prunable": true}
{"timeout_disallowed": false, "time": [1372281770, 739803], "controller_id": "c1", "fingerprint": ["ControlMessageSend", {"reason": 0, "class": "ofp_port_status", "desc": [5, "00:00:00:00:01:02"]}, 2, ["c", "1"]], "timed_out": false, "dependent_labels": [], "dpid": 2, "label": "i176", "class": "ControlMessageSend", "round": -1, "prunable": true}
{"timeout_disallowed": false, "time": [1372281770, 740431], "controller_id": "c1", "fingerprint": ["ControlMessageSend", {"data": {"dl_dst": "12:34:56:78:01:02", "nw_src": "123.123.1.2", "dl_src": "12:34:56:78:01:02", "nw_dst": "123.123.1.2"}, "class": "ofp_packet_in", "in_port": 5}, 2, ["c", "1"]], "timed_out": false, "dependent_labels": [], "dpid": 2, "label": "i177", "class": "ControlMessageSend", "round": -1, "prunable": true}
{"timeout_disallowed": false, "time": [1372281770, 741176], "controller_id": "c1", "fingerprint": ["ControlMessageSend", {"reason": 1, "class": "ofp_port_status", "desc": [4, "00:00:00:00:01:02"]}, 2, ["c", "1"]], "timed_out": false, "dependent_labels": [], "dpid": 2, "label": "i178", "class": "ControlMessageSend", "round": -1, "prunable": true}
{"name": null, "timeout_disallowed": false, "fingerprint": ["ControllerStateChange", "%s moved from %s.%i to %s.%i?", "c1", "c1"], "controller_id": "c1", "value": ["(EthAddr('12:34:56:78:01:02'), '00-00-00-00-00-02', 4, '00-00-00-00-00-02', 5)"], "timed_out": false, "dependent_labels": [], "time": [1372281770, 746530], "label": "i179", "class": "ControllerStateChange", "round": -1, "prunable": true}
{"name": null, "timeout_disallowed": false, "fingerprint": ["ControllerStateChange", "Learned %s at %s.%i", "c1", "c1"], "controller_id": "c1", "value": ["(EthAddr('12:34:56:78:01:02'), 00-00-00-00-00-02, 5)"], "timed_out": false, "dependent_labels": [], "time": [1372281770, 749447], "label": "i180", "class": "ControllerStateChange", "round": -1, "prunable": true}
{"name": null, "timeout_disallowed": false, "fingerprint": ["ControllerStateChange", "Installing path for %s -> %s %04x (%i hops)", "c1", "c1"], "controller_id": "c1", "value": ["(EthAddr('12:34:56:78:01:02'), EthAddr('12:34:56:78:01:02'), 2048, 1)"], "timed_out": false, "dependent_labels": [], "time": [1372281770, 751143], "label": "i181", "class": "ControllerStateChange", "round": -1, "prunable": true}
{"timeout_disallowed": false, "time": [1372281770, 752080], "controller_id": "c1", "fingerprint": ["ControlMessageReceive", {"hard_timeout": 30, "actions": ["output(5)"], "priority": 32768, "idle_timeout": 10, "command": "add", "out_port": 65535, "flags": 0, "class": "ofp_flow_mod", "match": "dl_src:12:34:56:78:01:02,dl_dst:12:34:56:78:01:02,dl_vlan:65535,dl_vlan_pcp:0,dl_type:2048,nw_tos:0,nw_proto:1,nw_src:123.123.1.2/32,nw_dst:123.123.1.2/32,tp_src:8,tp_dst:0"}, 2, ["c", "1"]], "timed_out": false, "dependent_labels": [], "dpid": 2, "label": "i182", "class": "ControlMessageReceive", "round": -1, "prunable": true}
{"dependent_labels": [], "class": "TrafficInjection", "fingerprint": ["TrafficInjection", {"interface": {"hw_addr": "12:34:56:78:02:02", "ips": ["123.123.2.2"], "name": "eth2"}, "packet": "EjRWeAECEjRWeAICCABFAAAcISgAAEABX797ewICe3sBAggAGS9waW5n"}, 2], "timed_out": false, "label": "e183", "dp_event": {"interface": {"hw_addr": "12:34:56:78:02:02", "ips": ["123.123.2.2"], "name": "eth2"}, "packet": "EjRWeAECEjRWeAICCABFAAAcISgAAEABX797ewICe3sBAggAGS9waW5n"}, "time": [1372281770, 753170], "host_id": 2, "round": -1, "prunable": true}
{"timeout_disallowed": false, "fingerprint": ["DataplanePermit", {"dl_dst": "12:34:56:78:01:02", "nw_src": "123.123.2.2", "dl_src": "12:34:56:78:02:02", "nw_dst": "123.123.1.2"}, "host:[IPAddr('123.123.2.2')]", "12:34:56:78:02:02"], "timed_out": false, "label": "i184", "passive": false, "dependent_labels": [], "time": [1372281770, 754454], "class": "DataplanePermit", "round": -1, "prunable": true}
{"timeout_disallowed": false, "time": [1372281770, 755152], "controller_id": "c1", "fingerprint": ["ControlMessageSend", {"data": {"dl_dst": "12:34:56:78:01:02", "nw_src": "123.123.2.2", "dl_src": "12:34:56:78:02:02", "nw_dst": "123.123.1.2"}, "class": "ofp_packet_in", "in_port": 6}, 1, ["c", "1"]], "timed_out": false, "dependent_labels": [], "dpid": 1, "label": "i185", "class": "ControlMessageSend", "round": -1, "prunable": true}
{"name": null, "timeout_disallowed": false, "fingerprint": ["ControllerStateChange", "%s moved from %s.%i to %s.%i?", "c1", "c1"], "controller_id": "c1", "value": ["(EthAddr('12:34:56:78:02:02'), '00-00-00-00-00-02', 1, '00-00-00-00-00-01', 6)"], "timed_out": false, "dependent_labels": [], "time": [1372281770, 762151], "label": "i186", "class": "ControllerStateChange", "round": -1, "prunable": true}
{"name": null, "timeout_disallowed": false, "fingerprint": ["ControllerStateChange", "Learned %s at %s.%i", "c1", "c1"], "controller_id": "c1", "value": ["(EthAddr('12:34:56:78:02:02'), 00-00-00-00-00-01, 6)"], "timed_out": false, "dependent_labels": [], "time": [1372281770, 763890], "label": "i187", "class": "ControllerStateChange", "round": -1, "prunable": true}
{"name": null, "timeout_disallowed": false, "fingerprint": ["ControllerStateChange", "Can't get from %s to %s", "c1", "c1"], "controller_id": "c1", "value": ["(EthAddr('12:34:56:78:02:02'), EthAddr('12:34:56:78:01:02'))"], "timed_out": false, "dependent_labels": [], "time": [1372281770, 765535], "label": "i188", "class": "ControllerStateChange", "round": -1, "prunable": true}
{"name": null, "timeout_disallowed": false, "fingerprint": ["ControllerStateChange", "Dest unreachable (%s -> %s)", "c1", "c1"], "controller_id": "c1", "value": ["(EthAddr('12:34:56:78:02:02'), EthAddr('12:34:56:78:01:02'))"], "timed_out": false, "dependent_labels": [], "time": [1372281770, 767709], "label": "i189", "class": "ControllerStateChange", "round": -1, "prunable": true}
{"timeout_disallowed": false, "time": [1372281770, 768529], "controller_id": "c1", "fingerprint": ["ControlMessageReceive", {"in_port": 65535, "data": {"dl_dst": "12:34:56:78:02:02", "nw_src": "123.123.1.2", "dl_src": "00:00:00:00:00:01", "nw_dst": "123.123.2.2"}, "class": "ofp_packet_out", "actions": ["output(6)"]}, 1, ["c", "1"]], "timed_out": false, "dependent_labels": [], "dpid": 1, "label": "i190", "class": "ControlMessageReceive", "round": -1, "prunable": true}
{"timeout_disallowed": false, "fingerprint": ["DataplanePermit", {"dl_dst": "12:34:56:78:02:02", "nw_src": "123.123.1.2", "dl_src": "00:00:00:00:00:01", "nw_dst": "123.123.2.2"}, 1, 6], "timed_out": false, "label": "i191", "passive": false, "dependent_labels": [], "time": [1372281770, 769568], "class": "DataplanePermit", "round": -1, "prunable": true}
{"timeout_disallowed": false, "time": [1372281770, 770390], "controller_id": "c1", "fingerprint": ["ControlMessageReceive", {"in_port": 65535, "data": {"class": "lldp"}, "class": "ofp_packet_out", "actions": ["output(1)"]}, 1, ["c", "1"]], "timed_out": false, "dependent_labels": [], "dpid": 1, "label": "i192", "class": "ControlMessageReceive", "round": -1, "prunable": true}
{"timeout_disallowed": false, "fingerprint": ["DataplanePermit", {"class": "lldp"}, 1, 1], "timed_out": false, "label": "i193", "passive": false, "dependent_labels": [], "time": [1372281770, 771469], "class": "DataplanePermit", "round": -1, "prunable": true}
{"timeout_disallowed": false, "time": [1372281770, 771935], "controller_id": "c1", "fingerprint": ["ControlMessageSend", {"data": {"class": "lldp"}, "class": "ofp_packet_in", "in_port": 1}, 2, ["c", "1"]], "timed_out": false, "dependent_labels": [], "dpid": 2, "label": "i194", "class": "ControlMessageSend", "round": -1, "prunable": true}
{"legacy_invariant_check": false, "class": "CheckInvariants", "fingerprint": "N/A", "timed_out": false, "label": "e195", "dependent_labels": [], "invariant_name": "check_for_loops_or_connectivity", "invariant_check_name": "check_for_loops_or_connectivity", "time": [1372281770, 782871], "invariant_check": null, "round": -1, "prunable": true}
{"wait_time": 1.0, "dependent_labels": [], "fingerprint": ["WaitTime"], "time": [1372281770, 782871], "class": "WaitTime", "prunable": true, "timed_out": false, "round": -1, "label": "e202"}
