2014-06-05 16:49:04,603 INFO [main] n.f.c.m.FloodlightModuleLoader [FloodlightModuleLoader.java:170] Loading modules from file ./conf/onos.properties
2014-06-05 16:49:04,608 DEBUG [main] n.f.c.m.FloodlightModuleLoader [FloodlightModuleLoader.java:206] Starting module loader
2014-06-05 16:49:04,648 DEBUG [main] n.f.c.m.FloodlightModuleLoader [FloodlightModuleLoader.java:95] Found module net.floodlightcontroller.core.FloodlightProvider
2014-06-05 16:49:04,718 DEBUG [main] n.f.c.m.FloodlightModuleLoader [FloodlightModuleLoader.java:95] Found module net.onrc.onos.ofcontroller.floodlightlistener.NetworkGraphPublisher
2014-06-05 16:49:04,764 DEBUG [main] n.f.c.m.FloodlightModuleLoader [FloodlightModuleLoader.java:95] Found module net.onrc.onos.ofcontroller.linkdiscovery.internal.LinkDiscoveryManager
2014-06-05 16:49:04,773 DEBUG [main] n.f.c.m.FloodlightModuleLoader [FloodlightModuleLoader.java:95] Found module net.floodlightcontroller.topology.TopologyManager
2014-06-05 16:49:04,841 DEBUG [main] n.f.c.m.FloodlightModuleLoader [FloodlightModuleLoader.java:95] Found module net.floodlightcontroller.forwarding.Forwarding
2014-06-05 16:49:04,846 DEBUG [main] n.f.c.m.FloodlightModuleLoader [FloodlightModuleLoader.java:95] Found module net.floodlightcontroller.restserver.RestApiServer
2014-06-05 16:49:04,852 DEBUG [main] n.f.c.m.FloodlightModuleLoader [FloodlightModuleLoader.java:95] Found module net.floodlightcontroller.threadpool.ThreadPool
2014-06-05 16:49:04,877 DEBUG [main] n.f.c.m.FloodlightModuleLoader [FloodlightModuleLoader.java:95] Found module net.floodlightcontroller.ui.web.StaticWebRoutable
2014-06-05 16:49:04,949 DEBUG [main] n.f.c.m.FloodlightModuleLoader [FloodlightModuleLoader.java:95] Found module net.floodlightcontroller.devicemanager.internal.DefaultEntityClassifier
2014-06-05 16:49:04,952 DEBUG [main] n.f.c.m.FloodlightModuleLoader [FloodlightModuleLoader.java:88] Could not find module: net.floodlightcontroller.core.module.IFloodlightModule: Provider net.floodlightcontroller.devicemanager.test.MockDeviceManager not found
2014-06-05 16:49:04,953 DEBUG [main] n.f.c.m.FloodlightModuleLoader [FloodlightModuleLoader.java:88] Could not find module: net.floodlightcontroller.core.module.IFloodlightModule: Provider net.floodlightcontroller.core.test.MockFloodlightProvider not found
2014-06-05 16:49:04,954 DEBUG [main] n.f.c.m.FloodlightModuleLoader [FloodlightModuleLoader.java:88] Could not find module: net.floodlightcontroller.core.module.IFloodlightModule: Provider net.floodlightcontroller.core.test.MockThreadPoolService not found
2014-06-05 16:49:06,767 DEBUG [main] n.f.c.m.FloodlightModuleLoader [FloodlightModuleLoader.java:95] Found module net.onrc.onos.datagrid.HazelcastDatagrid
2014-06-05 16:49:07,523 DEBUG [main] n.f.c.m.FloodlightModuleLoader [FloodlightModuleLoader.java:95] Found module net.onrc.onos.ofcontroller.flowmanager.FlowManager
2014-06-05 16:49:08,596 DEBUG [main] n.o.o.g.GraphDBConnection [GraphDBConnection.java:59] GraphDBConnection::Setting Config File 
2014-06-05 16:49:08,597 DEBUG [main] n.f.c.m.FloodlightModuleLoader [FloodlightModuleLoader.java:95] Found module net.onrc.onos.ofcontroller.flowprogrammer.FlowProgrammer
2014-06-05 16:49:08,604 DEBUG [main] n.f.c.m.FloodlightModuleLoader [FloodlightModuleLoader.java:95] Found module net.onrc.onos.ofcontroller.topology.TopologyManager
2014-06-05 16:49:08,630 DEBUG [main] n.f.c.m.FloodlightModuleLoader [FloodlightModuleLoader.java:95] Found module net.onrc.onos.ofcontroller.bgproute.BgpRoute
2014-06-05 16:49:08,654 DEBUG [main] n.f.c.m.FloodlightModuleLoader [FloodlightModuleLoader.java:95] Found module net.onrc.onos.registry.controller.ZookeeperRegistry
2014-06-05 16:49:08,657 DEBUG [main] n.f.c.m.FloodlightModuleLoader [FloodlightModuleLoader.java:95] Found module net.onrc.onos.registry.controller.StandaloneRegistry
2014-06-05 16:49:08,671 DEBUG [main] n.f.c.m.FloodlightModuleLoader [FloodlightModuleLoader.java:95] Found module net.onrc.onos.ofcontroller.forwarding.Forwarding
2014-06-05 16:49:08,693 DEBUG [main] n.f.c.m.FloodlightModuleLoader [FloodlightModuleLoader.java:95] Found module net.onrc.onos.ofcontroller.proxyarp.ProxyArpManager
2014-06-05 16:49:08,696 DEBUG [main] n.f.c.m.FloodlightModuleLoader [FloodlightModuleLoader.java:95] Found module net.onrc.onos.ofcontroller.core.config.DefaultConfiguration
2014-06-05 16:49:08,703 DEBUG [main] n.f.c.m.FloodlightModuleLoader [FloodlightModuleLoader.java:95] Found module net.onrc.onos.ofcontroller.devicemanager.OnosDeviceManager
2014-06-05 16:49:08,704 DEBUG [main] n.f.c.m.FloodlightModuleLoader [FloodlightModuleLoader.java:416] Setting net.floodlightcontroller.threadpool.ThreadPool@5a407d55  as provider for net.floodlightcontroller.threadpool.IThreadPoolService
2014-06-05 16:49:08,704 DEBUG [main] n.f.c.m.FloodlightModuleLoader [FloodlightModuleLoader.java:416] Setting net.onrc.onos.ofcontroller.core.config.DefaultConfiguration@2e37dbea  as provider for net.onrc.onos.ofcontroller.core.config.IConfigInfoService
2014-06-05 16:49:08,704 DEBUG [main] n.f.c.m.FloodlightModuleLoader [FloodlightModuleLoader.java:416] Setting net.floodlightcontroller.restserver.RestApiServer@5b742cea  as provider for net.floodlightcontroller.restserver.IRestApiService
2014-06-05 16:49:08,732 DEBUG [main] n.f.c.m.FloodlightModuleLoader [FloodlightModuleLoader.java:416] Setting net.floodlightcontroller.core.internal.Controller@550ebbaa  as provider for net.floodlightcontroller.core.IFloodlightProviderService
2014-06-05 16:49:08,733 DEBUG [main] n.f.c.m.FloodlightModuleLoader [FloodlightModuleLoader.java:416] Setting net.onrc.onos.datagrid.HazelcastDatagrid@6efe72b9  as provider for net.onrc.onos.datagrid.IDatagridService
2014-06-05 16:49:08,733 DEBUG [main] n.f.c.m.FloodlightModuleLoader [FloodlightModuleLoader.java:416] Setting net.onrc.onos.ofcontroller.flowprogrammer.FlowSynchronizer@3a42c186  as provider for net.onrc.onos.ofcontroller.flowprogrammer.IFlowSyncService
2014-06-05 16:49:08,733 DEBUG [main] n.f.c.m.FloodlightModuleLoader [FloodlightModuleLoader.java:416] Setting net.onrc.onos.ofcontroller.flowprogrammer.FlowPusher@74af624b  as provider for net.onrc.onos.ofcontroller.flowprogrammer.IFlowPusherService
2014-06-05 16:49:08,733 DEBUG [main] n.f.c.m.FloodlightModuleLoader [FloodlightModuleLoader.java:416] Setting net.onrc.onos.registry.controller.ZookeeperRegistry@24dee999  as provider for net.onrc.onos.registry.controller.IControllerRegistryService
2014-06-05 16:49:08,734 DEBUG [main] n.f.c.m.FloodlightModuleLoader [FloodlightModuleLoader.java:416] Setting net.onrc.onos.ofcontroller.linkdiscovery.internal.LinkDiscoveryManager@1081ee9f  as provider for net.onrc.onos.ofcontroller.linkdiscovery.ILinkDiscoveryService
2014-06-05 16:49:08,734 DEBUG [main] n.f.c.m.FloodlightModuleLoader [FloodlightModuleLoader.java:416] Setting net.onrc.onos.ofcontroller.floodlightlistener.NetworkGraphPublisher@6e75bb62  as provider for net.onrc.onos.ofcontroller.floodlightlistener.INetworkGraphService
2014-06-05 16:49:08,734 DEBUG [main] n.f.c.m.FloodlightModuleLoader [FloodlightModuleLoader.java:416] Setting net.onrc.onos.ofcontroller.flowmanager.FlowManager@5c356519  as provider for net.onrc.onos.ofcontroller.flowmanager.IFlowService
2014-06-05 16:49:08,734 DEBUG [main] n.f.c.m.FloodlightModuleLoader [FloodlightModuleLoader.java:416] Setting net.onrc.onos.ofcontroller.topology.TopologyManager@3adec164  as provider for net.onrc.onos.ofcontroller.topology.ITopologyNetService
2014-06-05 16:49:08,734 DEBUG [main] n.f.c.m.FloodlightModuleLoader [FloodlightModuleLoader.java:416] Setting net.floodlightcontroller.topology.TopologyManager@4c586c96  as provider for net.floodlightcontroller.topology.ITopologyService
2014-06-05 16:49:08,735 DEBUG [main] n.f.c.m.FloodlightModuleLoader [FloodlightModuleLoader.java:416] Setting net.floodlightcontroller.topology.TopologyManager@4c586c96  as provider for net.floodlightcontroller.routing.IRoutingService
2014-06-05 16:49:08,735 DEBUG [main] n.f.c.m.FloodlightModuleLoader [FloodlightModuleLoader.java:416] Setting net.onrc.onos.ofcontroller.proxyarp.ProxyArpManager@1aa5d24b  as provider for net.onrc.onos.ofcontroller.proxyarp.IProxyArpService
2014-06-05 16:49:08,735 DEBUG [main] n.f.c.m.FloodlightModuleLoader [FloodlightModuleLoader.java:416] Setting net.onrc.onos.ofcontroller.devicemanager.OnosDeviceManager@32457189  as provider for net.onrc.onos.ofcontroller.devicemanager.IOnosDeviceService
2014-06-05 16:49:08,736 DEBUG [main] n.f.c.m.FloodlightModuleLoader [FloodlightModuleLoader.java:416] Setting net.onrc.onos.ofcontroller.forwarding.Forwarding@5d688dcf  as provider for net.onrc.onos.ofcontroller.forwarding.IForwardingService
2014-06-05 16:49:08,736 DEBUG [main] n.f.c.m.FloodlightModuleLoader [FloodlightModuleLoader.java:439] Initializing net.floodlightcontroller.threadpool.ThreadPool
2014-06-05 16:49:08,736 DEBUG [main] n.f.c.m.FloodlightModuleLoader [FloodlightModuleLoader.java:439] Initializing net.onrc.onos.ofcontroller.core.config.DefaultConfiguration
2014-06-05 16:49:08,736 DEBUG [main] n.f.c.m.FloodlightModuleLoader [FloodlightModuleLoader.java:439] Initializing net.floodlightcontroller.restserver.RestApiServer
2014-06-05 16:49:08,737 DEBUG [main] n.f.r.RestApiServer [RestApiServer.java:187] REST port set to 8080
2014-06-05 16:49:08,737 DEBUG [main] n.f.c.m.FloodlightModuleLoader [FloodlightModuleLoader.java:439] Initializing net.floodlightcontroller.core.FloodlightProvider
2014-06-05 16:49:08,759 DEBUG [main] n.f.c.i.Controller [Controller.java:1761] OpenFlow port set to 6633
2014-06-05 16:49:08,760 DEBUG [main] n.f.c.i.Controller [Controller.java:1766] Number of worker threads set to 16
2014-06-05 16:49:08,760 DEBUG [main] n.f.c.i.Controller [Controller.java:1781] ControllerId set to onosdev2
2014-06-05 16:49:08,801 DEBUG [main] n.f.c.m.FloodlightModuleLoader [FloodlightModuleLoader.java:439] Initializing net.floodlightcontroller.ui.web.StaticWebRoutable
2014-06-05 16:49:08,801 DEBUG [main] n.f.c.m.FloodlightModuleLoader [FloodlightModuleLoader.java:439] Initializing net.onrc.onos.datagrid.HazelcastDatagrid
2014-06-05 16:49:08,826 INFO [main] c.h.c.FileSystemXmlConfig [Slf4jFactory.java:47] Configuring Hazelcast from '/vagrant/ONOS/conf/hazelcast.xml'.
2014-06-05 16:49:08,924 DEBUG [main] n.f.c.m.FloodlightModuleLoader [FloodlightModuleLoader.java:439] Initializing net.onrc.onos.ofcontroller.flowprogrammer.FlowProgrammer
2014-06-05 16:49:09,629 DEBUG [main] n.f.c.m.FloodlightModuleLoader [FloodlightModuleLoader.java:439] Initializing net.onrc.onos.registry.controller.ZookeeperRegistry
2014-06-05 16:49:09,630 INFO [main] n.o.o.r.c.ZookeeperRegistry [ZookeeperRegistry.java:474] Initialising the Zookeeper Registry - Zookeeper connection required
2014-06-05 16:49:09,630 INFO [main] n.o.o.r.c.ZookeeperRegistry [ZookeeperRegistry.java:482] Setting Zookeeper connection string to localhost:2181
2014-06-05 16:49:09,744 INFO [main] c.n.c.f.i.CuratorFrameworkImpl [CuratorFrameworkImpl.java:220] Starting
2014-06-05 16:49:09,746 DEBUG [main] c.n.c.CuratorZookeeperClient [CuratorZookeeperClient.java:173] Starting
2014-06-05 16:49:09,749 DEBUG [main] c.n.c.ConnectionState [ConnectionState.java:98] Starting
2014-06-05 16:49:09,753 DEBUG [main] c.n.c.ConnectionState [ConnectionState.java:199] reset
2014-06-05 16:49:09,835 INFO [main-EventThread] c.n.c.f.s.ConnectionStateManager [ConnectionStateManager.java:151] State change: CONNECTED
2014-06-05 16:49:09,838 WARN [ConnectionStateManager-0] c.n.c.f.s.ConnectionStateManager [ConnectionStateManager.java:169] There are no ConnectionStateListeners registered.
2014-06-05 16:49:10,250 DEBUG [main] n.f.c.m.FloodlightModuleLoader [FloodlightModuleLoader.java:439] Initializing net.onrc.onos.ofcontroller.linkdiscovery.internal.LinkDiscoveryManager
2014-06-05 16:49:10,298 DEBUG [main] n.f.c.m.FloodlightModuleLoader [FloodlightModuleLoader.java:439] Initializing net.onrc.onos.ofcontroller.floodlightlistener.NetworkGraphPublisher
2014-06-05 16:49:10,299 DEBUG [main] n.o.o.g.GraphDBConnection [GraphDBConnection.java:59] GraphDBConnection::Setting Config File /tmp/cassandra.titan
2014-06-05 16:49:10,992 INFO [main] c.t.t.d.Backend [Backend.java:148] Initiated backend operations thread pool of size 2
2014-06-05 16:49:16,518 DEBUG [main] n.o.o.o.f.NetworkGraphPublisher [NetworkGraphPublisher.java:470] Initializing NetworkGraphPublisher module with /tmp/cassandra.titan
2014-06-05 16:49:16,520 DEBUG [main] n.f.c.m.FloodlightModuleLoader [FloodlightModuleLoader.java:439] Initializing net.onrc.onos.ofcontroller.flowmanager.FlowManager
2014-06-05 16:49:16,525 DEBUG [main] n.f.c.m.FloodlightModuleLoader [FloodlightModuleLoader.java:439] Initializing net.onrc.onos.ofcontroller.topology.TopologyManager
2014-06-05 16:49:16,528 DEBUG [main] n.f.c.m.FloodlightModuleLoader [FloodlightModuleLoader.java:439] Initializing net.floodlightcontroller.topology.TopologyManager
2014-06-05 16:49:16,629 DEBUG [main] n.f.c.m.FloodlightModuleLoader [FloodlightModuleLoader.java:439] Initializing net.onrc.onos.ofcontroller.proxyarp.ProxyArpManager
2014-06-05 16:49:16,725 DEBUG [main] n.f.c.m.FloodlightModuleLoader [FloodlightModuleLoader.java:439] Initializing net.onrc.onos.ofcontroller.devicemanager.OnosDeviceManager
2014-06-05 16:49:16,726 DEBUG [main] n.f.c.m.FloodlightModuleLoader [FloodlightModuleLoader.java:439] Initializing net.onrc.onos.ofcontroller.forwarding.Forwarding
2014-06-05 16:49:16,731 DEBUG [main] n.f.c.m.FloodlightModuleLoader [FloodlightModuleLoader.java:453] Starting net.floodlightcontroller.threadpool.ThreadPool
2014-06-05 16:49:16,732 DEBUG [main] n.f.c.m.FloodlightModuleLoader [FloodlightModuleLoader.java:453] Starting net.onrc.onos.ofcontroller.core.config.DefaultConfiguration
2014-06-05 16:49:16,733 DEBUG [main] n.f.c.m.FloodlightModuleLoader [FloodlightModuleLoader.java:453] Starting net.floodlightcontroller.restserver.RestApiServer
2014-06-05 16:49:16,736 DEBUG [main] n.f.c.m.FloodlightModuleLoader [FloodlightModuleLoader.java:453] Starting net.floodlightcontroller.core.FloodlightProvider
2014-06-05 16:49:17,155 DEBUG [main] n.f.c.m.FloodlightModuleLoader [FloodlightModuleLoader.java:453] Starting net.floodlightcontroller.ui.web.StaticWebRoutable
2014-06-05 16:49:17,156 DEBUG [main] n.f.c.m.FloodlightModuleLoader [FloodlightModuleLoader.java:453] Starting net.onrc.onos.datagrid.HazelcastDatagrid
2014-06-05 16:49:17,957 INFO [main] c.h.i.DefaultAddressPicker [Slf4jFactory.java:47] Prefer IPv4 stack is true.
2014-06-05 16:49:17,991 DEBUG [main] c.h.i.DefaultAddressPicker [Slf4jFactory.java:41] inet reuseAddress:true
2014-06-05 16:49:17,994 DEBUG [main] c.h.i.DefaultAddressPicker [Slf4jFactory.java:41] Trying to bind inet socket address:0.0.0.0/0.0.0.0:5701
2014-06-05 16:49:17,995 DEBUG [main] c.h.i.DefaultAddressPicker [Slf4jFactory.java:41] Bind successful to inet socket address:0.0.0.0/0.0.0.0:5701
2014-06-05 16:49:18,005 INFO [main] c.h.i.DefaultAddressPicker [Slf4jFactory.java:47] Picked Address[192.168.56.12]:5701, using socket ServerSocket[addr=/0.0.0.0,localport=5701], bind any local is true
2014-06-05 16:49:18,005 DEBUG [main] c.h.i.DefaultAddressPicker [Slf4jFactory.java:41] Using public address the same as the bind address. Address[192.168.56.12]:5701
2014-06-05 16:49:18,430 DEBUG [main] c.h.c.ClusterService [Slf4jFactory.java:81] [192.168.56.12]:5701 [dev] Updating members -> [Member [192.168.56.12]:5701 this]
2014-06-05 16:49:18,505 INFO [main] c.h.system [Slf4jFactory.java:83] [192.168.56.12]:5701 [dev] Hazelcast Community Edition 3.0.2 (20130906) starting at Address[192.168.56.12]:5701
2014-06-05 16:49:18,509 INFO [main] c.h.system [Slf4jFactory.java:83] [192.168.56.12]:5701 [dev] Copyright (C) 2008-2013 Hazelcast.com
2014-06-05 16:49:18,532 INFO [main] c.h.i.Node [Slf4jFactory.java:83] [192.168.56.12]:5701 [dev] Creating MulticastJoiner
2014-06-05 16:49:18,547 INFO [main] c.h.c.LifecycleService [Slf4jFactory.java:83] [192.168.56.12]:5701 [dev] Address[192.168.56.12]:5701 is STARTING
2014-06-05 16:49:18,549 DEBUG [main] c.h.i.Node [Slf4jFactory.java:81] [192.168.56.12]:5701 [dev] We are asked to start and completelyShutdown is false
2014-06-05 16:49:18,551 DEBUG [main] c.h.s.i.ServiceManager [Slf4jFactory.java:81] [192.168.56.12]:5701 [dev] Registering core services...
2014-06-05 16:49:18,551 DEBUG [main] c.h.s.i.ServiceManager [Slf4jFactory.java:81] [192.168.56.12]:5701 [dev] Registering service: 'hz:core:clusterService'
2014-06-05 16:49:18,558 DEBUG [main] c.h.s.i.ServiceManager [Slf4jFactory.java:81] [192.168.56.12]:5701 [dev] Registering service: 'hz:core:partitionService'
2014-06-05 16:49:18,561 DEBUG [main] c.h.s.i.ServiceManager [Slf4jFactory.java:81] [192.168.56.12]:5701 [dev] Registering service: 'hz:core:proxyService'
2014-06-05 16:49:18,565 DEBUG [main] c.h.s.i.ServiceManager [Slf4jFactory.java:81] [192.168.56.12]:5701 [dev] Registering service: 'hz:core:txManagerService'
2014-06-05 16:49:18,569 DEBUG [main] c.h.s.i.ServiceManager [Slf4jFactory.java:81] [192.168.56.12]:5701 [dev] Registering service: 'hz:core:clientEngine'
2014-06-05 16:49:18,571 DEBUG [main] c.h.s.i.ServiceManager [Slf4jFactory.java:81] [192.168.56.12]:5701 [dev] Registering default services...
2014-06-05 16:49:18,684 DEBUG [main] c.h.s.i.ServiceManager [Slf4jFactory.java:81] [192.168.56.12]:5701 [dev] Registering service: 'hz:impl:mapService'
2014-06-05 16:49:18,709 DEBUG [main] c.h.s.i.ServiceManager [Slf4jFactory.java:81] [192.168.56.12]:5701 [dev] Registering service: 'hz:impl:lockService'
2014-06-05 16:49:18,735 DEBUG [main] c.h.s.i.ServiceManager [Slf4jFactory.java:81] [192.168.56.12]:5701 [dev] Registering service: 'hz:impl:queueService'
2014-06-05 16:49:18,761 DEBUG [main] c.h.s.i.ServiceManager [Slf4jFactory.java:81] [192.168.56.12]:5701 [dev] Registering service: 'hz:impl:topicService'
2014-06-05 16:49:18,786 DEBUG [main] c.h.s.i.ServiceManager [Slf4jFactory.java:81] [192.168.56.12]:5701 [dev] Registering service: 'hz:impl:collectionService'
2014-06-05 16:49:18,790 DEBUG [main] c.h.s.i.ServiceManager [Slf4jFactory.java:81] [192.168.56.12]:5701 [dev] Registering service: 'hz:impl:executorService'
2014-06-05 16:49:18,802 DEBUG [main] c.h.s.i.ServiceManager [Slf4jFactory.java:81] [192.168.56.12]:5701 [dev] Registering service: 'hz:impl:atomicLongService'
2014-06-05 16:49:18,814 DEBUG [main] c.h.s.i.ServiceManager [Slf4jFactory.java:81] [192.168.56.12]:5701 [dev] Registering service: 'hz:impl:countDownLatchService'
2014-06-05 16:49:18,833 DEBUG [main] c.h.s.i.ServiceManager [Slf4jFactory.java:81] [192.168.56.12]:5701 [dev] Registering service: 'hz:impl:semaphoreService'
2014-06-05 16:49:18,834 DEBUG [main] c.h.s.i.ServiceManager [Slf4jFactory.java:81] [192.168.56.12]:5701 [dev] Registering service: 'hz:impl:idGeneratorService'
2014-06-05 16:49:18,841 DEBUG [main] c.h.s.i.ServiceManager [Slf4jFactory.java:81] [192.168.56.12]:5701 [dev] Initializing service -> PartitionManager[0] {

migrationQ: 0
}
2014-06-05 16:49:18,857 DEBUG [main] c.h.s.i.ServiceManager [Slf4jFactory.java:81] [192.168.56.12]:5701 [dev] Initializing service -> ClusterService{address=Address[192.168.56.12]:5701}
2014-06-05 16:49:18,866 DEBUG [main] c.h.s.i.ServiceManager [Slf4jFactory.java:81] [192.168.56.12]:5701 [dev] Initializing service -> com.hazelcast.concurrent.atomiclong.AtomicLongService@31eb3d60
2014-06-05 16:49:18,869 DEBUG [main] c.h.s.i.ServiceManager [Slf4jFactory.java:81] [192.168.56.12]:5701 [dev] Initializing service -> com.hazelcast.concurrent.countdownlatch.CountDownLatchService@4b0a833a
2014-06-05 16:49:18,869 DEBUG [main] c.h.s.i.ServiceManager [Slf4jFactory.java:81] [192.168.56.12]:5701 [dev] Initializing service -> com.hazelcast.transaction.impl.TransactionManagerServiceImpl@1f2d7b53
2014-06-05 16:49:18,870 DEBUG [main] c.h.s.i.ServiceManager [Slf4jFactory.java:81] [192.168.56.12]:5701 [dev] Initializing service -> com.hazelcast.concurrent.semaphore.SemaphoreService@62fb9622
2014-06-05 16:49:18,873 DEBUG [main] c.h.s.i.ServiceManager [Slf4jFactory.java:81] [192.168.56.12]:5701 [dev] Initializing service -> com.hazelcast.collection.CollectionService@733dc4f2
2014-06-05 16:49:18,886 DEBUG [main] c.h.s.i.ServiceManager [Slf4jFactory.java:81] [192.168.56.12]:5701 [dev] Initializing service -> com.hazelcast.map.MapService@3536a242
2014-06-05 16:49:18,894 DEBUG [main] c.h.s.i.ServiceManager [Slf4jFactory.java:81] [192.168.56.12]:5701 [dev] Initializing service -> com.hazelcast.client.ClientEngineImpl@7d47e16a
2014-06-05 16:49:18,895 DEBUG [main] c.h.s.i.ServiceManager [Slf4jFactory.java:81] [192.168.56.12]:5701 [dev] Initializing service -> com.hazelcast.topic.TopicService@7a203667
2014-06-05 16:49:18,897 DEBUG [main] c.h.s.i.ServiceManager [Slf4jFactory.java:81] [192.168.56.12]:5701 [dev] Initializing service -> com.hazelcast.concurrent.idgen.IdGeneratorService@58d3e2d4
2014-06-05 16:49:18,899 DEBUG [main] c.h.s.i.ServiceManager [Slf4jFactory.java:81] [192.168.56.12]:5701 [dev] Initializing service -> com.hazelcast.queue.QueueService@3ed0f9db
2014-06-05 16:49:18,900 DEBUG [main] c.h.s.i.ServiceManager [Slf4jFactory.java:81] [192.168.56.12]:5701 [dev] Initializing service -> com.hazelcast.executor.DistributedExecutorService@9c3b915
2014-06-05 16:49:18,901 DEBUG [main] c.h.s.i.ServiceManager [Slf4jFactory.java:81] [192.168.56.12]:5701 [dev] Initializing service -> com.hazelcast.concurrent.lock.LockServiceImpl@10ac16b5
2014-06-05 16:49:18,917 DEBUG [main] c.h.n.TcpIpConnectionManager [Slf4jFactory.java:81] [192.168.56.12]:5701 [dev] Starting ConnectionManager and IO selectors.
2014-06-05 16:49:18,965 DEBUG [main] c.h.i.Node [Slf4jFactory.java:81] [192.168.56.12]:5701 [dev] Adding ShutdownHook
2014-06-05 16:49:18,967 DEBUG [main] c.h.i.Node [Slf4jFactory.java:81] [192.168.56.12]:5701 [dev] finished starting threads, calling join
2014-06-05 16:49:18,967 DEBUG [hz._hzInstance_1_dev.IO.thread-Acceptor] c.h.n.SocketAcceptor [Slf4jFactory.java:81] [192.168.56.12]:5701 [dev] Starting SocketAcceptor on sun.nio.ch.ServerSocketChannelImpl[/0.0.0.0:5701]
2014-06-05 16:49:22,197 DEBUG [main] c.h.c.MulticastJoiner [Slf4jFactory.java:81] [192.168.56.12]:5701 [dev] Joining to master node: null
2014-06-05 16:49:22,198 DEBUG [main] c.h.i.Node [Slf4jFactory.java:81] [192.168.56.12]:5701 [dev] This node is being set as the master
2014-06-05 16:49:22,198 INFO [main] c.h.c.MulticastJoiner [Slf4jFactory.java:83] [192.168.56.12]:5701 [dev] 


Members [1] {
	Member [192.168.56.12]:5701 this
}

2014-06-05 16:49:22,222 DEBUG [main] c.h.i.Node [Slf4jFactory.java:81] [192.168.56.12]:5701 [dev] Starting health monitor
2014-06-05 16:49:22,237 INFO [main] c.h.c.LifecycleService [Slf4jFactory.java:83] [192.168.56.12]:5701 [dev] Address[192.168.56.12]:5701 is STARTED
2014-06-05 16:49:22,285 DEBUG [main] n.f.c.m.FloodlightModuleLoader [FloodlightModuleLoader.java:453] Starting net.onrc.onos.ofcontroller.flowprogrammer.FlowProgrammer
2014-06-05 16:49:22,293 DEBUG [main] n.f.c.m.FloodlightModuleLoader [FloodlightModuleLoader.java:453] Starting net.onrc.onos.registry.controller.ZookeeperRegistry
2014-06-05 16:49:22,338 DEBUG [pool-8-thread-1] n.o.o.r.c.ZookeeperRegistry [ZookeeperRegistry.java:179] Cluster leadership changed, now true
2014-06-05 16:49:22,345 DEBUG [main] n.f.c.m.FloodlightModuleLoader [FloodlightModuleLoader.java:453] Starting net.onrc.onos.ofcontroller.linkdiscovery.internal.LinkDiscoveryManager
2014-06-05 16:49:22,363 INFO [main] n.o.o.o.l.i.LinkDiscoveryManager [LinkDiscoveryManager.java:731] IIIII read controller id: 443175442348285297
2014-06-05 16:49:22,365 DEBUG [main] n.f.c.m.FloodlightModuleLoader [FloodlightModuleLoader.java:453] Starting net.onrc.onos.ofcontroller.floodlightlistener.NetworkGraphPublisher
2014-06-05 16:49:22,365 DEBUG [main] n.o.o.o.f.NetworkGraphPublisher [NetworkGraphPublisher.java:483] Adding EventListener
2014-06-05 16:49:22,368 DEBUG [main] n.o.o.g.GraphDBConnection [GraphDBConnection.java:139] Registered listener class net.onrc.onos.graph.LocalTopologyEventListener
2014-06-05 16:49:22,371 DEBUG [main] n.f.c.m.FloodlightModuleLoader [FloodlightModuleLoader.java:453] Starting net.onrc.onos.ofcontroller.flowmanager.FlowManager
2014-06-05 16:49:23,223 DEBUG [main] n.f.c.m.FloodlightModuleLoader [FloodlightModuleLoader.java:453] Starting net.onrc.onos.ofcontroller.topology.TopologyManager
2014-06-05 16:49:23,227 INFO [FlowEventHandler 48] c.h.p.PartitionService [Slf4jFactory.java:83] [192.168.56.12]:5701 [dev] Initializing cluster partition table first arrangement...
2014-06-05 16:49:23,227 DEBUG [main] n.f.c.m.FloodlightModuleLoader [FloodlightModuleLoader.java:453] Starting net.floodlightcontroller.topology.TopologyManager
2014-06-05 16:49:23,235 DEBUG [main] n.f.c.m.FloodlightModuleLoader [FloodlightModuleLoader.java:453] Starting net.onrc.onos.ofcontroller.proxyarp.ProxyArpManager
2014-06-05 16:49:23,237 INFO [main] n.o.o.o.p.ProxyArpManager [ProxyArpManager.java:184] vlan set to 0
2014-06-05 16:49:23,277 DEBUG [main] n.f.c.m.FloodlightModuleLoader [FloodlightModuleLoader.java:453] Starting net.onrc.onos.ofcontroller.devicemanager.OnosDeviceManager
2014-06-05 16:49:23,278 DEBUG [main] n.f.c.m.FloodlightModuleLoader [FloodlightModuleLoader.java:453] Starting net.onrc.onos.ofcontroller.forwarding.Forwarding
2014-06-05 16:49:23,279 DEBUG [main] n.f.r.RestApiServer [RestApiServer.java:137] REST API routables: CoreWebRoutable (/wm/floodlight/core), OnosInternalWebRoutable (/wm/onos/internal), StaticWebRoutable (/wm/floodlight/ui/), DatagridWebRoutable (/wm/onos/datagrid), FlowProgrammerWebRoutable (/wm/onos/flowprogrammer), RegistryWebRoutable (/wm/onos/registry), LinkDiscoveryWebRoutable (/wm/onos/linkdiscovery), FlowWebRoutable (/wm/onos/flows), OnosTopologyWebRoutable (/wm/onos/topology), TopologyWebRoutable (/wm/floodlight/topology), ArpWebRoutable (/wm/arp), 
2014-06-05 16:49:23,850 DEBUG [main] n.f.c.i.Controller [Controller.java:1490] OFListeners for FLOW_REMOVED: FlowProgrammer,
2014-06-05 16:49:23,850 DEBUG [main] n.f.c.i.Controller [Controller.java:1490] OFListeners for PACKET_IN: linkdiscovery,onosdevicemanager,proxyarpmanager,onosforwarding,topology,
2014-06-05 16:49:23,850 DEBUG [main] n.f.c.i.Controller [Controller.java:1490] OFListeners for PORT_STATUS: linkdiscovery,
2014-06-05 16:49:23,851 DEBUG [main] n.f.c.i.Controller [Controller.java:1490] OFListeners for BARRIER_REPLY: flowpusher,
2014-06-05 16:49:23,939 INFO [main] n.f.c.i.Controller [Controller.java:1724] Listening for switch connections on 0.0.0.0/0.0.0.0:6633
2014-06-05 16:49:37,368 DEBUG [pool-2-thread-1] n.o.o.o.l.i.LinkDiscoveryManager [LinkDiscoveryManager.java:350] Sending LLDP out on all ports.
2014-06-05 16:49:52,376 DEBUG [pool-2-thread-4] n.o.o.o.l.i.LinkDiscoveryManager [LinkDiscoveryManager.java:350] Sending LLDP out on all ports.
2014-06-05 16:50:07,384 DEBUG [pool-2-thread-12] n.o.o.o.l.i.LinkDiscoveryManager [LinkDiscoveryManager.java:350] Sending LLDP out on all ports.
2014-06-05 16:50:10,854 DEBUG [hz.ShutdownThread] c.h.i.Node [Slf4jFactory.java:81] [192.168.56.12]:5701 [dev] ** we are being asked to shutdown when active = true
2014-06-05 16:50:10,854 DEBUG [hz.ShutdownThread] c.h.i.Node [Slf4jFactory.java:81] [192.168.56.12]:5701 [dev] Shutting down client command service
2014-06-05 16:50:10,855 DEBUG [hz.ShutdownThread] c.h.i.Node [Slf4jFactory.java:81] [192.168.56.12]:5701 [dev] Shutting down node engine
2014-06-05 16:50:10,859 DEBUG [hz.ShutdownThread] c.h.s.NodeEngine [Slf4jFactory.java:81] [192.168.56.12]:5701 [dev] Shutting down services...
2014-06-05 16:50:10,860 DEBUG [hz.ShutdownThread] c.h.s.WaitNotifyService [Slf4jFactory.java:81] [192.168.56.12]:5701 [dev] Stopping tasks...
2014-06-05 16:50:10,862 DEBUG [hz.ShutdownThread] c.h.s.i.ServiceManager [Slf4jFactory.java:81] [192.168.56.12]:5701 [dev] Stopping services...
2014-06-05 16:50:10,862 DEBUG [hz.ShutdownThread] c.h.s.i.ServiceManager [Slf4jFactory.java:81] [192.168.56.12]:5701 [dev] Shutting down service -> com.hazelcast.concurrent.lock.LockServiceImpl@10ac16b5
2014-06-05 16:50:10,868 DEBUG [hz.ShutdownThread] c.h.s.i.ServiceManager [Slf4jFactory.java:81] [192.168.56.12]:5701 [dev] Shutting down service -> com.hazelcast.executor.DistributedExecutorService@9c3b915
2014-06-05 16:50:10,869 DEBUG [hz.ShutdownThread] c.h.s.i.ServiceManager [Slf4jFactory.java:81] [192.168.56.12]:5701 [dev] Shutting down service -> com.hazelcast.queue.QueueService@3ed0f9db
2014-06-05 16:50:10,871 DEBUG [hz.ShutdownThread] c.h.s.i.ServiceManager [Slf4jFactory.java:81] [192.168.56.12]:5701 [dev] Shutting down service -> com.hazelcast.concurrent.idgen.IdGeneratorService@58d3e2d4
2014-06-05 16:50:10,871 DEBUG [hz.ShutdownThread] c.h.s.i.ServiceManager [Slf4jFactory.java:81] [192.168.56.12]:5701 [dev] Shutting down service -> com.hazelcast.topic.TopicService@7a203667
2014-06-05 16:50:10,872 DEBUG [hz.ShutdownThread] c.h.s.i.ServiceManager [Slf4jFactory.java:81] [192.168.56.12]:5701 [dev] Shutting down service -> com.hazelcast.map.MapService@3536a242
2014-06-05 16:50:10,892 DEBUG [hz.ShutdownThread] c.h.s.i.ServiceManager [Slf4jFactory.java:81] [192.168.56.12]:5701 [dev] Shutting down service -> com.hazelcast.collection.CollectionService@733dc4f2
2014-06-05 16:50:10,895 DEBUG [hz.ShutdownThread] c.h.s.i.ServiceManager [Slf4jFactory.java:81] [192.168.56.12]:5701 [dev] Shutting down service -> com.hazelcast.concurrent.semaphore.SemaphoreService@62fb9622
2014-06-05 16:50:10,896 DEBUG [hz.ShutdownThread] c.h.s.i.ServiceManager [Slf4jFactory.java:81] [192.168.56.12]:5701 [dev] Shutting down service -> com.hazelcast.transaction.impl.TransactionManagerServiceImpl@1f2d7b53
2014-06-05 16:50:10,897 DEBUG [hz.ShutdownThread] c.h.s.i.ServiceManager [Slf4jFactory.java:81] [192.168.56.12]:5701 [dev] Shutting down service -> com.hazelcast.concurrent.countdownlatch.CountDownLatchService@4b0a833a
2014-06-05 16:50:10,899 DEBUG [hz.ShutdownThread] c.h.s.i.ServiceManager [Slf4jFactory.java:81] [192.168.56.12]:5701 [dev] Shutting down service -> com.hazelcast.concurrent.atomiclong.AtomicLongService@31eb3d60
2014-06-05 16:50:10,901 DEBUG [hz.ShutdownThread] c.h.s.i.ServiceManager [Slf4jFactory.java:81] [192.168.56.12]:5701 [dev] Shutting down service -> PartitionManager[271] {

migrationQ: 0
}
2014-06-05 16:50:10,903 DEBUG [hz.ShutdownThread] c.h.p.PartitionService [Slf4jFactory.java:81] [192.168.56.12]:5701 [dev] Shutting down the partition service
2014-06-05 16:50:10,904 DEBUG [hz._hzInstance_1_dev.migration] c.h.p.PartitionService [Slf4jFactory.java:81] [192.168.56.12]:5701 [dev] MigrationThread is interrupted: null
2014-06-05 16:50:10,905 DEBUG [hz.ShutdownThread] c.h.s.i.ServiceManager [Slf4jFactory.java:81] [192.168.56.12]:5701 [dev] Shutting down service -> ClusterService{address=Address[192.168.56.12]:5701}
2014-06-05 16:50:10,908 DEBUG [hz.ShutdownThread] c.h.s.i.ServiceManager [Slf4jFactory.java:81] [192.168.56.12]:5701 [dev] Shutting down service -> com.hazelcast.client.ClientEngineImpl@7d47e16a
2014-06-05 16:50:10,909 DEBUG [hz.ShutdownThread] c.h.s.ExecutionService [Slf4jFactory.java:81] [192.168.56.12]:5701 [dev] Stopping executors...
2014-06-05 16:50:10,914 DEBUG [hz.ShutdownThread] c.h.s.EventService [Slf4jFactory.java:81] [192.168.56.12]:5701 [dev] Stopping event executor...
2014-06-05 16:50:10,915 DEBUG [hz.ShutdownThread] c.h.s.OperationService [Slf4jFactory.java:81] [192.168.56.12]:5701 [dev] Stopping operation threads...
2014-06-05 16:50:10,917 DEBUG [hz.ShutdownThread] c.h.i.Node [Slf4jFactory.java:81] [192.168.56.12]:5701 [dev] Shutting down multicast service
2014-06-05 16:50:10,920 DEBUG [hz.ShutdownThread] c.h.i.Node [Slf4jFactory.java:81] [192.168.56.12]:5701 [dev] Shutting down connection manager
2014-06-05 16:50:10,921 DEBUG [hz.ShutdownThread] c.h.n.TcpIpConnectionManager [Slf4jFactory.java:81] [192.168.56.12]:5701 [dev] Stopping ConnectionManager
2014-06-05 16:50:10,922 DEBUG [hz.ShutdownThread] c.h.n.TcpIpConnectionManager [Slf4jFactory.java:81] [192.168.56.12]:5701 [dev] Shutting down SocketAcceptor thread.
2014-06-05 16:50:10,923 DEBUG [hz._hzInstance_1_dev.IO.thread-Acceptor] c.h.n.SocketAcceptor [Slf4jFactory.java:81] [192.168.56.12]:5701 [dev] Closing selector hz._hzInstance_1_dev.IO.thread-Acceptor
2014-06-05 16:50:10,925 DEBUG [hz.ShutdownThread] c.h.n.TcpIpConnectionManager [Slf4jFactory.java:81] [192.168.56.12]:5701 [dev] Shutting down IO selectors... Total: 3
2014-06-05 16:50:10,933 DEBUG [hz._hzInstance_1_dev.IO.thread-in-0] c.h.n.InSelectorImpl [Slf4jFactory.java:81] [192.168.56.12]:5701 [dev] hz._hzInstance_1_dev.IO.thread-in-0 is interrupted!
2014-06-05 16:50:10,934 DEBUG [hz._hzInstance_1_dev.IO.thread-in-0] c.h.n.InSelectorImpl [Slf4jFactory.java:81] [192.168.56.12]:5701 [dev] Closing selector hz._hzInstance_1_dev.IO.thread-in-0
2014-06-05 16:50:10,934 DEBUG [hz._hzInstance_1_dev.IO.thread-out-2] c.h.n.OutSelectorImpl [Slf4jFactory.java:81] [192.168.56.12]:5701 [dev] hz._hzInstance_1_dev.IO.thread-out-2 is interrupted!
2014-06-05 16:50:10,936 DEBUG [hz._hzInstance_1_dev.IO.thread-out-2] c.h.n.OutSelectorImpl [Slf4jFactory.java:81] [192.168.56.12]:5701 [dev] Closing selector hz._hzInstance_1_dev.IO.thread-out-2
2014-06-05 16:50:10,934 DEBUG [hz._hzInstance_1_dev.IO.thread-in-2] c.h.n.InSelectorImpl [Slf4jFactory.java:81] [192.168.56.12]:5701 [dev] hz._hzInstance_1_dev.IO.thread-in-2 is interrupted!
2014-06-05 16:50:10,941 DEBUG [hz._hzInstance_1_dev.IO.thread-in-2] c.h.n.InSelectorImpl [Slf4jFactory.java:81] [192.168.56.12]:5701 [dev] Closing selector hz._hzInstance_1_dev.IO.thread-in-2
2014-06-05 16:50:10,934 DEBUG [hz.ShutdownThread] c.h.n.TcpIpConnectionManager [Slf4jFactory.java:81] [192.168.56.12]:5701 [dev] Closing server socket channel: sun.nio.ch.ServerSocketChannelImpl[/0.0.0.0:5701]
2014-06-05 16:50:10,934 DEBUG [hz._hzInstance_1_dev.IO.thread-out-1] c.h.n.OutSelectorImpl [Slf4jFactory.java:81] [192.168.56.12]:5701 [dev] hz._hzInstance_1_dev.IO.thread-out-1 is interrupted!
2014-06-05 16:50:10,944 DEBUG [hz._hzInstance_1_dev.IO.thread-out-1] c.h.n.OutSelectorImpl [Slf4jFactory.java:81] [192.168.56.12]:5701 [dev] Closing selector hz._hzInstance_1_dev.IO.thread-out-1
2014-06-05 16:50:10,934 DEBUG [hz._hzInstance_1_dev.IO.thread-in-1] c.h.n.InSelectorImpl [Slf4jFactory.java:81] [192.168.56.12]:5701 [dev] hz._hzInstance_1_dev.IO.thread-in-1 is interrupted!
2014-06-05 16:50:10,948 DEBUG [hz._hzInstance_1_dev.IO.thread-in-1] c.h.n.InSelectorImpl [Slf4jFactory.java:81] [192.168.56.12]:5701 [dev] Closing selector hz._hzInstance_1_dev.IO.thread-in-1
2014-06-05 16:50:10,933 DEBUG [hz._hzInstance_1_dev.IO.thread-out-0] c.h.n.OutSelectorImpl [Slf4jFactory.java:81] [192.168.56.12]:5701 [dev] hz._hzInstance_1_dev.IO.thread-out-0 is interrupted!
2014-06-05 16:50:10,952 DEBUG [hz._hzInstance_1_dev.IO.thread-out-0] c.h.n.OutSelectorImpl [Slf4jFactory.java:81] [192.168.56.12]:5701 [dev] Closing selector hz._hzInstance_1_dev.IO.thread-out-0
2014-06-05 16:50:10,943 INFO [hz.ShutdownThread] c.h.initializer [Slf4jFactory.java:83] [192.168.56.12]:5701 [dev] Destroying node initializer.
2014-06-05 16:50:10,954 DEBUG [hz.ShutdownThread] c.h.i.Node [Slf4jFactory.java:81] [192.168.56.12]:5701 [dev] Shutting down thread hz._hzInstance_1_dev.HealthMonitor
2014-06-05 16:50:10,957 INFO [hz.ShutdownThread] c.h.i.Node [Slf4jFactory.java:83] [192.168.56.12]:5701 [dev] Hazelcast Shutdown is completed in 103 ms.
