{
  "_iteration": 9,
  "_runtime_stats_path": "experiments/trigger_priority_mismatch_small_snapshot_mcs/intermcs_3_/runtime_stats.json",
  "ambiguous_counts": {
    "0.0": 45
  },
  "ambiguous_events": {},
  "buffered_message_receipts": {
    "10": [
      "PendingReceive(dpid=2, controller_id='c1', fingerprint=OFFingerprint{'actions': ('output(1)',), 'data': DPFingerprint{'class': 'lldp'}, 'class': 'ofp_packet_out', 'in_port': 65535})"
    ],
    "2": [
      "PendingReceive(dpid=2, controller_id='c1', fingerprint=OFFingerprint{'actions': ('output(2)',), 'data': DPFingerprint{'class': 'lldp'}, 'class': 'ofp_packet_out', 'in_port': 65535})"
    ],
    "3": [
      "PendingReceive(dpid=2, controller_id='c1', fingerprint=OFFingerprint{'actions': ('output(2)',), 'data': DPFingerprint{'class': 'lldp'}, 'class': 'ofp_packet_out', 'in_port': 65535})"
    ],
    "4": [
      "PendingReceive(dpid=2, controller_id='c1', fingerprint=OFFingerprint{'actions': ('output(65531)',), 'data': (), 'class': 'ofp_packet_out', 'in_port': 2})",
      "PendingReceive(dpid=2, controller_id='c1', fingerprint=OFFingerprint{'actions': ('output(1)',), 'data': DPFingerprint{'class': 'lldp'}, 'class': 'ofp_packet_out', 'in_port': 65535})"
    ],
    "5": [
      "PendingReceive(dpid=2, controller_id='c1', fingerprint=OFFingerprint{'actions': ('output(1)',), 'data': DPFingerprint{'class': 'lldp'}, 'class': 'ofp_packet_out', 'in_port': 65535})"
    ],
    "6": [
      "PendingReceive(dpid=2, controller_id='c1', fingerprint=OFFingerprint{'actions': ('output(2)',), 'data': DPFingerprint{'class': 'lldp'}, 'class': 'ofp_packet_out', 'in_port': 65535})"
    ],
    "7": [
      "PendingReceive(dpid=2, controller_id='c1', fingerprint=OFFingerprint{'actions': ('output(2)',), 'data': DPFingerprint{'class': 'lldp'}, 'class': 'ofp_packet_out', 'in_port': 65535})"
    ],
    "8": [
      "PendingReceive(dpid=2, controller_id='c1', fingerprint=OFFingerprint{'hard_timeout': 30, 'out_port': 65535, 'priority': 32768, 'idle_timeout': 10, 'command': 'add', 'actions': ('output(2)',), 'flags': 0, 'class': 'ofp_flow_mod', 'match': 'dl_src:12:34:56:78:01:02,dl_dst:12:34:56:78:02:02,dl_vlan:65535,dl_vlan_pcp:0,dl_type:2048,nw_tos:0,nw_proto:6,nw_src:10.1.2.2/32,nw_dst:10.2.2.2/32,in_port:None'})",
      "PendingReceive(dpid=1, controller_id='c1', fingerprint=OFFingerprint{'hard_timeout': 30, 'out_port': 65535, 'priority': 32768, 'idle_timeout': 10, 'command': 'add', 'actions': ('output(1)',), 'flags': 0, 'class': 'ofp_flow_mod', 'match': 'dl_src:12:34:56:78:01:02,dl_dst:12:34:56:78:02:02,dl_vlan:65535,dl_vlan_pcp:0,dl_type:2048,nw_tos:0,nw_proto:6,nw_src:10.1.2.2/32,nw_dst:10.2.2.2/32,in_port:None'})",
      "PendingReceive(dpid=1, controller_id='c1', fingerprint=OFFingerprint{'hard_timeout': 0, 'out_port': 65535, 'priority': 123, 'idle_timeout': 0, 'command': 'add', 'actions': (), 'flags': 0, 'class': 'ofp_flow_mod', 'match': 'x^L,in_port:None'})",
      "PendingReceive(dpid=2, controller_id='c1', fingerprint=OFFingerprint{'actions': ('output(2)',), 'data': DPFingerprint{'class': 'lldp'}, 'class': 'ofp_packet_out', 'in_port': 65535})"
    ],
    "9": [
      "PendingReceive(dpid=2, controller_id='c1', fingerprint=OFFingerprint{'actions': ('output(2)',), 'data': DPFingerprint{'class': 'lldp'}, 'class': 'ofp_packet_out', 'in_port': 65535})"
    ]
  },
  "config": "SimulationConfig(controller_configs=[ControllerConfig(start_cmd='./pox.py --verbose openflow.discovery forwarding.l2_multi forwarding.capabilities_manager sts.util.socket_mux.pox_monkeypatcher --snapshot_address=/tmp/snapshot_socket openflow.of_01 --address=__address__ --port=__port__', label='c1', address='127.0.0.1', cwd='pox')],\n                 topology_class=MeshTopology,\n                 topology_params=\"num_switches=2\",\n                 patch_panel_class=BufferedPatchPanel,\n                 multiplex_sockets=True,\n                 kill_controllers_on_exit=True)",
  "early_internal_events": {
    "10": [],
    "2": [],
    "3": [],
    "4": [],
    "5": [],
    "6": [],
    "7": [],
    "8": [],
    "9": []
  },
  "initial_verification_runs_needed": 0,
  "iteration_size": {
    "0": 27,
    "1": 27,
    "2": 13,
    "3": 13,
    "4": 13,
    "5": 13,
    "6": 9,
    "7": 9,
    "8": 9
  },
  "matched_events": {
    "10": {
      "CheckInvariants": 6,
      "ConnectToControllers": 1,
      "ControlMessageReceive": 10,
      "ControlMessageSend": 3,
      "TrafficInjection": 1,
      "WaitTime": 1
    },
    "2": {
      "CheckInvariants": 12,
      "ConnectToControllers": 1,
      "ControlMessageReceive": 7,
      "ControlMessageSend": 2,
      "TrafficInjection": 2
    },
    "3": {
      "CheckInvariants": 11,
      "ConnectToControllers": 1,
      "ControlMessageReceive": 8,
      "ControlMessageSend": 2,
      "TrafficInjection": 1,
      "WaitTime": 1
    },
    "4": {
      "CheckInvariants": 6,
      "ConnectToControllers": 1,
      "ControlMessageReceive": 8,
      "ControlMessageSend": 2,
      "TrafficInjection": 1
    },
    "5": {
      "CheckInvariants": 5,
      "ConnectToControllers": 1,
      "ControlMessageReceive": 10,
      "ControlMessageSend": 3,
      "WaitTime": 1
    },
    "6": {
      "CheckInvariants": 9,
      "ConnectToControllers": 1,
      "ControlMessageReceive": 8,
      "ControlMessageSend": 2,
      "WaitTime": 1
    },
    "7": {
      "CheckInvariants": 7,
      "ConnectToControllers": 1,
      "ControlMessageReceive": 8,
      "ControlMessageSend": 2,
      "TrafficInjection": 1,
      "WaitTime": 1
    },
    "8": {
      "CheckInvariants": 6,
      "ConnectToControllers": 1,
      "ControlMessageReceive": 8,
      "ControlMessageSend": 2,
      "TrafficInjection": 1,
      "WaitTime": 1
    },
    "9": {
      "CheckInvariants": 6,
      "ConnectToControllers": 1,
      "ControlMessageReceive": 8,
      "ControlMessageSend": 2,
      "WaitTime": 1
    }
  },
  "new_internal_events": {
    "10": [
      "ControlMessageReceive:i611:('ControlMessageReceive', OFFingerprint{'class': 'ofp_hello'}, 1, 'c1')",
      "ControlMessageSend:i612:('ControlMessageSend', OFFingerprint{'class': 'ofp_hello'}, 2, 'c1')",
      "ControlMessageReceive:i613:('ControlMessageReceive', OFFingerprint{'class': 'ofp_features_request'}, 2, 'c1')",
      "ControlMessageSend:i614:('ControlMessageSend', OFFingerprint{'class': 'ofp_hello'}, 1, 'c1')",
      "ControlMessageReceive:i615:('ControlMessageReceive', OFFingerprint{'class': 'ofp_features_request'}, 1, 'c1')",
      "ControlMessageSend:i616:('ControlMessageSend', OFFingerprint{'datapath_id': 2, 'class': 'ofp_features_reply'}, 2, 'c1')",
      "ControlMessageReceive:i617:('ControlMessageReceive', OFFingerprint{'hard_timeout': 0, 'out_port': 65535, 'priority': 32768, 'idle_timeout': 0, 'command': 'delete', 'actions': (), 'flags': 0, 'class': 'ofp_flow_mod', 'match': 'x^L,in_port:None'}, 2, 'c1')",
      "ControlMessageReceive:i618:('ControlMessageReceive', OFFingerprint{'class': 'ofp_set_config'}, 2, 'c1')",
      "ControlMessageReceive:i619:('ControlMessageReceive', OFFingerprint{'class': 'ofp_barrier_request'}, 2, 'c1')",
      "ControlMessageSend:i620:('ControlMessageSend', OFFingerprint{'datapath_id': 1, 'class': 'ofp_features_reply'}, 1, 'c1')",
      "ControlMessageReceive:i621:('ControlMessageReceive', OFFingerprint{'class': 'ofp_barrier_request'}, 1, 'c1')",
      "ControlMessageReceive:i622:('ControlMessageReceive', OFFingerprint{'class': 'ofp_set_config'}, 1, 'c1')",
      "ControlMessageReceive:i623:('ControlMessageReceive', OFFingerprint{'hard_timeout': 0, 'out_port': 65535, 'priority': 32768, 'idle_timeout': 0, 'command': 'delete', 'actions': (), 'flags': 0, 'class': 'ofp_flow_mod', 'match': 'x^L,in_port:None'}, 1, 'c1')",
      "ControlMessageSend:i624:('ControlMessageSend', OFFingerprint{'class': 'ofp_barrier_reply'}, 2, 'c1')",
      "ControlMessageReceive:i625:('ControlMessageReceive', OFFingerprint{'hard_timeout': 0, 'out_port': 65535, 'priority': 32768, 'idle_timeout': 0, 'command': 'add', 'actions': ('output(65533)',), 'flags': 0, 'class': 'ofp_flow_mod', 'match': 'dl_dst:01:23:20:00:00:01,dl_type:35020,in_port:None'}, 2, 'c1')",
      "ControlMessageSend:i626:('ControlMessageSend', OFFingerprint{'class': 'ofp_barrier_reply'}, 1, 'c1')",
      "ControlMessageReceive:i627:('ControlMessageReceive', OFFingerprint{'hard_timeout': 0, 'out_port': 65535, 'priority': 32768, 'idle_timeout': 0, 'command': 'add', 'actions': ('output(65533)',), 'flags': 0, 'class': 'ofp_flow_mod', 'match': 'dl_dst:01:23:20:00:00:01,dl_type:35020,in_port:None'}, 1, 'c1')",
      "ControlMessageReceive:i628:('ControlMessageReceive', OFFingerprint{'actions': ('output(1)',), 'data': DPFingerprint{'class': 'lldp'}, 'class': 'ofp_packet_out', 'in_port': 65535}, 2, 'c1')",
      "ControlMessageSend:i629:('ControlMessageSend', OFFingerprint{'data': DPFingerprint{'class': 'lldp'}, 'class': 'ofp_packet_in', 'in_port': 1}, 1, 'c1')",
      "ControlMessageReceive:i630:('ControlMessageReceive', OFFingerprint{'actions': (), 'data': (), 'class': 'ofp_packet_out', 'in_port': 1}, 1, 'c1')",
      "ControlMessageReceive:i631:('ControlMessageReceive', OFFingerprint{'actions': ('output(2)',), 'data': DPFingerprint{'class': 'lldp'}, 'class': 'ofp_packet_out', 'in_port': 65535}, 2, 'c1')",
      "ControlMessageReceive:i632:('ControlMessageReceive', OFFingerprint{'hard_timeout': 0, 'out_port': 65535, 'priority': 32768, 'idle_timeout': 0, 'command': 'delete', 'actions': (), 'flags': 0, 'class': 'ofp_flow_mod', 'match': 'x^L,in_port:None'}, 2, 'c1')",
      "ControlMessageReceive:i633:('ControlMessageReceive', OFFingerprint{'actions': ('output(1)',), 'data': DPFingerprint{'class': 'lldp'}, 'class': 'ofp_packet_out', 'in_port': 65535}, 1, 'c1')",
      "ControlMessageSend:i634:('ControlMessageSend', OFFingerprint{'data': DPFingerprint{'class': 'lldp'}, 'class': 'ofp_packet_in', 'in_port': 1}, 2, 'c1')",
      "ControlMessageReceive:i635:('ControlMessageReceive', OFFingerprint{'hard_timeout': 0, 'out_port': 65535, 'priority': 32768, 'idle_timeout': 0, 'command': 'delete', 'actions': (), 'flags': 0, 'class': 'ofp_flow_mod', 'match': 'x^L,in_port:None'}, 1, 'c1')",
      "ControlMessageReceive:i636:('ControlMessageReceive', OFFingerprint{'actions': ('output(2)',), 'data': DPFingerprint{'class': 'lldp'}, 'class': 'ofp_packet_out', 'in_port': 65535}, 1, 'c1')",
      "ControlMessageReceive:i637:('ControlMessageReceive', OFFingerprint{'actions': (), 'data': (), 'class': 'ofp_packet_out', 'in_port': 1}, 2, 'c1')",
      "ControlMessageReceive:i638:('ControlMessageReceive', OFFingerprint{'hard_timeout': 0, 'out_port': 65535, 'priority': 32768, 'idle_timeout': 0, 'command': 'delete', 'actions': (), 'flags': 0, 'class': 'ofp_flow_mod', 'match': 'x^L,in_port:None'}, 2, 'c1')",
      "ControlMessageReceive:i639:('ControlMessageReceive', OFFingerprint{'actions': ('output(1)',), 'data': DPFingerprint{'class': 'lldp'}, 'class': 'ofp_packet_out', 'in_port': 65535}, 2, 'c1')",
      "ControlMessageSend:i640:('ControlMessageSend', OFFingerprint{'data': DPFingerprint{'class': 'lldp'}, 'class': 'ofp_packet_in', 'in_port': 1}, 1, 'c1')",
      "ControlMessageReceive:i641:('ControlMessageReceive', OFFingerprint{'actions': (), 'data': (), 'class': 'ofp_packet_out', 'in_port': 1}, 1, 'c1')",
      "ControlMessageReceive:i642:('ControlMessageReceive', OFFingerprint{'actions': ('output(2)',), 'data': DPFingerprint{'class': 'lldp'}, 'class': 'ofp_packet_out', 'in_port': 65535}, 2, 'c1')",
      "ControlMessageReceive:i643:('ControlMessageReceive', OFFingerprint{'actions': ('output(1)',), 'data': DPFingerprint{'class': 'lldp'}, 'class': 'ofp_packet_out', 'in_port': 65535}, 1, 'c1')",
      "ControlMessageSend:i644:('ControlMessageSend', OFFingerprint{'data': DPFingerprint{'class': 'lldp'}, 'class': 'ofp_packet_in', 'in_port': 1}, 2, 'c1')",
      "ControlMessageReceive:i645:('ControlMessageReceive', OFFingerprint{'actions': (), 'data': (), 'class': 'ofp_packet_out', 'in_port': 1}, 2, 'c1')",
      "ControlMessageSend:i646:('ControlMessageSend', OFFingerprint{'data': DPFingerprint{'dl_dst': '12:34:56:78:01:02', 'nw_src': '10.2.2.2', 'dl_src': '12:34:56:78:02:02', 'nw_dst': '10.1.2.2'}, 'class': 'ofp_packet_in', 'in_port': 2}, 2, 'c1')",
      "ControlMessageReceive:i647:('ControlMessageReceive', OFFingerprint{'actions': ('output(2)',), 'data': DPFingerprint{'class': 'lldp'}, 'class': 'ofp_packet_out', 'in_port': 65535}, 1, 'c1')",
      "ControlMessageReceive:i648:('ControlMessageReceive', OFFingerprint{'actions': ('output(65531)',), 'data': (), 'class': 'ofp_packet_out', 'in_port': 2}, 2, 'c1')",
      "ControlMessageSend:i649:('ControlMessageSend', OFFingerprint{'data': DPFingerprint{'dl_dst': '12:34:56:78:01:02', 'nw_src': '10.2.2.2', 'dl_src': '12:34:56:78:02:02', 'nw_dst': '10.1.2.2'}, 'class': 'ofp_packet_in', 'in_port': 1}, 1, 'c1')",
      "ControlMessageReceive:i650:('ControlMessageReceive', OFFingerprint{'actions': ('output(65531)',), 'data': (), 'class': 'ofp_packet_out', 'in_port': 1}, 1, 'c1')",
      "ControlMessageSend:i651:('ControlMessageSend', OFFingerprint{'data': DPFingerprint{'dl_dst': '12:34:56:78:02:02', 'nw_src': '10.1.2.2', 'dl_src': '12:34:56:78:01:02', 'nw_dst': '10.2.2.2'}, 'class': 'ofp_packet_in', 'in_port': 2}, 1, 'c1')",
      "ControlMessageReceive:i652:('ControlMessageReceive', OFFingerprint{'hard_timeout': 30, 'out_port': 65535, 'priority': 32768, 'idle_timeout': 10, 'command': 'add', 'actions': ('output(2)',), 'flags': 0, 'class': 'ofp_flow_mod', 'match': 'dl_src:12:34:56:78:01:02,dl_dst:12:34:56:78:02:02,dl_vlan:65535,dl_vlan_pcp:0,dl_type:2048,nw_tos:0,nw_proto:6,nw_src:10.1.2.2/32,nw_dst:10.2.2.2/32,in_port:None'}, 2, 'c1')",
      "ControlMessageReceive:i653:('ControlMessageReceive', OFFingerprint{'hard_timeout': 30, 'out_port': 65535, 'priority': 32768, 'idle_timeout': 10, 'command': 'add', 'actions': ('output(1)',), 'flags': 0, 'class': 'ofp_flow_mod', 'match': 'dl_src:12:34:56:78:01:02,dl_dst:12:34:56:78:02:02,dl_vlan:65535,dl_vlan_pcp:0,dl_type:2048,nw_tos:0,nw_proto:6,nw_src:10.1.2.2/32,nw_dst:10.2.2.2/32,in_port:None'}, 1, 'c1')",
      "ControlMessageReceive:i654:('ControlMessageReceive', OFFingerprint{'hard_timeout': 0, 'out_port': 65535, 'priority': 123, 'idle_timeout': 0, 'command': 'add', 'actions': (), 'flags': 0, 'class': 'ofp_flow_mod', 'match': 'x^L,in_port:None'}, 1, 'c1')"
    ],
    "2": [
      "ControlMessageReceive:i207:('ControlMessageReceive', OFFingerprint{'class': 'ofp_hello'}, 1, 'c1')",
      "ControlMessageSend:i208:('ControlMessageSend', OFFingerprint{'class': 'ofp_hello'}, 2, 'c1')",
      "ControlMessageReceive:i209:('ControlMessageReceive', OFFingerprint{'class': 'ofp_features_request'}, 2, 'c1')",
      "ControlMessageSend:i210:('ControlMessageSend', OFFingerprint{'class': 'ofp_hello'}, 1, 'c1')",
      "ControlMessageReceive:i211:('ControlMessageReceive', OFFingerprint{'class': 'ofp_features_request'}, 1, 'c1')",
      "ControlMessageSend:i212:('ControlMessageSend', OFFingerprint{'datapath_id': 2, 'class': 'ofp_features_reply'}, 2, 'c1')",
      "ControlMessageReceive:i213:('ControlMessageReceive', OFFingerprint{'hard_timeout': 0, 'out_port': 65535, 'priority': 32768, 'idle_timeout': 0, 'command': 'delete', 'actions': (), 'flags': 0, 'class': 'ofp_flow_mod', 'match': 'x^L,in_port:None'}, 2, 'c1')",
      "ControlMessageReceive:i214:('ControlMessageReceive', OFFingerprint{'class': 'ofp_set_config'}, 2, 'c1')",
      "ControlMessageReceive:i215:('ControlMessageReceive', OFFingerprint{'class': 'ofp_barrier_request'}, 2, 'c1')",
      "ControlMessageSend:i216:('ControlMessageSend', OFFingerprint{'datapath_id': 1, 'class': 'ofp_features_reply'}, 1, 'c1')",
      "ControlMessageReceive:i217:('ControlMessageReceive', OFFingerprint{'class': 'ofp_barrier_request'}, 1, 'c1')",
      "ControlMessageReceive:i218:('ControlMessageReceive', OFFingerprint{'class': 'ofp_set_config'}, 1, 'c1')",
      "ControlMessageReceive:i219:('ControlMessageReceive', OFFingerprint{'hard_timeout': 0, 'out_port': 65535, 'priority': 32768, 'idle_timeout': 0, 'command': 'delete', 'actions': (), 'flags': 0, 'class': 'ofp_flow_mod', 'match': 'x^L,in_port:None'}, 1, 'c1')",
      "ControlMessageSend:i220:('ControlMessageSend', OFFingerprint{'class': 'ofp_barrier_reply'}, 2, 'c1')",
      "ControlMessageReceive:i221:('ControlMessageReceive', OFFingerprint{'hard_timeout': 0, 'out_port': 65535, 'priority': 32768, 'idle_timeout': 0, 'command': 'add', 'actions': ('output(65533)',), 'flags': 0, 'class': 'ofp_flow_mod', 'match': 'dl_dst:01:23:20:00:00:01,dl_type:35020,in_port:None'}, 2, 'c1')",
      "ControlMessageSend:i222:('ControlMessageSend', OFFingerprint{'class': 'ofp_barrier_reply'}, 1, 'c1')",
      "ControlMessageReceive:i223:('ControlMessageReceive', OFFingerprint{'hard_timeout': 0, 'out_port': 65535, 'priority': 32768, 'idle_timeout': 0, 'command': 'add', 'actions': ('output(65533)',), 'flags': 0, 'class': 'ofp_flow_mod', 'match': 'dl_dst:01:23:20:00:00:01,dl_type:35020,in_port:None'}, 1, 'c1')",
      "ControlMessageReceive:i224:('ControlMessageReceive', OFFingerprint{'actions': ('output(1)',), 'data': DPFingerprint{'class': 'lldp'}, 'class': 'ofp_packet_out', 'in_port': 65535}, 2, 'c1')",
      "ControlMessageSend:i225:('ControlMessageSend', OFFingerprint{'data': DPFingerprint{'class': 'lldp'}, 'class': 'ofp_packet_in', 'in_port': 1}, 1, 'c1')",
      "ControlMessageReceive:i226:('ControlMessageReceive', OFFingerprint{'actions': (), 'data': (), 'class': 'ofp_packet_out', 'in_port': 1}, 1, 'c1')",
      "ControlMessageReceive:i227:('ControlMessageReceive', OFFingerprint{'actions': ('output(2)',), 'data': DPFingerprint{'class': 'lldp'}, 'class': 'ofp_packet_out', 'in_port': 65535}, 2, 'c1')",
      "ControlMessageReceive:i228:('ControlMessageReceive', OFFingerprint{'hard_timeout': 0, 'out_port': 65535, 'priority': 32768, 'idle_timeout': 0, 'command': 'delete', 'actions': (), 'flags': 0, 'class': 'ofp_flow_mod', 'match': 'x^L,in_port:None'}, 2, 'c1')",
      "ControlMessageReceive:i229:('ControlMessageReceive', OFFingerprint{'actions': ('output(1)',), 'data': DPFingerprint{'class': 'lldp'}, 'class': 'ofp_packet_out', 'in_port': 65535}, 1, 'c1')",
      "ControlMessageSend:i230:('ControlMessageSend', OFFingerprint{'data': DPFingerprint{'class': 'lldp'}, 'class': 'ofp_packet_in', 'in_port': 1}, 2, 'c1')",
      "ControlMessageReceive:i231:('ControlMessageReceive', OFFingerprint{'hard_timeout': 0, 'out_port': 65535, 'priority': 32768, 'idle_timeout': 0, 'command': 'delete', 'actions': (), 'flags': 0, 'class': 'ofp_flow_mod', 'match': 'x^L,in_port:None'}, 1, 'c1')",
      "ControlMessageReceive:i232:('ControlMessageReceive', OFFingerprint{'actions': ('output(2)',), 'data': DPFingerprint{'class': 'lldp'}, 'class': 'ofp_packet_out', 'in_port': 65535}, 1, 'c1')",
      "ControlMessageReceive:i233:('ControlMessageReceive', OFFingerprint{'actions': (), 'data': (), 'class': 'ofp_packet_out', 'in_port': 1}, 2, 'c1')",
      "ControlMessageReceive:i234:('ControlMessageReceive', OFFingerprint{'hard_timeout': 0, 'out_port': 65535, 'priority': 32768, 'idle_timeout': 0, 'command': 'delete', 'actions': (), 'flags': 0, 'class': 'ofp_flow_mod', 'match': 'x^L,in_port:None'}, 2, 'c1')",
      "ControlMessageReceive:i235:('ControlMessageReceive', OFFingerprint{'actions': ('output(1)',), 'data': DPFingerprint{'class': 'lldp'}, 'class': 'ofp_packet_out', 'in_port': 65535}, 2, 'c1')",
      "ControlMessageSend:i236:('ControlMessageSend', OFFingerprint{'data': DPFingerprint{'class': 'lldp'}, 'class': 'ofp_packet_in', 'in_port': 1}, 1, 'c1')",
      "ControlMessageReceive:i237:('ControlMessageReceive', OFFingerprint{'actions': (), 'data': (), 'class': 'ofp_packet_out', 'in_port': 1}, 1, 'c1')",
      "ControlMessageReceive:i238:('ControlMessageReceive', OFFingerprint{'actions': ('output(2)',), 'data': DPFingerprint{'class': 'lldp'}, 'class': 'ofp_packet_out', 'in_port': 65535}, 2, 'c1')",
      "ControlMessageReceive:i239:('ControlMessageReceive', OFFingerprint{'actions': ('output(1)',), 'data': DPFingerprint{'class': 'lldp'}, 'class': 'ofp_packet_out', 'in_port': 65535}, 1, 'c1')",
      "ControlMessageReceive:i240:('ControlMessageReceive', OFFingerprint{'actions': ('output(2)',), 'data': DPFingerprint{'class': 'lldp'}, 'class': 'ofp_packet_out', 'in_port': 65535}, 1, 'c1')",
      "ControlMessageSend:i241:('ControlMessageSend', OFFingerprint{'data': DPFingerprint{'class': 'lldp'}, 'class': 'ofp_packet_in', 'in_port': 1}, 2, 'c1')",
      "ControlMessageSend:i242:('ControlMessageSend', OFFingerprint{'data': DPFingerprint{'dl_dst': '12:34:56:78:01:02', 'nw_src': '10.1.2.2', 'dl_src': '12:34:56:78:01:02', 'nw_dst': '10.1.2.2'}, 'class': 'ofp_packet_in', 'in_port': 2}, 1, 'c1')",
      "ControlMessageSend:i243:('ControlMessageSend', OFFingerprint{'data': DPFingerprint{'dl_dst': '12:34:56:78:02:02', 'nw_src': '10.2.2.2', 'dl_src': '12:34:56:78:02:02', 'nw_dst': '10.2.2.2'}, 'class': 'ofp_packet_in', 'in_port': 2}, 2, 'c1')",
      "ControlMessageReceive:i244:('ControlMessageReceive', OFFingerprint{'hard_timeout': 30, 'out_port': 65535, 'priority': 32768, 'idle_timeout': 10, 'command': 'add', 'actions': ('output(2)',), 'flags': 0, 'class': 'ofp_flow_mod', 'match': 'dl_src:12:34:56:78:01:02,dl_dst:12:34:56:78:01:02,dl_vlan:65535,dl_vlan_pcp:0,dl_type:2048,nw_tos:0,nw_proto:1,nw_src:10.1.2.2/32,nw_dst:10.1.2.2/32,tp_src:0,tp_dst:0,in_port:None'}, 1, 'c1')",
      "ControlMessageReceive:i245:('ControlMessageReceive', OFFingerprint{'actions': (), 'data': (), 'class': 'ofp_packet_out', 'in_port': 1}, 2, 'c1')",
      "ControlMessageReceive:i246:('ControlMessageReceive', OFFingerprint{'hard_timeout': 30, 'out_port': 65535, 'priority': 32768, 'idle_timeout': 10, 'command': 'add', 'actions': ('output(2)',), 'flags': 0, 'class': 'ofp_flow_mod', 'match': 'dl_src:12:34:56:78:02:02,dl_dst:12:34:56:78:02:02,dl_vlan:65535,dl_vlan_pcp:0,dl_type:2048,nw_tos:0,nw_proto:1,nw_src:10.2.2.2/32,nw_dst:10.2.2.2/32,tp_src:8,tp_dst:0,in_port:None'}, 2, 'c1')",
      "ControlMessageReceive:i247:('ControlMessageReceive', OFFingerprint{'actions': ('output(1)',), 'data': DPFingerprint{'class': 'lldp'}, 'class': 'ofp_packet_out', 'in_port': 65535}, 2, 'c1')",
      "ControlMessageSend:i248:('ControlMessageSend', OFFingerprint{'data': DPFingerprint{'class': 'lldp'}, 'class': 'ofp_packet_in', 'in_port': 1}, 1, 'c1')",
      "ControlMessageReceive:i249:('ControlMessageReceive', OFFingerprint{'actions': (), 'data': (), 'class': 'ofp_packet_out', 'in_port': 1}, 1, 'c1')"
    ],
    "3": [
      "ControlMessageReceive:i260:('ControlMessageReceive', OFFingerprint{'class': 'ofp_hello'}, 1, 'c1')",
      "ControlMessageSend:i261:('ControlMessageSend', OFFingerprint{'class': 'ofp_hello'}, 2, 'c1')",
      "ControlMessageReceive:i262:('ControlMessageReceive', OFFingerprint{'class': 'ofp_features_request'}, 2, 'c1')",
      "ControlMessageSend:i263:('ControlMessageSend', OFFingerprint{'class': 'ofp_hello'}, 1, 'c1')",
      "ControlMessageReceive:i264:('ControlMessageReceive', OFFingerprint{'class': 'ofp_features_request'}, 1, 'c1')",
      "ControlMessageSend:i265:('ControlMessageSend', OFFingerprint{'datapath_id': 2, 'class': 'ofp_features_reply'}, 2, 'c1')",
      "ControlMessageReceive:i266:('ControlMessageReceive', OFFingerprint{'hard_timeout': 0, 'out_port': 65535, 'priority': 32768, 'idle_timeout': 0, 'command': 'delete', 'actions': (), 'flags': 0, 'class': 'ofp_flow_mod', 'match': 'x^L,in_port:None'}, 2, 'c1')",
      "ControlMessageReceive:i267:('ControlMessageReceive', OFFingerprint{'class': 'ofp_set_config'}, 2, 'c1')",
      "ControlMessageReceive:i268:('ControlMessageReceive', OFFingerprint{'class': 'ofp_barrier_request'}, 2, 'c1')",
      "ControlMessageSend:i269:('ControlMessageSend', OFFingerprint{'datapath_id': 1, 'class': 'ofp_features_reply'}, 1, 'c1')",
      "ControlMessageReceive:i270:('ControlMessageReceive', OFFingerprint{'class': 'ofp_barrier_request'}, 1, 'c1')",
      "ControlMessageReceive:i271:('ControlMessageReceive', OFFingerprint{'class': 'ofp_set_config'}, 1, 'c1')",
      "ControlMessageReceive:i272:('ControlMessageReceive', OFFingerprint{'hard_timeout': 0, 'out_port': 65535, 'priority': 32768, 'idle_timeout': 0, 'command': 'delete', 'actions': (), 'flags': 0, 'class': 'ofp_flow_mod', 'match': 'x^L,in_port:None'}, 1, 'c1')",
      "ControlMessageSend:i273:('ControlMessageSend', OFFingerprint{'class': 'ofp_barrier_reply'}, 2, 'c1')",
      "ControlMessageReceive:i274:('ControlMessageReceive', OFFingerprint{'hard_timeout': 0, 'out_port': 65535, 'priority': 32768, 'idle_timeout': 0, 'command': 'add', 'actions': ('output(65533)',), 'flags': 0, 'class': 'ofp_flow_mod', 'match': 'dl_dst:01:23:20:00:00:01,dl_type:35020,in_port:None'}, 2, 'c1')",
      "ControlMessageSend:i275:('ControlMessageSend', OFFingerprint{'class': 'ofp_barrier_reply'}, 1, 'c1')",
      "ControlMessageReceive:i276:('ControlMessageReceive', OFFingerprint{'hard_timeout': 0, 'out_port': 65535, 'priority': 32768, 'idle_timeout': 0, 'command': 'add', 'actions': ('output(65533)',), 'flags': 0, 'class': 'ofp_flow_mod', 'match': 'dl_dst:01:23:20:00:00:01,dl_type:35020,in_port:None'}, 1, 'c1')",
      "ControlMessageReceive:i277:('ControlMessageReceive', OFFingerprint{'actions': ('output(1)',), 'data': DPFingerprint{'class': 'lldp'}, 'class': 'ofp_packet_out', 'in_port': 65535}, 2, 'c1')",
      "ControlMessageSend:i278:('ControlMessageSend', OFFingerprint{'data': DPFingerprint{'class': 'lldp'}, 'class': 'ofp_packet_in', 'in_port': 1}, 1, 'c1')",
      "ControlMessageReceive:i279:('ControlMessageReceive', OFFingerprint{'actions': (), 'data': (), 'class': 'ofp_packet_out', 'in_port': 1}, 1, 'c1')",
      "ControlMessageReceive:i280:('ControlMessageReceive', OFFingerprint{'actions': ('output(2)',), 'data': DPFingerprint{'class': 'lldp'}, 'class': 'ofp_packet_out', 'in_port': 65535}, 2, 'c1')",
      "ControlMessageReceive:i281:('ControlMessageReceive', OFFingerprint{'hard_timeout': 0, 'out_port': 65535, 'priority': 32768, 'idle_timeout': 0, 'command': 'delete', 'actions': (), 'flags': 0, 'class': 'ofp_flow_mod', 'match': 'x^L,in_port:None'}, 2, 'c1')",
      "ControlMessageReceive:i282:('ControlMessageReceive', OFFingerprint{'actions': ('output(1)',), 'data': DPFingerprint{'class': 'lldp'}, 'class': 'ofp_packet_out', 'in_port': 65535}, 1, 'c1')",
      "ControlMessageSend:i283:('ControlMessageSend', OFFingerprint{'data': DPFingerprint{'class': 'lldp'}, 'class': 'ofp_packet_in', 'in_port': 1}, 2, 'c1')",
      "ControlMessageReceive:i284:('ControlMessageReceive', OFFingerprint{'hard_timeout': 0, 'out_port': 65535, 'priority': 32768, 'idle_timeout': 0, 'command': 'delete', 'actions': (), 'flags': 0, 'class': 'ofp_flow_mod', 'match': 'x^L,in_port:None'}, 1, 'c1')",
      "ControlMessageReceive:i285:('ControlMessageReceive', OFFingerprint{'actions': ('output(2)',), 'data': DPFingerprint{'class': 'lldp'}, 'class': 'ofp_packet_out', 'in_port': 65535}, 1, 'c1')",
      "ControlMessageReceive:i286:('ControlMessageReceive', OFFingerprint{'actions': (), 'data': (), 'class': 'ofp_packet_out', 'in_port': 1}, 2, 'c1')",
      "ControlMessageReceive:i287:('ControlMessageReceive', OFFingerprint{'hard_timeout': 0, 'out_port': 65535, 'priority': 32768, 'idle_timeout': 0, 'command': 'delete', 'actions': (), 'flags': 0, 'class': 'ofp_flow_mod', 'match': 'x^L,in_port:None'}, 2, 'c1')",
      "ControlMessageReceive:i288:('ControlMessageReceive', OFFingerprint{'actions': ('output(1)',), 'data': DPFingerprint{'class': 'lldp'}, 'class': 'ofp_packet_out', 'in_port': 65535}, 2, 'c1')",
      "ControlMessageSend:i289:('ControlMessageSend', OFFingerprint{'data': DPFingerprint{'class': 'lldp'}, 'class': 'ofp_packet_in', 'in_port': 1}, 1, 'c1')",
      "ControlMessageReceive:i290:('ControlMessageReceive', OFFingerprint{'actions': (), 'data': (), 'class': 'ofp_packet_out', 'in_port': 1}, 1, 'c1')",
      "ControlMessageReceive:i291:('ControlMessageReceive', OFFingerprint{'actions': ('output(2)',), 'data': DPFingerprint{'class': 'lldp'}, 'class': 'ofp_packet_out', 'in_port': 65535}, 2, 'c1')",
      "ControlMessageReceive:i292:('ControlMessageReceive', OFFingerprint{'actions': ('output(1)',), 'data': DPFingerprint{'class': 'lldp'}, 'class': 'ofp_packet_out', 'in_port': 65535}, 1, 'c1')",
      "ControlMessageSend:i293:('ControlMessageSend', OFFingerprint{'data': DPFingerprint{'class': 'lldp'}, 'class': 'ofp_packet_in', 'in_port': 1}, 2, 'c1')",
      "ControlMessageReceive:i294:('ControlMessageReceive', OFFingerprint{'actions': ('output(2)',), 'data': DPFingerprint{'class': 'lldp'}, 'class': 'ofp_packet_out', 'in_port': 65535}, 1, 'c1')",
      "ControlMessageReceive:i295:('ControlMessageReceive', OFFingerprint{'actions': (), 'data': (), 'class': 'ofp_packet_out', 'in_port': 1}, 2, 'c1')",
      "ControlMessageSend:i296:('ControlMessageSend', OFFingerprint{'data': DPFingerprint{'dl_dst': '12:34:56:78:01:02', 'nw_src': '10.2.2.2', 'dl_src': '12:34:56:78:02:02', 'nw_dst': '10.1.2.2'}, 'class': 'ofp_packet_in', 'in_port': 2}, 2, 'c1')",
      "ControlMessageReceive:i297:('ControlMessageReceive', OFFingerprint{'actions': ('output(65531)',), 'data': (), 'class': 'ofp_packet_out', 'in_port': 2}, 2, 'c1')",
      "ControlMessageSend:i298:('ControlMessageSend', OFFingerprint{'data': DPFingerprint{'dl_dst': '12:34:56:78:01:02', 'nw_src': '10.2.2.2', 'dl_src': '12:34:56:78:02:02', 'nw_dst': '10.1.2.2'}, 'class': 'ofp_packet_in', 'in_port': 1}, 1, 'c1')",
      "ControlMessageReceive:i299:('ControlMessageReceive', OFFingerprint{'actions': ('output(65531)',), 'data': (), 'class': 'ofp_packet_out', 'in_port': 1}, 1, 'c1')",
      "ControlMessageReceive:i300:('ControlMessageReceive', OFFingerprint{'actions': ('output(1)',), 'data': DPFingerprint{'class': 'lldp'}, 'class': 'ofp_packet_out', 'in_port': 65535}, 2, 'c1')",
      "ControlMessageSend:i301:('ControlMessageSend', OFFingerprint{'data': DPFingerprint{'dl_dst': '12:34:56:78:02:02', 'nw_src': '10.1.2.2', 'dl_src': '12:34:56:78:01:02', 'nw_dst': '10.2.2.2'}, 'class': 'ofp_packet_in', 'in_port': 2}, 1, 'c1')",
      "ControlMessageSend:i302:('ControlMessageSend', OFFingerprint{'data': DPFingerprint{'class': 'lldp'}, 'class': 'ofp_packet_in', 'in_port': 1}, 1, 'c1')",
      "ControlMessageReceive:i303:('ControlMessageReceive', OFFingerprint{'hard_timeout': 30, 'out_port': 65535, 'priority': 32768, 'idle_timeout': 10, 'command': 'add', 'actions': ('output(2)',), 'flags': 0, 'class': 'ofp_flow_mod', 'match': 'dl_src:12:34:56:78:01:02,dl_dst:12:34:56:78:02:02,dl_vlan:65535,dl_vlan_pcp:0,dl_type:2048,nw_tos:0,nw_proto:6,nw_src:10.1.2.2/32,nw_dst:10.2.2.2/32,in_port:None'}, 2, 'c1')",
      "ControlMessageReceive:i304:('ControlMessageReceive', OFFingerprint{'hard_timeout': 30, 'out_port': 65535, 'priority': 32768, 'idle_timeout': 10, 'command': 'add', 'actions': ('output(1)',), 'flags': 0, 'class': 'ofp_flow_mod', 'match': 'dl_src:12:34:56:78:01:02,dl_dst:12:34:56:78:02:02,dl_vlan:65535,dl_vlan_pcp:0,dl_type:2048,nw_tos:0,nw_proto:6,nw_src:10.1.2.2/32,nw_dst:10.2.2.2/32,in_port:None'}, 1, 'c1')",
      "ControlMessageReceive:i305:('ControlMessageReceive', OFFingerprint{'actions': (), 'data': (), 'class': 'ofp_packet_out', 'in_port': 1}, 1, 'c1')",
      "ControlMessageReceive:i306:('ControlMessageReceive', OFFingerprint{'hard_timeout': 0, 'out_port': 65535, 'priority': 123, 'idle_timeout': 0, 'command': 'add', 'actions': (), 'flags': 0, 'class': 'ofp_flow_mod', 'match': 'x^L,in_port:None'}, 1, 'c1')"
    ],
    "4": [
      "ControlMessageReceive:i304:('ControlMessageReceive', OFFingerprint{'class': 'ofp_hello'}, 1, 'c1')",
      "ControlMessageSend:i305:('ControlMessageSend', OFFingerprint{'class': 'ofp_hello'}, 2, 'c1')",
      "ControlMessageReceive:i306:('ControlMessageReceive', OFFingerprint{'class': 'ofp_features_request'}, 2, 'c1')",
      "ControlMessageSend:i307:('ControlMessageSend', OFFingerprint{'class': 'ofp_hello'}, 1, 'c1')",
      "ControlMessageReceive:i308:('ControlMessageReceive', OFFingerprint{'class': 'ofp_features_request'}, 1, 'c1')",
      "ControlMessageSend:i309:('ControlMessageSend', OFFingerprint{'datapath_id': 2, 'class': 'ofp_features_reply'}, 2, 'c1')",
      "ControlMessageReceive:i310:('ControlMessageReceive', OFFingerprint{'hard_timeout': 0, 'out_port': 65535, 'priority': 32768, 'idle_timeout': 0, 'command': 'delete', 'actions': (), 'flags': 0, 'class': 'ofp_flow_mod', 'match': 'x^L,in_port:None'}, 2, 'c1')",
      "ControlMessageReceive:i311:('ControlMessageReceive', OFFingerprint{'class': 'ofp_set_config'}, 2, 'c1')",
      "ControlMessageReceive:i312:('ControlMessageReceive', OFFingerprint{'class': 'ofp_barrier_request'}, 2, 'c1')",
      "ControlMessageSend:i313:('ControlMessageSend', OFFingerprint{'datapath_id': 1, 'class': 'ofp_features_reply'}, 1, 'c1')",
      "ControlMessageReceive:i314:('ControlMessageReceive', OFFingerprint{'class': 'ofp_barrier_request'}, 1, 'c1')",
      "ControlMessageReceive:i315:('ControlMessageReceive', OFFingerprint{'class': 'ofp_set_config'}, 1, 'c1')",
      "ControlMessageReceive:i316:('ControlMessageReceive', OFFingerprint{'hard_timeout': 0, 'out_port': 65535, 'priority': 32768, 'idle_timeout': 0, 'command': 'delete', 'actions': (), 'flags': 0, 'class': 'ofp_flow_mod', 'match': 'x^L,in_port:None'}, 1, 'c1')",
      "ControlMessageSend:i317:('ControlMessageSend', OFFingerprint{'class': 'ofp_barrier_reply'}, 2, 'c1')",
      "ControlMessageReceive:i318:('ControlMessageReceive', OFFingerprint{'hard_timeout': 0, 'out_port': 65535, 'priority': 32768, 'idle_timeout': 0, 'command': 'add', 'actions': ('output(65533)',), 'flags': 0, 'class': 'ofp_flow_mod', 'match': 'dl_dst:01:23:20:00:00:01,dl_type:35020,in_port:None'}, 2, 'c1')",
      "ControlMessageSend:i319:('ControlMessageSend', OFFingerprint{'class': 'ofp_barrier_reply'}, 1, 'c1')",
      "ControlMessageReceive:i320:('ControlMessageReceive', OFFingerprint{'hard_timeout': 0, 'out_port': 65535, 'priority': 32768, 'idle_timeout': 0, 'command': 'add', 'actions': ('output(65533)',), 'flags': 0, 'class': 'ofp_flow_mod', 'match': 'dl_dst:01:23:20:00:00:01,dl_type:35020,in_port:None'}, 1, 'c1')",
      "ControlMessageReceive:i321:('ControlMessageReceive', OFFingerprint{'actions': ('output(1)',), 'data': DPFingerprint{'class': 'lldp'}, 'class': 'ofp_packet_out', 'in_port': 65535}, 2, 'c1')",
      "ControlMessageSend:i322:('ControlMessageSend', OFFingerprint{'data': DPFingerprint{'class': 'lldp'}, 'class': 'ofp_packet_in', 'in_port': 1}, 1, 'c1')",
      "ControlMessageReceive:i323:('ControlMessageReceive', OFFingerprint{'actions': (), 'data': (), 'class': 'ofp_packet_out', 'in_port': 1}, 1, 'c1')",
      "ControlMessageReceive:i324:('ControlMessageReceive', OFFingerprint{'actions': ('output(2)',), 'data': DPFingerprint{'class': 'lldp'}, 'class': 'ofp_packet_out', 'in_port': 65535}, 2, 'c1')",
      "ControlMessageReceive:i325:('ControlMessageReceive', OFFingerprint{'hard_timeout': 0, 'out_port': 65535, 'priority': 32768, 'idle_timeout': 0, 'command': 'delete', 'actions': (), 'flags': 0, 'class': 'ofp_flow_mod', 'match': 'x^L,in_port:None'}, 2, 'c1')",
      "ControlMessageReceive:i326:('ControlMessageReceive', OFFingerprint{'actions': ('output(1)',), 'data': DPFingerprint{'class': 'lldp'}, 'class': 'ofp_packet_out', 'in_port': 65535}, 1, 'c1')",
      "ControlMessageSend:i327:('ControlMessageSend', OFFingerprint{'data': DPFingerprint{'class': 'lldp'}, 'class': 'ofp_packet_in', 'in_port': 1}, 2, 'c1')",
      "ControlMessageReceive:i328:('ControlMessageReceive', OFFingerprint{'hard_timeout': 0, 'out_port': 65535, 'priority': 32768, 'idle_timeout': 0, 'command': 'delete', 'actions': (), 'flags': 0, 'class': 'ofp_flow_mod', 'match': 'x^L,in_port:None'}, 1, 'c1')",
      "ControlMessageReceive:i329:('ControlMessageReceive', OFFingerprint{'actions': ('output(2)',), 'data': DPFingerprint{'class': 'lldp'}, 'class': 'ofp_packet_out', 'in_port': 65535}, 1, 'c1')",
      "ControlMessageReceive:i330:('ControlMessageReceive', OFFingerprint{'actions': (), 'data': (), 'class': 'ofp_packet_out', 'in_port': 1}, 2, 'c1')",
      "ControlMessageReceive:i331:('ControlMessageReceive', OFFingerprint{'hard_timeout': 0, 'out_port': 65535, 'priority': 32768, 'idle_timeout': 0, 'command': 'delete', 'actions': (), 'flags': 0, 'class': 'ofp_flow_mod', 'match': 'x^L,in_port:None'}, 2, 'c1')",
      "ControlMessageReceive:i332:('ControlMessageReceive', OFFingerprint{'actions': ('output(1)',), 'data': DPFingerprint{'class': 'lldp'}, 'class': 'ofp_packet_out', 'in_port': 65535}, 2, 'c1')",
      "ControlMessageSend:i333:('ControlMessageSend', OFFingerprint{'data': DPFingerprint{'class': 'lldp'}, 'class': 'ofp_packet_in', 'in_port': 1}, 1, 'c1')",
      "ControlMessageReceive:i334:('ControlMessageReceive', OFFingerprint{'actions': (), 'data': (), 'class': 'ofp_packet_out', 'in_port': 1}, 1, 'c1')",
      "ControlMessageReceive:i335:('ControlMessageReceive', OFFingerprint{'actions': ('output(2)',), 'data': DPFingerprint{'class': 'lldp'}, 'class': 'ofp_packet_out', 'in_port': 65535}, 2, 'c1')",
      "ControlMessageReceive:i336:('ControlMessageReceive', OFFingerprint{'actions': ('output(1)',), 'data': DPFingerprint{'class': 'lldp'}, 'class': 'ofp_packet_out', 'in_port': 65535}, 1, 'c1')",
      "ControlMessageSend:i337:('ControlMessageSend', OFFingerprint{'data': DPFingerprint{'class': 'lldp'}, 'class': 'ofp_packet_in', 'in_port': 1}, 2, 'c1')",
      "ControlMessageReceive:i338:('ControlMessageReceive', OFFingerprint{'actions': ('output(2)',), 'data': DPFingerprint{'class': 'lldp'}, 'class': 'ofp_packet_out', 'in_port': 65535}, 1, 'c1')",
      "ControlMessageReceive:i339:('ControlMessageReceive', OFFingerprint{'actions': (), 'data': (), 'class': 'ofp_packet_out', 'in_port': 1}, 2, 'c1')",
      "ControlMessageSend:i340:('ControlMessageSend', OFFingerprint{'data': DPFingerprint{'dl_dst': '12:34:56:78:01:02', 'nw_src': '10.2.2.2', 'dl_src': '12:34:56:78:02:02', 'nw_dst': '10.1.2.2'}, 'class': 'ofp_packet_in', 'in_port': 2}, 2, 'c1')"
    ],
    "5": [
      "ControlMessageReceive:i345:('ControlMessageReceive', OFFingerprint{'class': 'ofp_hello'}, 1, 'c1')",
      "ControlMessageSend:i346:('ControlMessageSend', OFFingerprint{'class': 'ofp_hello'}, 2, 'c1')",
      "ControlMessageReceive:i347:('ControlMessageReceive', OFFingerprint{'class': 'ofp_features_request'}, 2, 'c1')",
      "ControlMessageSend:i348:('ControlMessageSend', OFFingerprint{'class': 'ofp_hello'}, 1, 'c1')",
      "ControlMessageReceive:i349:('ControlMessageReceive', OFFingerprint{'class': 'ofp_features_request'}, 1, 'c1')",
      "ControlMessageSend:i350:('ControlMessageSend', OFFingerprint{'datapath_id': 2, 'class': 'ofp_features_reply'}, 2, 'c1')",
      "ControlMessageReceive:i351:('ControlMessageReceive', OFFingerprint{'hard_timeout': 0, 'out_port': 65535, 'priority': 32768, 'idle_timeout': 0, 'command': 'delete', 'actions': (), 'flags': 0, 'class': 'ofp_flow_mod', 'match': 'x^L,in_port:None'}, 2, 'c1')",
      "ControlMessageReceive:i352:('ControlMessageReceive', OFFingerprint{'class': 'ofp_set_config'}, 2, 'c1')",
      "ControlMessageReceive:i353:('ControlMessageReceive', OFFingerprint{'class': 'ofp_barrier_request'}, 2, 'c1')",
      "ControlMessageSend:i354:('ControlMessageSend', OFFingerprint{'datapath_id': 1, 'class': 'ofp_features_reply'}, 1, 'c1')",
      "ControlMessageReceive:i355:('ControlMessageReceive', OFFingerprint{'class': 'ofp_barrier_request'}, 1, 'c1')",
      "ControlMessageReceive:i356:('ControlMessageReceive', OFFingerprint{'class': 'ofp_set_config'}, 1, 'c1')",
      "ControlMessageReceive:i357:('ControlMessageReceive', OFFingerprint{'hard_timeout': 0, 'out_port': 65535, 'priority': 32768, 'idle_timeout': 0, 'command': 'delete', 'actions': (), 'flags': 0, 'class': 'ofp_flow_mod', 'match': 'x^L,in_port:None'}, 1, 'c1')",
      "ControlMessageSend:i358:('ControlMessageSend', OFFingerprint{'class': 'ofp_barrier_reply'}, 2, 'c1')",
      "ControlMessageReceive:i359:('ControlMessageReceive', OFFingerprint{'hard_timeout': 0, 'out_port': 65535, 'priority': 32768, 'idle_timeout': 0, 'command': 'add', 'actions': ('output(65533)',), 'flags': 0, 'class': 'ofp_flow_mod', 'match': 'dl_dst:01:23:20:00:00:01,dl_type:35020,in_port:None'}, 2, 'c1')",
      "ControlMessageSend:i360:('ControlMessageSend', OFFingerprint{'class': 'ofp_barrier_reply'}, 1, 'c1')",
      "ControlMessageReceive:i361:('ControlMessageReceive', OFFingerprint{'hard_timeout': 0, 'out_port': 65535, 'priority': 32768, 'idle_timeout': 0, 'command': 'add', 'actions': ('output(65533)',), 'flags': 0, 'class': 'ofp_flow_mod', 'match': 'dl_dst:01:23:20:00:00:01,dl_type:35020,in_port:None'}, 1, 'c1')",
      "ControlMessageReceive:i362:('ControlMessageReceive', OFFingerprint{'actions': ('output(1)',), 'data': DPFingerprint{'class': 'lldp'}, 'class': 'ofp_packet_out', 'in_port': 65535}, 2, 'c1')",
      "ControlMessageSend:i363:('ControlMessageSend', OFFingerprint{'data': DPFingerprint{'class': 'lldp'}, 'class': 'ofp_packet_in', 'in_port': 1}, 1, 'c1')",
      "ControlMessageReceive:i364:('ControlMessageReceive', OFFingerprint{'actions': (), 'data': (), 'class': 'ofp_packet_out', 'in_port': 1}, 1, 'c1')",
      "ControlMessageReceive:i365:('ControlMessageReceive', OFFingerprint{'actions': ('output(2)',), 'data': DPFingerprint{'class': 'lldp'}, 'class': 'ofp_packet_out', 'in_port': 65535}, 2, 'c1')",
      "ControlMessageReceive:i366:('ControlMessageReceive', OFFingerprint{'hard_timeout': 0, 'out_port': 65535, 'priority': 32768, 'idle_timeout': 0, 'command': 'delete', 'actions': (), 'flags': 0, 'class': 'ofp_flow_mod', 'match': 'x^L,in_port:None'}, 2, 'c1')",
      "ControlMessageReceive:i367:('ControlMessageReceive', OFFingerprint{'actions': ('output(1)',), 'data': DPFingerprint{'class': 'lldp'}, 'class': 'ofp_packet_out', 'in_port': 65535}, 1, 'c1')",
      "ControlMessageSend:i368:('ControlMessageSend', OFFingerprint{'data': DPFingerprint{'class': 'lldp'}, 'class': 'ofp_packet_in', 'in_port': 1}, 2, 'c1')",
      "ControlMessageReceive:i369:('ControlMessageReceive', OFFingerprint{'hard_timeout': 0, 'out_port': 65535, 'priority': 32768, 'idle_timeout': 0, 'command': 'delete', 'actions': (), 'flags': 0, 'class': 'ofp_flow_mod', 'match': 'x^L,in_port:None'}, 1, 'c1')",
      "ControlMessageReceive:i370:('ControlMessageReceive', OFFingerprint{'actions': ('output(2)',), 'data': DPFingerprint{'class': 'lldp'}, 'class': 'ofp_packet_out', 'in_port': 65535}, 1, 'c1')",
      "ControlMessageReceive:i371:('ControlMessageReceive', OFFingerprint{'actions': (), 'data': (), 'class': 'ofp_packet_out', 'in_port': 1}, 2, 'c1')",
      "ControlMessageReceive:i372:('ControlMessageReceive', OFFingerprint{'hard_timeout': 0, 'out_port': 65535, 'priority': 32768, 'idle_timeout': 0, 'command': 'delete', 'actions': (), 'flags': 0, 'class': 'ofp_flow_mod', 'match': 'x^L,in_port:None'}, 2, 'c1')",
      "ControlMessageReceive:i373:('ControlMessageReceive', OFFingerprint{'actions': ('output(1)',), 'data': DPFingerprint{'class': 'lldp'}, 'class': 'ofp_packet_out', 'in_port': 65535}, 2, 'c1')",
      "ControlMessageSend:i374:('ControlMessageSend', OFFingerprint{'data': DPFingerprint{'class': 'lldp'}, 'class': 'ofp_packet_in', 'in_port': 1}, 1, 'c1')",
      "ControlMessageReceive:i375:('ControlMessageReceive', OFFingerprint{'actions': (), 'data': (), 'class': 'ofp_packet_out', 'in_port': 1}, 1, 'c1')",
      "ControlMessageReceive:i376:('ControlMessageReceive', OFFingerprint{'actions': ('output(2)',), 'data': DPFingerprint{'class': 'lldp'}, 'class': 'ofp_packet_out', 'in_port': 65535}, 2, 'c1')",
      "ControlMessageReceive:i377:('ControlMessageReceive', OFFingerprint{'actions': ('output(1)',), 'data': DPFingerprint{'class': 'lldp'}, 'class': 'ofp_packet_out', 'in_port': 65535}, 1, 'c1')",
      "ControlMessageSend:i378:('ControlMessageSend', OFFingerprint{'data': DPFingerprint{'class': 'lldp'}, 'class': 'ofp_packet_in', 'in_port': 1}, 2, 'c1')",
      "ControlMessageReceive:i379:('ControlMessageReceive', OFFingerprint{'actions': (), 'data': (), 'class': 'ofp_packet_out', 'in_port': 1}, 2, 'c1')",
      "ControlMessageReceive:i380:('ControlMessageReceive', OFFingerprint{'actions': ('output(2)',), 'data': DPFingerprint{'class': 'lldp'}, 'class': 'ofp_packet_out', 'in_port': 65535}, 1, 'c1')"
    ],
    "6": [
      "ControlMessageReceive:i395:('ControlMessageReceive', OFFingerprint{'class': 'ofp_hello'}, 1, 'c1')",
      "ControlMessageSend:i396:('ControlMessageSend', OFFingerprint{'class': 'ofp_hello'}, 2, 'c1')",
      "ControlMessageReceive:i397:('ControlMessageReceive', OFFingerprint{'class': 'ofp_features_request'}, 2, 'c1')",
      "ControlMessageSend:i398:('ControlMessageSend', OFFingerprint{'class': 'ofp_hello'}, 1, 'c1')",
      "ControlMessageReceive:i399:('ControlMessageReceive', OFFingerprint{'class': 'ofp_features_request'}, 1, 'c1')",
      "ControlMessageSend:i400:('ControlMessageSend', OFFingerprint{'datapath_id': 2, 'class': 'ofp_features_reply'}, 2, 'c1')",
      "ControlMessageReceive:i401:('ControlMessageReceive', OFFingerprint{'hard_timeout': 0, 'out_port': 65535, 'priority': 32768, 'idle_timeout': 0, 'command': 'delete', 'actions': (), 'flags': 0, 'class': 'ofp_flow_mod', 'match': 'x^L,in_port:None'}, 2, 'c1')",
      "ControlMessageReceive:i402:('ControlMessageReceive', OFFingerprint{'class': 'ofp_set_config'}, 2, 'c1')",
      "ControlMessageReceive:i403:('ControlMessageReceive', OFFingerprint{'class': 'ofp_barrier_request'}, 2, 'c1')",
      "ControlMessageSend:i404:('ControlMessageSend', OFFingerprint{'datapath_id': 1, 'class': 'ofp_features_reply'}, 1, 'c1')",
      "ControlMessageReceive:i405:('ControlMessageReceive', OFFingerprint{'class': 'ofp_barrier_request'}, 1, 'c1')",
      "ControlMessageReceive:i406:('ControlMessageReceive', OFFingerprint{'class': 'ofp_set_config'}, 1, 'c1')",
      "ControlMessageReceive:i407:('ControlMessageReceive', OFFingerprint{'hard_timeout': 0, 'out_port': 65535, 'priority': 32768, 'idle_timeout': 0, 'command': 'delete', 'actions': (), 'flags': 0, 'class': 'ofp_flow_mod', 'match': 'x^L,in_port:None'}, 1, 'c1')",
      "ControlMessageSend:i408:('ControlMessageSend', OFFingerprint{'class': 'ofp_barrier_reply'}, 2, 'c1')",
      "ControlMessageReceive:i409:('ControlMessageReceive', OFFingerprint{'hard_timeout': 0, 'out_port': 65535, 'priority': 32768, 'idle_timeout': 0, 'command': 'add', 'actions': ('output(65533)',), 'flags': 0, 'class': 'ofp_flow_mod', 'match': 'dl_dst:01:23:20:00:00:01,dl_type:35020,in_port:None'}, 2, 'c1')",
      "ControlMessageSend:i410:('ControlMessageSend', OFFingerprint{'class': 'ofp_barrier_reply'}, 1, 'c1')",
      "ControlMessageReceive:i411:('ControlMessageReceive', OFFingerprint{'hard_timeout': 0, 'out_port': 65535, 'priority': 32768, 'idle_timeout': 0, 'command': 'add', 'actions': ('output(65533)',), 'flags': 0, 'class': 'ofp_flow_mod', 'match': 'dl_dst:01:23:20:00:00:01,dl_type:35020,in_port:None'}, 1, 'c1')",
      "ControlMessageReceive:i412:('ControlMessageReceive', OFFingerprint{'actions': ('output(1)',), 'data': DPFingerprint{'class': 'lldp'}, 'class': 'ofp_packet_out', 'in_port': 65535}, 2, 'c1')",
      "ControlMessageSend:i413:('ControlMessageSend', OFFingerprint{'data': DPFingerprint{'class': 'lldp'}, 'class': 'ofp_packet_in', 'in_port': 1}, 1, 'c1')",
      "ControlMessageReceive:i414:('ControlMessageReceive', OFFingerprint{'actions': (), 'data': (), 'class': 'ofp_packet_out', 'in_port': 1}, 1, 'c1')",
      "ControlMessageReceive:i415:('ControlMessageReceive', OFFingerprint{'actions': ('output(2)',), 'data': DPFingerprint{'class': 'lldp'}, 'class': 'ofp_packet_out', 'in_port': 65535}, 2, 'c1')",
      "ControlMessageReceive:i416:('ControlMessageReceive', OFFingerprint{'hard_timeout': 0, 'out_port': 65535, 'priority': 32768, 'idle_timeout': 0, 'command': 'delete', 'actions': (), 'flags': 0, 'class': 'ofp_flow_mod', 'match': 'x^L,in_port:None'}, 2, 'c1')",
      "ControlMessageReceive:i417:('ControlMessageReceive', OFFingerprint{'actions': ('output(1)',), 'data': DPFingerprint{'class': 'lldp'}, 'class': 'ofp_packet_out', 'in_port': 65535}, 1, 'c1')",
      "ControlMessageSend:i418:('ControlMessageSend', OFFingerprint{'data': DPFingerprint{'class': 'lldp'}, 'class': 'ofp_packet_in', 'in_port': 1}, 2, 'c1')",
      "ControlMessageReceive:i419:('ControlMessageReceive', OFFingerprint{'hard_timeout': 0, 'out_port': 65535, 'priority': 32768, 'idle_timeout': 0, 'command': 'delete', 'actions': (), 'flags': 0, 'class': 'ofp_flow_mod', 'match': 'x^L,in_port:None'}, 1, 'c1')",
      "ControlMessageReceive:i420:('ControlMessageReceive', OFFingerprint{'actions': ('output(2)',), 'data': DPFingerprint{'class': 'lldp'}, 'class': 'ofp_packet_out', 'in_port': 65535}, 1, 'c1')",
      "ControlMessageReceive:i421:('ControlMessageReceive', OFFingerprint{'actions': (), 'data': (), 'class': 'ofp_packet_out', 'in_port': 1}, 2, 'c1')",
      "ControlMessageReceive:i422:('ControlMessageReceive', OFFingerprint{'hard_timeout': 0, 'out_port': 65535, 'priority': 32768, 'idle_timeout': 0, 'command': 'delete', 'actions': (), 'flags': 0, 'class': 'ofp_flow_mod', 'match': 'x^L,in_port:None'}, 2, 'c1')",
      "ControlMessageReceive:i423:('ControlMessageReceive', OFFingerprint{'actions': ('output(1)',), 'data': DPFingerprint{'class': 'lldp'}, 'class': 'ofp_packet_out', 'in_port': 65535}, 2, 'c1')",
      "ControlMessageSend:i424:('ControlMessageSend', OFFingerprint{'data': DPFingerprint{'class': 'lldp'}, 'class': 'ofp_packet_in', 'in_port': 1}, 1, 'c1')",
      "ControlMessageReceive:i425:('ControlMessageReceive', OFFingerprint{'actions': (), 'data': (), 'class': 'ofp_packet_out', 'in_port': 1}, 1, 'c1')",
      "ControlMessageReceive:i426:('ControlMessageReceive', OFFingerprint{'actions': ('output(2)',), 'data': DPFingerprint{'class': 'lldp'}, 'class': 'ofp_packet_out', 'in_port': 65535}, 2, 'c1')",
      "ControlMessageReceive:i427:('ControlMessageReceive', OFFingerprint{'actions': ('output(1)',), 'data': DPFingerprint{'class': 'lldp'}, 'class': 'ofp_packet_out', 'in_port': 65535}, 1, 'c1')",
      "ControlMessageSend:i428:('ControlMessageSend', OFFingerprint{'data': DPFingerprint{'class': 'lldp'}, 'class': 'ofp_packet_in', 'in_port': 1}, 2, 'c1')",
      "ControlMessageReceive:i429:('ControlMessageReceive', OFFingerprint{'actions': ('output(2)',), 'data': DPFingerprint{'class': 'lldp'}, 'class': 'ofp_packet_out', 'in_port': 65535}, 1, 'c1')",
      "ControlMessageReceive:i430:('ControlMessageReceive', OFFingerprint{'actions': (), 'data': (), 'class': 'ofp_packet_out', 'in_port': 1}, 2, 'c1')",
      "ControlMessageReceive:i431:('ControlMessageReceive', OFFingerprint{'actions': ('output(1)',), 'data': DPFingerprint{'class': 'lldp'}, 'class': 'ofp_packet_out', 'in_port': 65535}, 2, 'c1')",
      "ControlMessageSend:i432:('ControlMessageSend', OFFingerprint{'data': DPFingerprint{'class': 'lldp'}, 'class': 'ofp_packet_in', 'in_port': 1}, 1, 'c1')",
      "ControlMessageReceive:i433:('ControlMessageReceive', OFFingerprint{'actions': (), 'data': (), 'class': 'ofp_packet_out', 'in_port': 1}, 1, 'c1')"
    ],
    "7": [
      "ControlMessageReceive:i444:('ControlMessageReceive', OFFingerprint{'class': 'ofp_hello'}, 1, 'c1')",
      "ControlMessageSend:i445:('ControlMessageSend', OFFingerprint{'class': 'ofp_hello'}, 2, 'c1')",
      "ControlMessageReceive:i446:('ControlMessageReceive', OFFingerprint{'class': 'ofp_features_request'}, 2, 'c1')",
      "ControlMessageSend:i447:('ControlMessageSend', OFFingerprint{'class': 'ofp_hello'}, 1, 'c1')",
      "ControlMessageReceive:i448:('ControlMessageReceive', OFFingerprint{'class': 'ofp_features_request'}, 1, 'c1')",
      "ControlMessageSend:i449:('ControlMessageSend', OFFingerprint{'datapath_id': 2, 'class': 'ofp_features_reply'}, 2, 'c1')",
      "ControlMessageReceive:i450:('ControlMessageReceive', OFFingerprint{'hard_timeout': 0, 'out_port': 65535, 'priority': 32768, 'idle_timeout': 0, 'command': 'delete', 'actions': (), 'flags': 0, 'class': 'ofp_flow_mod', 'match': 'x^L,in_port:None'}, 2, 'c1')",
      "ControlMessageReceive:i451:('ControlMessageReceive', OFFingerprint{'class': 'ofp_set_config'}, 2, 'c1')",
      "ControlMessageReceive:i452:('ControlMessageReceive', OFFingerprint{'class': 'ofp_barrier_request'}, 2, 'c1')",
      "ControlMessageSend:i453:('ControlMessageSend', OFFingerprint{'datapath_id': 1, 'class': 'ofp_features_reply'}, 1, 'c1')",
      "ControlMessageReceive:i454:('ControlMessageReceive', OFFingerprint{'class': 'ofp_barrier_request'}, 1, 'c1')",
      "ControlMessageReceive:i455:('ControlMessageReceive', OFFingerprint{'class': 'ofp_set_config'}, 1, 'c1')",
      "ControlMessageReceive:i456:('ControlMessageReceive', OFFingerprint{'hard_timeout': 0, 'out_port': 65535, 'priority': 32768, 'idle_timeout': 0, 'command': 'delete', 'actions': (), 'flags': 0, 'class': 'ofp_flow_mod', 'match': 'x^L,in_port:None'}, 1, 'c1')",
      "ControlMessageSend:i457:('ControlMessageSend', OFFingerprint{'class': 'ofp_barrier_reply'}, 2, 'c1')",
      "ControlMessageReceive:i458:('ControlMessageReceive', OFFingerprint{'hard_timeout': 0, 'out_port': 65535, 'priority': 32768, 'idle_timeout': 0, 'command': 'add', 'actions': ('output(65533)',), 'flags': 0, 'class': 'ofp_flow_mod', 'match': 'dl_dst:01:23:20:00:00:01,dl_type:35020,in_port:None'}, 2, 'c1')",
      "ControlMessageSend:i459:('ControlMessageSend', OFFingerprint{'class': 'ofp_barrier_reply'}, 1, 'c1')",
      "ControlMessageReceive:i460:('ControlMessageReceive', OFFingerprint{'hard_timeout': 0, 'out_port': 65535, 'priority': 32768, 'idle_timeout': 0, 'command': 'add', 'actions': ('output(65533)',), 'flags': 0, 'class': 'ofp_flow_mod', 'match': 'dl_dst:01:23:20:00:00:01,dl_type:35020,in_port:None'}, 1, 'c1')",
      "ControlMessageReceive:i461:('ControlMessageReceive', OFFingerprint{'actions': ('output(1)',), 'data': DPFingerprint{'class': 'lldp'}, 'class': 'ofp_packet_out', 'in_port': 65535}, 2, 'c1')",
      "ControlMessageSend:i462:('ControlMessageSend', OFFingerprint{'data': DPFingerprint{'class': 'lldp'}, 'class': 'ofp_packet_in', 'in_port': 1}, 1, 'c1')",
      "ControlMessageReceive:i463:('ControlMessageReceive', OFFingerprint{'actions': (), 'data': (), 'class': 'ofp_packet_out', 'in_port': 1}, 1, 'c1')",
      "ControlMessageReceive:i464:('ControlMessageReceive', OFFingerprint{'actions': ('output(2)',), 'data': DPFingerprint{'class': 'lldp'}, 'class': 'ofp_packet_out', 'in_port': 65535}, 2, 'c1')",
      "ControlMessageReceive:i465:('ControlMessageReceive', OFFingerprint{'hard_timeout': 0, 'out_port': 65535, 'priority': 32768, 'idle_timeout': 0, 'command': 'delete', 'actions': (), 'flags': 0, 'class': 'ofp_flow_mod', 'match': 'x^L,in_port:None'}, 2, 'c1')",
      "ControlMessageReceive:i466:('ControlMessageReceive', OFFingerprint{'actions': ('output(1)',), 'data': DPFingerprint{'class': 'lldp'}, 'class': 'ofp_packet_out', 'in_port': 65535}, 1, 'c1')",
      "ControlMessageSend:i467:('ControlMessageSend', OFFingerprint{'data': DPFingerprint{'class': 'lldp'}, 'class': 'ofp_packet_in', 'in_port': 1}, 2, 'c1')",
      "ControlMessageReceive:i468:('ControlMessageReceive', OFFingerprint{'hard_timeout': 0, 'out_port': 65535, 'priority': 32768, 'idle_timeout': 0, 'command': 'delete', 'actions': (), 'flags': 0, 'class': 'ofp_flow_mod', 'match': 'x^L,in_port:None'}, 1, 'c1')",
      "ControlMessageReceive:i469:('ControlMessageReceive', OFFingerprint{'actions': ('output(2)',), 'data': DPFingerprint{'class': 'lldp'}, 'class': 'ofp_packet_out', 'in_port': 65535}, 1, 'c1')",
      "ControlMessageReceive:i470:('ControlMessageReceive', OFFingerprint{'actions': (), 'data': (), 'class': 'ofp_packet_out', 'in_port': 1}, 2, 'c1')",
      "ControlMessageReceive:i471:('ControlMessageReceive', OFFingerprint{'hard_timeout': 0, 'out_port': 65535, 'priority': 32768, 'idle_timeout': 0, 'command': 'delete', 'actions': (), 'flags': 0, 'class': 'ofp_flow_mod', 'match': 'x^L,in_port:None'}, 2, 'c1')",
      "ControlMessageReceive:i472:('ControlMessageReceive', OFFingerprint{'actions': ('output(1)',), 'data': DPFingerprint{'class': 'lldp'}, 'class': 'ofp_packet_out', 'in_port': 65535}, 2, 'c1')",
      "ControlMessageSend:i473:('ControlMessageSend', OFFingerprint{'data': DPFingerprint{'class': 'lldp'}, 'class': 'ofp_packet_in', 'in_port': 1}, 1, 'c1')",
      "ControlMessageReceive:i474:('ControlMessageReceive', OFFingerprint{'actions': (), 'data': (), 'class': 'ofp_packet_out', 'in_port': 1}, 1, 'c1')",
      "ControlMessageReceive:i475:('ControlMessageReceive', OFFingerprint{'actions': ('output(2)',), 'data': DPFingerprint{'class': 'lldp'}, 'class': 'ofp_packet_out', 'in_port': 65535}, 2, 'c1')",
      "ControlMessageReceive:i476:('ControlMessageReceive', OFFingerprint{'actions': ('output(1)',), 'data': DPFingerprint{'class': 'lldp'}, 'class': 'ofp_packet_out', 'in_port': 65535}, 1, 'c1')",
      "ControlMessageSend:i477:('ControlMessageSend', OFFingerprint{'data': DPFingerprint{'class': 'lldp'}, 'class': 'ofp_packet_in', 'in_port': 1}, 2, 'c1')",
      "ControlMessageReceive:i478:('ControlMessageReceive', OFFingerprint{'actions': ('output(2)',), 'data': DPFingerprint{'class': 'lldp'}, 'class': 'ofp_packet_out', 'in_port': 65535}, 1, 'c1')",
      "ControlMessageReceive:i479:('ControlMessageReceive', OFFingerprint{'actions': (), 'data': (), 'class': 'ofp_packet_out', 'in_port': 1}, 2, 'c1')",
      "ControlMessageSend:i480:('ControlMessageSend', OFFingerprint{'data': DPFingerprint{'dl_dst': '12:34:56:78:01:02', 'nw_src': '10.2.2.2', 'dl_src': '12:34:56:78:02:02', 'nw_dst': '10.1.2.2'}, 'class': 'ofp_packet_in', 'in_port': 2}, 2, 'c1')",
      "ControlMessageReceive:i481:('ControlMessageReceive', OFFingerprint{'actions': ('output(65531)',), 'data': (), 'class': 'ofp_packet_out', 'in_port': 2}, 2, 'c1')",
      "ControlMessageSend:i482:('ControlMessageSend', OFFingerprint{'data': DPFingerprint{'dl_dst': '12:34:56:78:01:02', 'nw_src': '10.2.2.2', 'dl_src': '12:34:56:78:02:02', 'nw_dst': '10.1.2.2'}, 'class': 'ofp_packet_in', 'in_port': 1}, 1, 'c1')",
      "ControlMessageReceive:i483:('ControlMessageReceive', OFFingerprint{'actions': ('output(65531)',), 'data': (), 'class': 'ofp_packet_out', 'in_port': 1}, 1, 'c1')",
      "ControlMessageReceive:i484:('ControlMessageReceive', OFFingerprint{'actions': ('output(1)',), 'data': DPFingerprint{'class': 'lldp'}, 'class': 'ofp_packet_out', 'in_port': 65535}, 2, 'c1')",
      "ControlMessageSend:i485:('ControlMessageSend', OFFingerprint{'data': DPFingerprint{'dl_dst': '12:34:56:78:02:02', 'nw_src': '10.1.2.2', 'dl_src': '12:34:56:78:01:02', 'nw_dst': '10.2.2.2'}, 'class': 'ofp_packet_in', 'in_port': 2}, 1, 'c1')",
      "ControlMessageSend:i486:('ControlMessageSend', OFFingerprint{'data': DPFingerprint{'class': 'lldp'}, 'class': 'ofp_packet_in', 'in_port': 1}, 1, 'c1')",
      "ControlMessageReceive:i487:('ControlMessageReceive', OFFingerprint{'hard_timeout': 30, 'out_port': 65535, 'priority': 32768, 'idle_timeout': 10, 'command': 'add', 'actions': ('output(2)',), 'flags': 0, 'class': 'ofp_flow_mod', 'match': 'dl_src:12:34:56:78:01:02,dl_dst:12:34:56:78:02:02,dl_vlan:65535,dl_vlan_pcp:0,dl_type:2048,nw_tos:0,nw_proto:6,nw_src:10.1.2.2/32,nw_dst:10.2.2.2/32,in_port:None'}, 2, 'c1')",
      "ControlMessageReceive:i488:('ControlMessageReceive', OFFingerprint{'hard_timeout': 30, 'out_port': 65535, 'priority': 32768, 'idle_timeout': 10, 'command': 'add', 'actions': ('output(1)',), 'flags': 0, 'class': 'ofp_flow_mod', 'match': 'dl_src:12:34:56:78:01:02,dl_dst:12:34:56:78:02:02,dl_vlan:65535,dl_vlan_pcp:0,dl_type:2048,nw_tos:0,nw_proto:6,nw_src:10.1.2.2/32,nw_dst:10.2.2.2/32,in_port:None'}, 1, 'c1')",
      "ControlMessageReceive:i489:('ControlMessageReceive', OFFingerprint{'actions': (), 'data': (), 'class': 'ofp_packet_out', 'in_port': 1}, 1, 'c1')",
      "ControlMessageReceive:i490:('ControlMessageReceive', OFFingerprint{'hard_timeout': 0, 'out_port': 65535, 'priority': 123, 'idle_timeout': 0, 'command': 'add', 'actions': (), 'flags': 0, 'class': 'ofp_flow_mod', 'match': 'x^L,in_port:None'}, 1, 'c1')"
    ],
    "8": [
      "ControlMessageReceive:i494:('ControlMessageReceive', OFFingerprint{'class': 'ofp_hello'}, 1, 'c1')",
      "ControlMessageSend:i495:('ControlMessageSend', OFFingerprint{'class': 'ofp_hello'}, 2, 'c1')",
      "ControlMessageReceive:i496:('ControlMessageReceive', OFFingerprint{'class': 'ofp_features_request'}, 2, 'c1')",
      "ControlMessageSend:i497:('ControlMessageSend', OFFingerprint{'class': 'ofp_hello'}, 1, 'c1')",
      "ControlMessageReceive:i498:('ControlMessageReceive', OFFingerprint{'class': 'ofp_features_request'}, 1, 'c1')",
      "ControlMessageSend:i499:('ControlMessageSend', OFFingerprint{'datapath_id': 2, 'class': 'ofp_features_reply'}, 2, 'c1')",
      "ControlMessageReceive:i500:('ControlMessageReceive', OFFingerprint{'hard_timeout': 0, 'out_port': 65535, 'priority': 32768, 'idle_timeout': 0, 'command': 'delete', 'actions': (), 'flags': 0, 'class': 'ofp_flow_mod', 'match': 'x^L,in_port:None'}, 2, 'c1')",
      "ControlMessageReceive:i501:('ControlMessageReceive', OFFingerprint{'class': 'ofp_set_config'}, 2, 'c1')",
      "ControlMessageReceive:i502:('ControlMessageReceive', OFFingerprint{'class': 'ofp_barrier_request'}, 2, 'c1')",
      "ControlMessageSend:i503:('ControlMessageSend', OFFingerprint{'datapath_id': 1, 'class': 'ofp_features_reply'}, 1, 'c1')",
      "ControlMessageReceive:i504:('ControlMessageReceive', OFFingerprint{'class': 'ofp_barrier_request'}, 1, 'c1')",
      "ControlMessageReceive:i505:('ControlMessageReceive', OFFingerprint{'class': 'ofp_set_config'}, 1, 'c1')",
      "ControlMessageReceive:i506:('ControlMessageReceive', OFFingerprint{'hard_timeout': 0, 'out_port': 65535, 'priority': 32768, 'idle_timeout': 0, 'command': 'delete', 'actions': (), 'flags': 0, 'class': 'ofp_flow_mod', 'match': 'x^L,in_port:None'}, 1, 'c1')",
      "ControlMessageSend:i507:('ControlMessageSend', OFFingerprint{'class': 'ofp_barrier_reply'}, 2, 'c1')",
      "ControlMessageReceive:i508:('ControlMessageReceive', OFFingerprint{'hard_timeout': 0, 'out_port': 65535, 'priority': 32768, 'idle_timeout': 0, 'command': 'add', 'actions': ('output(65533)',), 'flags': 0, 'class': 'ofp_flow_mod', 'match': 'dl_dst:01:23:20:00:00:01,dl_type:35020,in_port:None'}, 2, 'c1')",
      "ControlMessageSend:i509:('ControlMessageSend', OFFingerprint{'class': 'ofp_barrier_reply'}, 1, 'c1')",
      "ControlMessageReceive:i510:('ControlMessageReceive', OFFingerprint{'hard_timeout': 0, 'out_port': 65535, 'priority': 32768, 'idle_timeout': 0, 'command': 'add', 'actions': ('output(65533)',), 'flags': 0, 'class': 'ofp_flow_mod', 'match': 'dl_dst:01:23:20:00:00:01,dl_type:35020,in_port:None'}, 1, 'c1')",
      "ControlMessageReceive:i511:('ControlMessageReceive', OFFingerprint{'actions': ('output(1)',), 'data': DPFingerprint{'class': 'lldp'}, 'class': 'ofp_packet_out', 'in_port': 65535}, 2, 'c1')",
      "ControlMessageSend:i512:('ControlMessageSend', OFFingerprint{'data': DPFingerprint{'class': 'lldp'}, 'class': 'ofp_packet_in', 'in_port': 1}, 1, 'c1')",
      "ControlMessageReceive:i513:('ControlMessageReceive', OFFingerprint{'actions': (), 'data': (), 'class': 'ofp_packet_out', 'in_port': 1}, 1, 'c1')",
      "ControlMessageReceive:i514:('ControlMessageReceive', OFFingerprint{'actions': ('output(2)',), 'data': DPFingerprint{'class': 'lldp'}, 'class': 'ofp_packet_out', 'in_port': 65535}, 2, 'c1')",
      "ControlMessageReceive:i515:('ControlMessageReceive', OFFingerprint{'hard_timeout': 0, 'out_port': 65535, 'priority': 32768, 'idle_timeout': 0, 'command': 'delete', 'actions': (), 'flags': 0, 'class': 'ofp_flow_mod', 'match': 'x^L,in_port:None'}, 2, 'c1')",
      "ControlMessageReceive:i516:('ControlMessageReceive', OFFingerprint{'actions': ('output(1)',), 'data': DPFingerprint{'class': 'lldp'}, 'class': 'ofp_packet_out', 'in_port': 65535}, 1, 'c1')",
      "ControlMessageSend:i517:('ControlMessageSend', OFFingerprint{'data': DPFingerprint{'class': 'lldp'}, 'class': 'ofp_packet_in', 'in_port': 1}, 2, 'c1')",
      "ControlMessageReceive:i518:('ControlMessageReceive', OFFingerprint{'hard_timeout': 0, 'out_port': 65535, 'priority': 32768, 'idle_timeout': 0, 'command': 'delete', 'actions': (), 'flags': 0, 'class': 'ofp_flow_mod', 'match': 'x^L,in_port:None'}, 1, 'c1')",
      "ControlMessageReceive:i519:('ControlMessageReceive', OFFingerprint{'actions': ('output(2)',), 'data': DPFingerprint{'class': 'lldp'}, 'class': 'ofp_packet_out', 'in_port': 65535}, 1, 'c1')",
      "ControlMessageReceive:i520:('ControlMessageReceive', OFFingerprint{'actions': (), 'data': (), 'class': 'ofp_packet_out', 'in_port': 1}, 2, 'c1')",
      "ControlMessageReceive:i521:('ControlMessageReceive', OFFingerprint{'hard_timeout': 0, 'out_port': 65535, 'priority': 32768, 'idle_timeout': 0, 'command': 'delete', 'actions': (), 'flags': 0, 'class': 'ofp_flow_mod', 'match': 'x^L,in_port:None'}, 2, 'c1')",
      "ControlMessageReceive:i522:('ControlMessageReceive', OFFingerprint{'actions': ('output(1)',), 'data': DPFingerprint{'class': 'lldp'}, 'class': 'ofp_packet_out', 'in_port': 65535}, 2, 'c1')",
      "ControlMessageSend:i523:('ControlMessageSend', OFFingerprint{'data': DPFingerprint{'class': 'lldp'}, 'class': 'ofp_packet_in', 'in_port': 1}, 1, 'c1')",
      "ControlMessageReceive:i524:('ControlMessageReceive', OFFingerprint{'actions': (), 'data': (), 'class': 'ofp_packet_out', 'in_port': 1}, 1, 'c1')",
      "ControlMessageReceive:i525:('ControlMessageReceive', OFFingerprint{'actions': ('output(2)',), 'data': DPFingerprint{'class': 'lldp'}, 'class': 'ofp_packet_out', 'in_port': 65535}, 2, 'c1')",
      "ControlMessageReceive:i526:('ControlMessageReceive', OFFingerprint{'actions': ('output(1)',), 'data': DPFingerprint{'class': 'lldp'}, 'class': 'ofp_packet_out', 'in_port': 65535}, 1, 'c1')",
      "ControlMessageSend:i527:('ControlMessageSend', OFFingerprint{'data': DPFingerprint{'class': 'lldp'}, 'class': 'ofp_packet_in', 'in_port': 1}, 2, 'c1')",
      "ControlMessageReceive:i528:('ControlMessageReceive', OFFingerprint{'actions': ('output(2)',), 'data': DPFingerprint{'class': 'lldp'}, 'class': 'ofp_packet_out', 'in_port': 65535}, 1, 'c1')",
      "ControlMessageReceive:i529:('ControlMessageReceive', OFFingerprint{'actions': (), 'data': (), 'class': 'ofp_packet_out', 'in_port': 1}, 2, 'c1')",
      "ControlMessageSend:i530:('ControlMessageSend', OFFingerprint{'data': DPFingerprint{'dl_dst': '12:34:56:78:01:02', 'nw_src': '10.2.2.2', 'dl_src': '12:34:56:78:02:02', 'nw_dst': '10.1.2.2'}, 'class': 'ofp_packet_in', 'in_port': 2}, 2, 'c1')",
      "ControlMessageReceive:i531:('ControlMessageReceive', OFFingerprint{'actions': ('output(65531)',), 'data': (), 'class': 'ofp_packet_out', 'in_port': 2}, 2, 'c1')",
      "ControlMessageSend:i532:('ControlMessageSend', OFFingerprint{'data': DPFingerprint{'dl_dst': '12:34:56:78:01:02', 'nw_src': '10.2.2.2', 'dl_src': '12:34:56:78:02:02', 'nw_dst': '10.1.2.2'}, 'class': 'ofp_packet_in', 'in_port': 1}, 1, 'c1')",
      "ControlMessageReceive:i533:('ControlMessageReceive', OFFingerprint{'actions': ('output(65531)',), 'data': (), 'class': 'ofp_packet_out', 'in_port': 1}, 1, 'c1')",
      "ControlMessageReceive:i534:('ControlMessageReceive', OFFingerprint{'actions': ('output(1)',), 'data': DPFingerprint{'class': 'lldp'}, 'class': 'ofp_packet_out', 'in_port': 65535}, 2, 'c1')",
      "ControlMessageSend:i535:('ControlMessageSend', OFFingerprint{'data': DPFingerprint{'class': 'lldp'}, 'class': 'ofp_packet_in', 'in_port': 1}, 1, 'c1')",
      "ControlMessageReceive:i536:('ControlMessageReceive', OFFingerprint{'actions': (), 'data': (), 'class': 'ofp_packet_out', 'in_port': 1}, 1, 'c1')",
      "ControlMessageSend:i537:('ControlMessageSend', OFFingerprint{'data': DPFingerprint{'dl_dst': '12:34:56:78:02:02', 'nw_src': '10.1.2.2', 'dl_src': '12:34:56:78:01:02', 'nw_dst': '10.2.2.2'}, 'class': 'ofp_packet_in', 'in_port': 2}, 1, 'c1')"
    ],
    "9": [
      "ControlMessageReceive:i540:('ControlMessageReceive', OFFingerprint{'class': 'ofp_hello'}, 1, 'c1')",
      "ControlMessageSend:i541:('ControlMessageSend', OFFingerprint{'class': 'ofp_hello'}, 2, 'c1')",
      "ControlMessageReceive:i542:('ControlMessageReceive', OFFingerprint{'class': 'ofp_features_request'}, 2, 'c1')",
      "ControlMessageSend:i543:('ControlMessageSend', OFFingerprint{'class': 'ofp_hello'}, 1, 'c1')",
      "ControlMessageReceive:i544:('ControlMessageReceive', OFFingerprint{'class': 'ofp_features_request'}, 1, 'c1')",
      "ControlMessageSend:i545:('ControlMessageSend', OFFingerprint{'datapath_id': 2, 'class': 'ofp_features_reply'}, 2, 'c1')",
      "ControlMessageReceive:i546:('ControlMessageReceive', OFFingerprint{'hard_timeout': 0, 'out_port': 65535, 'priority': 32768, 'idle_timeout': 0, 'command': 'delete', 'actions': (), 'flags': 0, 'class': 'ofp_flow_mod', 'match': 'x^L,in_port:None'}, 2, 'c1')",
      "ControlMessageReceive:i547:('ControlMessageReceive', OFFingerprint{'class': 'ofp_set_config'}, 2, 'c1')",
      "ControlMessageReceive:i548:('ControlMessageReceive', OFFingerprint{'class': 'ofp_barrier_request'}, 2, 'c1')",
      "ControlMessageSend:i549:('ControlMessageSend', OFFingerprint{'datapath_id': 1, 'class': 'ofp_features_reply'}, 1, 'c1')",
      "ControlMessageReceive:i550:('ControlMessageReceive', OFFingerprint{'class': 'ofp_barrier_request'}, 1, 'c1')",
      "ControlMessageReceive:i551:('ControlMessageReceive', OFFingerprint{'class': 'ofp_set_config'}, 1, 'c1')",
      "ControlMessageReceive:i552:('ControlMessageReceive', OFFingerprint{'hard_timeout': 0, 'out_port': 65535, 'priority': 32768, 'idle_timeout': 0, 'command': 'delete', 'actions': (), 'flags': 0, 'class': 'ofp_flow_mod', 'match': 'x^L,in_port:None'}, 1, 'c1')",
      "ControlMessageSend:i553:('ControlMessageSend', OFFingerprint{'class': 'ofp_barrier_reply'}, 2, 'c1')",
      "ControlMessageReceive:i554:('ControlMessageReceive', OFFingerprint{'hard_timeout': 0, 'out_port': 65535, 'priority': 32768, 'idle_timeout': 0, 'command': 'add', 'actions': ('output(65533)',), 'flags': 0, 'class': 'ofp_flow_mod', 'match': 'dl_dst:01:23:20:00:00:01,dl_type:35020,in_port:None'}, 2, 'c1')",
      "ControlMessageSend:i555:('ControlMessageSend', OFFingerprint{'class': 'ofp_barrier_reply'}, 1, 'c1')",
      "ControlMessageReceive:i556:('ControlMessageReceive', OFFingerprint{'hard_timeout': 0, 'out_port': 65535, 'priority': 32768, 'idle_timeout': 0, 'command': 'add', 'actions': ('output(65533)',), 'flags': 0, 'class': 'ofp_flow_mod', 'match': 'dl_dst:01:23:20:00:00:01,dl_type:35020,in_port:None'}, 1, 'c1')",
      "ControlMessageReceive:i557:('ControlMessageReceive', OFFingerprint{'actions': ('output(1)',), 'data': DPFingerprint{'class': 'lldp'}, 'class': 'ofp_packet_out', 'in_port': 65535}, 2, 'c1')",
      "ControlMessageSend:i558:('ControlMessageSend', OFFingerprint{'data': DPFingerprint{'class': 'lldp'}, 'class': 'ofp_packet_in', 'in_port': 1}, 1, 'c1')",
      "ControlMessageReceive:i559:('ControlMessageReceive', OFFingerprint{'actions': (), 'data': (), 'class': 'ofp_packet_out', 'in_port': 1}, 1, 'c1')",
      "ControlMessageReceive:i560:('ControlMessageReceive', OFFingerprint{'actions': ('output(2)',), 'data': DPFingerprint{'class': 'lldp'}, 'class': 'ofp_packet_out', 'in_port': 65535}, 2, 'c1')",
      "ControlMessageReceive:i561:('ControlMessageReceive', OFFingerprint{'hard_timeout': 0, 'out_port': 65535, 'priority': 32768, 'idle_timeout': 0, 'command': 'delete', 'actions': (), 'flags': 0, 'class': 'ofp_flow_mod', 'match': 'x^L,in_port:None'}, 2, 'c1')",
      "ControlMessageReceive:i562:('ControlMessageReceive', OFFingerprint{'actions': ('output(1)',), 'data': DPFingerprint{'class': 'lldp'}, 'class': 'ofp_packet_out', 'in_port': 65535}, 1, 'c1')",
      "ControlMessageSend:i563:('ControlMessageSend', OFFingerprint{'data': DPFingerprint{'class': 'lldp'}, 'class': 'ofp_packet_in', 'in_port': 1}, 2, 'c1')",
      "ControlMessageReceive:i564:('ControlMessageReceive', OFFingerprint{'hard_timeout': 0, 'out_port': 65535, 'priority': 32768, 'idle_timeout': 0, 'command': 'delete', 'actions': (), 'flags': 0, 'class': 'ofp_flow_mod', 'match': 'x^L,in_port:None'}, 1, 'c1')",
      "ControlMessageReceive:i565:('ControlMessageReceive', OFFingerprint{'actions': ('output(2)',), 'data': DPFingerprint{'class': 'lldp'}, 'class': 'ofp_packet_out', 'in_port': 65535}, 1, 'c1')",
      "ControlMessageReceive:i566:('ControlMessageReceive', OFFingerprint{'actions': (), 'data': (), 'class': 'ofp_packet_out', 'in_port': 1}, 2, 'c1')",
      "ControlMessageReceive:i567:('ControlMessageReceive', OFFingerprint{'hard_timeout': 0, 'out_port': 65535, 'priority': 32768, 'idle_timeout': 0, 'command': 'delete', 'actions': (), 'flags': 0, 'class': 'ofp_flow_mod', 'match': 'x^L,in_port:None'}, 2, 'c1')",
      "ControlMessageReceive:i568:('ControlMessageReceive', OFFingerprint{'actions': ('output(1)',), 'data': DPFingerprint{'class': 'lldp'}, 'class': 'ofp_packet_out', 'in_port': 65535}, 2, 'c1')",
      "ControlMessageSend:i569:('ControlMessageSend', OFFingerprint{'data': DPFingerprint{'class': 'lldp'}, 'class': 'ofp_packet_in', 'in_port': 1}, 1, 'c1')",
      "ControlMessageReceive:i570:('ControlMessageReceive', OFFingerprint{'actions': (), 'data': (), 'class': 'ofp_packet_out', 'in_port': 1}, 1, 'c1')",
      "ControlMessageReceive:i571:('ControlMessageReceive', OFFingerprint{'actions': ('output(2)',), 'data': DPFingerprint{'class': 'lldp'}, 'class': 'ofp_packet_out', 'in_port': 65535}, 2, 'c1')",
      "ControlMessageReceive:i572:('ControlMessageReceive', OFFingerprint{'actions': ('output(1)',), 'data': DPFingerprint{'class': 'lldp'}, 'class': 'ofp_packet_out', 'in_port': 65535}, 1, 'c1')",
      "ControlMessageSend:i573:('ControlMessageSend', OFFingerprint{'data': DPFingerprint{'class': 'lldp'}, 'class': 'ofp_packet_in', 'in_port': 1}, 2, 'c1')",
      "ControlMessageReceive:i574:('ControlMessageReceive', OFFingerprint{'actions': ('output(2)',), 'data': DPFingerprint{'class': 'lldp'}, 'class': 'ofp_packet_out', 'in_port': 65535}, 1, 'c1')",
      "ControlMessageReceive:i575:('ControlMessageReceive', OFFingerprint{'actions': (), 'data': (), 'class': 'ofp_packet_out', 'in_port': 1}, 2, 'c1')",
      "ControlMessageReceive:i576:('ControlMessageReceive', OFFingerprint{'actions': ('output(1)',), 'data': DPFingerprint{'class': 'lldp'}, 'class': 'ofp_packet_out', 'in_port': 65535}, 2, 'c1')",
      "ControlMessageSend:i577:('ControlMessageSend', OFFingerprint{'data': DPFingerprint{'class': 'lldp'}, 'class': 'ofp_packet_in', 'in_port': 1}, 1, 'c1')",
      "ControlMessageReceive:i578:('ControlMessageReceive', OFFingerprint{'actions': (), 'data': (), 'class': 'ofp_packet_out', 'in_port': 1}, 1, 'c1')"
    ]
  },
  "original_duration_seconds": 7.429013013839722,
  "peeker": true,
  "prune_duration_seconds": 0,
  "prune_start_epoch": 1390625260.447987,
  "replay_duration_seconds": 62.27331018447876,
  "replay_end_epoch": 1390625260.447868,
  "replay_start_epoch": 1390625198.174558,
  "subsequence_id": 0,
  "timed_out_events": {
    "10": {
      "ControlMessageReceive": 14,
      "ControlMessageSend": 7
    },
    "2": {
      "ControlMessageReceive": 15,
      "ControlMessageSend": 7
    },
    "3": {
      "ControlMessageReceive": 14,
      "ControlMessageSend": 6
    },
    "4": {
      "ControlMessageReceive": 14,
      "ControlMessageSend": 6
    },
    "5": {
      "ControlMessageReceive": 14,
      "ControlMessageSend": 6
    },
    "6": {
      "ControlMessageReceive": 14,
      "ControlMessageSend": 6
    },
    "7": {
      "ControlMessageReceive": 14,
      "ControlMessageSend": 6
    },
    "8": {
      "ControlMessageReceive": 14,
      "ControlMessageSend": 6
    },
    "9": {
      "ControlMessageReceive": 14,
      "ControlMessageSend": 6
    }
  },
  "total_events": 84,
  "total_inputs": 27,
  "total_inputs_replayed": 109,
  "total_replays": 10,
  "violation_found_in_run": {
    "0": 3
  }
}