{"name": null, "timeout_disallowed": false, "fingerprint": ["ControllerStateChange", "%s going up...", "c1"], "controller_id": "c1", "value": ["('POX 0.0.0',)"], "timed_out": false, "dependent_labels": [], "time": [1372280157, 756607], "label": "i1", "class": "ControllerStateChange", "round": -1, "prunable": true}
{"name": null, "timeout_disallowed": false, "fingerprint": ["ControllerStateChange", "Running on %s", "c1"], "controller_id": "c1", "value": ["('CPython (2.7.2+/Jul 20 2012 22:15:08)',)"], "timed_out": false, "dependent_labels": [], "time": [1372280157, 764029], "label": "i2", "class": "ControllerStateChange", "round": -1, "prunable": true}
{"name": null, "timeout_disallowed": false, "fingerprint": ["ControllerStateChange", "%s is up.", "c1"], "controller_id": "c1", "value": ["('POX 0.0.0',)"], "timed_out": false, "dependent_labels": [], "time": [1372280157, 765276], "label": "i3", "class": "ControllerStateChange", "round": -1, "prunable": true}
{"name": null, "timeout_disallowed": false, "fingerprint": ["ControllerStateChange", "Listening for connections on ('127.0.0.1', 6633)", "c1"], "controller_id": "c1", "value": ["()"], "timed_out": false, "dependent_labels": [], "time": [1372280157, 768138], "label": "i4", "class": "ControllerStateChange", "round": -1, "prunable": true}
{"fingerprint": ["ConnectToControllers"], "dependent_labels": [], "time": [1372280158, 753454], "timeout_disallowed": false, "prunable": true, "class": "ConnectToControllers", "timed_out": false, "round": 0, "label": "i5"}
{"timeout_disallowed": false, "time": [1372280158, 757997], "controller_id": "c1", "fingerprint": ["ControlMessageReceive", {"class": "ofp_hello"}, 1, "c1"], "timed_out": false, "dependent_labels": [], "dpid": 1, "label": "i6", "class": "ControlMessageReceive", "round": 1, "prunable": true}
{"timeout_disallowed": false, "time": [1372280158, 758326], "controller_id": "c1", "fingerprint": ["ControlMessageSend", {"class": "ofp_hello"}, 1, "c1"], "timed_out": false, "dependent_labels": [], "dpid": 1, "label": "i7", "class": "ControlMessageSend", "round": 1, "prunable": true}
{"timeout_disallowed": false, "time": [1372280158, 859092], "controller_id": "c1", "fingerprint": ["ControlMessageReceive", {"class": "ofp_hello"}, 2, "c1"], "timed_out": false, "dependent_labels": [], "dpid": 2, "label": "i8", "class": "ControlMessageReceive", "round": 2, "prunable": true}
{"timeout_disallowed": false, "time": [1372280158, 859451], "controller_id": "c1", "fingerprint": ["ControlMessageReceive", {"class": "ofp_features_request"}, 1, "c1"], "timed_out": false, "dependent_labels": [], "dpid": 1, "label": "i9", "class": "ControlMessageReceive", "round": 2, "prunable": true}
{"timeout_disallowed": false, "time": [1372280158, 859681], "controller_id": "c1", "fingerprint": ["ControlMessageSend", {"class": "ofp_hello"}, 2, "c1"], "timed_out": false, "dependent_labels": [], "dpid": 2, "label": "i10", "class": "ControlMessageSend", "round": 2, "prunable": true}
{"timeout_disallowed": false, "time": [1372280158, 859945], "controller_id": "c1", "fingerprint": ["ControlMessageSend", {"datapath_id": 1, "class": "ofp_features_reply"}, 1, "c1"], "timed_out": false, "dependent_labels": [], "dpid": 1, "label": "i11", "class": "ControlMessageSend", "round": 2, "prunable": true}
{"timeout_disallowed": false, "time": [1372280158, 960774], "controller_id": "c1", "fingerprint": ["ControlMessageReceive", {"class": "ofp_features_request"}, 2, "c1"], "timed_out": false, "dependent_labels": [], "dpid": 2, "label": "i12", "class": "ControlMessageReceive", "round": 3, "prunable": true}
{"timeout_disallowed": false, "time": [1372280158, 961033], "controller_id": "c1", "fingerprint": ["ControlMessageReceive", {"class": "ofp_set_config"}, 1, "c1"], "timed_out": false, "dependent_labels": [], "dpid": 1, "label": "i13", "class": "ControlMessageReceive", "round": 3, "prunable": true}
{"timeout_disallowed": false, "time": [1372280158, 961322], "controller_id": "c1", "fingerprint": ["ControlMessageReceive", {"class": "ofp_barrier_request"}, 1, "c1"], "timed_out": false, "dependent_labels": [], "dpid": 1, "label": "i14", "class": "ControlMessageReceive", "round": 3, "prunable": true}
{"timeout_disallowed": false, "time": [1372280158, 961702], "controller_id": "c1", "fingerprint": ["ControlMessageReceive", {"hard_timeout": 0, "actions": [], "priority": 32768, "idle_timeout": 0, "command": "delete", "out_port": 65535, "flags": 0, "class": "ofp_flow_mod", "match": "x^L"}, 1, "c1"], "timed_out": false, "dependent_labels": [], "dpid": 1, "label": "i15", "class": "ControlMessageReceive", "round": 3, "prunable": true}
{"timeout_disallowed": false, "time": [1372280158, 962291], "controller_id": "c1", "fingerprint": ["ControlMessageSend", {"datapath_id": 2, "class": "ofp_features_reply"}, 2, "c1"], "timed_out": false, "dependent_labels": [], "dpid": 2, "label": "i16", "class": "ControlMessageSend", "round": 3, "prunable": true}
{"timeout_disallowed": false, "time": [1372280158, 962555], "controller_id": "c1", "fingerprint": ["ControlMessageSend", {"class": "ofp_barrier_reply"}, 1, "c1"], "timed_out": false, "dependent_labels": [], "dpid": 1, "label": "i17", "class": "ControlMessageSend", "round": 3, "prunable": true}
{"name": null, "timeout_disallowed": false, "fingerprint": ["ControllerStateChange", "of_01 %s Connected to %s", "c1"], "controller_id": "c1", "value": ["('[Con 1/1]', '00-00-00-00-00-01')"], "timed_out": false, "dependent_labels": [], "time": [1372280158, 966713], "label": "i18", "class": "ControllerStateChange", "round": -1, "prunable": true}
{"name": null, "timeout_disallowed": false, "fingerprint": ["ControllerStateChange", "Connect %s", "c1"], "controller_id": "c1", "value": ["(<pox.openflow.of_01.Connection object at 0x299a450>,)"], "timed_out": false, "dependent_labels": [], "time": [1372280158, 968889], "label": "i19", "class": "ControllerStateChange", "round": -1, "prunable": true}
{"name": null, "timeout_disallowed": false, "fingerprint": ["ControllerStateChange", "Installing flow for %s", "c1"], "controller_id": "c1", "value": ["('00-00-00-00-00-01',)"], "timed_out": false, "dependent_labels": [], "time": [1372280158, 970321], "label": "i20", "class": "ControllerStateChange", "round": -1, "prunable": true}
{"timeout_disallowed": false, "time": [1372280159, 63437], "controller_id": "c1", "fingerprint": ["ControlMessageReceive", {"hard_timeout": 0, "actions": ["output(65533)"], "priority": 32768, "idle_timeout": 0, "command": "add", "out_port": 65535, "flags": 0, "class": "ofp_flow_mod", "match": "dl_dst:01:23:20:00:00:01,dl_type:35020"}, 1, "c1"], "timed_out": false, "dependent_labels": [], "dpid": 1, "label": "i21", "class": "ControlMessageReceive", "round": 4, "prunable": true}
{"timeout_disallowed": false, "time": [1372280159, 64105], "controller_id": "c1", "fingerprint": ["ControlMessageReceive", {"hard_timeout": 0, "actions": [], "priority": 32768, "idle_timeout": 0, "command": "delete", "out_port": 65535, "flags": 0, "class": "ofp_flow_mod", "match": "x^L"}, 2, "c1"], "timed_out": false, "dependent_labels": [], "dpid": 2, "label": "i22", "class": "ControlMessageReceive", "round": 4, "prunable": true}
{"timeout_disallowed": false, "time": [1372280159, 64663], "controller_id": "c1", "fingerprint": ["ControlMessageReceive", {"class": "ofp_set_config"}, 2, "c1"], "timed_out": false, "dependent_labels": [], "dpid": 2, "label": "i23", "class": "ControlMessageReceive", "round": 4, "prunable": true}
{"timeout_disallowed": false, "time": [1372280159, 64938], "controller_id": "c1", "fingerprint": ["ControlMessageReceive", {"class": "ofp_barrier_request"}, 2, "c1"], "timed_out": false, "dependent_labels": [], "dpid": 2, "label": "i24", "class": "ControlMessageReceive", "round": 4, "prunable": true}
{"timeout_disallowed": false, "time": [1372280159, 65160], "controller_id": "c1", "fingerprint": ["ControlMessageSend", {"class": "ofp_barrier_reply"}, 2, "c1"], "timed_out": false, "dependent_labels": [], "dpid": 2, "label": "i25", "class": "ControlMessageSend", "round": 4, "prunable": true}
{"name": null, "timeout_disallowed": false, "fingerprint": ["ControllerStateChange", "of_01 %s Connected to %s", "c1"], "controller_id": "c1", "value": ["('[Con 2/2]', '00-00-00-00-00-02')"], "timed_out": false, "dependent_labels": [], "time": [1372280159, 66889], "label": "i26", "class": "ControllerStateChange", "round": -1, "prunable": true}
{"name": null, "timeout_disallowed": false, "fingerprint": ["ControllerStateChange", "Connect %s", "c1"], "controller_id": "c1", "value": ["(<pox.openflow.of_01.Connection object at 0x299a490>,)"], "timed_out": false, "dependent_labels": [], "time": [1372280159, 69087], "label": "i27", "class": "ControllerStateChange", "round": -1, "prunable": true}
{"name": null, "timeout_disallowed": false, "fingerprint": ["ControllerStateChange", "Installing flow for %s", "c1"], "controller_id": "c1", "value": ["('00-00-00-00-00-02',)"], "timed_out": false, "dependent_labels": [], "time": [1372280159, 70515], "label": "i28", "class": "ControllerStateChange", "round": -1, "prunable": true}
{"timeout_disallowed": false, "time": [1372280159, 166025], "controller_id": "c1", "fingerprint": ["ControlMessageReceive", {"hard_timeout": 0, "actions": ["output(65533)"], "priority": 32768, "idle_timeout": 0, "command": "add", "out_port": 65535, "flags": 0, "class": "ofp_flow_mod", "match": "dl_dst:01:23:20:00:00:01,dl_type:35020"}, 2, "c1"], "timed_out": false, "dependent_labels": [], "dpid": 2, "label": "i29", "class": "ControlMessageReceive", "round": 5, "prunable": true}
{"dependent_labels": [], "class": "TrafficInjection", "fingerprint": ["TrafficInjection", {"interface": {"hw_addr": "12:34:56:78:02:02", "ips": ["123.123.2.2"], "name": "eth2"}, "packet": "////////EjRWeAICCAYAAQgABgQAARI0VngCAnt7AgIAAAAAAAB7ewEC"}, 2], "timed_out": false, "label": "e30", "dp_event": {"interface": {"hw_addr": "12:34:56:78:02:02", "ips": ["123.123.2.2"], "name": "eth2"}, "packet": "////////EjRWeAICCAYAAQgABgQAARI0VngCAnt7AgIAAAAAAAB7ewEC"}, "time": [1372280159, 669761], "host_id": 2, "round": 10, "prunable": true}
{"timeout_disallowed": false, "fingerprint": ["DataplanePermit", {"class": "arp"}, "host:[IPAddr('123.123.2.2')]", "12:34:56:78:02:02"], "timed_out": false, "label": "i31", "passive": true, "dependent_labels": [], "time": [1372280159, 771410], "class": "DataplanePermit", "round": 11, "prunable": true}
{"timeout_disallowed": false, "time": [1372280159, 771680], "controller_id": "c1", "fingerprint": ["ControlMessageSend", {"data": {"class": "arp"}, "class": "ofp_packet_in", "in_port": 2}, 2, "c1"], "timed_out": false, "dependent_labels": [], "dpid": 2, "label": "i32", "class": "ControlMessageSend", "round": 11, "prunable": true}
{"name": null, "timeout_disallowed": false, "fingerprint": ["ControllerStateChange", "Learned %s at %s.%i", "c1"], "controller_id": "c1", "value": ["(EthAddr('12:34:56:78:02:02'), 00-00-00-00-00-02, 2)"], "timed_out": false, "dependent_labels": [], "time": [1372280159, 773808], "label": "i33", "class": "ControllerStateChange", "round": -1, "prunable": true}
{"name": null, "timeout_disallowed": false, "fingerprint": ["ControllerStateChange", "Flood multicast from %s", "c1"], "controller_id": "c1", "value": ["(EthAddr('12:34:56:78:02:02'),)"], "timed_out": false, "dependent_labels": [], "time": [1372280159, 775081], "label": "i34", "class": "ControllerStateChange", "round": -1, "prunable": true}
{"timeout_disallowed": false, "time": [1372280159, 872653], "controller_id": "c1", "fingerprint": ["ControlMessageReceive", {"in_port": 2, "data": [], "class": "ofp_packet_out", "actions": ["output(65531)"]}, 2, "c1"], "timed_out": false, "dependent_labels": [], "dpid": 2, "label": "i35", "class": "ControlMessageReceive", "round": 12, "prunable": true}
{"timeout_disallowed": false, "fingerprint": ["DataplanePermit", {"class": "arp"}, 2, 1], "timed_out": false, "label": "i36", "passive": true, "dependent_labels": [], "time": [1372280159, 973996], "class": "DataplanePermit", "round": 13, "prunable": true}
{"timeout_disallowed": false, "time": [1372280159, 974246], "controller_id": "c1", "fingerprint": ["ControlMessageSend", {"data": {"class": "arp"}, "class": "ofp_packet_in", "in_port": 1}, 1, "c1"], "timed_out": false, "dependent_labels": [], "dpid": 1, "label": "i37", "class": "ControlMessageSend", "round": 13, "prunable": true}
{"name": null, "timeout_disallowed": false, "fingerprint": ["ControllerStateChange", "%s moved from %s.%i to %s.%i?", "c1"], "controller_id": "c1", "value": ["(EthAddr('12:34:56:78:02:02'), '00-00-00-00-00-02', 2, '00-00-00-00-00-01', 1)"], "timed_out": false, "dependent_labels": [], "time": [1372280159, 976374], "label": "i38", "class": "ControllerStateChange", "round": -1, "prunable": true}
{"name": null, "timeout_disallowed": false, "fingerprint": ["ControllerStateChange", "Learned %s at %s.%i", "c1"], "controller_id": "c1", "value": ["(EthAddr('12:34:56:78:02:02'), 00-00-00-00-00-01, 1)"], "timed_out": false, "dependent_labels": [], "time": [1372280159, 977714], "label": "i39", "class": "ControllerStateChange", "round": -1, "prunable": true}
{"name": null, "timeout_disallowed": false, "fingerprint": ["ControllerStateChange", "Flood multicast from %s", "c1"], "controller_id": "c1", "value": ["(EthAddr('12:34:56:78:02:02'),)"], "timed_out": false, "dependent_labels": [], "time": [1372280159, 979050], "label": "i40", "class": "ControllerStateChange", "round": -1, "prunable": true}
{"timeout_disallowed": false, "time": [1372280160, 75222], "controller_id": "c1", "fingerprint": ["ControlMessageReceive", {"in_port": 1, "data": [], "class": "ofp_packet_out", "actions": ["output(65531)"]}, 1, "c1"], "timed_out": false, "dependent_labels": [], "dpid": 1, "label": "i41", "class": "ControlMessageReceive", "round": 14, "prunable": true}
{"timeout_disallowed": false, "fingerprint": ["DataplanePermit", {"class": "arp"}, 1, 2], "timed_out": false, "label": "i42", "passive": true, "dependent_labels": [], "time": [1372280160, 176445], "class": "DataplanePermit", "round": 15, "prunable": true}
{"timeout_disallowed": false, "time": [1372280160, 377803], "controller_id": "c1", "fingerprint": ["ControlMessageReceive", {"in_port": 65535, "data": {"class": "lldp"}, "class": "ofp_packet_out", "actions": ["output(1)"]}, 1, "c1"], "timed_out": false, "dependent_labels": [], "dpid": 1, "label": "i43", "class": "ControlMessageReceive", "round": 17, "prunable": true}
{"class": "DataplaneDrop", "fingerprint": ["DataplaneDrop", {"class": "lldp"}, 1, 1], "timed_out": false, "label": "e44", "passive": true, "dependent_labels": [], "time": [1372280160, 478727], "round": 18, "prunable": true}
{"legacy_invariant_check": false, "class": "CheckInvariants", "fingerprint": "N/A", "timed_out": false, "label": "e45", "dependent_labels": [], "invariant_name": "check_for_loops_or_connectivity", "invariant_check_name": "check_for_loops_or_connectivity", "time": [1372280160, 680021], "invariant_check": null, "round": 20, "prunable": true}
{"dependent_labels": [], "class": "TrafficInjection", "fingerprint": ["TrafficInjection", {"interface": {"hw_addr": "12:34:56:78:01:02", "ips": ["123.123.1.2"], "name": "eth1"}, "packet": "EjRWeAICEjRWeAECCAYAAQgABgQAAhI0VngBAnt7AQISNFZ4AgJ7ewIC"}, 1], "timed_out": false, "label": "e46", "dp_event": {"interface": {"hw_addr": "12:34:56:78:01:02", "ips": ["123.123.1.2"], "name": "eth1"}, "packet": "EjRWeAICEjRWeAECCAYAAQgABgQAAhI0VngBAnt7AQISNFZ4AgJ7ewIC"}, "time": [1372280160, 681988], "host_id": 1, "round": 20, "prunable": true}
{"timeout_disallowed": false, "fingerprint": ["DataplanePermit", {"class": "arp"}, "host:[IPAddr('123.123.1.2')]", "12:34:56:78:01:02"], "timed_out": false, "label": "i47", "passive": true, "dependent_labels": [], "time": [1372280160, 783319], "class": "DataplanePermit", "round": 21, "prunable": true}
{"timeout_disallowed": false, "time": [1372280160, 783581], "controller_id": "c1", "fingerprint": ["ControlMessageSend", {"data": {"class": "arp"}, "class": "ofp_packet_in", "in_port": 2}, 1, "c1"], "timed_out": false, "dependent_labels": [], "dpid": 1, "label": "i48", "class": "ControlMessageSend", "round": 21, "prunable": true}
{"name": null, "timeout_disallowed": false, "fingerprint": ["ControllerStateChange", "Learned %s at %s.%i", "c1"], "controller_id": "c1", "value": ["(EthAddr('12:34:56:78:01:02'), 00-00-00-00-00-01, 2)"], "timed_out": false, "dependent_labels": [], "time": [1372280160, 785661], "label": "i49", "class": "ControllerStateChange", "round": -1, "prunable": true}
{"name": null, "timeout_disallowed": false, "fingerprint": ["ControllerStateChange", "Installing path for %s -> %s %04x (%i hops)", "c1"], "controller_id": "c1", "value": ["(EthAddr('12:34:56:78:01:02'), EthAddr('12:34:56:78:02:02'), 2054, 1)"], "timed_out": false, "dependent_labels": [], "time": [1372280160, 788343], "label": "i50", "class": "ControllerStateChange", "round": -1, "prunable": true}
{"timeout_disallowed": false, "time": [1372280160, 884685], "controller_id": "c1", "fingerprint": ["ControlMessageReceive", {"hard_timeout": 30, "actions": ["output(1)"], "priority": 32768, "idle_timeout": 10, "command": "add", "out_port": 65535, "flags": 0, "class": "ofp_flow_mod", "match": "dl_src:12:34:56:78:01:02,dl_dst:12:34:56:78:02:02,dl_vlan:65535,dl_vlan_pcp:0,dl_type:2054,nw_proto:2,nw_src:123.123.1.2/32,nw_dst:123.123.2.2/32"}, 1, "c1"], "timed_out": false, "dependent_labels": [], "dpid": 1, "label": "i51", "class": "ControlMessageReceive", "round": 22, "prunable": true}
{"timeout_disallowed": false, "fingerprint": ["DataplanePermit", {"class": "arp"}, 1, 1], "timed_out": false, "label": "i52", "passive": true, "dependent_labels": [], "time": [1372280160, 986236], "class": "DataplanePermit", "round": 23, "prunable": true}
{"timeout_disallowed": false, "time": [1372280160, 986486], "controller_id": "c1", "fingerprint": ["ControlMessageSend", {"data": {"class": "arp"}, "class": "ofp_packet_in", "in_port": 1}, 2, "c1"], "timed_out": false, "dependent_labels": [], "dpid": 2, "label": "i53", "class": "ControlMessageSend", "round": 23, "prunable": true}
{"new_ingress_port_no": 3, "class": "HostMigration", "fingerprint": ["HostMigration", 2, 2, 1, 3, 2], "timed_out": false, "label": "e54", "dependent_labels": [], "new_ingress_dpid": 1, "time": [1372280160, 987313], "old_ingress_port_no": 2, "host_id": 2, "old_ingress_dpid": 2, "round": 23, "prunable": true}
{"dependent_labels": [], "class": "TrafficInjection", "fingerprint": ["TrafficInjection", {"interface": {"hw_addr": "12:34:56:78:02:02", "ips": ["123.123.2.2"], "name": "eth2"}, "packet": "EjRWeAICEjRWeAICCABFAABIVV0AAEABKl57ewICe3sCAgAADjdQaW5nUGluZ1BpbmdQaW5nUGluZ1BpbmdQaW5nUGluZ1BpbmdQaW5nUGluZ1Bpbmc="}, 2], "timed_out": false, "label": "e55", "dp_event": {"interface": {"hw_addr": "12:34:56:78:02:02", "ips": ["123.123.2.2"], "name": "eth2"}, "packet": "EjRWeAICEjRWeAICCABFAABIVV0AAEABKl57ewICe3sCAgAADjdQaW5nUGluZ1BpbmdQaW5nUGluZ1BpbmdQaW5nUGluZ1BpbmdQaW5nUGluZ1Bpbmc="}, "time": [1372280160, 987853], "host_id": 2, "round": 23, "prunable": true}
{"name": null, "timeout_disallowed": false, "fingerprint": ["ControllerStateChange", "%s moved from %s.%i to %s.%i?", "c1"], "controller_id": "c1", "value": ["(EthAddr('12:34:56:78:01:02'), '00-00-00-00-00-01', 2, '00-00-00-00-00-02', 1)"], "timed_out": false, "dependent_labels": [], "time": [1372280160, 990123], "label": "i56", "class": "ControllerStateChange", "round": -1, "prunable": true}
{"name": null, "timeout_disallowed": false, "fingerprint": ["ControllerStateChange", "Learned %s at %s.%i", "c1"], "controller_id": "c1", "value": ["(EthAddr('12:34:56:78:01:02'), 00-00-00-00-00-02, 1)"], "timed_out": false, "dependent_labels": [], "time": [1372280160, 991447], "label": "i57", "class": "ControllerStateChange", "round": -1, "prunable": true}
{"name": null, "timeout_disallowed": false, "fingerprint": ["ControllerStateChange", "Can't get from %s to %s", "c1"], "controller_id": "c1", "value": ["(EthAddr('12:34:56:78:01:02'), EthAddr('12:34:56:78:02:02'))"], "timed_out": false, "dependent_labels": [], "time": [1372280160, 992901], "label": "i58", "class": "ControllerStateChange", "round": -1, "prunable": true}
{"timeout_disallowed": false, "fingerprint": ["DataplanePermit", {"dl_dst": "12:34:56:78:02:02", "nw_src": "123.123.2.2", "dl_src": "12:34:56:78:02:02", "nw_dst": "123.123.2.2"}, "host:[IPAddr('123.123.2.2')]", "12:34:56:78:02:02"], "timed_out": false, "label": "i59", "passive": true, "dependent_labels": [], "time": [1372280161, 89251], "class": "DataplanePermit", "round": 24, "prunable": true}
{"timeout_disallowed": false, "time": [1372280161, 89663], "controller_id": "c1", "fingerprint": ["ControlMessageSend", {"reason": 0, "class": "ofp_port_status", "desc": [3, "00:00:00:00:02:02"]}, 1, "c1"], "timed_out": false, "dependent_labels": [], "dpid": 1, "label": "i60", "class": "ControlMessageSend", "round": 24, "prunable": true}
{"timeout_disallowed": false, "time": [1372280161, 89980], "controller_id": "c1", "fingerprint": ["ControlMessageSend", {"reason": 1, "class": "ofp_port_status", "desc": [2, "00:00:00:00:02:02"]}, 2, "c1"], "timed_out": false, "dependent_labels": [], "dpid": 2, "label": "i61", "class": "ControlMessageSend", "round": 24, "prunable": true}
{"timeout_disallowed": false, "time": [1372280161, 90291], "controller_id": "c1", "fingerprint": ["ControlMessageSend", {"data": {"dl_dst": "12:34:56:78:02:02", "nw_src": "123.123.2.2", "dl_src": "12:34:56:78:02:02", "nw_dst": "123.123.2.2"}, "class": "ofp_packet_in", "in_port": 3}, 1, "c1"], "timed_out": false, "dependent_labels": [], "dpid": 1, "label": "i62", "class": "ControlMessageSend", "round": 24, "prunable": true}
{"name": null, "timeout_disallowed": false, "fingerprint": ["ControllerStateChange", "%s moved from %s.%i to %s.%i?", "c1"], "controller_id": "c1", "value": ["(EthAddr('12:34:56:78:02:02'), '00-00-00-00-00-01', 1, '00-00-00-00-00-01', 3)"], "timed_out": false, "dependent_labels": [], "time": [1372280161, 95659], "label": "i63", "class": "ControllerStateChange", "round": -1, "prunable": true}
{"name": null, "timeout_disallowed": false, "fingerprint": ["ControllerStateChange", "Learned %s at %s.%i", "c1"], "controller_id": "c1", "value": ["(EthAddr('12:34:56:78:02:02'), 00-00-00-00-00-01, 3)"], "timed_out": false, "dependent_labels": [], "time": [1372280161, 96996], "label": "i64", "class": "ControllerStateChange", "round": -1, "prunable": true}
{"name": null, "timeout_disallowed": false, "fingerprint": ["ControllerStateChange", "Installing path for %s -> %s %04x (%i hops)", "c1"], "controller_id": "c1", "value": ["(EthAddr('12:34:56:78:02:02'), EthAddr('12:34:56:78:02:02'), 2048, 1)"], "timed_out": false, "dependent_labels": [], "time": [1372280161, 99585], "label": "i65", "class": "ControllerStateChange", "round": -1, "prunable": true}
{"timeout_disallowed": false, "time": [1372280161, 191639], "controller_id": "c1", "fingerprint": ["ControlMessageReceive", {"hard_timeout": 30, "actions": ["output(3)"], "priority": 32768, "idle_timeout": 10, "command": "add", "out_port": 65535, "flags": 0, "class": "ofp_flow_mod", "match": "dl_src:12:34:56:78:02:02,dl_dst:12:34:56:78:02:02,dl_vlan:65535,dl_vlan_pcp:0,dl_type:2048,nw_tos:0,nw_proto:1,nw_src:123.123.2.2/32,nw_dst:123.123.2.2/32,tp_src:0,tp_dst:0"}, 1, "c1"], "timed_out": false, "dependent_labels": [], "dpid": 1, "label": "i66", "class": "ControlMessageReceive", "round": 25, "prunable": true}
{"dependent_labels": [], "class": "TrafficInjection", "fingerprint": ["TrafficInjection", {"interface": {"hw_addr": "12:34:56:78:02:02", "ips": ["123.123.2.2"], "name": "eth2"}, "packet": "EjRWeAECEjRWeAICCABFAAAcISgAAEABX797ewICe3sBAggAGS9waW5n"}, 2], "timed_out": false, "label": "e67", "dp_event": {"interface": {"hw_addr": "12:34:56:78:02:02", "ips": ["123.123.2.2"], "name": "eth2"}, "packet": "EjRWeAECEjRWeAICCABFAAAcISgAAEABX797ewICe3sBAggAGS9waW5n"}, "time": [1372280161, 695189], "host_id": 2, "round": 30, "prunable": true}
{"class": "DataplaneDrop", "fingerprint": ["DataplaneDrop", {"dl_dst": "12:34:56:78:01:02", "nw_src": "123.123.2.2", "dl_src": "12:34:56:78:02:02", "nw_dst": "123.123.1.2"}, "host:[IPAddr('123.123.2.2')]", "12:34:56:78:02:02"], "timed_out": false, "label": "e68", "passive": true, "dependent_labels": [], "time": [1372280161, 796004], "round": 31, "prunable": true}
{"new_ingress_port_no": 3, "class": "HostMigration", "fingerprint": ["HostMigration", 1, 2, 2, 3, 1], "timed_out": false, "label": "e69", "dependent_labels": [], "new_ingress_dpid": 2, "time": [1372280161, 997784], "old_ingress_port_no": 2, "host_id": 1, "old_ingress_dpid": 1, "round": 33, "prunable": true}
{"dependent_labels": [], "class": "TrafficInjection", "fingerprint": ["TrafficInjection", {"interface": {"hw_addr": "12:34:56:78:01:02", "ips": ["123.123.1.2"], "name": "eth1"}, "packet": "EjRWeAECEjRWeAECCABFAABIVV8AAEABLFx7ewECe3sBAgAADjdQaW5nUGluZ1BpbmdQaW5nUGluZ1BpbmdQaW5nUGluZ1BpbmdQaW5nUGluZ1Bpbmc="}, 1], "timed_out": false, "label": "e70", "dp_event": {"interface": {"hw_addr": "12:34:56:78:01:02", "ips": ["123.123.1.2"], "name": "eth1"}, "packet": "EjRWeAECEjRWeAECCABFAABIVV8AAEABLFx7ewECe3sBAgAADjdQaW5nUGluZ1BpbmdQaW5nUGluZ1BpbmdQaW5nUGluZ1BpbmdQaW5nUGluZ1Bpbmc="}, "time": [1372280161, 998326], "host_id": 1, "round": 33, "prunable": true}
{"timeout_disallowed": false, "fingerprint": ["DataplanePermit", {"dl_dst": "12:34:56:78:01:02", "nw_src": "123.123.1.2", "dl_src": "12:34:56:78:01:02", "nw_dst": "123.123.1.2"}, "host:[IPAddr('123.123.1.2')]", "12:34:56:78:01:02"], "timed_out": false, "label": "i71", "passive": true, "dependent_labels": [], "time": [1372280162, 99696], "class": "DataplanePermit", "round": 34, "prunable": true}
{"timeout_disallowed": false, "time": [1372280162, 100090], "controller_id": "c1", "fingerprint": ["ControlMessageSend", {"reason": 1, "class": "ofp_port_status", "desc": [2, "00:00:00:00:01:02"]}, 1, "c1"], "timed_out": false, "dependent_labels": [], "dpid": 1, "label": "i72", "class": "ControlMessageSend", "round": 34, "prunable": true}
{"timeout_disallowed": false, "time": [1372280162, 100414], "controller_id": "c1", "fingerprint": ["ControlMessageSend", {"reason": 0, "class": "ofp_port_status", "desc": [3, "00:00:00:00:01:02"]}, 2, "c1"], "timed_out": false, "dependent_labels": [], "dpid": 2, "label": "i73", "class": "ControlMessageSend", "round": 34, "prunable": true}
{"timeout_disallowed": false, "time": [1372280162, 100731], "controller_id": "c1", "fingerprint": ["ControlMessageSend", {"data": {"dl_dst": "12:34:56:78:01:02", "nw_src": "123.123.1.2", "dl_src": "12:34:56:78:01:02", "nw_dst": "123.123.1.2"}, "class": "ofp_packet_in", "in_port": 3}, 2, "c1"], "timed_out": false, "dependent_labels": [], "dpid": 2, "label": "i74", "class": "ControlMessageSend", "round": 34, "prunable": true}
{"name": null, "timeout_disallowed": false, "fingerprint": ["ControllerStateChange", "%s moved from %s.%i to %s.%i?", "c1"], "controller_id": "c1", "value": ["(EthAddr('12:34:56:78:01:02'), '00-00-00-00-00-02', 1, '00-00-00-00-00-02', 3)"], "timed_out": false, "dependent_labels": [], "time": [1372280162, 105053], "label": "i75", "class": "ControllerStateChange", "round": -1, "prunable": true}
{"name": null, "timeout_disallowed": false, "fingerprint": ["ControllerStateChange", "Learned %s at %s.%i", "c1"], "controller_id": "c1", "value": ["(EthAddr('12:34:56:78:01:02'), 00-00-00-00-00-02, 3)"], "timed_out": false, "dependent_labels": [], "time": [1372280162, 106427], "label": "i76", "class": "ControllerStateChange", "round": -1, "prunable": true}
{"name": null, "timeout_disallowed": false, "fingerprint": ["ControllerStateChange", "Installing path for %s -> %s %04x (%i hops)", "c1"], "controller_id": "c1", "value": ["(EthAddr('12:34:56:78:01:02'), EthAddr('12:34:56:78:01:02'), 2048, 1)"], "timed_out": false, "dependent_labels": [], "time": [1372280162, 108991], "label": "i77", "class": "ControllerStateChange", "round": -1, "prunable": true}
{"timeout_disallowed": false, "time": [1372280162, 202056], "controller_id": "c1", "fingerprint": ["ControlMessageReceive", {"hard_timeout": 30, "actions": ["output(3)"], "priority": 32768, "idle_timeout": 10, "command": "add", "out_port": 65535, "flags": 0, "class": "ofp_flow_mod", "match": "dl_src:12:34:56:78:01:02,dl_dst:12:34:56:78:01:02,dl_vlan:65535,dl_vlan_pcp:0,dl_type:2048,nw_tos:0,nw_proto:1,nw_src:123.123.1.2/32,nw_dst:123.123.1.2/32,tp_src:0,tp_dst:0"}, 2, "c1"], "timed_out": false, "dependent_labels": [], "dpid": 2, "label": "i78", "class": "ControlMessageReceive", "round": 35, "prunable": true}
{"legacy_invariant_check": false, "class": "CheckInvariants", "fingerprint": "N/A", "timed_out": false, "label": "e79", "dependent_labels": [], "invariant_name": "check_for_loops_or_connectivity", "invariant_check_name": "check_for_loops_or_connectivity", "time": [1372280162, 705099], "invariant_check": null, "round": 40, "prunable": true}
{"dependent_labels": [], "class": "TrafficInjection", "fingerprint": ["TrafficInjection", {"interface": {"hw_addr": "12:34:56:78:01:02", "ips": ["123.123.1.2"], "name": "eth1"}, "packet": "EjRWeAICEjRWeAECCABFAAAcISkAAEABX757ewECe3sCAgAAISlwb25n"}, 1], "timed_out": false, "label": "e80", "dp_event": {"interface": {"hw_addr": "12:34:56:78:01:02", "ips": ["123.123.1.2"], "name": "eth1"}, "packet": "EjRWeAICEjRWeAECCABFAAAcISkAAEABX757ewECe3sCAgAAISlwb25n"}, "time": [1372280162, 712538], "host_id": 1, "round": 40, "prunable": true}
{"timeout_disallowed": false, "fingerprint": ["DataplanePermit", {"dl_dst": "12:34:56:78:02:02", "nw_src": "123.123.1.2", "dl_src": "12:34:56:78:01:02", "nw_dst": "123.123.2.2"}, "host:[IPAddr('123.123.1.2')]", "12:34:56:78:01:02"], "timed_out": false, "label": "i81", "passive": true, "dependent_labels": [], "time": [1372280162, 813780], "class": "DataplanePermit", "round": 41, "prunable": true}
{"timeout_disallowed": false, "time": [1372280162, 814178], "controller_id": "c1", "fingerprint": ["ControlMessageSend", {"data": {"dl_dst": "12:34:56:78:02:02", "nw_src": "123.123.1.2", "dl_src": "12:34:56:78:01:02", "nw_dst": "123.123.2.2"}, "class": "ofp_packet_in", "in_port": 3}, 2, "c1"], "timed_out": false, "dependent_labels": [], "dpid": 2, "label": "i82", "class": "ControlMessageSend", "round": 41, "prunable": true}
{"new_ingress_port_no": 4, "class": "HostMigration", "fingerprint": ["HostMigration", 1, 3, 1, 4, 2], "timed_out": false, "label": "e83", "dependent_labels": [], "new_ingress_dpid": 1, "time": [1372280162, 815107], "old_ingress_port_no": 3, "host_id": 2, "old_ingress_dpid": 1, "round": 41, "prunable": true}
{"dependent_labels": [], "class": "TrafficInjection", "fingerprint": ["TrafficInjection", {"interface": {"hw_addr": "12:34:56:78:02:02", "ips": ["123.123.2.2"], "name": "eth2"}, "packet": "EjRWeAICEjRWeAICCABFAABIVWIAAEABKll7ewICe3sCAggABjdQaW5nUGluZ1BpbmdQaW5nUGluZ1BpbmdQaW5nUGluZ1BpbmdQaW5nUGluZ1Bpbmc="}, 2], "timed_out": false, "label": "e84", "dp_event": {"interface": {"hw_addr": "12:34:56:78:02:02", "ips": ["123.123.2.2"], "name": "eth2"}, "packet": "EjRWeAICEjRWeAICCABFAABIVWIAAEABKll7ewICe3sCAggABjdQaW5nUGluZ1BpbmdQaW5nUGluZ1BpbmdQaW5nUGluZ1BpbmdQaW5nUGluZ1Bpbmc="}, "time": [1372280162, 815642], "host_id": 2, "round": 41, "prunable": true}
{"name": null, "timeout_disallowed": false, "fingerprint": ["ControllerStateChange", "Can't get from %s to %s", "c1"], "controller_id": "c1", "value": ["(EthAddr('12:34:56:78:01:02'), EthAddr('12:34:56:78:02:02'))"], "timed_out": false, "dependent_labels": [], "time": [1372280162, 817820], "label": "i85", "class": "ControllerStateChange", "round": -1, "prunable": true}
{"name": null, "timeout_disallowed": false, "fingerprint": ["ControllerStateChange", "Dest unreachable (%s -> %s)", "c1"], "controller_id": "c1", "value": ["(EthAddr('12:34:56:78:01:02'), EthAddr('12:34:56:78:02:02'))"], "timed_out": false, "dependent_labels": [], "time": [1372280162, 819221], "label": "i86", "class": "ControllerStateChange", "round": -1, "prunable": true}
{"class": "DataplaneDrop", "fingerprint": ["DataplaneDrop", {"dl_dst": "12:34:56:78:02:02", "nw_src": "123.123.2.2", "dl_src": "12:34:56:78:02:02", "nw_dst": "123.123.2.2"}, "host:[IPAddr('123.123.2.2')]", "12:34:56:78:02:02"], "timed_out": false, "label": "e87", "passive": true, "dependent_labels": [], "time": [1372280162, 916453], "round": 42, "prunable": true}
{"timeout_disallowed": false, "time": [1372280162, 917144], "controller_id": "c1", "fingerprint": ["ControlMessageReceive", {"in_port": 65535, "data": {"dl_dst": "12:34:56:78:01:02", "nw_src": "123.123.2.2", "dl_src": "00:00:00:00:00:02", "nw_dst": "123.123.1.2"}, "class": "ofp_packet_out", "actions": ["output(3)"]}, 2, "c1"], "timed_out": false, "dependent_labels": [], "dpid": 2, "label": "i88", "class": "ControlMessageReceive", "round": 42, "prunable": true}
{"timeout_disallowed": false, "time": [1372280162, 917689], "controller_id": "c1", "fingerprint": ["ControlMessageSend", {"reason": 0, "class": "ofp_port_status", "desc": [4, "00:00:00:00:02:02"]}, 1, "c1"], "timed_out": false, "dependent_labels": [], "dpid": 1, "label": "i89", "class": "ControlMessageSend", "round": 42, "prunable": true}
{"timeout_disallowed": false, "time": [1372280162, 918004], "controller_id": "c1", "fingerprint": ["ControlMessageSend", {"reason": 1, "class": "ofp_port_status", "desc": [3, "00:00:00:00:02:02"]}, 1, "c1"], "timed_out": false, "dependent_labels": [], "dpid": 1, "label": "i90", "class": "ControlMessageSend", "round": 42, "prunable": true}
{"class": "DataplaneDrop", "fingerprint": ["DataplaneDrop", {"dl_dst": "12:34:56:78:01:02", "nw_src": "123.123.2.2", "dl_src": "00:00:00:00:00:02", "nw_dst": "123.123.1.2"}, 2, 3], "timed_out": false, "label": "e91", "passive": true, "dependent_labels": [], "time": [1372280163, 18816], "round": 43, "prunable": true}
{"dependent_labels": [], "class": "TrafficInjection", "fingerprint": ["TrafficInjection", {"interface": {"hw_addr": "12:34:56:78:02:02", "ips": ["123.123.2.2"], "name": "eth2"}, "packet": "////////EjRWeAICCAYAAQgABgQAARI0VngCAnt7AgIAAAAAAAB7ewEC"}, 2], "timed_out": false, "label": "e92", "dp_event": {"interface": {"hw_addr": "12:34:56:78:02:02", "ips": ["123.123.2.2"], "name": "eth2"}, "packet": "////////EjRWeAICCAYAAQgABgQAARI0VngCAnt7AgIAAAAAAAB7ewEC"}, "time": [1372280163, 723148], "host_id": 2, "round": 50, "prunable": true}
{"class": "DataplaneDrop", "fingerprint": ["DataplaneDrop", {"class": "arp"}, "host:[IPAddr('123.123.2.2')]", "12:34:56:78:02:02"], "timed_out": false, "label": "e93", "passive": true, "dependent_labels": [], "time": [1372280163, 823916], "round": 51, "prunable": true}
{"timeout_disallowed": false, "time": [1372280164, 226232], "controller_id": "c1", "fingerprint": ["ControlMessageReceive", {"in_port": 65535, "data": {"class": "lldp"}, "class": "ofp_packet_out", "actions": ["output(1)"]}, 2, "c1"], "timed_out": false, "dependent_labels": [], "dpid": 2, "label": "i94", "class": "ControlMessageReceive", "round": 55, "prunable": true}
{"timeout_disallowed": false, "fingerprint": ["DataplanePermit", {"class": "lldp"}, 2, 1], "timed_out": false, "label": "i95", "passive": true, "dependent_labels": [], "time": [1372280164, 327724], "class": "DataplanePermit", "round": 56, "prunable": true}
{"timeout_disallowed": false, "time": [1372280164, 327975], "controller_id": "c1", "fingerprint": ["ControlMessageSend", {"data": {"class": "lldp"}, "class": "ofp_packet_in", "in_port": 1}, 1, "c1"], "timed_out": false, "dependent_labels": [], "dpid": 1, "label": "i96", "class": "ControlMessageSend", "round": 56, "prunable": true}
{"name": null, "timeout_disallowed": false, "fingerprint": ["ControllerStateChange", "link detected: %s.%i -> %s.%i", "c1"], "controller_id": "c1", "value": ["('00-00-00-00-00-02', 1, '00-00-00-00-00-01', 1)"], "timed_out": false, "dependent_labels": [], "time": [1372280164, 330898], "label": "i97", "class": "ControllerStateChange", "round": -1, "prunable": true}
{"timeout_disallowed": false, "time": [1372280164, 428935], "controller_id": "c1", "fingerprint": ["ControlMessageReceive", {"hard_timeout": 0, "actions": [], "priority": 32768, "idle_timeout": 0, "command": "delete", "out_port": 65535, "flags": 0, "class": "ofp_flow_mod", "match": "x^L"}, 2, "c1"], "timed_out": false, "dependent_labels": [], "dpid": 2, "label": "i98", "class": "ControlMessageReceive", "round": 57, "prunable": true}
{"timeout_disallowed": false, "time": [1372280164, 429609], "controller_id": "c1", "fingerprint": ["ControlMessageReceive", {"hard_timeout": 0, "actions": [], "priority": 32768, "idle_timeout": 0, "command": "delete", "out_port": 65535, "flags": 0, "class": "ofp_flow_mod", "match": "x^L"}, 1, "c1"], "timed_out": false, "dependent_labels": [], "dpid": 1, "label": "i99", "class": "ControlMessageReceive", "round": 57, "prunable": true}
{"timeout_disallowed": false, "time": [1372280164, 430206], "controller_id": "c1", "fingerprint": ["ControlMessageReceive", {"in_port": 1, "data": [], "class": "ofp_packet_out", "actions": []}, 1, "c1"], "timed_out": false, "dependent_labels": [], "dpid": 1, "label": "i100", "class": "ControlMessageReceive", "round": 57, "prunable": true}
{"legacy_invariant_check": false, "class": "CheckInvariants", "fingerprint": "N/A", "timed_out": false, "label": "e101", "dependent_labels": [], "invariant_name": "check_for_loops_or_connectivity", "invariant_check_name": "check_for_loops_or_connectivity", "time": [1372280164, 732092], "invariant_check": null, "round": 60, "prunable": true}
{"dependent_labels": [], "class": "TrafficInjection", "fingerprint": ["TrafficInjection", {"interface": {"hw_addr": "12:34:56:78:01:02", "ips": ["123.123.1.2"], "name": "eth1"}, "packet": "EjRWeAICEjRWeAECCAYAAQgABgQAAhI0VngBAnt7AQISNFZ4AgJ7ewIC"}, 1], "timed_out": false, "label": "e102", "dp_event": {"interface": {"hw_addr": "12:34:56:78:01:02", "ips": ["123.123.1.2"], "name": "eth1"}, "packet": "EjRWeAICEjRWeAECCAYAAQgABgQAAhI0VngBAnt7AQISNFZ4AgJ7ewIC"}, "time": [1372280164, 740063], "host_id": 1, "round": 60, "prunable": true}
{"timeout_disallowed": false, "fingerprint": ["DataplanePermit", {"class": "arp"}, "host:[IPAddr('123.123.1.2')]", "12:34:56:78:01:02"], "timed_out": false, "label": "i103", "passive": true, "dependent_labels": [], "time": [1372280164, 841002], "class": "DataplanePermit", "round": 61, "prunable": true}
{"timeout_disallowed": false, "time": [1372280164, 841160], "controller_id": "c1", "fingerprint": ["ControlMessageSend", {"data": {"class": "arp"}, "class": "ofp_packet_in", "in_port": 3}, 2, "c1"], "timed_out": false, "dependent_labels": [], "dpid": 2, "label": "i104", "class": "ControlMessageSend", "round": 61, "prunable": true}
{"name": null, "timeout_disallowed": false, "fingerprint": ["ControllerStateChange", "Can't get from %s to %s", "c1"], "controller_id": "c1", "value": ["(EthAddr('12:34:56:78:01:02'), EthAddr('12:34:56:78:02:02'))"], "timed_out": false, "dependent_labels": [], "time": [1372280164, 843047], "label": "i105", "class": "ControllerStateChange", "round": -1, "prunable": true}
{"timeout_disallowed": false, "time": [1372280165, 444374], "controller_id": "c1", "fingerprint": ["ControlMessageReceive", {"in_port": 65535, "data": {"class": "lldp"}, "class": "ofp_packet_out", "actions": ["output(1)"]}, 1, "c1"], "timed_out": false, "dependent_labels": [], "dpid": 1, "label": "i106", "class": "ControlMessageReceive", "round": 67, "prunable": true}
{"class": "DataplaneDrop", "fingerprint": ["DataplaneDrop", {"class": "lldp"}, 1, 1], "timed_out": false, "label": "e107", "passive": true, "dependent_labels": [], "time": [1372280165, 545302], "round": 68, "prunable": true}
{"dependent_labels": [], "class": "TrafficInjection", "fingerprint": ["TrafficInjection", {"interface": {"hw_addr": "12:34:56:78:02:02", "ips": ["123.123.2.2"], "name": "eth2"}, "packet": "EjRWeAECEjRWeAICCABFAAAcISgAAEABX797ewICe3sBAggAGS9waW5n"}, 2], "timed_out": false, "label": "e108", "dp_event": {"interface": {"hw_addr": "12:34:56:78:02:02", "ips": ["123.123.2.2"], "name": "eth2"}, "packet": "EjRWeAECEjRWeAICCABFAAAcISgAAEABX797ewICe3sBAggAGS9waW5n"}, "time": [1372280165, 747162], "host_id": 2, "round": 70, "prunable": true}
{"timeout_disallowed": false, "fingerprint": ["DataplanePermit", {"dl_dst": "12:34:56:78:01:02", "nw_src": "123.123.2.2", "dl_src": "12:34:56:78:02:02", "nw_dst": "123.123.1.2"}, "host:[IPAddr('123.123.2.2')]", "12:34:56:78:02:02"], "timed_out": false, "label": "i109", "passive": true, "dependent_labels": [], "time": [1372280165, 848663], "class": "DataplanePermit", "round": 71, "prunable": true}
{"timeout_disallowed": false, "time": [1372280165, 849055], "controller_id": "c1", "fingerprint": ["ControlMessageSend", {"data": {"dl_dst": "12:34:56:78:01:02", "nw_src": "123.123.2.2", "dl_src": "12:34:56:78:02:02", "nw_dst": "123.123.1.2"}, "class": "ofp_packet_in", "in_port": 4}, 1, "c1"], "timed_out": false, "dependent_labels": [], "dpid": 1, "label": "i110", "class": "ControlMessageSend", "round": 71, "prunable": true}
{"name": null, "timeout_disallowed": false, "fingerprint": ["ControllerStateChange", "%s moved from %s.%i to %s.%i?", "c1"], "controller_id": "c1", "value": ["(EthAddr('12:34:56:78:02:02'), '00-00-00-00-00-01', 3, '00-00-00-00-00-01', 4)"], "timed_out": false, "dependent_labels": [], "time": [1372280165, 851359], "label": "i111", "class": "ControllerStateChange", "round": -1, "prunable": true}
{"name": null, "timeout_disallowed": false, "fingerprint": ["ControllerStateChange", "Learned %s at %s.%i", "c1"], "controller_id": "c1", "value": ["(EthAddr('12:34:56:78:02:02'), 00-00-00-00-00-01, 4)"], "timed_out": false, "dependent_labels": [], "time": [1372280165, 852718], "label": "i112", "class": "ControllerStateChange", "round": -1, "prunable": true}
{"name": null, "timeout_disallowed": false, "fingerprint": ["ControllerStateChange", "Can't get from %s to %s", "c1"], "controller_id": "c1", "value": ["(EthAddr('12:34:56:78:02:02'), EthAddr('12:34:56:78:01:02'))"], "timed_out": false, "dependent_labels": [], "time": [1372280165, 854147], "label": "i113", "class": "ControllerStateChange", "round": -1, "prunable": true}
{"name": null, "timeout_disallowed": false, "fingerprint": ["ControllerStateChange", "Dest unreachable (%s -> %s)", "c1"], "controller_id": "c1", "value": ["(EthAddr('12:34:56:78:02:02'), EthAddr('12:34:56:78:01:02'))"], "timed_out": false, "dependent_labels": [], "time": [1372280165, 855523], "label": "i114", "class": "ControllerStateChange", "round": -1, "prunable": true}
{"timeout_disallowed": false, "time": [1372280165, 950338], "controller_id": "c1", "fingerprint": ["ControlMessageReceive", {"in_port": 65535, "data": {"dl_dst": "12:34:56:78:02:02", "nw_src": "123.123.1.2", "dl_src": "00:00:00:00:00:01", "nw_dst": "123.123.2.2"}, "class": "ofp_packet_out", "actions": ["output(4)"]}, 1, "c1"], "timed_out": false, "dependent_labels": [], "dpid": 1, "label": "i115", "class": "ControlMessageReceive", "round": 72, "prunable": true}
{"timeout_disallowed": false, "fingerprint": ["DataplanePermit", {"dl_dst": "12:34:56:78:02:02", "nw_src": "123.123.1.2", "dl_src": "00:00:00:00:00:01", "nw_dst": "123.123.2.2"}, 1, 4], "timed_out": false, "label": "i116", "passive": true, "dependent_labels": [], "time": [1372280166, 51739], "class": "DataplanePermit", "round": 73, "prunable": true}
{"new_ingress_port_no": 5, "class": "HostMigration", "fingerprint": ["HostMigration", 1, 4, 1, 5, 2], "timed_out": false, "label": "e117", "dependent_labels": [], "new_ingress_dpid": 1, "time": [1372280166, 655491], "old_ingress_port_no": 4, "host_id": 2, "old_ingress_dpid": 1, "round": 79, "prunable": true}
{"dependent_labels": [], "class": "TrafficInjection", "fingerprint": ["TrafficInjection", {"interface": {"hw_addr": "12:34:56:78:02:02", "ips": ["123.123.2.2"], "name": "eth2"}, "packet": "EjRWeAICEjRWeAICCABFAABIVWwAAEABKk97ewICe3sCAgAADjdQaW5nUGluZ1BpbmdQaW5nUGluZ1BpbmdQaW5nUGluZ1BpbmdQaW5nUGluZ1Bpbmc="}, 2], "timed_out": false, "label": "e118", "dp_event": {"interface": {"hw_addr": "12:34:56:78:02:02", "ips": ["123.123.2.2"], "name": "eth2"}, "packet": "EjRWeAICEjRWeAICCABFAABIVWwAAEABKk97ewICe3sCAgAADjdQaW5nUGluZ1BpbmdQaW5nUGluZ1BpbmdQaW5nUGluZ1BpbmdQaW5nUGluZ1Bpbmc="}, "time": [1372280166, 656171], "host_id": 2, "round": 79, "prunable": true}
{"timeout_disallowed": false, "fingerprint": ["DataplanePermit", {"dl_dst": "12:34:56:78:02:02", "nw_src": "123.123.2.2", "dl_src": "12:34:56:78:02:02", "nw_dst": "123.123.2.2"}, "host:[IPAddr('123.123.2.2')]", "12:34:56:78:02:02"], "timed_out": false, "label": "i119", "passive": true, "dependent_labels": [], "time": [1372280166, 757798], "class": "DataplanePermit", "round": 80, "prunable": true}
{"timeout_disallowed": false, "time": [1372280166, 758399], "controller_id": "c1", "fingerprint": ["ControlMessageReceive", {"in_port": 65535, "data": {"class": "lldp"}, "class": "ofp_packet_out", "actions": ["output(3)"]}, 2, "c1"], "timed_out": false, "dependent_labels": [], "dpid": 2, "label": "i120", "class": "ControlMessageReceive", "round": 80, "prunable": true}
{"timeout_disallowed": false, "time": [1372280166, 758846], "controller_id": "c1", "fingerprint": ["ControlMessageSend", {"reason": 0, "class": "ofp_port_status", "desc": [5, "00:00:00:00:02:02"]}, 1, "c1"], "timed_out": false, "dependent_labels": [], "dpid": 1, "label": "i121", "class": "ControlMessageSend", "round": 80, "prunable": true}
{"timeout_disallowed": false, "time": [1372280166, 759188], "controller_id": "c1", "fingerprint": ["ControlMessageSend", {"reason": 1, "class": "ofp_port_status", "desc": [4, "00:00:00:00:02:02"]}, 1, "c1"], "timed_out": false, "dependent_labels": [], "dpid": 1, "label": "i122", "class": "ControlMessageSend", "round": 80, "prunable": true}
{"legacy_invariant_check": false, "class": "CheckInvariants", "fingerprint": "N/A", "timed_out": false, "label": "e123", "dependent_labels": [], "invariant_name": "check_for_loops_or_connectivity", "invariant_check_name": "check_for_loops_or_connectivity", "time": [1372280166, 759584], "invariant_check": null, "round": 80, "prunable": true}
{"dependent_labels": [], "class": "TrafficInjection", "fingerprint": ["TrafficInjection", {"interface": {"hw_addr": "12:34:56:78:01:02", "ips": ["123.123.1.2"], "name": "eth1"}, "packet": "EjRWeAICEjRWeAECCABFAAAcISkAAEABX757ewECe3sCAgAAISlwb25n"}, 1], "timed_out": false, "label": "e124", "dp_event": {"interface": {"hw_addr": "12:34:56:78:01:02", "ips": ["123.123.1.2"], "name": "eth1"}, "packet": "EjRWeAICEjRWeAECCABFAAAcISkAAEABX757ewECe3sCAgAAISlwb25n"}, "time": [1372280166, 768497], "host_id": 1, "round": 80, "prunable": true}
{"timeout_disallowed": false, "fingerprint": ["DataplanePermit", {"dl_dst": "12:34:56:78:02:02", "nw_src": "123.123.1.2", "dl_src": "12:34:56:78:01:02", "nw_dst": "123.123.2.2"}, "host:[IPAddr('123.123.1.2')]", "12:34:56:78:01:02"], "timed_out": false, "label": "i125", "passive": true, "dependent_labels": [], "time": [1372280166, 869946], "class": "DataplanePermit", "round": 81, "prunable": true}
{"class": "DataplaneDrop", "fingerprint": ["DataplaneDrop", {"dl_dst": "12:34:56:78:02:02", "nw_src": "123.123.2.2", "dl_src": "12:34:56:78:02:02", "nw_dst": "123.123.2.2"}, 1, 3], "timed_out": false, "label": "e126", "passive": true, "dependent_labels": [], "time": [1372280166, 870379], "round": 81, "prunable": true}
{"timeout_disallowed": false, "fingerprint": ["DataplanePermit", {"class": "lldp"}, 2, 3], "timed_out": false, "label": "i127", "passive": true, "dependent_labels": [], "time": [1372280166, 871061], "class": "DataplanePermit", "round": 81, "prunable": true}
{"timeout_disallowed": false, "time": [1372280166, 871348], "controller_id": "c1", "fingerprint": ["ControlMessageSend", {"data": {"dl_dst": "12:34:56:78:02:02", "nw_src": "123.123.1.2", "dl_src": "12:34:56:78:01:02", "nw_dst": "123.123.2.2"}, "class": "ofp_packet_in", "in_port": 3}, 2, "c1"], "timed_out": false, "dependent_labels": [], "dpid": 2, "label": "i128", "class": "ControlMessageSend", "round": 81, "prunable": true}
{"name": null, "timeout_disallowed": false, "fingerprint": ["ControllerStateChange", "Can't get from %s to %s", "c1"], "controller_id": "c1", "value": ["(EthAddr('12:34:56:78:01:02'), EthAddr('12:34:56:78:02:02'))"], "timed_out": false, "dependent_labels": [], "time": [1372280166, 873351], "label": "i129", "class": "ControllerStateChange", "round": -1, "prunable": true}
{"name": null, "timeout_disallowed": false, "fingerprint": ["ControllerStateChange", "Dest unreachable (%s -> %s)", "c1"], "controller_id": "c1", "value": ["(EthAddr('12:34:56:78:01:02'), EthAddr('12:34:56:78:02:02'))"], "timed_out": false, "dependent_labels": [], "time": [1372280166, 874508], "label": "i130", "class": "ControllerStateChange", "round": -1, "prunable": true}
{"timeout_disallowed": false, "time": [1372280166, 972607], "controller_id": "c1", "fingerprint": ["ControlMessageReceive", {"in_port": 65535, "data": {"dl_dst": "12:34:56:78:01:02", "nw_src": "123.123.2.2", "dl_src": "00:00:00:00:00:02", "nw_dst": "123.123.1.2"}, "class": "ofp_packet_out", "actions": ["output(3)"]}, 2, "c1"], "timed_out": false, "dependent_labels": [], "dpid": 2, "label": "i131", "class": "ControlMessageReceive", "round": 82, "prunable": true}
{"timeout_disallowed": false, "fingerprint": ["DataplanePermit", {"dl_dst": "12:34:56:78:01:02", "nw_src": "123.123.2.2", "dl_src": "00:00:00:00:00:02", "nw_dst": "123.123.1.2"}, 2, 3], "timed_out": false, "label": "i132", "passive": true, "dependent_labels": [], "time": [1372280167, 73995], "class": "DataplanePermit", "round": 83, "prunable": true}
{"dependent_labels": [], "class": "TrafficInjection", "fingerprint": ["TrafficInjection", {"interface": {"hw_addr": "12:34:56:78:02:02", "ips": ["123.123.2.2"], "name": "eth2"}, "packet": "////////EjRWeAICCAYAAQgABgQAARI0VngCAnt7AgIAAAAAAAB7ewEC"}, 2], "timed_out": false, "label": "e133", "dp_event": {"interface": {"hw_addr": "12:34:56:78:02:02", "ips": ["123.123.2.2"], "name": "eth2"}, "packet": "////////EjRWeAICCAYAAQgABgQAARI0VngCAnt7AgIAAAAAAAB7ewEC"}, "time": [1372280167, 774671], "host_id": 2, "round": 90, "prunable": true}
{"timeout_disallowed": false, "fingerprint": ["DataplanePermit", {"class": "arp"}, "host:[IPAddr('123.123.2.2')]", "12:34:56:78:02:02"], "timed_out": false, "label": "i134", "passive": true, "dependent_labels": [], "time": [1372280167, 876025], "class": "DataplanePermit", "round": 91, "prunable": true}
{"timeout_disallowed": false, "time": [1372280167, 876278], "controller_id": "c1", "fingerprint": ["ControlMessageSend", {"data": {"class": "arp"}, "class": "ofp_packet_in", "in_port": 5}, 1, "c1"], "timed_out": false, "dependent_labels": [], "dpid": 1, "label": "i135", "class": "ControlMessageSend", "round": 91, "prunable": true}
{"name": null, "timeout_disallowed": false, "fingerprint": ["ControllerStateChange", "%s moved from %s.%i to %s.%i?", "c1"], "controller_id": "c1", "value": ["(EthAddr('12:34:56:78:02:02'), '00-00-00-00-00-01', 4, '00-00-00-00-00-01', 5)"], "timed_out": false, "dependent_labels": [], "time": [1372280167, 878342], "label": "i136", "class": "ControllerStateChange", "round": -1, "prunable": true}
{"name": null, "timeout_disallowed": false, "fingerprint": ["ControllerStateChange", "Learned %s at %s.%i", "c1"], "controller_id": "c1", "value": ["(EthAddr('12:34:56:78:02:02'), 00-00-00-00-00-01, 5)"], "timed_out": false, "dependent_labels": [], "time": [1372280167, 879714], "label": "i137", "class": "ControllerStateChange", "round": -1, "prunable": true}
{"name": null, "timeout_disallowed": false, "fingerprint": ["ControllerStateChange", "Flood multicast from %s", "c1"], "controller_id": "c1", "value": ["(EthAddr('12:34:56:78:02:02'),)"], "timed_out": false, "dependent_labels": [], "time": [1372280167, 881028], "label": "i138", "class": "ControllerStateChange", "round": -1, "prunable": true}
{"timeout_disallowed": false, "time": [1372280167, 977823], "controller_id": "c1", "fingerprint": ["ControlMessageReceive", {"in_port": 5, "data": [], "class": "ofp_packet_out", "actions": ["output(65531)"]}, 1, "c1"], "timed_out": false, "dependent_labels": [], "dpid": 1, "label": "i139", "class": "ControlMessageReceive", "round": 92, "prunable": true}
{"timeout_disallowed": false, "fingerprint": ["DataplanePermit", {"class": "arp"}, 1, 1], "timed_out": false, "label": "i140", "passive": true, "dependent_labels": [], "time": [1372280168, 79205], "class": "DataplanePermit", "round": 93, "prunable": true}
{"class": "DataplaneDrop", "fingerprint": ["DataplaneDrop", {"class": "arp"}, 1, 4], "timed_out": false, "label": "e141", "passive": true, "dependent_labels": [], "time": [1372280168, 79506], "round": 93, "prunable": true}
{"class": "DataplaneDrop", "fingerprint": ["DataplaneDrop", {"class": "arp"}, 1, 2], "timed_out": false, "label": "e142", "passive": true, "dependent_labels": [], "time": [1372280168, 79797], "round": 93, "prunable": true}
{"class": "DataplaneDrop", "fingerprint": ["DataplaneDrop", {"class": "arp"}, 1, 3], "timed_out": false, "label": "e143", "passive": true, "dependent_labels": [], "time": [1372280168, 80084], "round": 93, "prunable": true}
{"timeout_disallowed": false, "time": [1372280168, 80518], "controller_id": "c1", "fingerprint": ["ControlMessageReceive", {"in_port": 65535, "data": {"class": "lldp"}, "class": "ofp_packet_out", "actions": ["output(1)"]}, 2, "c1"], "timed_out": false, "dependent_labels": [], "dpid": 2, "label": "i144", "class": "ControlMessageReceive", "round": 93, "prunable": true}
{"timeout_disallowed": false, "time": [1372280168, 80917], "controller_id": "c1", "fingerprint": ["ControlMessageSend", {"data": {"class": "arp"}, "class": "ofp_packet_in", "in_port": 1}, 2, "c1"], "timed_out": false, "dependent_labels": [], "dpid": 2, "label": "i145", "class": "ControlMessageSend", "round": 93, "prunable": true}
{"name": null, "timeout_disallowed": false, "fingerprint": ["ControllerStateChange", "%s moved from %s.%i to %s.%i?", "c1"], "controller_id": "c1", "value": ["(EthAddr('12:34:56:78:02:02'), '00-00-00-00-00-01', 5, '00-00-00-00-00-02', 1)"], "timed_out": false, "dependent_labels": [], "time": [1372280168, 83041], "label": "i146", "class": "ControllerStateChange", "round": -1, "prunable": true}
{"name": null, "timeout_disallowed": false, "fingerprint": ["ControllerStateChange", "Learned %s at %s.%i", "c1"], "controller_id": "c1", "value": ["(EthAddr('12:34:56:78:02:02'), 00-00-00-00-00-02, 1)"], "timed_out": false, "dependent_labels": [], "time": [1372280168, 84436], "label": "i147", "class": "ControllerStateChange", "round": -1, "prunable": true}
{"name": null, "timeout_disallowed": false, "fingerprint": ["ControllerStateChange", "Flood multicast from %s", "c1"], "controller_id": "c1", "value": ["(EthAddr('12:34:56:78:02:02'),)"], "timed_out": false, "dependent_labels": [], "time": [1372280168, 85769], "label": "i148", "class": "ControllerStateChange", "round": -1, "prunable": true}
{"class": "DataplaneDrop", "fingerprint": ["DataplaneDrop", {"class": "lldp"}, 2, 1], "timed_out": false, "label": "e149", "passive": true, "dependent_labels": [], "time": [1372280168, 181778], "round": 94, "prunable": true}
{"timeout_disallowed": false, "time": [1372280168, 182331], "controller_id": "c1", "fingerprint": ["ControlMessageReceive", {"in_port": 1, "data": [], "class": "ofp_packet_out", "actions": ["output(65531)"]}, 2, "c1"], "timed_out": false, "dependent_labels": [], "dpid": 2, "label": "i150", "class": "ControlMessageReceive", "round": 94, "prunable": true}
{"timeout_disallowed": false, "fingerprint": ["DataplanePermit", {"class": "arp"}, 2, 3], "timed_out": false, "label": "i151", "passive": true, "dependent_labels": [], "time": [1372280168, 283563], "class": "DataplanePermit", "round": 95, "prunable": true}
{"class": "DataplaneDrop", "fingerprint": ["DataplaneDrop", {"class": "arp"}, 2, 2], "timed_out": false, "label": "e152", "passive": true, "dependent_labels": [], "time": [1372280168, 283822], "round": 95, "prunable": true}
{"new_ingress_port_no": 6, "class": "HostMigration", "fingerprint": ["HostMigration", 1, 5, 1, 6, 2], "timed_out": false, "label": "e153", "dependent_labels": [], "new_ingress_dpid": 1, "time": [1372280168, 284488], "old_ingress_port_no": 5, "host_id": 2, "old_ingress_dpid": 1, "round": 95, "prunable": true}
{"dependent_labels": [], "class": "TrafficInjection", "fingerprint": ["TrafficInjection", {"interface": {"hw_addr": "12:34:56:78:02:02", "ips": ["123.123.2.2"], "name": "eth2"}, "packet": "EjRWeAICEjRWeAICCABFAABIVXIAAEABKkl7ewICe3sCAgAADjdQaW5nUGluZ1BpbmdQaW5nUGluZ1BpbmdQaW5nUGluZ1BpbmdQaW5nUGluZ1Bpbmc="}, 2], "timed_out": false, "label": "e154", "dp_event": {"interface": {"hw_addr": "12:34:56:78:02:02", "ips": ["123.123.2.2"], "name": "eth2"}, "packet": "EjRWeAICEjRWeAICCABFAABIVXIAAEABKkl7ewICe3sCAgAADjdQaW5nUGluZ1BpbmdQaW5nUGluZ1BpbmdQaW5nUGluZ1BpbmdQaW5nUGluZ1Bpbmc="}, "time": [1372280168, 285010], "host_id": 2, "round": 95, "prunable": true}
{"new_ingress_port_no": 4, "class": "HostMigration", "fingerprint": ["HostMigration", 2, 3, 2, 4, 1], "timed_out": false, "label": "e155", "dependent_labels": [], "new_ingress_dpid": 2, "time": [1372280168, 285748], "old_ingress_port_no": 3, "host_id": 1, "old_ingress_dpid": 2, "round": 95, "prunable": true}
{"dependent_labels": [], "class": "TrafficInjection", "fingerprint": ["TrafficInjection", {"interface": {"hw_addr": "12:34:56:78:01:02", "ips": ["123.123.1.2"], "name": "eth1"}, "packet": "EjRWeAECEjRWeAECCABFAABIVXMAAEABLEh7ewECe3sBAgAADjdQaW5nUGluZ1BpbmdQaW5nUGluZ1BpbmdQaW5nUGluZ1BpbmdQaW5nUGluZ1Bpbmc="}, 1], "timed_out": false, "label": "e156", "dp_event": {"interface": {"hw_addr": "12:34:56:78:01:02", "ips": ["123.123.1.2"], "name": "eth1"}, "packet": "EjRWeAECEjRWeAECCABFAABIVXMAAEABLEh7ewECe3sBAgAADjdQaW5nUGluZ1BpbmdQaW5nUGluZ1BpbmdQaW5nUGluZ1BpbmdQaW5nUGluZ1Bpbmc="}, "time": [1372280168, 286282], "host_id": 1, "round": 95, "prunable": true}
{"timeout_disallowed": false, "fingerprint": ["DataplanePermit", {"dl_dst": "12:34:56:78:02:02", "nw_src": "123.123.2.2", "dl_src": "12:34:56:78:02:02", "nw_dst": "123.123.2.2"}, "host:[IPAddr('123.123.2.2')]", "12:34:56:78:02:02"], "timed_out": false, "label": "i157", "passive": true, "dependent_labels": [], "time": [1372280168, 387821], "class": "DataplanePermit", "round": 96, "prunable": true}
{"class": "DataplaneDrop", "fingerprint": ["DataplaneDrop", {"dl_dst": "12:34:56:78:01:02", "nw_src": "123.123.1.2", "dl_src": "12:34:56:78:01:02", "nw_dst": "123.123.1.2"}, "host:[IPAddr('123.123.1.2')]", "12:34:56:78:01:02"], "timed_out": false, "label": "e158", "passive": true, "dependent_labels": [], "time": [1372280168, 388227], "round": 96, "prunable": true}
{"timeout_disallowed": false, "time": [1372280168, 388610], "controller_id": "c1", "fingerprint": ["ControlMessageSend", {"reason": 0, "class": "ofp_port_status", "desc": [4, "00:00:00:00:01:02"]}, 2, "c1"], "timed_out": false, "dependent_labels": [], "dpid": 2, "label": "i159", "class": "ControlMessageSend", "round": 96, "prunable": true}
{"timeout_disallowed": false, "time": [1372280168, 388927], "controller_id": "c1", "fingerprint": ["ControlMessageSend", {"reason": 1, "class": "ofp_port_status", "desc": [3, "00:00:00:00:01:02"]}, 2, "c1"], "timed_out": false, "dependent_labels": [], "dpid": 2, "label": "i160", "class": "ControlMessageSend", "round": 96, "prunable": true}
{"timeout_disallowed": false, "time": [1372280168, 389236], "controller_id": "c1", "fingerprint": ["ControlMessageSend", {"reason": 1, "class": "ofp_port_status", "desc": [5, "00:00:00:00:02:02"]}, 1, "c1"], "timed_out": false, "dependent_labels": [], "dpid": 1, "label": "i161", "class": "ControlMessageSend", "round": 96, "prunable": true}
{"timeout_disallowed": false, "time": [1372280168, 389546], "controller_id": "c1", "fingerprint": ["ControlMessageSend", {"reason": 0, "class": "ofp_port_status", "desc": [6, "00:00:00:00:02:02"]}, 1, "c1"], "timed_out": false, "dependent_labels": [], "dpid": 1, "label": "i162", "class": "ControlMessageSend", "round": 96, "prunable": true}
{"class": "DataplaneDrop", "fingerprint": ["DataplaneDrop", {"dl_dst": "12:34:56:78:02:02", "nw_src": "123.123.2.2", "dl_src": "12:34:56:78:02:02", "nw_dst": "123.123.2.2"}, 1, 3], "timed_out": false, "label": "e163", "passive": true, "dependent_labels": [], "time": [1372280168, 490312], "round": 97, "prunable": true}
{"legacy_invariant_check": false, "class": "CheckInvariants", "fingerprint": "N/A", "timed_out": false, "label": "e164", "dependent_labels": [], "invariant_name": "check_for_loops_or_connectivity", "invariant_check_name": "check_for_loops_or_connectivity", "time": [1372280168, 792054], "invariant_check": null, "round": 100, "prunable": true}
{"dependent_labels": [], "class": "TrafficInjection", "fingerprint": ["TrafficInjection", {"interface": {"hw_addr": "12:34:56:78:01:02", "ips": ["123.123.1.2"], "name": "eth1"}, "packet": "EjRWeAICEjRWeAECCAYAAQgABgQAAhI0VngBAnt7AQISNFZ4AgJ7ewIC"}, 1], "timed_out": false, "label": "e165", "dp_event": {"interface": {"hw_addr": "12:34:56:78:01:02", "ips": ["123.123.1.2"], "name": "eth1"}, "packet": "EjRWeAICEjRWeAECCAYAAQgABgQAAhI0VngBAnt7AQISNFZ4AgJ7ewIC"}, "time": [1372280168, 801189], "host_id": 1, "round": 100, "prunable": true}
{"timeout_disallowed": false, "fingerprint": ["DataplanePermit", {"class": "arp"}, "host:[IPAddr('123.123.1.2')]", "12:34:56:78:01:02"], "timed_out": false, "label": "i166", "passive": true, "dependent_labels": [], "time": [1372280168, 902546], "class": "DataplanePermit", "round": 101, "prunable": true}
{"timeout_disallowed": false, "time": [1372280168, 902825], "controller_id": "c1", "fingerprint": ["ControlMessageSend", {"data": {"class": "arp"}, "class": "ofp_packet_in", "in_port": 4}, 2, "c1"], "timed_out": false, "dependent_labels": [], "dpid": 2, "label": "i167", "class": "ControlMessageSend", "round": 101, "prunable": true}
{"name": null, "timeout_disallowed": false, "fingerprint": ["ControllerStateChange", "%s moved from %s.%i to %s.%i?", "c1"], "controller_id": "c1", "value": ["(EthAddr('12:34:56:78:01:02'), '00-00-00-00-00-02', 3, '00-00-00-00-00-02', 4)"], "timed_out": false, "dependent_labels": [], "time": [1372280168, 904963], "label": "i168", "class": "ControllerStateChange", "round": -1, "prunable": true}
{"name": null, "timeout_disallowed": false, "fingerprint": ["ControllerStateChange", "Learned %s at %s.%i", "c1"], "controller_id": "c1", "value": ["(EthAddr('12:34:56:78:01:02'), 00-00-00-00-00-02, 4)"], "timed_out": false, "dependent_labels": [], "time": [1372280168, 906339], "label": "i169", "class": "ControllerStateChange", "round": -1, "prunable": true}
{"name": null, "timeout_disallowed": false, "fingerprint": ["ControllerStateChange", "Installing path for %s -> %s %04x (%i hops)", "c1"], "controller_id": "c1", "value": ["(EthAddr('12:34:56:78:01:02'), EthAddr('12:34:56:78:02:02'), 2054, 1)"], "timed_out": false, "dependent_labels": [], "time": [1372280168, 908823], "label": "i170", "class": "ControllerStateChange", "round": -1, "prunable": true}
{"timeout_disallowed": false, "time": [1372280169, 3970], "controller_id": "c1", "fingerprint": ["ControlMessageReceive", {"hard_timeout": 30, "actions": ["output(1)"], "priority": 32768, "idle_timeout": 10, "command": "add", "out_port": 65535, "flags": 0, "class": "ofp_flow_mod", "match": "dl_src:12:34:56:78:01:02,dl_dst:12:34:56:78:02:02,dl_vlan:65535,dl_vlan_pcp:0,dl_type:2054,nw_proto:2,nw_src:123.123.1.2/32,nw_dst:123.123.2.2/32"}, 2, "c1"], "timed_out": false, "dependent_labels": [], "dpid": 2, "label": "i171", "class": "ControlMessageReceive", "round": 102, "prunable": true}
{"timeout_disallowed": false, "fingerprint": ["DataplanePermit", {"class": "arp"}, 2, 1], "timed_out": false, "label": "i172", "passive": true, "dependent_labels": [], "time": [1372280169, 105652], "class": "DataplanePermit", "round": 103, "prunable": true}
{"new_ingress_port_no": 5, "class": "HostMigration", "fingerprint": ["HostMigration", 2, 4, 2, 5, 1], "timed_out": false, "label": "e173", "dependent_labels": [], "new_ingress_dpid": 2, "time": [1372280169, 307269], "old_ingress_port_no": 4, "host_id": 1, "old_ingress_dpid": 2, "round": 105, "prunable": true}
{"dependent_labels": [], "class": "TrafficInjection", "fingerprint": ["TrafficInjection", {"interface": {"hw_addr": "12:34:56:78:01:02", "ips": ["123.123.1.2"], "name": "eth1"}, "packet": "EjRWeAECEjRWeAECCABFAABIVXQAAEABLEd7ewECe3sBAggABjdQaW5nUGluZ1BpbmdQaW5nUGluZ1BpbmdQaW5nUGluZ1BpbmdQaW5nUGluZ1Bpbmc="}, 1], "timed_out": false, "label": "e174", "dp_event": {"interface": {"hw_addr": "12:34:56:78:01:02", "ips": ["123.123.1.2"], "name": "eth1"}, "packet": "EjRWeAECEjRWeAECCABFAABIVXQAAEABLEd7ewECe3sBAggABjdQaW5nUGluZ1BpbmdQaW5nUGluZ1BpbmdQaW5nUGluZ1BpbmdQaW5nUGluZ1Bpbmc="}, "time": [1372280169, 307798], "host_id": 1, "round": 105, "prunable": true}
{"timeout_disallowed": false, "fingerprint": ["DataplanePermit", {"dl_dst": "12:34:56:78:01:02", "nw_src": "123.123.1.2", "dl_src": "12:34:56:78:01:02", "nw_dst": "123.123.1.2"}, "host:[IPAddr('123.123.1.2')]", "12:34:56:78:01:02"], "timed_out": false, "label": "i175", "passive": true, "dependent_labels": [], "time": [1372280169, 409278], "class": "DataplanePermit", "round": 106, "prunable": true}
{"timeout_disallowed": false, "time": [1372280169, 409669], "controller_id": "c1", "fingerprint": ["ControlMessageSend", {"reason": 0, "class": "ofp_port_status", "desc": [5, "00:00:00:00:01:02"]}, 2, "c1"], "timed_out": false, "dependent_labels": [], "dpid": 2, "label": "i176", "class": "ControlMessageSend", "round": 106, "prunable": true}
{"timeout_disallowed": false, "time": [1372280169, 410012], "controller_id": "c1", "fingerprint": ["ControlMessageSend", {"data": {"dl_dst": "12:34:56:78:01:02", "nw_src": "123.123.1.2", "dl_src": "12:34:56:78:01:02", "nw_dst": "123.123.1.2"}, "class": "ofp_packet_in", "in_port": 5}, 2, "c1"], "timed_out": false, "dependent_labels": [], "dpid": 2, "label": "i177", "class": "ControlMessageSend", "round": 106, "prunable": true}
{"timeout_disallowed": false, "time": [1372280169, 410502], "controller_id": "c1", "fingerprint": ["ControlMessageSend", {"reason": 1, "class": "ofp_port_status", "desc": [4, "00:00:00:00:01:02"]}, 2, "c1"], "timed_out": false, "dependent_labels": [], "dpid": 2, "label": "i178", "class": "ControlMessageSend", "round": 106, "prunable": true}
{"name": null, "timeout_disallowed": false, "fingerprint": ["ControllerStateChange", "%s moved from %s.%i to %s.%i?", "c1"], "controller_id": "c1", "value": ["(EthAddr('12:34:56:78:01:02'), '00-00-00-00-00-02', 4, '00-00-00-00-00-02', 5)"], "timed_out": false, "dependent_labels": [], "time": [1372280169, 414657], "label": "i179", "class": "ControllerStateChange", "round": -1, "prunable": true}
{"name": null, "timeout_disallowed": false, "fingerprint": ["ControllerStateChange", "Learned %s at %s.%i", "c1"], "controller_id": "c1", "value": ["(EthAddr('12:34:56:78:01:02'), 00-00-00-00-00-02, 5)"], "timed_out": false, "dependent_labels": [], "time": [1372280169, 416031], "label": "i180", "class": "ControllerStateChange", "round": -1, "prunable": true}
{"name": null, "timeout_disallowed": false, "fingerprint": ["ControllerStateChange", "Installing path for %s -> %s %04x (%i hops)", "c1"], "controller_id": "c1", "value": ["(EthAddr('12:34:56:78:01:02'), EthAddr('12:34:56:78:01:02'), 2048, 1)"], "timed_out": false, "dependent_labels": [], "time": [1372280169, 418596], "label": "i181", "class": "ControllerStateChange", "round": -1, "prunable": true}
{"timeout_disallowed": false, "time": [1372280169, 511729], "controller_id": "c1", "fingerprint": ["ControlMessageReceive", {"hard_timeout": 30, "actions": ["output(5)"], "priority": 32768, "idle_timeout": 10, "command": "add", "out_port": 65535, "flags": 0, "class": "ofp_flow_mod", "match": "dl_src:12:34:56:78:01:02,dl_dst:12:34:56:78:01:02,dl_vlan:65535,dl_vlan_pcp:0,dl_type:2048,nw_tos:0,nw_proto:1,nw_src:123.123.1.2/32,nw_dst:123.123.1.2/32,tp_src:8,tp_dst:0"}, 2, "c1"], "timed_out": false, "dependent_labels": [], "dpid": 2, "label": "i182", "class": "ControlMessageReceive", "round": 107, "prunable": true}
{"dependent_labels": [], "class": "TrafficInjection", "fingerprint": ["TrafficInjection", {"interface": {"hw_addr": "12:34:56:78:02:02", "ips": ["123.123.2.2"], "name": "eth2"}, "packet": "EjRWeAECEjRWeAICCABFAAAcISgAAEABX797ewICe3sBAggAGS9waW5n"}, 2], "timed_out": false, "label": "e183", "dp_event": {"interface": {"hw_addr": "12:34:56:78:02:02", "ips": ["123.123.2.2"], "name": "eth2"}, "packet": "EjRWeAECEjRWeAICCABFAAAcISgAAEABX797ewICe3sBAggAGS9waW5n"}, "time": [1372280169, 814338], "host_id": 2, "round": 110, "prunable": true}
{"timeout_disallowed": false, "fingerprint": ["DataplanePermit", {"dl_dst": "12:34:56:78:01:02", "nw_src": "123.123.2.2", "dl_src": "12:34:56:78:02:02", "nw_dst": "123.123.1.2"}, "host:[IPAddr('123.123.2.2')]", "12:34:56:78:02:02"], "timed_out": false, "label": "i184", "passive": true, "dependent_labels": [], "time": [1372280169, 915858], "class": "DataplanePermit", "round": 111, "prunable": true}
{"timeout_disallowed": false, "time": [1372280169, 916249], "controller_id": "c1", "fingerprint": ["ControlMessageSend", {"data": {"dl_dst": "12:34:56:78:01:02", "nw_src": "123.123.2.2", "dl_src": "12:34:56:78:02:02", "nw_dst": "123.123.1.2"}, "class": "ofp_packet_in", "in_port": 6}, 1, "c1"], "timed_out": false, "dependent_labels": [], "dpid": 1, "label": "i185", "class": "ControlMessageSend", "round": 111, "prunable": true}
{"name": null, "timeout_disallowed": false, "fingerprint": ["ControllerStateChange", "%s moved from %s.%i to %s.%i?", "c1"], "controller_id": "c1", "value": ["(EthAddr('12:34:56:78:02:02'), '00-00-00-00-00-02', 1, '00-00-00-00-00-01', 6)"], "timed_out": false, "dependent_labels": [], "time": [1372280169, 918561], "label": "i186", "class": "ControllerStateChange", "round": -1, "prunable": true}
{"name": null, "timeout_disallowed": false, "fingerprint": ["ControllerStateChange", "Learned %s at %s.%i", "c1"], "controller_id": "c1", "value": ["(EthAddr('12:34:56:78:02:02'), 00-00-00-00-00-01, 6)"], "timed_out": false, "dependent_labels": [], "time": [1372280169, 919866], "label": "i187", "class": "ControllerStateChange", "round": -1, "prunable": true}
{"name": null, "timeout_disallowed": false, "fingerprint": ["ControllerStateChange", "Can't get from %s to %s", "c1"], "controller_id": "c1", "value": ["(EthAddr('12:34:56:78:02:02'), EthAddr('12:34:56:78:01:02'))"], "timed_out": false, "dependent_labels": [], "time": [1372280169, 921321], "label": "i188", "class": "ControllerStateChange", "round": -1, "prunable": true}
{"name": null, "timeout_disallowed": false, "fingerprint": ["ControllerStateChange", "Dest unreachable (%s -> %s)", "c1"], "controller_id": "c1", "value": ["(EthAddr('12:34:56:78:02:02'), EthAddr('12:34:56:78:01:02'))"], "timed_out": false, "dependent_labels": [], "time": [1372280169, 922706], "label": "i189", "class": "ControllerStateChange", "round": -1, "prunable": true}
{"timeout_disallowed": false, "time": [1372280170, 17736], "controller_id": "c1", "fingerprint": ["ControlMessageReceive", {"in_port": 65535, "data": {"dl_dst": "12:34:56:78:02:02", "nw_src": "123.123.1.2", "dl_src": "00:00:00:00:00:01", "nw_dst": "123.123.2.2"}, "class": "ofp_packet_out", "actions": ["output(6)"]}, 1, "c1"], "timed_out": false, "dependent_labels": [], "dpid": 1, "label": "i190", "class": "ControlMessageReceive", "round": 112, "prunable": true}
{"timeout_disallowed": false, "fingerprint": ["DataplanePermit", {"dl_dst": "12:34:56:78:02:02", "nw_src": "123.123.1.2", "dl_src": "00:00:00:00:00:01", "nw_dst": "123.123.2.2"}, 1, 6], "timed_out": false, "label": "i191", "passive": true, "dependent_labels": [], "time": [1372280170, 119159], "class": "DataplanePermit", "round": 113, "prunable": true}
{"timeout_disallowed": false, "time": [1372280170, 722570], "controller_id": "c1", "fingerprint": ["ControlMessageReceive", {"in_port": 65535, "data": {"class": "lldp"}, "class": "ofp_packet_out", "actions": ["output(1)"]}, 1, "c1"], "timed_out": false, "dependent_labels": [], "dpid": 1, "label": "i192", "class": "ControlMessageReceive", "round": 119, "prunable": true}
{"timeout_disallowed": false, "fingerprint": ["DataplanePermit", {"class": "lldp"}, 1, 1], "timed_out": false, "label": "i193", "passive": true, "dependent_labels": [], "time": [1372280170, 824050], "class": "DataplanePermit", "round": 120, "prunable": true}
{"timeout_disallowed": false, "time": [1372280170, 824300], "controller_id": "c1", "fingerprint": ["ControlMessageSend", {"data": {"class": "lldp"}, "class": "ofp_packet_in", "in_port": 1}, 2, "c1"], "timed_out": false, "dependent_labels": [], "dpid": 2, "label": "i194", "class": "ControlMessageSend", "round": 120, "prunable": true}
{"legacy_invariant_check": false, "class": "CheckInvariants", "fingerprint": "N/A", "timed_out": false, "label": "e195", "dependent_labels": [], "invariant_name": "check_for_loops_or_connectivity", "invariant_check_name": "check_for_loops_or_connectivity", "time": [1372280170, 824720], "invariant_check": null, "round": 120, "prunable": true}
{"fingerprint": ["InvariantViolation"], "dependent_labels": [], "time": [1372280170, 836218], "violations": ["{'hs_history': [x^L, dl_src:12:34:56:78:01:02,dl_dst:12:34:56:78:02:02,dl_vlan:65535,dl_vlan_pcp:0,dl_type:2054,nw_proto:2,nw_src:123.123.1.2/32,nw_dst:123.123.2.2/32], 'hdr': dl_src:12:34:56:78:01:02,dl_dst:12:34:56:78:02:02,dl_vlan:65535,dl_vlan_pcp:0,dl_type:2054,nw_proto:2,nw_src:123.123.1.2/32,nw_dst:123.123.2.2/32, 'visits': [100001, 200001], 'port': 100001}", "{'hs_history': [x^L, dl_src:12:34:56:78:01:02,dl_dst:12:34:56:78:02:02,dl_vlan:65535,dl_vlan_pcp:0,dl_type:2054,nw_proto:2,nw_src:123.123.1.2/32,nw_dst:123.123.2.2/32], 'hdr': dl_src:12:34:56:78:01:02,dl_dst:12:34:56:78:02:02,dl_vlan:65535,dl_vlan_pcp:0,dl_type:2054,nw_proto:2,nw_src:123.123.1.2/32,nw_dst:123.123.2.2/32, 'visits': [200001, 100001], 'port': 200001}"], "prunable": true, "class": "InvariantViolation", "timed_out": false, "round": 120, "label": "e196"}
{"wait_time": 1.0, "dependent_labels": [], "fingerprint": ["WaitTime"], "time": [1372280170, 836218], "class": "WaitTime", "prunable": true, "timed_out": false, "round": -1, "label": "e197"}
