{
  "_iteration": 65,
  "_runtime_stats_path": "experiments/load_balancer_fuzzer_mcs/intermcs_20_/runtime_stats.json",
  "ambiguous_counts": {},
  "ambiguous_events": {},
  "buffered_message_receipts": {
    "10": [
      "PendingReceive(dpid=3, controller_id='c1', fingerprint=OFFingerprint{'actions': ('output(65531)',), 'data': DPFingerprint{'class': 'arp'}, 'class': 'ofp_packet_out', 'in_port': 65535})",
      "PendingReceive(dpid=2, controller_id='c1', fingerprint=OFFingerprint{'actions': ('output(2)',), 'data': DPFingerprint{'class': 'lldp'}, 'class': 'ofp_packet_out', 'in_port': 65535})",
      "PendingReceive(dpid=2, controller_id='c1', fingerprint=OFFingerprint{'actions': ('output(3)',), 'data': DPFingerprint{'class': 'lldp'}, 'class': 'ofp_packet_out', 'in_port': 65535})"
    ],
    "11": [
      "PendingReceive(dpid=3, controller_id='c1', fingerprint=OFFingerprint{'actions': ('output(65531)',), 'data': DPFingerprint{'class': 'arp'}, 'class': 'ofp_packet_out', 'in_port': 65535})",
      "PendingReceive(dpid=2, controller_id='c1', fingerprint=OFFingerprint{'actions': ('output(2)',), 'data': DPFingerprint{'class': 'lldp'}, 'class': 'ofp_packet_out', 'in_port': 65535})",
      "PendingReceive(dpid=2, controller_id='c1', fingerprint=OFFingerprint{'actions': ('output(3)',), 'data': DPFingerprint{'class': 'lldp'}, 'class': 'ofp_packet_out', 'in_port': 65535})"
    ],
    "12": [
      "PendingReceive(dpid=3, controller_id='c1', fingerprint=OFFingerprint{'actions': ('output(65531)',), 'data': DPFingerprint{'class': 'arp'}, 'class': 'ofp_packet_out', 'in_port': 65535})",
      "PendingReceive(dpid=2, controller_id='c1', fingerprint=OFFingerprint{'actions': ('output(2)',), 'data': DPFingerprint{'class': 'lldp'}, 'class': 'ofp_packet_out', 'in_port': 65535})",
      "PendingReceive(dpid=2, controller_id='c1', fingerprint=OFFingerprint{'actions': ('output(3)',), 'data': DPFingerprint{'class': 'lldp'}, 'class': 'ofp_packet_out', 'in_port': 65535})"
    ],
    "13": [
      "PendingReceive(dpid=3, controller_id='c1', fingerprint=OFFingerprint{'actions': ('output(65531)',), 'data': DPFingerprint{'class': 'arp'}, 'class': 'ofp_packet_out', 'in_port': 65535})",
      "PendingReceive(dpid=2, controller_id='c1', fingerprint=OFFingerprint{'actions': ('output(2)',), 'data': DPFingerprint{'class': 'lldp'}, 'class': 'ofp_packet_out', 'in_port': 65535})",
      "PendingReceive(dpid=2, controller_id='c1', fingerprint=OFFingerprint{'actions': ('output(3)',), 'data': DPFingerprint{'class': 'lldp'}, 'class': 'ofp_packet_out', 'in_port': 65535})"
    ],
    "14": [
      "PendingReceive(dpid=3, controller_id='c1', fingerprint=OFFingerprint{'actions': ('output(65531)',), 'data': DPFingerprint{'class': 'arp'}, 'class': 'ofp_packet_out', 'in_port': 65535})",
      "PendingReceive(dpid=2, controller_id='c1', fingerprint=OFFingerprint{'actions': ('output(2)',), 'data': DPFingerprint{'class': 'lldp'}, 'class': 'ofp_packet_out', 'in_port': 65535})",
      "PendingReceive(dpid=2, controller_id='c1', fingerprint=OFFingerprint{'actions': ('output(3)',), 'data': DPFingerprint{'class': 'lldp'}, 'class': 'ofp_packet_out', 'in_port': 65535})"
    ],
    "15": [
      "PendingReceive(dpid=3, controller_id='c1', fingerprint=OFFingerprint{'actions': ('output(65531)',), 'data': DPFingerprint{'class': 'arp'}, 'class': 'ofp_packet_out', 'in_port': 65535})",
      "PendingReceive(dpid=2, controller_id='c1', fingerprint=OFFingerprint{'actions': ('output(2)',), 'data': DPFingerprint{'class': 'lldp'}, 'class': 'ofp_packet_out', 'in_port': 65535})",
      "PendingReceive(dpid=2, controller_id='c1', fingerprint=OFFingerprint{'actions': ('output(3)',), 'data': DPFingerprint{'class': 'lldp'}, 'class': 'ofp_packet_out', 'in_port': 65535})"
    ],
    "16": [
      "PendingReceive(dpid=3, controller_id='c1', fingerprint=OFFingerprint{'actions': ('output(65531)',), 'data': DPFingerprint{'class': 'arp'}, 'class': 'ofp_packet_out', 'in_port': 65535})",
      "PendingReceive(dpid=2, controller_id='c1', fingerprint=OFFingerprint{'actions': ('output(2)',), 'data': DPFingerprint{'class': 'lldp'}, 'class': 'ofp_packet_out', 'in_port': 65535})",
      "PendingReceive(dpid=2, controller_id='c1', fingerprint=OFFingerprint{'actions': ('output(3)',), 'data': DPFingerprint{'class': 'lldp'}, 'class': 'ofp_packet_out', 'in_port': 65535})"
    ],
    "17": [
      "PendingReceive(dpid=3, controller_id='c1', fingerprint=OFFingerprint{'actions': ('output(65531)',), 'data': DPFingerprint{'class': 'arp'}, 'class': 'ofp_packet_out', 'in_port': 65535})",
      "PendingReceive(dpid=2, controller_id='c1', fingerprint=OFFingerprint{'actions': ('output(2)',), 'data': DPFingerprint{'class': 'lldp'}, 'class': 'ofp_packet_out', 'in_port': 65535})",
      "PendingReceive(dpid=2, controller_id='c1', fingerprint=OFFingerprint{'actions': ('output(3)',), 'data': DPFingerprint{'class': 'lldp'}, 'class': 'ofp_packet_out', 'in_port': 65535})"
    ],
    "18": [
      "PendingReceive(dpid=3, controller_id='c1', fingerprint=OFFingerprint{'actions': ('output(65531)',), 'data': DPFingerprint{'class': 'arp'}, 'class': 'ofp_packet_out', 'in_port': 65535})",
      "PendingReceive(dpid=2, controller_id='c1', fingerprint=OFFingerprint{'actions': ('output(2)',), 'data': DPFingerprint{'class': 'lldp'}, 'class': 'ofp_packet_out', 'in_port': 65535})",
      "PendingReceive(dpid=2, controller_id='c1', fingerprint=OFFingerprint{'actions': ('output(3)',), 'data': DPFingerprint{'class': 'lldp'}, 'class': 'ofp_packet_out', 'in_port': 65535})"
    ],
    "19": [
      "PendingReceive(dpid=3, controller_id='c1', fingerprint=OFFingerprint{'actions': ('output(65531)',), 'data': DPFingerprint{'class': 'arp'}, 'class': 'ofp_packet_out', 'in_port': 65535})",
      "PendingReceive(dpid=2, controller_id='c1', fingerprint=OFFingerprint{'actions': ('output(2)',), 'data': DPFingerprint{'class': 'lldp'}, 'class': 'ofp_packet_out', 'in_port': 65535})",
      "PendingReceive(dpid=2, controller_id='c1', fingerprint=OFFingerprint{'actions': ('output(3)',), 'data': DPFingerprint{'class': 'lldp'}, 'class': 'ofp_packet_out', 'in_port': 65535})"
    ],
    "2": [
      "PendingReceive(dpid=1, controller_id='c1', fingerprint=OFFingerprint{'actions': ('output(1)',), 'data': DPFingerprint{'class': 'lldp'}, 'class': 'ofp_packet_out', 'in_port': 65535})",
      "PendingReceive(dpid=1, controller_id='c1', fingerprint=OFFingerprint{'actions': ('output(2)',), 'data': DPFingerprint{'class': 'lldp'}, 'class': 'ofp_packet_out', 'in_port': 65535})",
      "PendingReceive(dpid=1, controller_id='c1', fingerprint=OFFingerprint{'actions': ('output(3)',), 'data': DPFingerprint{'class': 'lldp'}, 'class': 'ofp_packet_out', 'in_port': 65535})",
      "PendingReceive(dpid=3, controller_id='c1', fingerprint=OFFingerprint{'actions': ('output(2)',), 'data': DPFingerprint{'class': 'lldp'}, 'class': 'ofp_packet_out', 'in_port': 65535})",
      "PendingReceive(dpid=3, controller_id='c1', fingerprint=OFFingerprint{'actions': ('output(3)',), 'data': DPFingerprint{'class': 'lldp'}, 'class': 'ofp_packet_out', 'in_port': 65535})",
      "PendingReceive(dpid=3, controller_id='c1', fingerprint=OFFingerprint{'actions': ('output(65531)',), 'data': DPFingerprint{'class': 'arp'}, 'class': 'ofp_packet_out', 'in_port': 65535})",
      "PendingReceive(dpid=3, controller_id='c1', fingerprint=OFFingerprint{'actions': ('output(1)',), 'data': DPFingerprint{'class': 'lldp'}, 'class': 'ofp_packet_out', 'in_port': 65535})",
      "PendingReceive(dpid=2, controller_id='c1', fingerprint=OFFingerprint{'actions': ('output(1)',), 'data': DPFingerprint{'class': 'lldp'}, 'class': 'ofp_packet_out', 'in_port': 65535})",
      "PendingReceive(dpid=2, controller_id='c1', fingerprint=OFFingerprint{'actions': ('output(2)',), 'data': DPFingerprint{'class': 'lldp'}, 'class': 'ofp_packet_out', 'in_port': 65535})",
      "PendingReceive(dpid=2, controller_id='c1', fingerprint=OFFingerprint{'actions': ('output(3)',), 'data': DPFingerprint{'class': 'lldp'}, 'class': 'ofp_packet_out', 'in_port': 65535})"
    ],
    "20": [
      "PendingReceive(dpid=3, controller_id='c1', fingerprint=OFFingerprint{'actions': ('output(65531)',), 'data': DPFingerprint{'class': 'arp'}, 'class': 'ofp_packet_out', 'in_port': 65535})",
      "PendingReceive(dpid=2, controller_id='c1', fingerprint=OFFingerprint{'actions': ('output(2)',), 'data': DPFingerprint{'class': 'lldp'}, 'class': 'ofp_packet_out', 'in_port': 65535})",
      "PendingReceive(dpid=2, controller_id='c1', fingerprint=OFFingerprint{'actions': ('output(3)',), 'data': DPFingerprint{'class': 'lldp'}, 'class': 'ofp_packet_out', 'in_port': 65535})"
    ],
    "21": [
      "PendingReceive(dpid=3, controller_id='c1', fingerprint=OFFingerprint{'actions': ('output(65531)',), 'data': DPFingerprint{'class': 'arp'}, 'class': 'ofp_packet_out', 'in_port': 65535})",
      "PendingReceive(dpid=2, controller_id='c1', fingerprint=OFFingerprint{'actions': ('output(2)',), 'data': DPFingerprint{'class': 'lldp'}, 'class': 'ofp_packet_out', 'in_port': 65535})",
      "PendingReceive(dpid=2, controller_id='c1', fingerprint=OFFingerprint{'actions': ('output(3)',), 'data': DPFingerprint{'class': 'lldp'}, 'class': 'ofp_packet_out', 'in_port': 65535})"
    ],
    "22": [
      "PendingReceive(dpid=3, controller_id='c1', fingerprint=OFFingerprint{'actions': ('output(65531)',), 'data': DPFingerprint{'class': 'arp'}, 'class': 'ofp_packet_out', 'in_port': 65535})",
      "PendingReceive(dpid=2, controller_id='c1', fingerprint=OFFingerprint{'actions': ('output(2)',), 'data': DPFingerprint{'class': 'lldp'}, 'class': 'ofp_packet_out', 'in_port': 65535})",
      "PendingReceive(dpid=2, controller_id='c1', fingerprint=OFFingerprint{'actions': ('output(3)',), 'data': DPFingerprint{'class': 'lldp'}, 'class': 'ofp_packet_out', 'in_port': 65535})"
    ],
    "23": [
      "PendingReceive(dpid=3, controller_id='c1', fingerprint=OFFingerprint{'actions': ('output(65531)',), 'data': DPFingerprint{'class': 'arp'}, 'class': 'ofp_packet_out', 'in_port': 65535})",
      "PendingReceive(dpid=2, controller_id='c1', fingerprint=OFFingerprint{'actions': ('output(2)',), 'data': DPFingerprint{'class': 'lldp'}, 'class': 'ofp_packet_out', 'in_port': 65535})",
      "PendingReceive(dpid=2, controller_id='c1', fingerprint=OFFingerprint{'actions': ('output(3)',), 'data': DPFingerprint{'class': 'lldp'}, 'class': 'ofp_packet_out', 'in_port': 65535})"
    ],
    "24": [
      "PendingReceive(dpid=3, controller_id='c1', fingerprint=OFFingerprint{'actions': ('output(65531)',), 'data': DPFingerprint{'class': 'arp'}, 'class': 'ofp_packet_out', 'in_port': 65535})",
      "PendingReceive(dpid=2, controller_id='c1', fingerprint=OFFingerprint{'actions': ('output(2)',), 'data': DPFingerprint{'class': 'lldp'}, 'class': 'ofp_packet_out', 'in_port': 65535})",
      "PendingReceive(dpid=2, controller_id='c1', fingerprint=OFFingerprint{'actions': ('output(3)',), 'data': DPFingerprint{'class': 'lldp'}, 'class': 'ofp_packet_out', 'in_port': 65535})"
    ],
    "25": [
      "PendingReceive(dpid=3, controller_id='c1', fingerprint=OFFingerprint{'actions': ('output(65531)',), 'data': DPFingerprint{'class': 'arp'}, 'class': 'ofp_packet_out', 'in_port': 65535})",
      "PendingReceive(dpid=2, controller_id='c1', fingerprint=OFFingerprint{'actions': ('output(2)',), 'data': DPFingerprint{'class': 'lldp'}, 'class': 'ofp_packet_out', 'in_port': 65535})",
      "PendingReceive(dpid=2, controller_id='c1', fingerprint=OFFingerprint{'actions': ('output(3)',), 'data': DPFingerprint{'class': 'lldp'}, 'class': 'ofp_packet_out', 'in_port': 65535})"
    ],
    "26": [
      "PendingReceive(dpid=3, controller_id='c1', fingerprint=OFFingerprint{'actions': ('output(65531)',), 'data': DPFingerprint{'class': 'arp'}, 'class': 'ofp_packet_out', 'in_port': 65535})",
      "PendingReceive(dpid=2, controller_id='c1', fingerprint=OFFingerprint{'actions': ('output(2)',), 'data': DPFingerprint{'class': 'lldp'}, 'class': 'ofp_packet_out', 'in_port': 65535})",
      "PendingReceive(dpid=2, controller_id='c1', fingerprint=OFFingerprint{'actions': ('output(3)',), 'data': DPFingerprint{'class': 'lldp'}, 'class': 'ofp_packet_out', 'in_port': 65535})"
    ],
    "27": [
      "PendingReceive(dpid=3, controller_id='c1', fingerprint=OFFingerprint{'actions': ('output(65531)',), 'data': DPFingerprint{'class': 'arp'}, 'class': 'ofp_packet_out', 'in_port': 65535})",
      "PendingReceive(dpid=2, controller_id='c1', fingerprint=OFFingerprint{'actions': ('output(2)',), 'data': DPFingerprint{'class': 'lldp'}, 'class': 'ofp_packet_out', 'in_port': 65535})",
      "PendingReceive(dpid=2, controller_id='c1', fingerprint=OFFingerprint{'actions': ('output(3)',), 'data': DPFingerprint{'class': 'lldp'}, 'class': 'ofp_packet_out', 'in_port': 65535})"
    ],
    "28": [
      "PendingReceive(dpid=3, controller_id='c1', fingerprint=OFFingerprint{'actions': ('output(65531)',), 'data': DPFingerprint{'class': 'arp'}, 'class': 'ofp_packet_out', 'in_port': 65535})",
      "PendingReceive(dpid=2, controller_id='c1', fingerprint=OFFingerprint{'actions': ('output(2)',), 'data': DPFingerprint{'class': 'lldp'}, 'class': 'ofp_packet_out', 'in_port': 65535})",
      "PendingReceive(dpid=2, controller_id='c1', fingerprint=OFFingerprint{'actions': ('output(3)',), 'data': DPFingerprint{'class': 'lldp'}, 'class': 'ofp_packet_out', 'in_port': 65535})"
    ],
    "29": [
      "PendingReceive(dpid=3, controller_id='c1', fingerprint=OFFingerprint{'actions': ('output(65531)',), 'data': DPFingerprint{'class': 'arp'}, 'class': 'ofp_packet_out', 'in_port': 65535})",
      "PendingReceive(dpid=2, controller_id='c1', fingerprint=OFFingerprint{'actions': ('output(2)',), 'data': DPFingerprint{'class': 'lldp'}, 'class': 'ofp_packet_out', 'in_port': 65535})",
      "PendingReceive(dpid=2, controller_id='c1', fingerprint=OFFingerprint{'actions': ('output(3)',), 'data': DPFingerprint{'class': 'lldp'}, 'class': 'ofp_packet_out', 'in_port': 65535})"
    ],
    "3": [
      "PendingReceive(dpid=1, controller_id='c1', fingerprint=OFFingerprint{'actions': ('output(1)',), 'data': DPFingerprint{'class': 'lldp'}, 'class': 'ofp_packet_out', 'in_port': 65535})",
      "PendingReceive(dpid=1, controller_id='c1', fingerprint=OFFingerprint{'actions': ('output(2)',), 'data': DPFingerprint{'class': 'lldp'}, 'class': 'ofp_packet_out', 'in_port': 65535})",
      "PendingReceive(dpid=1, controller_id='c1', fingerprint=OFFingerprint{'actions': ('output(3)',), 'data': DPFingerprint{'class': 'lldp'}, 'class': 'ofp_packet_out', 'in_port': 65535})",
      "PendingReceive(dpid=3, controller_id='c1', fingerprint=OFFingerprint{'actions': ('output(65531)',), 'data': DPFingerprint{'class': 'arp'}, 'class': 'ofp_packet_out', 'in_port': 65535})",
      "PendingReceive(dpid=3, controller_id='c1', fingerprint=OFFingerprint{'actions': ('output(1)',), 'data': DPFingerprint{'class': 'lldp'}, 'class': 'ofp_packet_out', 'in_port': 65535})",
      "PendingReceive(dpid=3, controller_id='c1', fingerprint=OFFingerprint{'actions': ('output(2)',), 'data': DPFingerprint{'class': 'lldp'}, 'class': 'ofp_packet_out', 'in_port': 65535})",
      "PendingReceive(dpid=3, controller_id='c1', fingerprint=OFFingerprint{'actions': ('output(3)',), 'data': DPFingerprint{'class': 'lldp'}, 'class': 'ofp_packet_out', 'in_port': 65535})",
      "PendingReceive(dpid=2, controller_id='c1', fingerprint=OFFingerprint{'actions': ('output(1)',), 'data': DPFingerprint{'class': 'lldp'}, 'class': 'ofp_packet_out', 'in_port': 65535})",
      "PendingReceive(dpid=2, controller_id='c1', fingerprint=OFFingerprint{'actions': ('output(2)',), 'data': DPFingerprint{'class': 'lldp'}, 'class': 'ofp_packet_out', 'in_port': 65535})",
      "PendingReceive(dpid=2, controller_id='c1', fingerprint=OFFingerprint{'actions': ('output(3)',), 'data': DPFingerprint{'class': 'lldp'}, 'class': 'ofp_packet_out', 'in_port': 65535})"
    ],
    "30": [
      "PendingReceive(dpid=3, controller_id='c1', fingerprint=OFFingerprint{'actions': ('output(65531)',), 'data': DPFingerprint{'class': 'arp'}, 'class': 'ofp_packet_out', 'in_port': 65535})",
      "PendingReceive(dpid=2, controller_id='c1', fingerprint=OFFingerprint{'actions': ('output(2)',), 'data': DPFingerprint{'class': 'lldp'}, 'class': 'ofp_packet_out', 'in_port': 65535})",
      "PendingReceive(dpid=2, controller_id='c1', fingerprint=OFFingerprint{'actions': ('output(3)',), 'data': DPFingerprint{'class': 'lldp'}, 'class': 'ofp_packet_out', 'in_port': 65535})"
    ],
    "31": [
      "PendingReceive(dpid=3, controller_id='c1', fingerprint=OFFingerprint{'actions': ('output(65531)',), 'data': DPFingerprint{'class': 'arp'}, 'class': 'ofp_packet_out', 'in_port': 65535})",
      "PendingReceive(dpid=2, controller_id='c1', fingerprint=OFFingerprint{'actions': ('output(2)',), 'data': DPFingerprint{'class': 'lldp'}, 'class': 'ofp_packet_out', 'in_port': 65535})",
      "PendingReceive(dpid=2, controller_id='c1', fingerprint=OFFingerprint{'actions': ('output(3)',), 'data': DPFingerprint{'class': 'lldp'}, 'class': 'ofp_packet_out', 'in_port': 65535})"
    ],
    "32": [
      "PendingReceive(dpid=3, controller_id='c1', fingerprint=OFFingerprint{'actions': ('output(65531)',), 'data': DPFingerprint{'class': 'arp'}, 'class': 'ofp_packet_out', 'in_port': 65535})",
      "PendingReceive(dpid=2, controller_id='c1', fingerprint=OFFingerprint{'actions': ('output(2)',), 'data': DPFingerprint{'class': 'lldp'}, 'class': 'ofp_packet_out', 'in_port': 65535})",
      "PendingReceive(dpid=2, controller_id='c1', fingerprint=OFFingerprint{'actions': ('output(3)',), 'data': DPFingerprint{'class': 'lldp'}, 'class': 'ofp_packet_out', 'in_port': 65535})"
    ],
    "33": [
      "PendingReceive(dpid=3, controller_id='c1', fingerprint=OFFingerprint{'actions': ('output(65531)',), 'data': DPFingerprint{'class': 'arp'}, 'class': 'ofp_packet_out', 'in_port': 65535})",
      "PendingReceive(dpid=2, controller_id='c1', fingerprint=OFFingerprint{'actions': ('output(2)',), 'data': DPFingerprint{'class': 'lldp'}, 'class': 'ofp_packet_out', 'in_port': 65535})",
      "PendingReceive(dpid=2, controller_id='c1', fingerprint=OFFingerprint{'actions': ('output(3)',), 'data': DPFingerprint{'class': 'lldp'}, 'class': 'ofp_packet_out', 'in_port': 65535})"
    ],
    "34": [
      "PendingReceive(dpid=3, controller_id='c1', fingerprint=OFFingerprint{'actions': ('output(65531)',), 'data': DPFingerprint{'class': 'arp'}, 'class': 'ofp_packet_out', 'in_port': 65535})",
      "PendingReceive(dpid=2, controller_id='c1', fingerprint=OFFingerprint{'actions': ('output(2)',), 'data': DPFingerprint{'class': 'lldp'}, 'class': 'ofp_packet_out', 'in_port': 65535})",
      "PendingReceive(dpid=2, controller_id='c1', fingerprint=OFFingerprint{'actions': ('output(3)',), 'data': DPFingerprint{'class': 'lldp'}, 'class': 'ofp_packet_out', 'in_port': 65535})"
    ],
    "35": [
      "PendingReceive(dpid=3, controller_id='c1', fingerprint=OFFingerprint{'actions': ('output(65531)',), 'data': DPFingerprint{'class': 'arp'}, 'class': 'ofp_packet_out', 'in_port': 65535})",
      "PendingReceive(dpid=2, controller_id='c1', fingerprint=OFFingerprint{'actions': ('output(2)',), 'data': DPFingerprint{'class': 'lldp'}, 'class': 'ofp_packet_out', 'in_port': 65535})",
      "PendingReceive(dpid=2, controller_id='c1', fingerprint=OFFingerprint{'actions': ('output(3)',), 'data': DPFingerprint{'class': 'lldp'}, 'class': 'ofp_packet_out', 'in_port': 65535})"
    ],
    "36": [
      "PendingReceive(dpid=3, controller_id='c1', fingerprint=OFFingerprint{'actions': ('output(65531)',), 'data': DPFingerprint{'class': 'arp'}, 'class': 'ofp_packet_out', 'in_port': 65535})",
      "PendingReceive(dpid=2, controller_id='c1', fingerprint=OFFingerprint{'actions': ('output(2)',), 'data': DPFingerprint{'class': 'lldp'}, 'class': 'ofp_packet_out', 'in_port': 65535})",
      "PendingReceive(dpid=2, controller_id='c1', fingerprint=OFFingerprint{'actions': ('output(3)',), 'data': DPFingerprint{'class': 'lldp'}, 'class': 'ofp_packet_out', 'in_port': 65535})"
    ],
    "37": [
      "PendingReceive(dpid=3, controller_id='c1', fingerprint=OFFingerprint{'actions': ('output(65531)',), 'data': DPFingerprint{'class': 'arp'}, 'class': 'ofp_packet_out', 'in_port': 65535})",
      "PendingReceive(dpid=2, controller_id='c1', fingerprint=OFFingerprint{'actions': ('output(2)',), 'data': DPFingerprint{'class': 'lldp'}, 'class': 'ofp_packet_out', 'in_port': 65535})",
      "PendingReceive(dpid=2, controller_id='c1', fingerprint=OFFingerprint{'actions': ('output(3)',), 'data': DPFingerprint{'class': 'lldp'}, 'class': 'ofp_packet_out', 'in_port': 65535})"
    ],
    "38": [
      "PendingReceive(dpid=3, controller_id='c1', fingerprint=OFFingerprint{'actions': ('output(65531)',), 'data': DPFingerprint{'class': 'arp'}, 'class': 'ofp_packet_out', 'in_port': 65535})",
      "PendingReceive(dpid=2, controller_id='c1', fingerprint=OFFingerprint{'actions': ('output(2)',), 'data': DPFingerprint{'class': 'lldp'}, 'class': 'ofp_packet_out', 'in_port': 65535})",
      "PendingReceive(dpid=2, controller_id='c1', fingerprint=OFFingerprint{'actions': ('output(3)',), 'data': DPFingerprint{'class': 'lldp'}, 'class': 'ofp_packet_out', 'in_port': 65535})"
    ],
    "39": [
      "PendingReceive(dpid=3, controller_id='c1', fingerprint=OFFingerprint{'actions': ('output(65531)',), 'data': DPFingerprint{'class': 'arp'}, 'class': 'ofp_packet_out', 'in_port': 65535})",
      "PendingReceive(dpid=2, controller_id='c1', fingerprint=OFFingerprint{'actions': ('output(2)',), 'data': DPFingerprint{'class': 'lldp'}, 'class': 'ofp_packet_out', 'in_port': 65535})",
      "PendingReceive(dpid=2, controller_id='c1', fingerprint=OFFingerprint{'actions': ('output(3)',), 'data': DPFingerprint{'class': 'lldp'}, 'class': 'ofp_packet_out', 'in_port': 65535})"
    ],
    "4": [
      "PendingReceive(dpid=1, controller_id='c1', fingerprint=OFFingerprint{'actions': ('output(1)',), 'data': DPFingerprint{'class': 'lldp'}, 'class': 'ofp_packet_out', 'in_port': 65535})",
      "PendingReceive(dpid=1, controller_id='c1', fingerprint=OFFingerprint{'actions': ('output(2)',), 'data': DPFingerprint{'class': 'lldp'}, 'class': 'ofp_packet_out', 'in_port': 65535})",
      "PendingReceive(dpid=1, controller_id='c1', fingerprint=OFFingerprint{'actions': ('output(3)',), 'data': DPFingerprint{'class': 'lldp'}, 'class': 'ofp_packet_out', 'in_port': 65535})",
      "PendingReceive(dpid=3, controller_id='c1', fingerprint=OFFingerprint{'actions': ('output(65531)',), 'data': DPFingerprint{'class': 'arp'}, 'class': 'ofp_packet_out', 'in_port': 65535})",
      "PendingReceive(dpid=3, controller_id='c1', fingerprint=OFFingerprint{'actions': ('output(1)',), 'data': DPFingerprint{'class': 'lldp'}, 'class': 'ofp_packet_out', 'in_port': 65535})",
      "PendingReceive(dpid=3, controller_id='c1', fingerprint=OFFingerprint{'actions': ('output(2)',), 'data': DPFingerprint{'class': 'lldp'}, 'class': 'ofp_packet_out', 'in_port': 65535})",
      "PendingReceive(dpid=3, controller_id='c1', fingerprint=OFFingerprint{'actions': ('output(3)',), 'data': DPFingerprint{'class': 'lldp'}, 'class': 'ofp_packet_out', 'in_port': 65535})",
      "PendingReceive(dpid=2, controller_id='c1', fingerprint=OFFingerprint{'actions': ('output(2)',), 'data': DPFingerprint{'class': 'lldp'}, 'class': 'ofp_packet_out', 'in_port': 65535})",
      "PendingReceive(dpid=2, controller_id='c1', fingerprint=OFFingerprint{'actions': ('output(3)',), 'data': DPFingerprint{'class': 'lldp'}, 'class': 'ofp_packet_out', 'in_port': 65535})",
      "PendingReceive(dpid=2, controller_id='c1', fingerprint=OFFingerprint{'actions': ('output(1)',), 'data': DPFingerprint{'class': 'lldp'}, 'class': 'ofp_packet_out', 'in_port': 65535})"
    ],
    "40": [
      "PendingReceive(dpid=3, controller_id='c1', fingerprint=OFFingerprint{'actions': ('output(65531)',), 'data': DPFingerprint{'class': 'arp'}, 'class': 'ofp_packet_out', 'in_port': 65535})",
      "PendingReceive(dpid=2, controller_id='c1', fingerprint=OFFingerprint{'actions': ('output(2)',), 'data': DPFingerprint{'class': 'lldp'}, 'class': 'ofp_packet_out', 'in_port': 65535})",
      "PendingReceive(dpid=2, controller_id='c1', fingerprint=OFFingerprint{'actions': ('output(3)',), 'data': DPFingerprint{'class': 'lldp'}, 'class': 'ofp_packet_out', 'in_port': 65535})"
    ],
    "41": [
      "PendingReceive(dpid=3, controller_id='c1', fingerprint=OFFingerprint{'actions': ('output(65531)',), 'data': DPFingerprint{'class': 'arp'}, 'class': 'ofp_packet_out', 'in_port': 65535})",
      "PendingReceive(dpid=2, controller_id='c1', fingerprint=OFFingerprint{'actions': ('output(2)',), 'data': DPFingerprint{'class': 'lldp'}, 'class': 'ofp_packet_out', 'in_port': 65535})",
      "PendingReceive(dpid=2, controller_id='c1', fingerprint=OFFingerprint{'actions': ('output(3)',), 'data': DPFingerprint{'class': 'lldp'}, 'class': 'ofp_packet_out', 'in_port': 65535})"
    ],
    "42": [
      "PendingReceive(dpid=3, controller_id='c1', fingerprint=OFFingerprint{'actions': ('output(65531)',), 'data': DPFingerprint{'class': 'arp'}, 'class': 'ofp_packet_out', 'in_port': 65535})",
      "PendingReceive(dpid=2, controller_id='c1', fingerprint=OFFingerprint{'actions': ('output(2)',), 'data': DPFingerprint{'class': 'lldp'}, 'class': 'ofp_packet_out', 'in_port': 65535})",
      "PendingReceive(dpid=2, controller_id='c1', fingerprint=OFFingerprint{'actions': ('output(3)',), 'data': DPFingerprint{'class': 'lldp'}, 'class': 'ofp_packet_out', 'in_port': 65535})"
    ],
    "43": [
      "PendingReceive(dpid=1, controller_id='c1', fingerprint=OFFingerprint{'actions': ('output(2)',), 'data': DPFingerprint{'class': 'lldp'}, 'class': 'ofp_packet_out', 'in_port': 65535})",
      "PendingReceive(dpid=1, controller_id='c1', fingerprint=OFFingerprint{'actions': ('output(3)',), 'data': DPFingerprint{'class': 'lldp'}, 'class': 'ofp_packet_out', 'in_port': 65535})",
      "PendingReceive(dpid=1, controller_id='c1', fingerprint=OFFingerprint{'actions': ('output(1)',), 'data': DPFingerprint{'class': 'lldp'}, 'class': 'ofp_packet_out', 'in_port': 65535})",
      "PendingReceive(dpid=3, controller_id='c1', fingerprint=OFFingerprint{'actions': ('output(65531)',), 'data': DPFingerprint{'class': 'arp'}, 'class': 'ofp_packet_out', 'in_port': 65535})",
      "PendingReceive(dpid=3, controller_id='c1', fingerprint=OFFingerprint{'actions': ('output(1)',), 'data': DPFingerprint{'class': 'lldp'}, 'class': 'ofp_packet_out', 'in_port': 65535})",
      "PendingReceive(dpid=3, controller_id='c1', fingerprint=OFFingerprint{'actions': ('output(2)',), 'data': DPFingerprint{'class': 'lldp'}, 'class': 'ofp_packet_out', 'in_port': 65535})",
      "PendingReceive(dpid=3, controller_id='c1', fingerprint=OFFingerprint{'actions': ('output(3)',), 'data': DPFingerprint{'class': 'lldp'}, 'class': 'ofp_packet_out', 'in_port': 65535})",
      "PendingReceive(dpid=2, controller_id='c1', fingerprint=OFFingerprint{'actions': ('output(1)',), 'data': DPFingerprint{'class': 'lldp'}, 'class': 'ofp_packet_out', 'in_port': 65535})",
      "PendingReceive(dpid=2, controller_id='c1', fingerprint=OFFingerprint{'actions': ('output(2)',), 'data': DPFingerprint{'class': 'lldp'}, 'class': 'ofp_packet_out', 'in_port': 65535})",
      "PendingReceive(dpid=2, controller_id='c1', fingerprint=OFFingerprint{'actions': ('output(3)',), 'data': DPFingerprint{'class': 'lldp'}, 'class': 'ofp_packet_out', 'in_port': 65535})"
    ],
    "44": [
      "PendingReceive(dpid=1, controller_id='c1', fingerprint=OFFingerprint{'actions': ('output(1)',), 'data': DPFingerprint{'class': 'lldp'}, 'class': 'ofp_packet_out', 'in_port': 65535})",
      "PendingReceive(dpid=1, controller_id='c1', fingerprint=OFFingerprint{'actions': ('output(2)',), 'data': DPFingerprint{'class': 'lldp'}, 'class': 'ofp_packet_out', 'in_port': 65535})",
      "PendingReceive(dpid=1, controller_id='c1', fingerprint=OFFingerprint{'actions': ('output(3)',), 'data': DPFingerprint{'class': 'lldp'}, 'class': 'ofp_packet_out', 'in_port': 65535})",
      "PendingReceive(dpid=3, controller_id='c1', fingerprint=OFFingerprint{'actions': ('output(65531)',), 'data': DPFingerprint{'class': 'arp'}, 'class': 'ofp_packet_out', 'in_port': 65535})",
      "PendingReceive(dpid=3, controller_id='c1', fingerprint=OFFingerprint{'actions': ('output(1)',), 'data': DPFingerprint{'class': 'lldp'}, 'class': 'ofp_packet_out', 'in_port': 65535})",
      "PendingReceive(dpid=3, controller_id='c1', fingerprint=OFFingerprint{'actions': ('output(2)',), 'data': DPFingerprint{'class': 'lldp'}, 'class': 'ofp_packet_out', 'in_port': 65535})",
      "PendingReceive(dpid=3, controller_id='c1', fingerprint=OFFingerprint{'actions': ('output(3)',), 'data': DPFingerprint{'class': 'lldp'}, 'class': 'ofp_packet_out', 'in_port': 65535})",
      "PendingReceive(dpid=2, controller_id='c1', fingerprint=OFFingerprint{'actions': ('output(3)',), 'data': DPFingerprint{'class': 'lldp'}, 'class': 'ofp_packet_out', 'in_port': 65535})",
      "PendingReceive(dpid=2, controller_id='c1', fingerprint=OFFingerprint{'actions': ('output(1)',), 'data': DPFingerprint{'class': 'lldp'}, 'class': 'ofp_packet_out', 'in_port': 65535})",
      "PendingReceive(dpid=2, controller_id='c1', fingerprint=OFFingerprint{'actions': ('output(2)',), 'data': DPFingerprint{'class': 'lldp'}, 'class': 'ofp_packet_out', 'in_port': 65535})"
    ],
    "45": [
      "PendingReceive(dpid=1, controller_id='c1', fingerprint=OFFingerprint{'actions': ('output(1)',), 'data': DPFingerprint{'class': 'lldp'}, 'class': 'ofp_packet_out', 'in_port': 65535})",
      "PendingReceive(dpid=3, controller_id='c1', fingerprint=OFFingerprint{'actions': ('output(65531)',), 'data': DPFingerprint{'class': 'arp'}, 'class': 'ofp_packet_out', 'in_port': 65535})",
      "PendingReceive(dpid=2, controller_id='c1', fingerprint=OFFingerprint{'actions': ('output(2)',), 'data': DPFingerprint{'class': 'lldp'}, 'class': 'ofp_packet_out', 'in_port': 65535})",
      "PendingReceive(dpid=2, controller_id='c1', fingerprint=OFFingerprint{'actions': ('output(3)',), 'data': DPFingerprint{'class': 'lldp'}, 'class': 'ofp_packet_out', 'in_port': 65535})"
    ],
    "46": [
      "PendingReceive(dpid=1, controller_id='c1', fingerprint=OFFingerprint{'actions': ('output(1)',), 'data': DPFingerprint{'class': 'lldp'}, 'class': 'ofp_packet_out', 'in_port': 65535})",
      "PendingReceive(dpid=1, controller_id='c1', fingerprint=OFFingerprint{'actions': ('output(2)',), 'data': DPFingerprint{'class': 'lldp'}, 'class': 'ofp_packet_out', 'in_port': 65535})",
      "PendingReceive(dpid=1, controller_id='c1', fingerprint=OFFingerprint{'actions': ('output(3)',), 'data': DPFingerprint{'class': 'lldp'}, 'class': 'ofp_packet_out', 'in_port': 65535})",
      "PendingReceive(dpid=3, controller_id='c1', fingerprint=OFFingerprint{'actions': ('output(65531)',), 'data': DPFingerprint{'class': 'arp'}, 'class': 'ofp_packet_out', 'in_port': 65535})",
      "PendingReceive(dpid=2, controller_id='c1', fingerprint=OFFingerprint{'actions': ('output(2)',), 'data': DPFingerprint{'class': 'lldp'}, 'class': 'ofp_packet_out', 'in_port': 65535})",
      "PendingReceive(dpid=2, controller_id='c1', fingerprint=OFFingerprint{'actions': ('output(3)',), 'data': DPFingerprint{'class': 'lldp'}, 'class': 'ofp_packet_out', 'in_port': 65535})"
    ],
    "47": [
      "PendingReceive(dpid=3, controller_id='c1', fingerprint=OFFingerprint{'actions': ('output(65531)',), 'data': DPFingerprint{'class': 'arp'}, 'class': 'ofp_packet_out', 'in_port': 65535})",
      "PendingReceive(dpid=2, controller_id='c1', fingerprint=OFFingerprint{'actions': ('output(2)',), 'data': DPFingerprint{'class': 'lldp'}, 'class': 'ofp_packet_out', 'in_port': 65535})",
      "PendingReceive(dpid=2, controller_id='c1', fingerprint=OFFingerprint{'actions': ('output(3)',), 'data': DPFingerprint{'class': 'lldp'}, 'class': 'ofp_packet_out', 'in_port': 65535})"
    ],
    "48": [
      "PendingReceive(dpid=3, controller_id='c1', fingerprint=OFFingerprint{'actions': ('output(65531)',), 'data': DPFingerprint{'class': 'arp'}, 'class': 'ofp_packet_out', 'in_port': 65535})",
      "PendingReceive(dpid=2, controller_id='c1', fingerprint=OFFingerprint{'actions': ('output(2)',), 'data': DPFingerprint{'class': 'lldp'}, 'class': 'ofp_packet_out', 'in_port': 65535})",
      "PendingReceive(dpid=2, controller_id='c1', fingerprint=OFFingerprint{'actions': ('output(3)',), 'data': DPFingerprint{'class': 'lldp'}, 'class': 'ofp_packet_out', 'in_port': 65535})"
    ],
    "49": [
      "PendingReceive(dpid=3, controller_id='c1', fingerprint=OFFingerprint{'actions': ('output(65531)',), 'data': DPFingerprint{'class': 'arp'}, 'class': 'ofp_packet_out', 'in_port': 65535})",
      "PendingReceive(dpid=2, controller_id='c1', fingerprint=OFFingerprint{'actions': ('output(2)',), 'data': DPFingerprint{'class': 'lldp'}, 'class': 'ofp_packet_out', 'in_port': 65535})",
      "PendingReceive(dpid=2, controller_id='c1', fingerprint=OFFingerprint{'actions': ('output(3)',), 'data': DPFingerprint{'class': 'lldp'}, 'class': 'ofp_packet_out', 'in_port': 65535})"
    ],
    "5": [
      "PendingReceive(dpid=1, controller_id='c1', fingerprint=OFFingerprint{'actions': ('output(1)',), 'data': DPFingerprint{'class': 'lldp'}, 'class': 'ofp_packet_out', 'in_port': 65535})",
      "PendingReceive(dpid=1, controller_id='c1', fingerprint=OFFingerprint{'actions': ('output(2)',), 'data': DPFingerprint{'class': 'lldp'}, 'class': 'ofp_packet_out', 'in_port': 65535})",
      "PendingReceive(dpid=1, controller_id='c1', fingerprint=OFFingerprint{'actions': ('output(3)',), 'data': DPFingerprint{'class': 'lldp'}, 'class': 'ofp_packet_out', 'in_port': 65535})",
      "PendingReceive(dpid=3, controller_id='c1', fingerprint=OFFingerprint{'actions': ('output(65531)',), 'data': DPFingerprint{'class': 'arp'}, 'class': 'ofp_packet_out', 'in_port': 65535})",
      "PendingReceive(dpid=2, controller_id='c1', fingerprint=OFFingerprint{'actions': ('output(2)',), 'data': DPFingerprint{'class': 'lldp'}, 'class': 'ofp_packet_out', 'in_port': 65535})",
      "PendingReceive(dpid=2, controller_id='c1', fingerprint=OFFingerprint{'actions': ('output(3)',), 'data': DPFingerprint{'class': 'lldp'}, 'class': 'ofp_packet_out', 'in_port': 65535})"
    ],
    "50": [
      "PendingReceive(dpid=3, controller_id='c1', fingerprint=OFFingerprint{'actions': ('output(65531)',), 'data': DPFingerprint{'class': 'arp'}, 'class': 'ofp_packet_out', 'in_port': 65535})",
      "PendingReceive(dpid=2, controller_id='c1', fingerprint=OFFingerprint{'actions': ('output(2)',), 'data': DPFingerprint{'class': 'lldp'}, 'class': 'ofp_packet_out', 'in_port': 65535})",
      "PendingReceive(dpid=2, controller_id='c1', fingerprint=OFFingerprint{'actions': ('output(3)',), 'data': DPFingerprint{'class': 'lldp'}, 'class': 'ofp_packet_out', 'in_port': 65535})"
    ],
    "51": [
      "PendingReceive(dpid=3, controller_id='c1', fingerprint=OFFingerprint{'actions': ('output(65531)',), 'data': DPFingerprint{'class': 'arp'}, 'class': 'ofp_packet_out', 'in_port': 65535})",
      "PendingReceive(dpid=2, controller_id='c1', fingerprint=OFFingerprint{'actions': ('output(2)',), 'data': DPFingerprint{'class': 'lldp'}, 'class': 'ofp_packet_out', 'in_port': 65535})",
      "PendingReceive(dpid=2, controller_id='c1', fingerprint=OFFingerprint{'actions': ('output(3)',), 'data': DPFingerprint{'class': 'lldp'}, 'class': 'ofp_packet_out', 'in_port': 65535})"
    ],
    "52": [
      "PendingReceive(dpid=3, controller_id='c1', fingerprint=OFFingerprint{'actions': ('output(65531)',), 'data': DPFingerprint{'class': 'arp'}, 'class': 'ofp_packet_out', 'in_port': 65535})",
      "PendingReceive(dpid=2, controller_id='c1', fingerprint=OFFingerprint{'actions': ('output(2)',), 'data': DPFingerprint{'class': 'lldp'}, 'class': 'ofp_packet_out', 'in_port': 65535})",
      "PendingReceive(dpid=2, controller_id='c1', fingerprint=OFFingerprint{'actions': ('output(3)',), 'data': DPFingerprint{'class': 'lldp'}, 'class': 'ofp_packet_out', 'in_port': 65535})"
    ],
    "53": [
      "PendingReceive(dpid=3, controller_id='c1', fingerprint=OFFingerprint{'actions': ('output(65531)',), 'data': DPFingerprint{'class': 'arp'}, 'class': 'ofp_packet_out', 'in_port': 65535})",
      "PendingReceive(dpid=2, controller_id='c1', fingerprint=OFFingerprint{'actions': ('output(2)',), 'data': DPFingerprint{'class': 'lldp'}, 'class': 'ofp_packet_out', 'in_port': 65535})",
      "PendingReceive(dpid=2, controller_id='c1', fingerprint=OFFingerprint{'actions': ('output(3)',), 'data': DPFingerprint{'class': 'lldp'}, 'class': 'ofp_packet_out', 'in_port': 65535})"
    ],
    "54": [
      "PendingReceive(dpid=3, controller_id='c1', fingerprint=OFFingerprint{'actions': ('output(65531)',), 'data': DPFingerprint{'class': 'arp'}, 'class': 'ofp_packet_out', 'in_port': 65535})",
      "PendingReceive(dpid=2, controller_id='c1', fingerprint=OFFingerprint{'actions': ('output(2)',), 'data': DPFingerprint{'class': 'lldp'}, 'class': 'ofp_packet_out', 'in_port': 65535})",
      "PendingReceive(dpid=2, controller_id='c1', fingerprint=OFFingerprint{'actions': ('output(3)',), 'data': DPFingerprint{'class': 'lldp'}, 'class': 'ofp_packet_out', 'in_port': 65535})"
    ],
    "55": [
      "PendingReceive(dpid=3, controller_id='c1', fingerprint=OFFingerprint{'actions': ('output(65531)',), 'data': DPFingerprint{'class': 'arp'}, 'class': 'ofp_packet_out', 'in_port': 65535})",
      "PendingReceive(dpid=2, controller_id='c1', fingerprint=OFFingerprint{'actions': ('output(2)',), 'data': DPFingerprint{'class': 'lldp'}, 'class': 'ofp_packet_out', 'in_port': 65535})",
      "PendingReceive(dpid=2, controller_id='c1', fingerprint=OFFingerprint{'actions': ('output(3)',), 'data': DPFingerprint{'class': 'lldp'}, 'class': 'ofp_packet_out', 'in_port': 65535})"
    ],
    "56": [
      "PendingReceive(dpid=3, controller_id='c1', fingerprint=OFFingerprint{'actions': ('output(65531)',), 'data': DPFingerprint{'class': 'arp'}, 'class': 'ofp_packet_out', 'in_port': 65535})",
      "PendingReceive(dpid=2, controller_id='c1', fingerprint=OFFingerprint{'actions': ('output(2)',), 'data': DPFingerprint{'class': 'lldp'}, 'class': 'ofp_packet_out', 'in_port': 65535})",
      "PendingReceive(dpid=2, controller_id='c1', fingerprint=OFFingerprint{'actions': ('output(3)',), 'data': DPFingerprint{'class': 'lldp'}, 'class': 'ofp_packet_out', 'in_port': 65535})"
    ],
    "57": [
      "PendingReceive(dpid=3, controller_id='c1', fingerprint=OFFingerprint{'actions': ('output(65531)',), 'data': DPFingerprint{'class': 'arp'}, 'class': 'ofp_packet_out', 'in_port': 65535})",
      "PendingReceive(dpid=2, controller_id='c1', fingerprint=OFFingerprint{'actions': ('output(2)',), 'data': DPFingerprint{'class': 'lldp'}, 'class': 'ofp_packet_out', 'in_port': 65535})",
      "PendingReceive(dpid=2, controller_id='c1', fingerprint=OFFingerprint{'actions': ('output(3)',), 'data': DPFingerprint{'class': 'lldp'}, 'class': 'ofp_packet_out', 'in_port': 65535})"
    ],
    "58": [
      "PendingReceive(dpid=1, controller_id='c1', fingerprint=OFFingerprint{'actions': ('output(1)',), 'data': DPFingerprint{'class': 'lldp'}, 'class': 'ofp_packet_out', 'in_port': 65535})",
      "PendingReceive(dpid=3, controller_id='c1', fingerprint=OFFingerprint{'actions': ('output(65531)',), 'data': DPFingerprint{'class': 'arp'}, 'class': 'ofp_packet_out', 'in_port': 65535})",
      "PendingReceive(dpid=2, controller_id='c1', fingerprint=OFFingerprint{'actions': ('output(2)',), 'data': DPFingerprint{'class': 'lldp'}, 'class': 'ofp_packet_out', 'in_port': 65535})",
      "PendingReceive(dpid=2, controller_id='c1', fingerprint=OFFingerprint{'actions': ('output(3)',), 'data': DPFingerprint{'class': 'lldp'}, 'class': 'ofp_packet_out', 'in_port': 65535})"
    ],
    "59": [
      "PendingReceive(dpid=3, controller_id='c1', fingerprint=OFFingerprint{'actions': ('output(65531)',), 'data': DPFingerprint{'class': 'arp'}, 'class': 'ofp_packet_out', 'in_port': 65535})",
      "PendingReceive(dpid=2, controller_id='c1', fingerprint=OFFingerprint{'actions': ('output(2)',), 'data': DPFingerprint{'class': 'lldp'}, 'class': 'ofp_packet_out', 'in_port': 65535})",
      "PendingReceive(dpid=2, controller_id='c1', fingerprint=OFFingerprint{'actions': ('output(3)',), 'data': DPFingerprint{'class': 'lldp'}, 'class': 'ofp_packet_out', 'in_port': 65535})"
    ],
    "6": [
      "PendingReceive(dpid=3, controller_id='c1', fingerprint=OFFingerprint{'actions': ('output(65531)',), 'data': DPFingerprint{'class': 'arp'}, 'class': 'ofp_packet_out', 'in_port': 65535})",
      "PendingReceive(dpid=2, controller_id='c1', fingerprint=OFFingerprint{'actions': ('output(2)',), 'data': DPFingerprint{'class': 'lldp'}, 'class': 'ofp_packet_out', 'in_port': 65535})",
      "PendingReceive(dpid=2, controller_id='c1', fingerprint=OFFingerprint{'actions': ('output(3)',), 'data': DPFingerprint{'class': 'lldp'}, 'class': 'ofp_packet_out', 'in_port': 65535})"
    ],
    "60": [
      "PendingReceive(dpid=3, controller_id='c1', fingerprint=OFFingerprint{'actions': ('output(65531)',), 'data': DPFingerprint{'class': 'arp'}, 'class': 'ofp_packet_out', 'in_port': 65535})",
      "PendingReceive(dpid=2, controller_id='c1', fingerprint=OFFingerprint{'actions': ('output(2)',), 'data': DPFingerprint{'class': 'lldp'}, 'class': 'ofp_packet_out', 'in_port': 65535})",
      "PendingReceive(dpid=2, controller_id='c1', fingerprint=OFFingerprint{'actions': ('output(3)',), 'data': DPFingerprint{'class': 'lldp'}, 'class': 'ofp_packet_out', 'in_port': 65535})"
    ],
    "61": [
      "PendingReceive(dpid=3, controller_id='c1', fingerprint=OFFingerprint{'actions': ('output(65531)',), 'data': DPFingerprint{'class': 'arp'}, 'class': 'ofp_packet_out', 'in_port': 65535})",
      "PendingReceive(dpid=2, controller_id='c1', fingerprint=OFFingerprint{'actions': ('output(2)',), 'data': DPFingerprint{'class': 'lldp'}, 'class': 'ofp_packet_out', 'in_port': 65535})",
      "PendingReceive(dpid=2, controller_id='c1', fingerprint=OFFingerprint{'actions': ('output(3)',), 'data': DPFingerprint{'class': 'lldp'}, 'class': 'ofp_packet_out', 'in_port': 65535})"
    ],
    "62": [
      "PendingReceive(dpid=3, controller_id='c1', fingerprint=OFFingerprint{'actions': ('output(65531)',), 'data': DPFingerprint{'class': 'arp'}, 'class': 'ofp_packet_out', 'in_port': 65535})",
      "PendingReceive(dpid=2, controller_id='c1', fingerprint=OFFingerprint{'actions': ('output(2)',), 'data': DPFingerprint{'class': 'lldp'}, 'class': 'ofp_packet_out', 'in_port': 65535})",
      "PendingReceive(dpid=2, controller_id='c1', fingerprint=OFFingerprint{'actions': ('output(3)',), 'data': DPFingerprint{'class': 'lldp'}, 'class': 'ofp_packet_out', 'in_port': 65535})"
    ],
    "63": [
      "PendingReceive(dpid=3, controller_id='c1', fingerprint=OFFingerprint{'actions': ('output(65531)',), 'data': DPFingerprint{'class': 'arp'}, 'class': 'ofp_packet_out', 'in_port': 65535})",
      "PendingReceive(dpid=2, controller_id='c1', fingerprint=OFFingerprint{'actions': ('output(2)',), 'data': DPFingerprint{'class': 'lldp'}, 'class': 'ofp_packet_out', 'in_port': 65535})",
      "PendingReceive(dpid=2, controller_id='c1', fingerprint=OFFingerprint{'actions': ('output(3)',), 'data': DPFingerprint{'class': 'lldp'}, 'class': 'ofp_packet_out', 'in_port': 65535})"
    ],
    "64": [
      "PendingReceive(dpid=3, controller_id='c1', fingerprint=OFFingerprint{'actions': ('output(65531)',), 'data': DPFingerprint{'class': 'arp'}, 'class': 'ofp_packet_out', 'in_port': 65535})",
      "PendingReceive(dpid=2, controller_id='c1', fingerprint=OFFingerprint{'actions': ('output(2)',), 'data': DPFingerprint{'class': 'lldp'}, 'class': 'ofp_packet_out', 'in_port': 65535})",
      "PendingReceive(dpid=2, controller_id='c1', fingerprint=OFFingerprint{'actions': ('output(3)',), 'data': DPFingerprint{'class': 'lldp'}, 'class': 'ofp_packet_out', 'in_port': 65535})"
    ],
    "65": [
      "PendingReceive(dpid=3, controller_id='c1', fingerprint=OFFingerprint{'actions': ('output(65531)',), 'data': DPFingerprint{'class': 'arp'}, 'class': 'ofp_packet_out', 'in_port': 65535})",
      "PendingReceive(dpid=2, controller_id='c1', fingerprint=OFFingerprint{'actions': ('output(2)',), 'data': DPFingerprint{'class': 'lldp'}, 'class': 'ofp_packet_out', 'in_port': 65535})",
      "PendingReceive(dpid=2, controller_id='c1', fingerprint=OFFingerprint{'actions': ('output(3)',), 'data': DPFingerprint{'class': 'lldp'}, 'class': 'ofp_packet_out', 'in_port': 65535})"
    ],
    "66": [
      "PendingReceive(dpid=3, controller_id='c1', fingerprint=OFFingerprint{'actions': ('output(65531)',), 'data': DPFingerprint{'class': 'arp'}, 'class': 'ofp_packet_out', 'in_port': 65535})",
      "PendingReceive(dpid=2, controller_id='c1', fingerprint=OFFingerprint{'actions': ('output(2)',), 'data': DPFingerprint{'class': 'lldp'}, 'class': 'ofp_packet_out', 'in_port': 65535})",
      "PendingReceive(dpid=2, controller_id='c1', fingerprint=OFFingerprint{'actions': ('output(3)',), 'data': DPFingerprint{'class': 'lldp'}, 'class': 'ofp_packet_out', 'in_port': 65535})"
    ],
    "7": [
      "PendingReceive(dpid=3, controller_id='c1', fingerprint=OFFingerprint{'actions': ('output(65531)',), 'data': DPFingerprint{'class': 'arp'}, 'class': 'ofp_packet_out', 'in_port': 65535})",
      "PendingReceive(dpid=2, controller_id='c1', fingerprint=OFFingerprint{'actions': ('output(2)',), 'data': DPFingerprint{'class': 'lldp'}, 'class': 'ofp_packet_out', 'in_port': 65535})",
      "PendingReceive(dpid=2, controller_id='c1', fingerprint=OFFingerprint{'actions': ('output(3)',), 'data': DPFingerprint{'class': 'lldp'}, 'class': 'ofp_packet_out', 'in_port': 65535})"
    ],
    "8": [
      "PendingReceive(dpid=3, controller_id='c1', fingerprint=OFFingerprint{'actions': ('output(65531)',), 'data': DPFingerprint{'class': 'arp'}, 'class': 'ofp_packet_out', 'in_port': 65535})",
      "PendingReceive(dpid=2, controller_id='c1', fingerprint=OFFingerprint{'actions': ('output(2)',), 'data': DPFingerprint{'class': 'lldp'}, 'class': 'ofp_packet_out', 'in_port': 65535})",
      "PendingReceive(dpid=2, controller_id='c1', fingerprint=OFFingerprint{'actions': ('output(3)',), 'data': DPFingerprint{'class': 'lldp'}, 'class': 'ofp_packet_out', 'in_port': 65535})"
    ],
    "9": [
      "PendingReceive(dpid=3, controller_id='c1', fingerprint=OFFingerprint{'actions': ('output(65531)',), 'data': DPFingerprint{'class': 'arp'}, 'class': 'ofp_packet_out', 'in_port': 65535})",
      "PendingReceive(dpid=2, controller_id='c1', fingerprint=OFFingerprint{'actions': ('output(2)',), 'data': DPFingerprint{'class': 'lldp'}, 'class': 'ofp_packet_out', 'in_port': 65535})",
      "PendingReceive(dpid=2, controller_id='c1', fingerprint=OFFingerprint{'actions': ('output(3)',), 'data': DPFingerprint{'class': 'lldp'}, 'class': 'ofp_packet_out', 'in_port': 65535})"
    ]
  },
  "config": "SimulationConfig(controller_configs=[ControllerConfig(start_cmd='./pox.py --verbose --unthreaded-sh misc.ip_loadbalancer --ip=123.123.1.3 --servers=123.123.2.3,123.123.1.3 sts.util.socket_mux.pox_monkeypatcher   openflow.discovery openflow.of_01 --address=__address__ --port=__port__', label='c1', address='127.0.0.1', cwd='dart_pox')],\n                 topology_class=MeshTopology,\n                 topology_params=\"num_switches=3\",\n                 patch_panel_class=BufferedPatchPanel,\n                 multiplex_sockets=True,\n                 kill_controllers_on_exit=True)",
  "early_internal_events": {
    "10": [],
    "11": [],
    "12": [],
    "13": [],
    "14": [],
    "15": [],
    "16": [],
    "17": [],
    "18": [],
    "19": [],
    "2": [],
    "20": [],
    "21": [],
    "22": [],
    "23": [],
    "24": [],
    "25": [],
    "26": [],
    "27": [],
    "28": [],
    "29": [],
    "3": [],
    "30": [],
    "31": [],
    "32": [],
    "33": [],
    "34": [],
    "35": [],
    "36": [],
    "37": [],
    "38": [],
    "39": [],
    "4": [],
    "40": [],
    "41": [],
    "42": [],
    "43": [],
    "44": [],
    "45": [],
    "46": [],
    "47": [],
    "48": [],
    "49": [],
    "5": [],
    "50": [],
    "51": [],
    "52": [],
    "53": [],
    "54": [],
    "55": [],
    "56": [],
    "57": [],
    "58": [],
    "59": [],
    "6": [],
    "60": [],
    "61": [],
    "62": [],
    "63": [],
    "64": [],
    "65": [],
    "66": [],
    "7": [],
    "8": [],
    "9": []
  },
  "initial_verification_runs_needed": 0,
  "iteration_size": {
    "0": 54,
    "1": 54,
    "2": 54,
    "3": 54,
    "4": 54,
    "5": 54,
    "6": 54,
    "7": 54,
    "8": 50,
    "9": 49,
    "10": 49,
    "11": 48,
    "12": 48,
    "13": 48,
    "14": 48,
    "15": 48,
    "16": 47,
    "17": 46,
    "18": 46,
    "19": 46,
    "20": 45,
    "21": 45,
    "22": 45,
    "23": 45,
    "24": 45,
    "25": 45,
    "26": 45,
    "27": 45,
    "28": 44,
    "29": 44,
    "30": 43,
    "31": 42,
    "32": 42,
    "33": 41,
    "34": 41,
    "35": 41,
    "36": 41,
    "37": 41,
    "38": 40,
    "39": 39,
    "40": 39,
    "41": 38,
    "42": 38,
    "43": 38,
    "44": 38,
    "45": 38,
    "46": 38,
    "47": 38,
    "48": 38,
    "49": 38,
    "50": 37,
    "51": 36,
    "52": 36,
    "53": 36,
    "54": 35,
    "55": 35,
    "56": 35,
    "57": 35,
    "58": 35,
    "59": 35,
    "60": 34,
    "61": 34,
    "62": 33,
    "63": 32,
    "64": 32
  },
  "matched_events": {
    "10": {
      "CheckInvariants": 24,
      "ConnectToControllers": 1,
      "ControlMessageReceive": 163,
      "ControlMessageSend": 138,
      "DataplanePermit": 159,
      "TrafficInjection": 24,
      "WaitTime": 1
    },
    "11": {
      "CheckInvariants": 24,
      "ConnectToControllers": 1,
      "ControlMessageReceive": 162,
      "ControlMessageSend": 132,
      "DataplanePermit": 154,
      "TrafficInjection": 23,
      "WaitTime": 1
    },
    "12": {
      "CheckInvariants": 23,
      "ConnectToControllers": 1,
      "ControlMessageReceive": 163,
      "ControlMessageSend": 135,
      "DataplanePermit": 156,
      "TrafficInjection": 24,
      "WaitTime": 1
    },
    "13": {
      "CheckInvariants": 26,
      "ConnectToControllers": 1,
      "ControlMessageReceive": 163,
      "ControlMessageSend": 132,
      "DataplanePermit": 154,
      "TrafficInjection": 24,
      "WaitTime": 1
    },
    "14": {
      "CheckInvariants": 25,
      "ConnectToControllers": 1,
      "ControlMessageReceive": 163,
      "ControlMessageSend": 134,
      "DataplanePermit": 156,
      "TrafficInjection": 24,
      "WaitTime": 1
    },
    "15": {
      "CheckInvariants": 26,
      "ConnectToControllers": 1,
      "ControlMessageReceive": 164,
      "ControlMessageSend": 135,
      "DataplanePermit": 157,
      "TrafficInjection": 25,
      "WaitTime": 1
    },
    "16": {
      "CheckInvariants": 26,
      "ConnectToControllers": 1,
      "ControlMessageReceive": 164,
      "ControlMessageSend": 135,
      "DataplanePermit": 157,
      "TrafficInjection": 25,
      "WaitTime": 1
    },
    "17": {
      "CheckInvariants": 26,
      "ConnectToControllers": 1,
      "ControlMessageReceive": 165,
      "ControlMessageSend": 138,
      "DataplanePermit": 159,
      "TrafficInjection": 26,
      "WaitTime": 1
    },
    "18": {
      "CheckInvariants": 26,
      "ConnectToControllers": 1,
      "ControlMessageReceive": 165,
      "ControlMessageSend": 136,
      "DataplanePermit": 157,
      "TrafficInjection": 26,
      "WaitTime": 1
    },
    "19": {
      "CheckInvariants": 27,
      "ConnectToControllers": 1,
      "ControlMessageReceive": 164,
      "ControlMessageSend": 134,
      "DataplanePermit": 156,
      "TrafficInjection": 25,
      "WaitTime": 1
    },
    "2": {
      "CheckInvariants": 14,
      "ConnectToControllers": 1,
      "ControlMessageReceive": 152,
      "ControlMessageSend": 115,
      "DataplanePermit": 137,
      "TrafficInjection": 13
    },
    "20": {
      "CheckInvariants": 26,
      "ConnectToControllers": 1,
      "ControlMessageReceive": 164,
      "ControlMessageSend": 134,
      "DataplanePermit": 156,
      "TrafficInjection": 25,
      "WaitTime": 1
    },
    "21": {
      "CheckInvariants": 26,
      "ConnectToControllers": 1,
      "ControlMessageReceive": 165,
      "ControlMessageSend": 139,
      "DataplanePermit": 160,
      "TrafficInjection": 26,
      "WaitTime": 1
    },
    "22": {
      "CheckInvariants": 24,
      "ConnectToControllers": 1,
      "ControlMessageReceive": 162,
      "ControlMessageSend": 132,
      "DataplanePermit": 154,
      "TrafficInjection": 23,
      "WaitTime": 1
    },
    "23": {
      "CheckInvariants": 23,
      "ConnectToControllers": 1,
      "ControlMessageReceive": 162,
      "ControlMessageSend": 132,
      "DataplanePermit": 154,
      "TrafficInjection": 23,
      "WaitTime": 1
    },
    "24": {
      "CheckInvariants": 25,
      "ConnectToControllers": 1,
      "ControlMessageReceive": 164,
      "ControlMessageSend": 134,
      "DataplanePermit": 156,
      "TrafficInjection": 25,
      "WaitTime": 1
    },
    "25": {
      "CheckInvariants": 25,
      "ConnectToControllers": 1,
      "ControlMessageReceive": 163,
      "ControlMessageSend": 134,
      "DataplanePermit": 156,
      "TrafficInjection": 24,
      "WaitTime": 1
    },
    "26": {
      "CheckInvariants": 26,
      "ConnectToControllers": 1,
      "ControlMessageReceive": 164,
      "ControlMessageSend": 136,
      "DataplanePermit": 158,
      "TrafficInjection": 25,
      "WaitTime": 1
    },
    "27": {
      "CheckInvariants": 26,
      "ConnectToControllers": 1,
      "ControlMessageReceive": 164,
      "ControlMessageSend": 135,
      "DataplanePermit": 157,
      "TrafficInjection": 25,
      "WaitTime": 1
    },
    "28": {
      "CheckInvariants": 27,
      "ConnectToControllers": 1,
      "ControlMessageReceive": 164,
      "ControlMessageSend": 135,
      "DataplanePermit": 157,
      "TrafficInjection": 25,
      "WaitTime": 1
    },
    "29": {
      "CheckInvariants": 26,
      "ConnectToControllers": 1,
      "ControlMessageReceive": 165,
      "ControlMessageSend": 138,
      "DataplanePermit": 159,
      "TrafficInjection": 26,
      "WaitTime": 1
    },
    "3": {
      "CheckInvariants": 13,
      "ConnectToControllers": 1,
      "ControlMessageReceive": 152,
      "ControlMessageSend": 111,
      "DataplanePermit": 133,
      "TrafficInjection": 13,
      "WaitTime": 1
    },
    "30": {
      "CheckInvariants": 27,
      "ConnectToControllers": 1,
      "ControlMessageReceive": 164,
      "ControlMessageSend": 134,
      "DataplanePermit": 156,
      "TrafficInjection": 25,
      "WaitTime": 1
    },
    "31": {
      "CheckInvariants": 26,
      "ConnectToControllers": 1,
      "ControlMessageReceive": 165,
      "ControlMessageSend": 137,
      "DataplanePermit": 158,
      "TrafficInjection": 26,
      "WaitTime": 1
    },
    "32": {
      "CheckInvariants": 26,
      "ConnectToControllers": 1,
      "ControlMessageReceive": 165,
      "ControlMessageSend": 135,
      "DataplanePermit": 156,
      "TrafficInjection": 26,
      "WaitTime": 1
    },
    "33": {
      "CheckInvariants": 26,
      "ConnectToControllers": 1,
      "ControlMessageReceive": 164,
      "ControlMessageSend": 135,
      "DataplanePermit": 157,
      "TrafficInjection": 25,
      "WaitTime": 1
    },
    "34": {
      "CheckInvariants": 25,
      "ConnectToControllers": 1,
      "ControlMessageReceive": 165,
      "ControlMessageSend": 138,
      "DataplanePermit": 159,
      "TrafficInjection": 26,
      "WaitTime": 1
    },
    "35": {
      "CheckInvariants": 25,
      "ConnectToControllers": 1,
      "ControlMessageReceive": 164,
      "ControlMessageSend": 136,
      "DataplanePermit": 158,
      "TrafficInjection": 25,
      "WaitTime": 1
    },
    "36": {
      "CheckInvariants": 26,
      "ConnectToControllers": 1,
      "ControlMessageReceive": 163,
      "ControlMessageSend": 134,
      "DataplanePermit": 156,
      "TrafficInjection": 24,
      "WaitTime": 1
    },
    "37": {
      "CheckInvariants": 27,
      "ConnectToControllers": 1,
      "ControlMessageReceive": 164,
      "ControlMessageSend": 135,
      "DataplanePermit": 157,
      "TrafficInjection": 25,
      "WaitTime": 1
    },
    "38": {
      "CheckInvariants": 26,
      "ConnectToControllers": 1,
      "ControlMessageReceive": 164,
      "ControlMessageSend": 136,
      "DataplanePermit": 158,
      "TrafficInjection": 25,
      "WaitTime": 1
    },
    "39": {
      "CheckInvariants": 26,
      "ConnectToControllers": 1,
      "ControlMessageReceive": 165,
      "ControlMessageSend": 139,
      "DataplanePermit": 160,
      "TrafficInjection": 26,
      "WaitTime": 1
    },
    "4": {
      "CheckInvariants": 20,
      "ConnectToControllers": 1,
      "ControlMessageReceive": 159,
      "ControlMessageSend": 126,
      "DataplanePermit": 148,
      "TrafficInjection": 20,
      "WaitTime": 1
    },
    "40": {
      "CheckInvariants": 26,
      "ConnectToControllers": 1,
      "ControlMessageReceive": 165,
      "ControlMessageSend": 137,
      "DataplanePermit": 158,
      "TrafficInjection": 26,
      "WaitTime": 1
    },
    "41": {
      "CheckInvariants": 26,
      "ConnectToControllers": 1,
      "ControlMessageReceive": 164,
      "ControlMessageSend": 133,
      "DataplanePermit": 155,
      "TrafficInjection": 25,
      "WaitTime": 1
    },
    "42": {
      "CheckInvariants": 25,
      "ConnectToControllers": 1,
      "ControlMessageReceive": 165,
      "ControlMessageSend": 135,
      "DataplanePermit": 156,
      "TrafficInjection": 26,
      "WaitTime": 1
    },
    "43": {
      "CheckInvariants": 21,
      "ConnectToControllers": 1,
      "ControlMessageReceive": 159,
      "ControlMessageSend": 126,
      "DataplanePermit": 148,
      "TrafficInjection": 20
    },
    "44": {
      "CheckInvariants": 20,
      "ConnectToControllers": 1,
      "ControlMessageReceive": 158,
      "ControlMessageSend": 125,
      "DataplanePermit": 147,
      "TrafficInjection": 19,
      "WaitTime": 1
    },
    "45": {
      "CheckInvariants": 23,
      "ConnectToControllers": 1,
      "ControlMessageReceive": 162,
      "ControlMessageSend": 132,
      "DataplanePermit": 154,
      "TrafficInjection": 23,
      "WaitTime": 1
    },
    "46": {
      "CheckInvariants": 24,
      "ConnectToControllers": 1,
      "ControlMessageReceive": 161,
      "ControlMessageSend": 130,
      "DataplanePermit": 152,
      "TrafficInjection": 22,
      "WaitTime": 1
    },
    "47": {
      "CheckInvariants": 26,
      "ConnectToControllers": 1,
      "ControlMessageReceive": 163,
      "ControlMessageSend": 134,
      "DataplanePermit": 156,
      "TrafficInjection": 24,
      "WaitTime": 1
    },
    "48": {
      "CheckInvariants": 25,
      "ConnectToControllers": 1,
      "ControlMessageReceive": 163,
      "ControlMessageSend": 134,
      "DataplanePermit": 156,
      "TrafficInjection": 24,
      "WaitTime": 1
    },
    "49": {
      "CheckInvariants": 26,
      "ConnectToControllers": 1,
      "ControlMessageReceive": 164,
      "ControlMessageSend": 135,
      "DataplanePermit": 157,
      "TrafficInjection": 25,
      "WaitTime": 1
    },
    "5": {
      "CheckInvariants": 20,
      "ConnectToControllers": 1,
      "ControlMessageReceive": 158,
      "ControlMessageSend": 124,
      "DataplanePermit": 146,
      "TrafficInjection": 19,
      "WaitTime": 1
    },
    "50": {
      "CheckInvariants": 26,
      "ConnectToControllers": 1,
      "ControlMessageReceive": 164,
      "ControlMessageSend": 135,
      "DataplanePermit": 157,
      "TrafficInjection": 25,
      "WaitTime": 1
    },
    "51": {
      "CheckInvariants": 26,
      "ConnectToControllers": 1,
      "ControlMessageReceive": 165,
      "ControlMessageSend": 136,
      "DataplanePermit": 157,
      "TrafficInjection": 26,
      "WaitTime": 1
    },
    "52": {
      "CheckInvariants": 26,
      "ConnectToControllers": 1,
      "ControlMessageReceive": 165,
      "ControlMessageSend": 137,
      "DataplanePermit": 158,
      "TrafficInjection": 26,
      "WaitTime": 1
    },
    "53": {
      "CheckInvariants": 27,
      "ConnectToControllers": 1,
      "ControlMessageReceive": 164,
      "ControlMessageSend": 135,
      "DataplanePermit": 157,
      "TrafficInjection": 25,
      "WaitTime": 1
    },
    "54": {
      "CheckInvariants": 26,
      "ConnectToControllers": 1,
      "ControlMessageReceive": 164,
      "ControlMessageSend": 135,
      "DataplanePermit": 157,
      "TrafficInjection": 25,
      "WaitTime": 1
    },
    "55": {
      "CheckInvariants": 26,
      "ConnectToControllers": 1,
      "ControlMessageReceive": 165,
      "ControlMessageSend": 139,
      "DataplanePermit": 160,
      "TrafficInjection": 26,
      "WaitTime": 1
    },
    "56": {
      "CheckInvariants": 25,
      "ConnectToControllers": 1,
      "ControlMessageReceive": 164,
      "ControlMessageSend": 136,
      "DataplanePermit": 158,
      "TrafficInjection": 25,
      "WaitTime": 1
    },
    "57": {
      "CheckInvariants": 25,
      "ConnectToControllers": 1,
      "ControlMessageReceive": 163,
      "ControlMessageSend": 133,
      "DataplanePermit": 155,
      "TrafficInjection": 24,
      "WaitTime": 1
    },
    "58": {
      "CheckInvariants": 26,
      "ConnectToControllers": 1,
      "ControlMessageReceive": 164,
      "ControlMessageSend": 132,
      "DataplanePermit": 154,
      "TrafficInjection": 25,
      "WaitTime": 1
    },
    "59": {
      "CheckInvariants": 26,
      "ConnectToControllers": 1,
      "ControlMessageReceive": 164,
      "ControlMessageSend": 135,
      "DataplanePermit": 157,
      "TrafficInjection": 25,
      "WaitTime": 1
    },
    "6": {
      "CheckInvariants": 24,
      "ConnectToControllers": 1,
      "ControlMessageReceive": 161,
      "ControlMessageSend": 128,
      "DataplanePermit": 150,
      "TrafficInjection": 22,
      "WaitTime": 1
    },
    "60": {
      "CheckInvariants": 27,
      "ConnectToControllers": 1,
      "ControlMessageReceive": 164,
      "ControlMessageSend": 136,
      "DataplanePermit": 158,
      "TrafficInjection": 25,
      "WaitTime": 1
    },
    "61": {
      "CheckInvariants": 26,
      "ConnectToControllers": 1,
      "ControlMessageReceive": 165,
      "ControlMessageSend": 138,
      "DataplanePermit": 159,
      "TrafficInjection": 26,
      "WaitTime": 1
    },
    "62": {
      "CheckInvariants": 27,
      "ConnectToControllers": 1,
      "ControlMessageReceive": 164,
      "ControlMessageSend": 137,
      "DataplanePermit": 159,
      "TrafficInjection": 25,
      "WaitTime": 1
    },
    "63": {
      "CheckInvariants": 26,
      "ConnectToControllers": 1,
      "ControlMessageReceive": 165,
      "ControlMessageSend": 138,
      "DataplanePermit": 159,
      "TrafficInjection": 26,
      "WaitTime": 1
    },
    "64": {
      "CheckInvariants": 26,
      "ConnectToControllers": 1,
      "ControlMessageReceive": 165,
      "ControlMessageSend": 136,
      "DataplanePermit": 157,
      "TrafficInjection": 26,
      "WaitTime": 1
    },
    "65": {
      "CheckInvariants": 26,
      "ConnectToControllers": 1,
      "ControlMessageReceive": 164,
      "ControlMessageSend": 135,
      "DataplanePermit": 157,
      "TrafficInjection": 25,
      "WaitTime": 1
    },
    "66": {
      "CheckInvariants": 25,
      "ConnectToControllers": 1,
      "ControlMessageReceive": 165,
      "ControlMessageSend": 138,
      "DataplanePermit": 159,
      "TrafficInjection": 26,
      "WaitTime": 1
    },
    "7": {
      "CheckInvariants": 23,
      "ConnectToControllers": 1,
      "ControlMessageReceive": 162,
      "ControlMessageSend": 132,
      "DataplanePermit": 154,
      "TrafficInjection": 23,
      "WaitTime": 1
    },
    "8": {
      "CheckInvariants": 25,
      "ConnectToControllers": 1,
      "ControlMessageReceive": 164,
      "ControlMessageSend": 134,
      "DataplanePermit": 156,
      "TrafficInjection": 25,
      "WaitTime": 1
    },
    "9": {
      "CheckInvariants": 25,
      "ConnectToControllers": 1,
      "ControlMessageReceive": 163,
      "ControlMessageSend": 134,
      "DataplanePermit": 155,
      "TrafficInjection": 24,
      "WaitTime": 1
    }
  },
  "new_internal_events": {
    "10": [],
    "11": [],
    "12": [],
    "13": [],
    "14": [],
    "15": [],
    "16": [],
    "17": [],
    "18": [],
    "19": [],
    "2": [],
    "20": [],
    "21": [],
    "22": [],
    "23": [],
    "24": [],
    "25": [],
    "26": [],
    "27": [],
    "28": [],
    "29": [],
    "3": [],
    "30": [],
    "31": [],
    "32": [],
    "33": [],
    "34": [],
    "35": [],
    "36": [],
    "37": [],
    "38": [],
    "39": [],
    "4": [],
    "40": [],
    "41": [],
    "42": [],
    "43": [],
    "44": [],
    "45": [],
    "46": [],
    "47": [],
    "48": [],
    "49": [],
    "5": [],
    "50": [],
    "51": [],
    "52": [],
    "53": [],
    "54": [],
    "55": [],
    "56": [],
    "57": [],
    "58": [],
    "59": [],
    "6": [],
    "60": [],
    "61": [],
    "62": [],
    "63": [],
    "64": [],
    "65": [],
    "66": [],
    "7": [],
    "8": [],
    "9": []
  },
  "original_duration_seconds": 27.47111415863037,
  "peeker": false,
  "prune_duration_seconds": 0,
  "prune_start_epoch": 1400099736.352049,
  "replay_duration_seconds": 30.514230012893677,
  "replay_end_epoch": 1400099736.351904,
  "replay_start_epoch": 1400099705.837674,
  "subsequence_id": 0,
  "timed_out_events": {
    "10": {
      "ControlMessageReceive": 2,
      "ControlMessageSend": 3,
      "DataplanePermit": 3
    },
    "11": {
      "ControlMessageReceive": 3,
      "ControlMessageSend": 9,
      "DataplanePermit": 8
    },
    "12": {
      "ControlMessageReceive": 2,
      "ControlMessageSend": 6,
      "DataplanePermit": 6
    },
    "13": {
      "ControlMessageReceive": 2,
      "ControlMessageSend": 9,
      "DataplanePermit": 8
    },
    "14": {
      "ControlMessageReceive": 2,
      "ControlMessageSend": 7,
      "DataplanePermit": 6
    },
    "15": {
      "ControlMessageReceive": 1,
      "ControlMessageSend": 6,
      "DataplanePermit": 5
    },
    "16": {
      "ControlMessageReceive": 1,
      "ControlMessageSend": 6,
      "DataplanePermit": 5
    },
    "17": {
      "ControlMessageSend": 3,
      "DataplanePermit": 3
    },
    "18": {
      "ControlMessageSend": 5,
      "DataplanePermit": 5
    },
    "19": {
      "ControlMessageReceive": 1,
      "ControlMessageSend": 7,
      "DataplanePermit": 6
    },
    "2": {
      "ControlMessageReceive": 13,
      "ControlMessageSend": 26,
      "DataplanePermit": 25
    },
    "20": {
      "ControlMessageReceive": 1,
      "ControlMessageSend": 7,
      "DataplanePermit": 6
    },
    "21": {
      "ControlMessageSend": 2,
      "DataplanePermit": 2
    },
    "22": {
      "ControlMessageReceive": 3,
      "ControlMessageSend": 9,
      "DataplanePermit": 8
    },
    "23": {
      "ControlMessageReceive": 3,
      "ControlMessageSend": 9,
      "DataplanePermit": 8
    },
    "24": {
      "ControlMessageReceive": 1,
      "ControlMessageSend": 7,
      "DataplanePermit": 6
    },
    "25": {
      "ControlMessageReceive": 2,
      "ControlMessageSend": 7,
      "DataplanePermit": 6
    },
    "26": {
      "ControlMessageReceive": 1,
      "ControlMessageSend": 5,
      "DataplanePermit": 4
    },
    "27": {
      "ControlMessageReceive": 1,
      "ControlMessageSend": 6,
      "DataplanePermit": 5
    },
    "28": {
      "ControlMessageReceive": 1,
      "ControlMessageSend": 6,
      "DataplanePermit": 5
    },
    "29": {
      "ControlMessageSend": 3,
      "DataplanePermit": 3
    },
    "3": {
      "ControlMessageReceive": 13,
      "ControlMessageSend": 30,
      "DataplanePermit": 29
    },
    "30": {
      "ControlMessageReceive": 1,
      "ControlMessageSend": 7,
      "DataplanePermit": 6
    },
    "31": {
      "ControlMessageSend": 4,
      "DataplanePermit": 4
    },
    "32": {
      "ControlMessageSend": 6,
      "DataplanePermit": 6
    },
    "33": {
      "ControlMessageReceive": 1,
      "ControlMessageSend": 6,
      "DataplanePermit": 5
    },
    "34": {
      "ControlMessageSend": 3,
      "DataplanePermit": 3
    },
    "35": {
      "ControlMessageReceive": 1,
      "ControlMessageSend": 5,
      "DataplanePermit": 4
    },
    "36": {
      "ControlMessageReceive": 2,
      "ControlMessageSend": 7,
      "DataplanePermit": 6
    },
    "37": {
      "ControlMessageReceive": 1,
      "ControlMessageSend": 6,
      "DataplanePermit": 5
    },
    "38": {
      "ControlMessageReceive": 1,
      "ControlMessageSend": 5,
      "DataplanePermit": 4
    },
    "39": {
      "ControlMessageSend": 2,
      "DataplanePermit": 2
    },
    "4": {
      "ControlMessageReceive": 6,
      "ControlMessageSend": 15,
      "DataplanePermit": 14
    },
    "40": {
      "ControlMessageSend": 4,
      "DataplanePermit": 4
    },
    "41": {
      "ControlMessageReceive": 1,
      "ControlMessageSend": 8,
      "DataplanePermit": 7
    },
    "42": {
      "ControlMessageSend": 6,
      "DataplanePermit": 6
    },
    "43": {
      "ControlMessageReceive": 6,
      "ControlMessageSend": 15,
      "DataplanePermit": 14
    },
    "44": {
      "ControlMessageReceive": 7,
      "ControlMessageSend": 16,
      "DataplanePermit": 15
    },
    "45": {
      "ControlMessageReceive": 3,
      "ControlMessageSend": 9,
      "DataplanePermit": 8
    },
    "46": {
      "ControlMessageReceive": 4,
      "ControlMessageSend": 11,
      "DataplanePermit": 10
    },
    "47": {
      "ControlMessageReceive": 2,
      "ControlMessageSend": 7,
      "DataplanePermit": 6
    },
    "48": {
      "ControlMessageReceive": 2,
      "ControlMessageSend": 7,
      "DataplanePermit": 6
    },
    "49": {
      "ControlMessageReceive": 1,
      "ControlMessageSend": 6,
      "DataplanePermit": 5
    },
    "5": {
      "ControlMessageReceive": 7,
      "ControlMessageSend": 17,
      "DataplanePermit": 16
    },
    "50": {
      "ControlMessageReceive": 1,
      "ControlMessageSend": 6,
      "DataplanePermit": 5
    },
    "51": {
      "ControlMessageSend": 5,
      "DataplanePermit": 5
    },
    "52": {
      "ControlMessageSend": 4,
      "DataplanePermit": 4
    },
    "53": {
      "ControlMessageReceive": 1,
      "ControlMessageSend": 6,
      "DataplanePermit": 5
    },
    "54": {
      "ControlMessageReceive": 1,
      "ControlMessageSend": 6,
      "DataplanePermit": 5
    },
    "55": {
      "ControlMessageSend": 2,
      "DataplanePermit": 2
    },
    "56": {
      "ControlMessageReceive": 1,
      "ControlMessageSend": 5,
      "DataplanePermit": 4
    },
    "57": {
      "ControlMessageReceive": 2,
      "ControlMessageSend": 8,
      "DataplanePermit": 7
    },
    "58": {
      "ControlMessageReceive": 1,
      "ControlMessageSend": 9,
      "DataplanePermit": 8
    },
    "59": {
      "ControlMessageReceive": 1,
      "ControlMessageSend": 6,
      "DataplanePermit": 5
    },
    "6": {
      "ControlMessageReceive": 4,
      "ControlMessageSend": 13,
      "DataplanePermit": 12
    },
    "60": {
      "ControlMessageReceive": 1,
      "ControlMessageSend": 5,
      "DataplanePermit": 4
    },
    "61": {
      "ControlMessageSend": 3,
      "DataplanePermit": 3
    },
    "62": {
      "ControlMessageReceive": 1,
      "ControlMessageSend": 4,
      "DataplanePermit": 3
    },
    "63": {
      "ControlMessageSend": 3,
      "DataplanePermit": 3
    },
    "64": {
      "ControlMessageSend": 5,
      "DataplanePermit": 5
    },
    "65": {
      "ControlMessageReceive": 1,
      "ControlMessageSend": 6,
      "DataplanePermit": 5
    },
    "66": {
      "ControlMessageSend": 3,
      "DataplanePermit": 3
    },
    "7": {
      "ControlMessageReceive": 3,
      "ControlMessageSend": 9,
      "DataplanePermit": 8
    },
    "8": {
      "ControlMessageReceive": 1,
      "ControlMessageSend": 7,
      "DataplanePermit": 6
    },
    "9": {
      "ControlMessageReceive": 2,
      "ControlMessageSend": 7,
      "DataplanePermit": 7
    }
  },
  "total_events": 524,
  "total_inputs": 54,
  "total_inputs_replayed": 3302,
  "total_replays": 66,
  "violation_found_in_run": {
    "0": 20
  }
}