{"timeout_disallowed": true, "fingerprint": ["ConnectToControllers"], "timed_out": false, "label": "e1", "dependent_labels": [], "time": [1390616566, 187768], "replay_time": [1390625566, 53364], "class": "ConnectToControllers", "round": 0, "prunable": false}
{"pass_through_sends": false, "timeout_disallowed": false, "time": [1390616566, 188736], "controller_id": "c1", "fingerprint": ["ControlMessageReceive", {"class": "ofp_hello"}, 2, ["c", "1"]], "timed_out": false, "dependent_labels": [], "ignore_whitelisted_packets": true, "dpid": 2, "replay_time": [1390625566, 54993], "label": "i2", "class": "ControlMessageReceive", "b64_packet": "AQAACAAAAAM=", "round": 1, "prunable": true}
{"pass_through_sends": false, "timeout_disallowed": false, "time": [1390625566, 55599], "controller_id": "c1", "fingerprint": ["ControlMessageReceive", {"class": "ofp_hello"}, 1, "c1"], "timed_out": false, "dependent_labels": [], "ignore_whitelisted_packets": false, "new_internal_event": true, "dpid": 1, "replay_time": [1390625566, 55623], "label": "i494", "class": "ControlMessageReceive", "b64_packet": "AQAACAAAAAE=", "round": -1, "prunable": true}
{"pass_through_sends": false, "timeout_disallowed": false, "time": [1390625566, 55791], "controller_id": "c1", "fingerprint": ["ControlMessageSend", {"class": "ofp_hello"}, 2, "c1"], "timed_out": false, "dependent_labels": [], "ignore_whitelisted_packets": false, "new_internal_event": true, "dpid": 2, "replay_time": [1390625566, 55806], "label": "i495", "class": "ControlMessageSend", "b64_packet": "AQAACAAAACE=", "round": -1, "prunable": true}
{"pass_through_sends": false, "timeout_disallowed": false, "time": [1390616566, 189184], "controller_id": "c1", "fingerprint": ["ControlMessageReceive", {"class": "ofp_hello"}, 1, ["c", "1"]], "timed_out": true, "dependent_labels": [], "ignore_whitelisted_packets": true, "dpid": 1, "replay_time": [1390625566, 659798], "label": "i3", "class": "ControlMessageReceive", "b64_packet": "AQAACAAAAAE=", "round": 1, "prunable": true}
{"pass_through_sends": false, "timeout_disallowed": false, "time": [1390625566, 660795], "controller_id": "c1", "fingerprint": ["ControlMessageReceive", {"class": "ofp_features_request"}, 2, "c1"], "timed_out": false, "dependent_labels": [], "ignore_whitelisted_packets": false, "new_internal_event": true, "dpid": 2, "replay_time": [1390625566, 660822], "label": "i496", "class": "ControlMessageReceive", "b64_packet": "AQUACAAAAAU=", "round": -1, "prunable": true}
{"pass_through_sends": false, "timeout_disallowed": false, "time": [1390625566, 661065], "controller_id": "c1", "fingerprint": ["ControlMessageSend", {"class": "ofp_hello"}, 1, "c1"], "timed_out": false, "dependent_labels": [], "ignore_whitelisted_packets": false, "new_internal_event": true, "dpid": 1, "replay_time": [1390625566, 661090], "label": "i497", "class": "ControlMessageSend", "b64_packet": "AQAACAAAACM=", "round": -1, "prunable": true}
{"pass_through_sends": false, "timeout_disallowed": false, "time": [1390616566, 189396], "controller_id": "c1", "fingerprint": ["ControlMessageSend", {"class": "ofp_hello"}, 2, ["c", "1"]], "timed_out": true, "dependent_labels": [], "ignore_whitelisted_packets": true, "dpid": 2, "replay_time": [1390625567, 264744], "label": "i4", "class": "ControlMessageSend", "b64_packet": "AQAACAAAAAE=", "round": 1, "prunable": true}
{"pass_through_sends": false, "timeout_disallowed": false, "time": [1390625567, 265393], "controller_id": "c1", "fingerprint": ["ControlMessageReceive", {"class": "ofp_features_request"}, 1, "c1"], "timed_out": false, "dependent_labels": [], "ignore_whitelisted_packets": false, "new_internal_event": true, "dpid": 1, "replay_time": [1390625567, 265413], "label": "i498", "class": "ControlMessageReceive", "b64_packet": "AQUACAAAAAc=", "round": -1, "prunable": true}
{"pass_through_sends": false, "timeout_disallowed": false, "time": [1390625567, 265724], "controller_id": "c1", "fingerprint": ["ControlMessageSend", {"datapath_id": 2, "class": "ofp_features_reply"}, 2, "c1"], "timed_out": false, "dependent_labels": [], "ignore_whitelisted_packets": false, "new_internal_event": true, "dpid": 2, "replay_time": [1390625567, 265742], "label": "i499", "class": "ControlMessageSend", "b64_packet": "AQYAgAAAAAUAAAAAAAAAAgAAAGQBAAAAAAAA7wAAB/8AAQAAAAACAWV0aDEAAAAAAAAAAAAAAAAAAAAAAAAAAAAAAAAAAAAAAAAAAAAAAAAAAgAAAAACAmV0aDIAAAAAAAAAAAAAAAAAAAAAAAAAAAAAAAAAAAAAAAAAAAAAAAA=", "round": -1, "prunable": true}
{"pass_through_sends": false, "timeout_disallowed": false, "time": [1390616566, 189612], "controller_id": "c1", "fingerprint": ["ControlMessageSend", {"class": "ofp_hello"}, 1, ["c", "1"]], "timed_out": true, "dependent_labels": [], "ignore_whitelisted_packets": true, "dpid": 1, "replay_time": [1390625567, 870184], "label": "i5", "class": "ControlMessageSend", "b64_packet": "AQAACAAAAAM=", "round": 1, "prunable": true}
{"pass_through_sends": false, "timeout_disallowed": false, "time": [1390625567, 871153], "controller_id": "c1", "fingerprint": ["ControlMessageReceive", {"hard_timeout": 0, "actions": [], "priority": 32768, "idle_timeout": 0, "command": "delete", "out_port": 65535, "flags": 0, "class": "ofp_flow_mod", "match": "x^L,in_port:None"}, 2, "c1"], "timed_out": false, "dependent_labels": [], "ignore_whitelisted_packets": false, "new_internal_event": true, "dpid": 2, "replay_time": [1390625567, 871177], "label": "i500", "class": "ControlMessageReceive", "b64_packet": "AQ4ASAAAAAsAEAAfAAAAAAAAAAAAAAAAAAAAAAAAAAAAAAAAAAAAAAAAAAAAAAAAAAAAAAAAAAAAAwAAAACAAP///////wAA", "round": -1, "prunable": true}
{"pass_through_sends": false, "timeout_disallowed": false, "time": [1390625567, 871563], "controller_id": "c1", "fingerprint": ["ControlMessageReceive", {"class": "ofp_set_config"}, 2, "c1"], "timed_out": false, "dependent_labels": [], "ignore_whitelisted_packets": false, "new_internal_event": true, "dpid": 2, "replay_time": [1390625567, 871581], "label": "i501", "class": "ControlMessageReceive", "b64_packet": "AQkADAAAAAkAAACA", "round": -1, "prunable": true}
{"pass_through_sends": false, "timeout_disallowed": false, "time": [1390625567, 871798], "controller_id": "c1", "fingerprint": ["ControlMessageReceive", {"class": "ofp_barrier_request"}, 2, "c1"], "timed_out": false, "dependent_labels": [], "ignore_whitelisted_packets": false, "new_internal_event": true, "dpid": 2, "replay_time": [1390625567, 871814], "label": "i502", "class": "ControlMessageReceive", "b64_packet": "ARIACAAAAA0=", "round": -1, "prunable": true}
{"pass_through_sends": false, "timeout_disallowed": false, "time": [1390625567, 872055], "controller_id": "c1", "fingerprint": ["ControlMessageSend", {"datapath_id": 1, "class": "ofp_features_reply"}, 1, "c1"], "timed_out": false, "dependent_labels": [], "ignore_whitelisted_packets": false, "new_internal_event": true, "dpid": 1, "replay_time": [1390625567, 872073], "label": "i503", "class": "ControlMessageSend", "b64_packet": "AQYAgAAAAAcAAAAAAAAAAQAAAGQBAAAAAAAA7wAAB/8AAQAAAAABAWV0aDEAAAAAAAAAAAAAAAAAAAAAAAAAAAAAAAAAAAAAAAAAAAAAAAAAAgAAAAABAmV0aDIAAAAAAAAAAAAAAAAAAAAAAAAAAAAAAAAAAAAAAAAAAAAAAAA=", "round": -1, "prunable": true}
{"pass_through_sends": false, "timeout_disallowed": false, "time": [1390616566, 291100], "controller_id": "c1", "fingerprint": ["ControlMessageReceive", {"class": "ofp_features_request"}, 2, ["c", "1"]], "timed_out": true, "dependent_labels": [], "ignore_whitelisted_packets": true, "dpid": 2, "replay_time": [1390625568, 477543], "label": "i6", "class": "ControlMessageReceive", "b64_packet": "AQUACAAAAAU=", "round": 2, "prunable": true}
{"pass_through_sends": false, "timeout_disallowed": false, "time": [1390625568, 478385], "controller_id": "c1", "fingerprint": ["ControlMessageReceive", {"class": "ofp_barrier_request"}, 1, "c1"], "timed_out": false, "dependent_labels": [], "ignore_whitelisted_packets": false, "new_internal_event": true, "dpid": 1, "replay_time": [1390625568, 478412], "label": "i504", "class": "ControlMessageReceive", "b64_packet": "ARIACAAAABM=", "round": -1, "prunable": true}
{"pass_through_sends": false, "timeout_disallowed": false, "time": [1390625568, 478690], "controller_id": "c1", "fingerprint": ["ControlMessageReceive", {"class": "ofp_set_config"}, 1, "c1"], "timed_out": false, "dependent_labels": [], "ignore_whitelisted_packets": false, "new_internal_event": true, "dpid": 1, "replay_time": [1390625568, 478715], "label": "i505", "class": "ControlMessageReceive", "b64_packet": "AQkADAAAAA8AAACA", "round": -1, "prunable": true}
{"pass_through_sends": false, "timeout_disallowed": false, "time": [1390625568, 479243], "controller_id": "c1", "fingerprint": ["ControlMessageReceive", {"hard_timeout": 0, "actions": [], "priority": 32768, "idle_timeout": 0, "command": "delete", "out_port": 65535, "flags": 0, "class": "ofp_flow_mod", "match": "x^L,in_port:None"}, 1, "c1"], "timed_out": false, "dependent_labels": [], "ignore_whitelisted_packets": false, "new_internal_event": true, "dpid": 1, "replay_time": [1390625568, 479275], "label": "i506", "class": "ControlMessageReceive", "b64_packet": "AQ4ASAAAABEAEAAfAAAAAAAAAAAAAAAAAAAAAAAAAAAAAAAAAAAAAAAAAAAAAAAAAAAAAAAAAAAAAwAAAACAAP///////wAA", "round": -1, "prunable": true}
{"pass_through_sends": false, "timeout_disallowed": false, "time": [1390625568, 479813], "controller_id": "c1", "fingerprint": ["ControlMessageSend", {"class": "ofp_barrier_reply"}, 2, "c1"], "timed_out": false, "dependent_labels": [], "ignore_whitelisted_packets": false, "new_internal_event": true, "dpid": 2, "replay_time": [1390625568, 479850], "label": "i507", "class": "ControlMessageSend", "b64_packet": "ARMACAAAAA0=", "round": -1, "prunable": true}
{"pass_through_sends": false, "timeout_disallowed": false, "time": [1390616566, 291533], "controller_id": "c1", "fingerprint": ["ControlMessageReceive", {"class": "ofp_features_request"}, 1, ["c", "1"]], "timed_out": true, "dependent_labels": [], "ignore_whitelisted_packets": true, "dpid": 1, "replay_time": [1390625569, 84000], "label": "i7", "class": "ControlMessageReceive", "b64_packet": "AQUACAAAAAc=", "round": 2, "prunable": true}
{"pass_through_sends": false, "timeout_disallowed": false, "time": [1390625569, 84852], "controller_id": "c1", "fingerprint": ["ControlMessageReceive", {"hard_timeout": 0, "actions": ["output(65533)"], "priority": 32768, "idle_timeout": 0, "command": "add", "out_port": 65535, "flags": 0, "class": "ofp_flow_mod", "match": "dl_dst:01:23:20:00:00:01,dl_type:35020,in_port:None"}, 2, "c1"], "timed_out": false, "dependent_labels": [], "ignore_whitelisted_packets": false, "new_internal_event": true, "dpid": 2, "replay_time": [1390625569, 84875], "label": "i508", "class": "ControlMessageReceive", "b64_packet": "AQ4AUAAAABUAEAAHAAAAAAAAAAABIyAAAAEAAAAAiMwAAAAAAAAAAAAAAAAAAAAAAAAAAAAAAAAAAAAAAACAAP///////wAAAAAACP/9//8=", "round": -1, "prunable": true}
{"pass_through_sends": false, "timeout_disallowed": false, "time": [1390625569, 85226], "controller_id": "c1", "fingerprint": ["ControlMessageSend", {"class": "ofp_barrier_reply"}, 1, "c1"], "timed_out": false, "dependent_labels": [], "ignore_whitelisted_packets": false, "new_internal_event": true, "dpid": 1, "replay_time": [1390625569, 85243], "label": "i509", "class": "ControlMessageSend", "b64_packet": "ARMACAAAABM=", "round": -1, "prunable": true}
{"pass_through_sends": false, "timeout_disallowed": false, "time": [1390616566, 291905], "controller_id": "c1", "fingerprint": ["ControlMessageSend", {"datapath_id": 2, "class": "ofp_features_reply"}, 2, ["c", "1"]], "timed_out": true, "dependent_labels": [], "ignore_whitelisted_packets": true, "dpid": 2, "replay_time": [1390625569, 688341], "label": "i8", "class": "ControlMessageSend", "b64_packet": "AQYAgAAAAAUAAAAAAAAAAgAAAGQBAAAAAAAA7wAAB/8AAQAAAAACAWV0aDEAAAAAAAAAAAAAAAAAAAAAAAAAAAAAAAAAAAAAAAAAAAAAAAAAAgAAAAACAmV0aDIAAAAAAAAAAAAAAAAAAAAAAAAAAAAAAAAAAAAAAAAAAAAAAAA=", "round": 2, "prunable": true}
{"pass_through_sends": false, "timeout_disallowed": false, "time": [1390625569, 689146], "controller_id": "c1", "fingerprint": ["ControlMessageReceive", {"hard_timeout": 0, "actions": ["output(65533)"], "priority": 32768, "idle_timeout": 0, "command": "add", "out_port": 65535, "flags": 0, "class": "ofp_flow_mod", "match": "dl_dst:01:23:20:00:00:01,dl_type:35020,in_port:None"}, 1, "c1"], "timed_out": false, "dependent_labels": [], "ignore_whitelisted_packets": false, "new_internal_event": true, "dpid": 1, "replay_time": [1390625569, 689168], "label": "i510", "class": "ControlMessageReceive", "b64_packet": "AQ4AUAAAABsAEAAHAAAAAAAAAAABIyAAAAEAAAAAiMwAAAAAAAAAAAAAAAAAAAAAAAAAAAAAAAAAAAAAAACAAP///////wAAAAAACP/9//8=", "round": -1, "prunable": true}
{"pass_through_sends": false, "timeout_disallowed": false, "time": [1390616566, 292323], "controller_id": "c1", "fingerprint": ["ControlMessageSend", {"datapath_id": 1, "class": "ofp_features_reply"}, 1, ["c", "1"]], "timed_out": true, "dependent_labels": [], "ignore_whitelisted_packets": true, "dpid": 1, "replay_time": [1390625570, 292506], "label": "i9", "class": "ControlMessageSend", "b64_packet": "AQYAgAAAAAcAAAAAAAAAAQAAAGQBAAAAAAAA7wAAB/8AAQAAAAABAWV0aDEAAAAAAAAAAAAAAAAAAAAAAAAAAAAAAAAAAAAAAAAAAAAAAAAAAgAAAAABAmV0aDIAAAAAAAAAAAAAAAAAAAAAAAAAAAAAAAAAAAAAAAAAAAAAAAA=", "round": 2, "prunable": true}
{"pass_through_sends": false, "timeout_disallowed": false, "time": [1390616566, 394266], "controller_id": "c1", "fingerprint": ["ControlMessageReceive", {"class": "ofp_set_config"}, 1, ["c", "1"]], "timed_out": true, "dependent_labels": [], "ignore_whitelisted_packets": true, "dpid": 1, "replay_time": [1390625570, 939741], "label": "i10", "class": "ControlMessageReceive", "b64_packet": "AQkADAAAAA8AAACA", "round": 3, "prunable": true}
{"pass_through_sends": false, "timeout_disallowed": false, "time": [1390625570, 940518], "controller_id": "c1", "fingerprint": ["ControlMessageReceive", {"in_port": 65535, "data": {"class": "lldp"}, "class": "ofp_packet_out", "actions": ["output(1)"]}, 2, "c1"], "timed_out": false, "dependent_labels": [], "ignore_whitelisted_packets": false, "new_internal_event": true, "dpid": 2, "replay_time": [1390625570, 940538], "label": "i511", "class": "ControlMessageReceive", "b64_packet": "AQ0AQQAAABf///////8ACAAAAAgAAQAAASMgAAABAAAAAAIBiMwCBwdkcGlkOjIEAgIxBgIAeAwGZHBpZDoyAAA=", "round": -1, "prunable": true}
{"pass_through_sends": false, "timeout_disallowed": false, "time": [1390616566, 394905], "controller_id": "c1", "fingerprint": ["ControlMessageReceive", {"class": "ofp_barrier_request"}, 2, ["c", "1"]], "timed_out": true, "dependent_labels": [], "ignore_whitelisted_packets": true, "dpid": 2, "replay_time": [1390625571, 543852], "label": "i11", "class": "ControlMessageReceive", "b64_packet": "ARIACAAAAA0=", "round": 3, "prunable": true}
{"pass_through_sends": false, "timeout_disallowed": false, "time": [1390625571, 545181], "controller_id": "c1", "fingerprint": ["ControlMessageSend", {"data": {"class": "lldp"}, "class": "ofp_packet_in", "in_port": 1}, 1, "c1"], "timed_out": false, "dependent_labels": [], "ignore_whitelisted_packets": false, "new_internal_event": true, "dpid": 1, "replay_time": [1390625571, 545201], "label": "i512", "class": "ControlMessageSend", "b64_packet": "AQoAOwAAAAEAAAABADsAAQEAASMgAAABAAAAAAIBiMwCBwdkcGlkOjIEAgIxBgIAeAwGZHBpZDoyAAA=", "round": -1, "prunable": true}
{"pass_through_sends": false, "timeout_disallowed": false, "time": [1390616566, 395385], "controller_id": "c1", "fingerprint": ["ControlMessageReceive", {"hard_timeout": 0, "actions": [], "priority": 32768, "idle_timeout": 0, "command": "delete", "out_port": 65535, "flags": 0, "class": "ofp_flow_mod", "match": "x^L,in_port:None"}, 1, ["c", "1"]], "timed_out": false, "dependent_labels": [], "ignore_whitelisted_packets": true, "dpid": 1, "replay_time": [1390625571, 546911], "label": "i12", "class": "ControlMessageReceive", "b64_packet": "AQ4ASAAAABEAEAAfAAAAAAAAAAAAAAAAAAAAAAAAAAAAAAAAAAAAAAAAAAAAAAAAAAAAAAAAAAAAAwAAAACAAP///////wAA", "round": 3, "prunable": true}
{"pass_through_sends": false, "timeout_disallowed": false, "time": [1390616566, 395851], "controller_id": "c1", "fingerprint": ["ControlMessageReceive", {"class": "ofp_set_config"}, 2, ["c", "1"]], "timed_out": true, "dependent_labels": [], "ignore_whitelisted_packets": true, "dpid": 2, "replay_time": [1390625572, 191300], "label": "i13", "class": "ControlMessageReceive", "b64_packet": "AQkADAAAAAkAAACA", "round": 3, "prunable": true}
{"pass_through_sends": false, "timeout_disallowed": false, "time": [1390625572, 192075], "controller_id": "c1", "fingerprint": ["ControlMessageReceive", {"in_port": 1, "data": [], "class": "ofp_packet_out", "actions": []}, 1, "c1"], "timed_out": false, "dependent_labels": [], "ignore_whitelisted_packets": false, "new_internal_event": true, "dpid": 1, "replay_time": [1390625572, 192107], "label": "i513", "class": "ControlMessageReceive", "b64_packet": "AQ0AEAAAACMAAAABAAEAAA==", "round": -1, "prunable": true}
{"pass_through_sends": false, "timeout_disallowed": false, "time": [1390625572, 192709], "controller_id": "c1", "fingerprint": ["ControlMessageReceive", {"in_port": 65535, "data": {"class": "lldp"}, "class": "ofp_packet_out", "actions": ["output(2)"]}, 2, "c1"], "timed_out": false, "dependent_labels": [], "ignore_whitelisted_packets": false, "new_internal_event": true, "dpid": 2, "replay_time": [1390625572, 192738], "label": "i514", "class": "ControlMessageReceive", "b64_packet": "AQ0AQQAAABn///////8ACAAAAAgAAgAAASMgAAABAAAAAAICiMwCBwdkcGlkOjIEAgIyBgIAeAwGZHBpZDoyAAA=", "round": -1, "prunable": true}
{"pass_through_sends": false, "timeout_disallowed": false, "time": [1390625572, 193461], "controller_id": "c1", "fingerprint": ["ControlMessageReceive", {"hard_timeout": 0, "actions": [], "priority": 32768, "idle_timeout": 0, "command": "delete", "out_port": 65535, "flags": 0, "class": "ofp_flow_mod", "match": "x^L,in_port:None"}, 2, "c1"], "timed_out": false, "dependent_labels": [], "ignore_whitelisted_packets": false, "new_internal_event": true, "dpid": 2, "replay_time": [1390625572, 193494], "label": "i515", "class": "ControlMessageReceive", "b64_packet": "AQ4ASAAAACEAEAAfAAAAAAAAAAAAAAAAAAAAAAAAAAAAAAAAAAAAAAAAAAAAAAAAAAAAAAAAAAAAAwAAAACAAP///////wAA", "round": -1, "prunable": true}
{"pass_through_sends": false, "timeout_disallowed": false, "time": [1390616566, 396192], "controller_id": "c1", "fingerprint": ["ControlMessageReceive", {"class": "ofp_barrier_request"}, 1, ["c", "1"]], "timed_out": true, "dependent_labels": [], "ignore_whitelisted_packets": true, "dpid": 1, "replay_time": [1390625572, 796796], "label": "i14", "class": "ControlMessageReceive", "b64_packet": "ARIACAAAABM=", "round": 3, "prunable": true}
{"pass_through_sends": false, "timeout_disallowed": false, "time": [1390616566, 396643], "controller_id": "c1", "fingerprint": ["ControlMessageReceive", {"hard_timeout": 0, "actions": [], "priority": 32768, "idle_timeout": 0, "command": "delete", "out_port": 65535, "flags": 0, "class": "ofp_flow_mod", "match": "x^L,in_port:None"}, 2, ["c", "1"]], "timed_out": true, "dependent_labels": [], "ignore_whitelisted_packets": true, "dpid": 2, "replay_time": [1390625573, 445900], "label": "i15", "class": "ControlMessageReceive", "b64_packet": "AQ4ASAAAAAsAEAAfAAAAAAAAAAAAAAAAAAAAAAAAAAAAAAAAAAAAAAAAAAAAAAAAAAAAAAAAAAAAAwAAAACAAP///////wAA", "round": 3, "prunable": true}
{"pass_through_sends": false, "timeout_disallowed": false, "time": [1390625573, 447068], "controller_id": "c1", "fingerprint": ["ControlMessageReceive", {"in_port": 65535, "data": {"class": "lldp"}, "class": "ofp_packet_out", "actions": ["output(1)"]}, 1, "c1"], "timed_out": false, "dependent_labels": [], "ignore_whitelisted_packets": false, "new_internal_event": true, "dpid": 1, "replay_time": [1390625573, 447099], "label": "i516", "class": "ControlMessageReceive", "b64_packet": "AQ0AQQAAAB3///////8ACAAAAAgAAQAAASMgAAABAAAAAAEBiMwCBwdkcGlkOjEEAgIxBgIAeAwGZHBpZDoxAAA=", "round": -1, "prunable": true}
{"pass_through_sends": false, "timeout_disallowed": false, "time": [1390616566, 397090], "controller_id": "c1", "fingerprint": ["ControlMessageSend", {"class": "ofp_barrier_reply"}, 2, ["c", "1"]], "timed_out": true, "dependent_labels": [], "ignore_whitelisted_packets": true, "dpid": 2, "replay_time": [1390625574, 50989], "label": "i16", "class": "ControlMessageSend", "b64_packet": "ARMACAAAAA0=", "round": 3, "prunable": true}
{"pass_through_sends": false, "timeout_disallowed": false, "time": [1390625574, 51808], "controller_id": "c1", "fingerprint": ["ControlMessageSend", {"data": {"class": "lldp"}, "class": "ofp_packet_in", "in_port": 1}, 2, "c1"], "timed_out": false, "dependent_labels": [], "ignore_whitelisted_packets": false, "new_internal_event": true, "dpid": 2, "replay_time": [1390625574, 51827], "label": "i517", "class": "ControlMessageSend", "b64_packet": "AQoAOwAAAAEAAAABADsAAQAAASMgAAABAAAAAAEBiMwCBwdkcGlkOjEEAgIxBgIAeAwGZHBpZDoxAAA=", "round": -1, "prunable": true}
{"pass_through_sends": false, "timeout_disallowed": false, "time": [1390616566, 397290], "controller_id": "c1", "fingerprint": ["ControlMessageSend", {"class": "ofp_barrier_reply"}, 1, ["c", "1"]], "timed_out": true, "dependent_labels": [], "ignore_whitelisted_packets": true, "dpid": 1, "replay_time": [1390625574, 694526], "label": "i17", "class": "ControlMessageSend", "b64_packet": "ARMACAAAABM=", "round": 3, "prunable": true}
{"pass_through_sends": false, "timeout_disallowed": false, "time": [1390625574, 695187], "controller_id": "c1", "fingerprint": ["ControlMessageReceive", {"hard_timeout": 0, "actions": [], "priority": 32768, "idle_timeout": 0, "command": "delete", "out_port": 65535, "flags": 0, "class": "ofp_flow_mod", "match": "x^L,in_port:None"}, 1, "c1"], "timed_out": false, "dependent_labels": [], "ignore_whitelisted_packets": false, "new_internal_event": true, "dpid": 1, "replay_time": [1390625574, 695211], "label": "i518", "class": "ControlMessageReceive", "b64_packet": "AQ4ASAAAACUAEAAfAAAAAAAAAAAAAAAAAAAAAAAAAAAAAAAAAAAAAAAAAAAAAAAAAAAAAAAAAAAAAwAAAACAAP///////wAA", "round": -1, "prunable": true}
{"pass_through_sends": false, "timeout_disallowed": false, "time": [1390625574, 695774], "controller_id": "c1", "fingerprint": ["ControlMessageReceive", {"in_port": 65535, "data": {"class": "lldp"}, "class": "ofp_packet_out", "actions": ["output(2)"]}, 1, "c1"], "timed_out": false, "dependent_labels": [], "ignore_whitelisted_packets": false, "new_internal_event": true, "dpid": 1, "replay_time": [1390625574, 695793], "label": "i519", "class": "ControlMessageReceive", "b64_packet": "AQ0AQQAAAB////////8ACAAAAAgAAgAAASMgAAABAAAAAAECiMwCBwdkcGlkOjEEAgIyBgIAeAwGZHBpZDoxAAA=", "round": -1, "prunable": true}
{"pass_through_sends": false, "timeout_disallowed": false, "time": [1390625574, 696079], "controller_id": "c1", "fingerprint": ["ControlMessageReceive", {"in_port": 1, "data": [], "class": "ofp_packet_out", "actions": []}, 2, "c1"], "timed_out": false, "dependent_labels": [], "ignore_whitelisted_packets": false, "new_internal_event": true, "dpid": 2, "replay_time": [1390625574, 696096], "label": "i520", "class": "ControlMessageReceive", "b64_packet": "AQ0AEAAAACcAAAABAAEAAA==", "round": -1, "prunable": true}
{"pass_through_sends": false, "timeout_disallowed": false, "time": [1390625574, 696425], "controller_id": "c1", "fingerprint": ["ControlMessageReceive", {"hard_timeout": 0, "actions": [], "priority": 32768, "idle_timeout": 0, "command": "delete", "out_port": 65535, "flags": 0, "class": "ofp_flow_mod", "match": "x^L,in_port:None"}, 2, "c1"], "timed_out": false, "dependent_labels": [], "ignore_whitelisted_packets": false, "new_internal_event": true, "dpid": 2, "replay_time": [1390625574, 696444], "label": "i521", "class": "ControlMessageReceive", "b64_packet": "AQ4ASAAAACUAEAAfAAAAAAAAAAAAAAAAAAAAAAAAAAAAAAAAAAAAAAAAAAAAAAAAAAAAAAAAAAAAAwAAAACAAP///////wAA", "round": -1, "prunable": true}
{"pass_through_sends": false, "timeout_disallowed": false, "time": [1390616566, 499238], "controller_id": "c1", "fingerprint": ["ControlMessageReceive", {"hard_timeout": 0, "actions": ["output(65533)"], "priority": 32768, "idle_timeout": 0, "command": "add", "out_port": 65535, "flags": 0, "class": "ofp_flow_mod", "match": "dl_dst:01:23:20:00:00:01,dl_type:35020,in_port:None"}, 2, ["c", "1"]], "timed_out": true, "dependent_labels": [], "ignore_whitelisted_packets": true, "dpid": 2, "replay_time": [1390625575, 298678], "label": "i18", "class": "ControlMessageReceive", "b64_packet": "AQ4AUAAAABUAEAAHAAAAAAAAAAABIyAAAAEAAAAAiMwAAAAAAAAAAAAAAAAAAAAAAAAAAAAAAAAAAAAAAACAAP///////wAAAAAACP/9//8=", "round": 4, "prunable": true}
{"pass_through_sends": false, "timeout_disallowed": false, "time": [1390616566, 500032], "controller_id": "c1", "fingerprint": ["ControlMessageReceive", {"hard_timeout": 0, "actions": ["output(65533)"], "priority": 32768, "idle_timeout": 0, "command": "add", "out_port": 65535, "flags": 0, "class": "ofp_flow_mod", "match": "dl_dst:01:23:20:00:00:01,dl_type:35020,in_port:None"}, 1, ["c", "1"]], "timed_out": true, "dependent_labels": [], "ignore_whitelisted_packets": true, "dpid": 1, "replay_time": [1390625575, 946128], "label": "i19", "class": "ControlMessageReceive", "b64_packet": "AQ4AUAAAABsAEAAHAAAAAAAAAAABIyAAAAEAAAAAiMwAAAAAAAAAAAAAAAAAAAAAAAAAAAAAAAAAAAAAAACAAP///////wAAAAAACP/9//8=", "round": 4, "prunable": true}
{"pass_through_sends": false, "timeout_disallowed": false, "time": [1390625575, 947148], "controller_id": "c1", "fingerprint": ["ControlMessageReceive", {"in_port": 65535, "data": {"class": "lldp"}, "class": "ofp_packet_out", "actions": ["output(1)"]}, 2, "c1"], "timed_out": false, "dependent_labels": [], "ignore_whitelisted_packets": false, "new_internal_event": true, "dpid": 2, "replay_time": [1390625575, 947169], "label": "i522", "class": "ControlMessageReceive", "b64_packet": "AQ0AQQAAABf///////8ACAAAAAgAAQAAASMgAAABAAAAAAIBiMwCBwdkcGlkOjIEAgIxBgIAeAwGZHBpZDoyAAA=", "round": -1, "prunable": true}
{"pass_through_sends": false, "timeout_disallowed": false, "time": [1390616567, 711062], "controller_id": "c1", "fingerprint": ["ControlMessageReceive", {"in_port": 65535, "data": {"class": "lldp"}, "class": "ofp_packet_out", "actions": ["output(1)"]}, 2, ["c", "1"]], "timed_out": false, "dependent_labels": [], "ignore_whitelisted_packets": true, "dpid": 2, "replay_time": [1390625575, 947497], "label": "i20", "class": "ControlMessageReceive", "b64_packet": "AQ0AQQAAABf///////8ACAAAAAgAAQAAASMgAAABAAAAAAIBiMwCBwdkcGlkOjIEAgIxBgIAeAwGZHBpZDoyAAA=", "round": 16, "prunable": true}
{"pass_through_sends": false, "timeout_disallowed": false, "time": [1390625575, 948172], "controller_id": "c1", "fingerprint": ["ControlMessageSend", {"data": {"class": "lldp"}, "class": "ofp_packet_in", "in_port": 1}, 1, "c1"], "timed_out": false, "dependent_labels": [], "ignore_whitelisted_packets": false, "new_internal_event": true, "dpid": 1, "replay_time": [1390625575, 948188], "label": "i523", "class": "ControlMessageSend", "b64_packet": "AQoAOwAAAAIAAAABADsAAQAAASMgAAABAAAAAAIBiMwCBwdkcGlkOjIEAgIxBgIAeAwGZHBpZDoyAAA=", "round": -1, "prunable": true}
{"pass_through_sends": false, "timeout_disallowed": false, "time": [1390616567, 813983], "controller_id": "c1", "fingerprint": ["ControlMessageSend", {"data": {"class": "lldp"}, "class": "ofp_packet_in", "in_port": 1}, 1, ["c", "1"]], "timed_out": false, "dependent_labels": [], "ignore_whitelisted_packets": true, "dpid": 1, "replay_time": [1390625575, 948507], "label": "i22", "class": "ControlMessageSend", "b64_packet": "AQoAOwAAAAEAAAABADsAAQEAASMgAAABAAAAAAIBiMwCBwdkcGlkOjIEAgIxBgIAeAwGZHBpZDoyAAA=", "round": 17, "prunable": true}
{"pass_through_sends": false, "timeout_disallowed": false, "time": [1390616567, 916651], "controller_id": "c1", "fingerprint": ["ControlMessageReceive", {"hard_timeout": 0, "actions": [], "priority": 32768, "idle_timeout": 0, "command": "delete", "out_port": 65535, "flags": 0, "class": "ofp_flow_mod", "match": "x^L,in_port:None"}, 1, ["c", "1"]], "timed_out": true, "dependent_labels": [], "ignore_whitelisted_packets": true, "dpid": 1, "replay_time": [1390625576, 553035], "label": "i23", "class": "ControlMessageReceive", "b64_packet": "AQ4ASAAAACEAEAAfAAAAAAAAAAAAAAAAAAAAAAAAAAAAAAAAAAAAAAAAAAAAAAAAAAAAAAAAAAAAAwAAAACAAP///////wAA", "round": 18, "prunable": true}
{"pass_through_sends": false, "timeout_disallowed": false, "time": [1390625576, 553694], "controller_id": "c1", "fingerprint": ["ControlMessageReceive", {"in_port": 1, "data": [], "class": "ofp_packet_out", "actions": []}, 1, "c1"], "timed_out": false, "dependent_labels": [], "ignore_whitelisted_packets": false, "new_internal_event": true, "dpid": 1, "replay_time": [1390625576, 553717], "label": "i524", "class": "ControlMessageReceive", "b64_packet": "AQ0AEAAAACkAAAABAAEAAA==", "round": -1, "prunable": true}
{"pass_through_sends": false, "timeout_disallowed": false, "time": [1390616567, 917471], "controller_id": "c1", "fingerprint": ["ControlMessageReceive", {"in_port": 1, "data": [], "class": "ofp_packet_out", "actions": []}, 1, ["c", "1"]], "timed_out": false, "dependent_labels": [], "ignore_whitelisted_packets": true, "dpid": 1, "replay_time": [1390625576, 554015], "label": "i24", "class": "ControlMessageReceive", "b64_packet": "AQ0AEAAAACMAAAABAAEAAA==", "round": 18, "prunable": true}
{"pass_through_sends": false, "timeout_disallowed": false, "time": [1390616567, 918676], "controller_id": "c1", "fingerprint": ["ControlMessageReceive", {"hard_timeout": 0, "actions": [], "priority": 32768, "idle_timeout": 0, "command": "delete", "out_port": 65535, "flags": 0, "class": "ofp_flow_mod", "match": "x^L,in_port:None"}, 2, ["c", "1"]], "timed_out": true, "dependent_labels": [], "ignore_whitelisted_packets": true, "dpid": 2, "replay_time": [1390625577, 199653], "label": "i25", "class": "ControlMessageReceive", "b64_packet": "AQ4ASAAAACEAEAAfAAAAAAAAAAAAAAAAAAAAAAAAAAAAAAAAAAAAAAAAAAAAAAAAAAAAAAAAAAAAAwAAAACAAP///////wAA", "round": 18, "prunable": true}
{"pass_through_sends": false, "timeout_disallowed": false, "time": [1390625577, 200748], "controller_id": "c1", "fingerprint": ["ControlMessageReceive", {"in_port": 65535, "data": {"class": "lldp"}, "class": "ofp_packet_out", "actions": ["output(2)"]}, 2, "c1"], "timed_out": false, "dependent_labels": [], "ignore_whitelisted_packets": false, "new_internal_event": true, "dpid": 2, "replay_time": [1390625577, 200779], "label": "i525", "class": "ControlMessageReceive", "b64_packet": "AQ0AQQAAABn///////8ACAAAAAgAAgAAASMgAAABAAAAAAICiMwCBwdkcGlkOjIEAgIyBgIAeAwGZHBpZDoyAAA=", "round": -1, "prunable": true}
{"pass_through_sends": false, "timeout_disallowed": false, "time": [1390616568, 929373], "controller_id": "c1", "fingerprint": ["ControlMessageReceive", {"in_port": 65535, "data": {"class": "lldp"}, "class": "ofp_packet_out", "actions": ["output(2)"]}, 2, ["c", "1"]], "timed_out": false, "dependent_labels": [], "ignore_whitelisted_packets": true, "dpid": 2, "replay_time": [1390625577, 201312], "label": "i26", "class": "ControlMessageReceive", "b64_packet": "AQ0AQQAAABn///////8ACAAAAAgAAgAAASMgAAABAAAAAAICiMwCBwdkcGlkOjIEAgIyBgIAeAwGZHBpZDoyAAA=", "round": 28, "prunable": true}
{"pass_through_sends": false, "timeout_disallowed": false, "time": [1390616570, 246109], "controller_id": "c1", "fingerprint": ["ControlMessageReceive", {"in_port": 65535, "data": {"class": "lldp"}, "class": "ofp_packet_out", "actions": ["output(1)"]}, 1, ["c", "1"]], "timed_out": false, "dependent_labels": [], "ignore_whitelisted_packets": true, "dpid": 1, "replay_time": [1390625577, 201968], "label": "i28", "class": "ControlMessageReceive", "b64_packet": "AQ0AQQAAAB3///////8ACAAAAAgAAQAAASMgAAABAAAAAAEBiMwCBwdkcGlkOjEEAgIxBgIAeAwGZHBpZDoxAAA=", "round": 41, "prunable": true}
{"pass_through_sends": false, "timeout_disallowed": false, "time": [1390616570, 348531], "controller_id": "c1", "fingerprint": ["ControlMessageSend", {"data": {"class": "lldp"}, "class": "ofp_packet_in", "in_port": 1}, 2, ["c", "1"]], "timed_out": false, "dependent_labels": [], "ignore_whitelisted_packets": true, "dpid": 2, "replay_time": [1390625577, 202347], "label": "i30", "class": "ControlMessageSend", "b64_packet": "AQoAOwAAAAEAAAABADsAAQAAASMgAAABAAAAAAEBiMwCBwdkcGlkOjEEAgIxBgIAeAwGZHBpZDoxAAA=", "round": 42, "prunable": true}
{"pass_through_sends": false, "timeout_disallowed": false, "time": [1390616570, 450460], "controller_id": "c1", "fingerprint": ["ControlMessageReceive", {"in_port": 1, "data": [], "class": "ofp_packet_out", "actions": []}, 2, ["c", "1"]], "timed_out": false, "dependent_labels": [], "ignore_whitelisted_packets": true, "dpid": 2, "replay_time": [1390625577, 202687], "label": "i31", "class": "ControlMessageReceive", "b64_packet": "AQ0AEAAAACcAAAABAAEAAA==", "round": 43, "prunable": true}
{"pass_through_sends": false, "timeout_disallowed": false, "time": [1390616570, 451037], "controller_id": "c1", "fingerprint": ["ControlMessageReceive", {"hard_timeout": 0, "actions": [], "priority": 32768, "idle_timeout": 0, "command": "delete", "out_port": 65535, "flags": 0, "class": "ofp_flow_mod", "match": "x^L,in_port:None"}, 1, ["c", "1"]], "timed_out": true, "dependent_labels": [], "ignore_whitelisted_packets": true, "dpid": 1, "replay_time": [1390625577, 805637], "label": "i32", "class": "ControlMessageReceive", "b64_packet": "AQ4ASAAAACUAEAAfAAAAAAAAAAAAAAAAAAAAAAAAAAAAAAAAAAAAAAAAAAAAAAAAAAAAAAAAAAAAAwAAAACAAP///////wAA", "round": 43, "prunable": true}
{"pass_through_sends": false, "timeout_disallowed": false, "time": [1390616570, 451695], "controller_id": "c1", "fingerprint": ["ControlMessageReceive", {"hard_timeout": 0, "actions": [], "priority": 32768, "idle_timeout": 0, "command": "delete", "out_port": 65535, "flags": 0, "class": "ofp_flow_mod", "match": "x^L,in_port:None"}, 2, ["c", "1"]], "timed_out": true, "dependent_labels": [], "ignore_whitelisted_packets": true, "dpid": 2, "replay_time": [1390625578, 451876], "label": "i33", "class": "ControlMessageReceive", "b64_packet": "AQ4ASAAAACUAEAAfAAAAAAAAAAAAAAAAAAAAAAAAAAAAAAAAAAAAAAAAAAAAAAAAAAAAAAAAAAAAAwAAAACAAP///////wAA", "round": 43, "prunable": true}
{"pass_through_sends": false, "timeout_disallowed": false, "time": [1390625578, 452912], "controller_id": "c1", "fingerprint": ["ControlMessageReceive", {"in_port": 65535, "data": {"class": "lldp"}, "class": "ofp_packet_out", "actions": ["output(1)"]}, 1, "c1"], "timed_out": false, "dependent_labels": [], "ignore_whitelisted_packets": false, "new_internal_event": true, "dpid": 1, "replay_time": [1390625578, 452943], "label": "i526", "class": "ControlMessageReceive", "b64_packet": "AQ0AQQAAAB3///////8ACAAAAAgAAQAAASMgAAABAAAAAAEBiMwCBwdkcGlkOjEEAgIxBgIAeAwGZHBpZDoxAAA=", "round": -1, "prunable": true}
{"pass_through_sends": false, "timeout_disallowed": false, "time": [1390616571, 469779], "controller_id": "c1", "fingerprint": ["ControlMessageReceive", {"in_port": 65535, "data": {"class": "lldp"}, "class": "ofp_packet_out", "actions": ["output(2)"]}, 1, ["c", "1"]], "timed_out": false, "dependent_labels": [], "ignore_whitelisted_packets": true, "dpid": 1, "replay_time": [1390625578, 453446], "label": "i42", "class": "ControlMessageReceive", "b64_packet": "AQ0AQQAAAB////////8ACAAAAAgAAgAAASMgAAABAAAAAAECiMwCBwdkcGlkOjEEAgIyBgIAeAwGZHBpZDoxAAA=", "round": 53, "prunable": true}
{"pass_through_sends": false, "timeout_disallowed": false, "time": [1390625578, 454151], "controller_id": "c1", "fingerprint": ["ControlMessageSend", {"data": {"class": "lldp"}, "class": "ofp_packet_in", "in_port": 1}, 2, "c1"], "timed_out": false, "dependent_labels": [], "ignore_whitelisted_packets": false, "new_internal_event": true, "dpid": 2, "replay_time": [1390625578, 454169], "label": "i527", "class": "ControlMessageSend", "b64_packet": "AQoAOwAAAAIAAAABADsAAQAAASMgAAABAAAAAAEBiMwCBwdkcGlkOjEEAgIxBgIAeAwGZHBpZDoxAAA=", "round": -1, "prunable": true}
{"dependent_labels": [], "class": "TrafficInjection", "fingerprint": ["TrafficInjection", {"interface": {"hw_addr": "12:34:56:78:02:02", "ips": ["10.2.2.2"], "name": "eth2"}, "packet": "EjRWeAECEjRWeAICCABFAABIH/oAAEABQrUKAgICCgECAgAADjdQaW5nUGluZ1BpbmdQaW5nUGluZ1BpbmdQaW5nUGluZ1BpbmdQaW5nUGluZ1Bpbmc="}, null], "timed_out": false, "label": "e64", "dp_event": {"interface": {"hw_addr": "12:34:56:78:02:02", "ips": ["10.2.2.2"], "name": "eth2"}, "packet": "EjRWeAECEjRWeAICCABFAABIH/oAAEABQrUKAgICCgECAgAADjdQaW5nUGluZ1BpbmdQaW5nUGluZ1BpbmdQaW5nUGluZ1BpbmdQaW5nUGluZ1Bpbmc="}, "time": [1390616572, 998247], "replay_time": [1390625579, 983952], "host_id": null, "round": 68, "prunable": true}
{"pass_through_sends": false, "timeout_disallowed": false, "time": [1390625579, 985155], "controller_id": "c1", "fingerprint": ["ControlMessageReceive", {"in_port": 65535, "data": {"class": "lldp"}, "class": "ofp_packet_out", "actions": ["output(2)"]}, 1, "c1"], "timed_out": false, "dependent_labels": [], "ignore_whitelisted_packets": false, "new_internal_event": true, "dpid": 1, "replay_time": [1390625579, 985178], "label": "i528", "class": "ControlMessageReceive", "b64_packet": "AQ0AQQAAAB////////8ACAAAAAgAAgAAASMgAAABAAAAAAECiMwCBwdkcGlkOjEEAgIyBgIAeAwGZHBpZDoxAAA=", "round": -1, "prunable": true}
{"pass_through_sends": false, "timeout_disallowed": false, "time": [1390625579, 985549], "controller_id": "c1", "fingerprint": ["ControlMessageReceive", {"in_port": 1, "data": [], "class": "ofp_packet_out", "actions": []}, 2, "c1"], "timed_out": false, "dependent_labels": [], "ignore_whitelisted_packets": false, "new_internal_event": true, "dpid": 2, "replay_time": [1390625579, 985570], "label": "i529", "class": "ControlMessageReceive", "b64_packet": "AQ0AEAAAACsAAAABAAEAAA==", "round": -1, "prunable": true}
{"pass_through_sends": false, "timeout_disallowed": false, "time": [1390625579, 985823], "controller_id": "c1", "fingerprint": ["ControlMessageSend", {"data": {"dl_dst": "12:34:56:78:01:02", "nw_src": "10.2.2.2", "dl_src": "12:34:56:78:02:02", "nw_dst": "10.1.2.2"}, "class": "ofp_packet_in", "in_port": 2}, 2, "c1"], "timed_out": false, "dependent_labels": [], "ignore_whitelisted_packets": false, "new_internal_event": true, "dpid": 2, "replay_time": [1390625579, 985841], "label": "i530", "class": "ControlMessageSend", "b64_packet": "AQoAaAAAAAMAAAACAGgAAgAAEjRWeAECEjRWeAICCABFAABIH/oAAEABQrUKAgICCgECAgAADjdQaW5nUGluZ1BpbmdQaW5nUGluZ1BpbmdQaW5nUGluZ1BpbmdQaW5nUGluZ1Bpbmc=", "round": -1, "prunable": true}
{"legacy_invariant_check": false, "class": "CheckInvariants", "fingerprint": "N/A", "timed_out": false, "label": "e65", "dependent_labels": [], "invariant_name": "check_for_flow_entry", "invariant_check_name": "check_for_flow_entry", "time": [1390616572, 998818], "replay_time": [1390625579, 986270], "invariant_check": null, "round": 68, "prunable": true}
{"legacy_invariant_check": false, "class": "CheckInvariants", "fingerprint": "N/A", "timed_out": false, "label": "e71", "dependent_labels": [], "invariant_name": "check_for_flow_entry", "invariant_check_name": "check_for_flow_entry", "time": [1390616573, 203712], "replay_time": [1390625580, 192779], "invariant_check": null, "round": 70, "prunable": true}
{"pass_through_sends": false, "timeout_disallowed": false, "time": [1390625580, 193397], "controller_id": "c1", "fingerprint": ["ControlMessageReceive", {"in_port": 2, "data": [], "class": "ofp_packet_out", "actions": ["output(65531)"]}, 2, "c1"], "timed_out": false, "dependent_labels": [], "ignore_whitelisted_packets": false, "new_internal_event": true, "dpid": 2, "replay_time": [1390625580, 193430], "label": "i531", "class": "ControlMessageReceive", "b64_packet": "AQ0AGAAAAC0AAAACAAIACAAAAAj/+wAA", "round": -1, "prunable": true}
{"legacy_invariant_check": false, "class": "CheckInvariants", "fingerprint": "N/A", "timed_out": false, "label": "e73", "dependent_labels": [], "invariant_name": "check_for_flow_entry", "invariant_check_name": "check_for_flow_entry", "time": [1390616573, 306681], "replay_time": [1390625580, 297624], "invariant_check": null, "round": 71, "prunable": true}
{"pass_through_sends": false, "timeout_disallowed": false, "time": [1390625580, 298390], "controller_id": "c1", "fingerprint": ["ControlMessageSend", {"data": {"dl_dst": "12:34:56:78:01:02", "nw_src": "10.2.2.2", "dl_src": "12:34:56:78:02:02", "nw_dst": "10.1.2.2"}, "class": "ofp_packet_in", "in_port": 1}, 1, "c1"], "timed_out": false, "dependent_labels": [], "ignore_whitelisted_packets": false, "new_internal_event": true, "dpid": 1, "replay_time": [1390625580, 298412], "label": "i532", "class": "ControlMessageSend", "b64_packet": "AQoAaAAAAAMAAAABAGgAAQAAEjRWeAECEjRWeAICCABFAABIH/oAAEABQrUKAgICCgECAgAADjdQaW5nUGluZ1BpbmdQaW5nUGluZ1BpbmdQaW5nUGluZ1BpbmdQaW5nUGluZ1Bpbmc=", "round": -1, "prunable": true}
{"legacy_invariant_check": false, "class": "CheckInvariants", "fingerprint": "N/A", "timed_out": false, "label": "e75", "dependent_labels": [], "invariant_name": "check_for_flow_entry", "invariant_check_name": "check_for_flow_entry", "time": [1390616573, 409225], "replay_time": [1390625580, 400609], "invariant_check": null, "round": 72, "prunable": true}
{"pass_through_sends": false, "timeout_disallowed": false, "time": [1390625580, 401081], "controller_id": "c1", "fingerprint": ["ControlMessageReceive", {"in_port": 1, "data": [], "class": "ofp_packet_out", "actions": ["output(65531)"]}, 1, "c1"], "timed_out": false, "dependent_labels": [], "ignore_whitelisted_packets": false, "new_internal_event": true, "dpid": 1, "replay_time": [1390625580, 401113], "label": "i533", "class": "ControlMessageReceive", "b64_packet": "AQ0AGAAAAC8AAAABAAEACAAAAAj/+wAA", "round": -1, "prunable": true}
{"pass_through_sends": false, "timeout_disallowed": false, "time": [1390625580, 401514], "controller_id": "c1", "fingerprint": ["ControlMessageReceive", {"in_port": 65535, "data": {"class": "lldp"}, "class": "ofp_packet_out", "actions": ["output(1)"]}, 2, "c1"], "timed_out": false, "dependent_labels": [], "ignore_whitelisted_packets": false, "new_internal_event": true, "dpid": 2, "replay_time": [1390625580, 401530], "label": "i534", "class": "ControlMessageReceive", "b64_packet": "AQ0AQQAAABf///////8ACAAAAAgAAQAAASMgAAABAAAAAAIBiMwCBwdkcGlkOjIEAgIxBgIAeAwGZHBpZDoyAAA=", "round": -1, "prunable": true}
{"legacy_invariant_check": false, "class": "CheckInvariants", "fingerprint": "N/A", "timed_out": false, "label": "e78", "dependent_labels": [], "invariant_name": "check_for_flow_entry", "invariant_check_name": "check_for_flow_entry", "time": [1390616573, 512850], "replay_time": [1390625580, 504937], "invariant_check": null, "round": 73, "prunable": true}
{"pass_through_sends": false, "timeout_disallowed": false, "time": [1390625580, 506661], "controller_id": "c1", "fingerprint": ["ControlMessageSend", {"data": {"class": "lldp"}, "class": "ofp_packet_in", "in_port": 1}, 1, "c1"], "timed_out": false, "dependent_labels": [], "ignore_whitelisted_packets": false, "new_internal_event": true, "dpid": 1, "replay_time": [1390625580, 506691], "label": "i535", "class": "ControlMessageSend", "b64_packet": "AQoAOwAAAAQAAAABADsAAQAAASMgAAABAAAAAAIBiMwCBwdkcGlkOjIEAgIxBgIAeAwGZHBpZDoyAAA=", "round": -1, "prunable": true}
{"legacy_invariant_check": false, "class": "CheckInvariants", "fingerprint": "N/A", "timed_out": false, "label": "e82", "dependent_labels": [], "invariant_name": "check_for_flow_entry", "invariant_check_name": "check_for_flow_entry", "time": [1390616573, 616544], "replay_time": [1390625580, 609488], "invariant_check": null, "round": 74, "prunable": true}
{"pass_through_sends": false, "timeout_disallowed": false, "time": [1390625580, 610376], "controller_id": "c1", "fingerprint": ["ControlMessageReceive", {"in_port": 1, "data": [], "class": "ofp_packet_out", "actions": []}, 1, "c1"], "timed_out": false, "dependent_labels": [], "ignore_whitelisted_packets": false, "new_internal_event": true, "dpid": 1, "replay_time": [1390625580, 610397], "label": "i536", "class": "ControlMessageReceive", "b64_packet": "AQ0AEAAAADEAAAABAAEAAA==", "round": -1, "prunable": true}
{"pass_through_sends": false, "timeout_disallowed": false, "time": [1390625580, 610679], "controller_id": "c1", "fingerprint": ["ControlMessageSend", {"data": {"dl_dst": "12:34:56:78:02:02", "nw_src": "10.1.2.2", "dl_src": "12:34:56:78:01:02", "nw_dst": "10.2.2.2"}, "class": "ofp_packet_in", "in_port": 2}, 1, "c1"], "timed_out": false, "dependent_labels": [], "ignore_whitelisted_packets": false, "new_internal_event": true, "dpid": 1, "replay_time": [1390625580, 610698], "label": "i537", "class": "ControlMessageSend", "b64_packet": "AQoASAAAAAUAAAACAEgAAgAAEjRWeAICEjRWeAECCABFAAAoQb0AAEAGIQ0KAQICCgICAgAAAAAAAAAAAAAAAAAAAADn3gAA", "round": -1, "prunable": true}
{"class": "WaitTime", "fingerprint": ["WaitTime"], "timed_out": false, "label": "e84", "wait_time": 1.0, "dependent_labels": [], "time": [1390616573, 616781], "replay_time": [1390625581, 601945], "round": -1, "prunable": true}
{"wait_time": 1.0, "dependent_labels": [], "fingerprint": ["WaitTime"], "time": [1390616573, 616781], "class": "WaitTime", "prunable": true, "timed_out": false, "round": -1, "label": "e538"}
