No DataplaneDrops to replay. We suggest you set Replayer's default_dp_permit=True 
[1;36mStarting POX controller c1[1;m
[1;33m[c1] POX 0.0.0 / Copyright 2011 James McCauley[1;m

[1;41m[1;33m[c1] DEBUG:core:POX 0.0.0 going up...[1;m

[1;41m[1;33m[c1] DEBUG:core:Running on CPython (2.7.5/Mar 9 2014 22:15:05)[1;m

[1;41m[1;33m[c1] INFO:core:POX 0.0.0 is up.[1;m

[1;41m[1;33m[c1] DEBUG:openflow.of_01:Listening for connections on ('127.0.0.1', 6633)[1;m

connect_socket_with_backoff ('127.0.0.1', 6633)
connect_socket_with_backoff ('127.0.0.1', 6633)[1;33m[c1] MAX_CONNS -2[1;m


connect_socket_with_backoff ('127.0.0.1', 6633)
[1;33m[c1] MAX_CONNS -3[1;m

[1;33m[c1] MAX_CONNS -4[1;m

connect_socket_with_backoff ('127.0.0.1', 6633)
[1;36m[1;44m00:00.503 00:00.000 Successfully matched event ConnectToControllers:e1[1;m
[1;33m[c1] MAX_CONNS -5[1;m

[1;41m[1;33m[c1] INFO:openflow.of_01:of_01 [Con 4/4] Connected to 00-00-00-00-00-04[1;m

[1;41m[1;33m[c1] DEBUG:forwarding.l2_multi_syn_mem_corruption:Connect [Con 4/4][1;m

[1;41m[1;33m[c1] DEBUG:openflow.discovery:Installing flow for 00-00-00-00-00-04[1;m

[1;41m[1;33m[c1] INFO:openflow.of_01:of_01 [Con 3/3] Connected to 00-00-00-00-00-03[1;m

[1;41m[1;33m[c1] DEBUG:forwarding.l2_multi_syn_mem_corruption:Connect [Con 3/3][1;m

[1;41m[1;33m[c1] DEBUG:openflow.discovery:Installing flow for 00-00-00-00-00-03[1;m

[1;41m[1;33m[c1] INFO:openflow.of_01:of_01 [Con 1/1] Connected to 00-00-00-00-00-01[1;m

[1;41m[1;33m[c1] DEBUG:forwarding.l2_multi_syn_mem_corruption:Connect [Con 1/1][1;m

[1;41m[1;33m[c1] DEBUG:openflow.discovery:Installing flow for 00-00-00-00-00-01[1;m

[1;41m[1;33m[c1] INFO:openflow.of_01:of_01 [Con 2/2] Connected to 00-00-00-00-00-02[1;m

[1;41m[1;33m[c1] DEBUG:forwarding.l2_multi_syn_mem_corruption:Connect [Con 2/2][1;m

[1;41m[1;33m[c1] DEBUG:openflow.discovery:Installing flow for 00-00-00-00-00-02[1;m

[1;42m[1;37mNo correctness violations![1;m
[1;36m[1;44m00:09.236 00:08.731 Successfully matched event CheckInvariants:e244[1;m
[1;36m[1;36mRound 76[1;37m[1;m
[1;36mForwarding dataplane event[1;m
[1;36mForwarding dataplane event[1;m
[1;36mForwarding dataplane event[1;m
[1;36mForwarding dataplane event[1;m
[1;36mForwarding dataplane event[1;m
[1;36mForwarding dataplane event[1;m
[1;36mForwarding dataplane event[1;m
[1;36mForwarding dataplane event[1;m
[1;36mForwarding dataplane event[1;m
[1;36mForwarding dataplane event[1;m
[1;36mForwarding dataplane event[1;m
[1;36mForwarding dataplane event[1;m
[1;36mForwarding dataplane event[1;m
[1;36mForwarding dataplane event[1;m
[1;36mForwarding dataplane event[1;m
[1;36mForwarding dataplane event[1;m
[1;36mForwarding dataplane event[1;m
[1;36mForwarding dataplane event[1;m
[1;36mForwarding dataplane event[1;m
[1;36mForwarding dataplane event[1;m
[1;36mForwarding dataplane event[1;m
[1;36mForwarding dataplane event[1;m
[1;36mForwarding dataplane event[1;m
[1;36mForwarding dataplane event[1;m
[1;36mForwarding dataplane event[1;m
[1;36mForwarding dataplane event[1;m
[1;36mForwarding dataplane event[1;m
[1;41m[1;33m[c1] INFO:openflow.discovery:link detected: 00-00-00-00-00-03.1 -> 00-00-00-00-00-04.1[1;m

[1;41m[1;33m[c1] INFO:openflow.discovery:link detected: 00-00-00-00-00-01.1 -> 00-00-00-00-00-04.3[1;m

[1;41m[1;33m[c1] INFO:openflow.discovery:link detected: 00-00-00-00-00-02.1 -> 00-00-00-00-00-04.2[1;m

[1;41m[1;33m[c1] INFO:openflow.discovery:link detected: 00-00-00-00-00-04.1 -> 00-00-00-00-00-03.1[1;m

[1;41m[1;33m[c1] INFO:openflow.discovery:link detected: 00-00-00-00-00-02.2 -> 00-00-00-00-00-03.2[1;m

[1;41m[1;33m[c1] INFO:openflow.discovery:link detected: 00-00-00-00-00-01.2 -> 00-00-00-00-00-03.3[1;m

[1;41m[1;33m[c1] INFO:openflow.discovery:link detected: 00-00-00-00-00-03.3 -> 00-00-00-00-00-01.2[1;m

[1;41m[1;33m[c1] INFO:openflow.discovery:link detected: 00-00-00-00-00-02.3 -> 00-00-00-00-00-01.3[1;m

[1;41m[1;33m[c1] INFO:openflow.discovery:link detected: 00-00-00-00-00-04.3 -> 00-00-00-00-00-01.1[1;m

[1;41m[1;33m[c1] INFO:openflow.discovery:link detected: 00-00-00-00-00-04.2 -> 00-00-00-00-00-02.1[1;m

[1;41m[1;33m[c1] INFO:openflow.discovery:link detected: 00-00-00-00-00-01.3 -> 00-00-00-00-00-02.3[1;m

[1;41m[1;33m[c1] INFO:openflow.discovery:link detected: 00-00-00-00-00-03.2 -> 00-00-00-00-00-02.2[1;m

[1;42m[1;37mNo correctness violations![1;m
[1;36m[1;44m00:09.339 00:08.833 Successfully matched event CheckInvariants:e247[1;m
[1;36m[1;36mRound 77[1;37m[1;m
[1;36mForwarding dataplane event[1;m
[1;42m[1;37mNo correctness violations![1;m
[1;36m[1;44m00:09.441 00:08.934 Successfully matched event CheckInvariants:e249[1;m
[1;36m[1;36mRound 78[1;37m[1;m
[1;42m[1;37mNo correctness violations![1;m
[1;36m[1;44m00:09.543 00:09.034 Successfully matched event CheckInvariants:e250[1;m
[1;36m[1;36mRound 79[1;37m[1;m
[1;42m[1;37mNo correctness violations![1;m
[1;36m[1;44m00:09.645 00:09.136 Successfully matched event CheckInvariants:e252[1;m
[1;36m[1;36mRound 80[1;37m[1;m
[1;36mForwarding dataplane event[1;m
[1;42m[1;37mNo correctness violations![1;m
[1;36m[1;44m00:09.748 00:09.237 Successfully matched event CheckInvariants:e255[1;m
[1;36m[1;36mRound 81[1;37m[1;m
[1;42m[1;37mNo correctness violations![1;m
[1;36m[1;44m00:09.850 00:09.338 Successfully matched event CheckInvariants:e257[1;m
[1;36m[1;36mRound 82[1;37m[1;m
[1;42m[1;37mNo correctness violations![1;m
[1;36m[1;44m00:09.952 00:09.439 Successfully matched event CheckInvariants:e259[1;m
[1;36m[1;36mRound 83[1;37m[1;m
[1;36mForwarding dataplane event[1;m
[1;42m[1;37mNo correctness violations![1;m
[1;36m[1;44m00:10.055 00:09.541 Successfully matched event CheckInvariants:e262[1;m
[1;36m[1;36mRound 84[1;37m[1;m
[1;42m[1;37mNo correctness violations![1;m
[1;36m[1;44m00:10.158 00:09.643 Successfully matched event CheckInvariants:e264[1;m
[1;36m[1;36mRound 85[1;37m[1;m
[1;42m[1;37mNo correctness violations![1;m
[1;36m[1;44m00:10.262 00:09.745 Successfully matched event CheckInvariants:e266[1;m
[1;36m[1;36mRound 86[1;37m[1;m
[1;36mForwarding dataplane event[1;m
[1;42m[1;37mNo correctness violations![1;m
[1;36m[1;44m00:10.365 00:09.846 Successfully matched event CheckInvariants:e267[1;m
[1;36m[1;36mRound 87[1;37m[1;m
[1;42m[1;37mNo correctness violations![1;m
[1;36m[1;44m00:10.466 00:09.947 Successfully matched event CheckInvariants:e268[1;m
[1;36m[1;36mRound 88[1;37m[1;m
[1;42m[1;37mNo correctness violations![1;m
[1;36m[1;44m00:10.570 00:10.049 Successfully matched event CheckInvariants:e270[1;m
[1;36m[1;36mRound 89[1;37m[1;m
[1;36mForwarding dataplane event[1;m
[1;42m[1;37mNo correctness violations![1;m
[1;36m[1;44m00:10.672 00:10.151 Successfully matched event CheckInvariants:e272[1;m
[1;36m[1;36mRound 90[1;37m[1;m
[1;42m[1;37mNo correctness violations![1;m
[1;36m[1;44m00:10.774 00:10.252 Successfully matched event CheckInvariants:e273[1;m
[1;36m[1;36mRound 91[1;37m[1;m
[1;42m[1;37mNo correctness violations![1;m
[1;36m[1;44m00:10.877 00:10.354 Successfully matched event CheckInvariants:e275[1;m
[1;36m[1;36mRound 92[1;37m[1;m
[1;36mForwarding dataplane event[1;m
[1;36mCutting link (2:2) -> (3:2)[1;m
[1;36m[1;44m00:10.982 00:10.457 Successfully matched event LinkFailure:e278[1;m
[1;36m[1;36mRound 93[1;37m[1;m
[1;42m[1;37mNo correctness violations![1;m
[1;36m[1;44m00:10.983 00:10.458 Successfully matched event CheckInvariants:e279[1;m
[1;41m[1;33m[c1] WARNING:forwarding.l2_multi_syn_mem_corruption:Ignoring port status[1;m

[1;42m[1;37mNo correctness violations![1;m
[1;36m[1;44m00:11.086 00:10.560 Successfully matched event CheckInvariants:e282[1;m
[1;36m[1;36mRound 94[1;37m[1;m
[1;42m[1;37mNo correctness violations![1;m
[1;36m[1;44m00:11.190 00:10.663 Successfully matched event CheckInvariants:e284[1;m
[1;36m[1;36mRound 95[1;37m[1;m
[1;36mForwarding dataplane event[1;m
[1;42m[1;37mNo correctness violations![1;m
[1;36m[1;44m00:11.293 00:10.764 Successfully matched event CheckInvariants:e285[1;m
[1;36m[1;36mRound 96[1;37m[1;m
[1;42m[1;37mNo correctness violations![1;m
[1;36m[1;44m00:11.395 00:10.865 Successfully matched event CheckInvariants:e286[1;m
[1;36m[1;36mRound 97[1;37m[1;m
[1;42m[1;37mNo correctness violations![1;m
[1;36m[1;44m00:11.499 00:10.967 Successfully matched event CheckInvariants:e288[1;m
[1;36m[1;36mRound 98[1;37m[1;m
[1;36mForwarding dataplane event[1;m
[1;42m[1;37mNo correctness violations![1;m
[1;36m[1;44m00:11.603 00:11.070 Successfully matched event CheckInvariants:e291[1;m
[1;36m[1;36mRound 99[1;37m[1;m
[1;42m[1;37mNo correctness violations![1;m
[1;36m[1;44m00:11.706 00:11.172 Successfully matched event CheckInvariants:e293[1;m
[1;36m[1;36mRound 100[1;37m[1;m
[1;42m[1;37mNo correctness violations![1;m
[1;36m[1;44m00:11.799 00:11.274 Successfully matched event CheckInvariants:e295[1;m
[1;36m[1;36mRound 101[1;37m[1;m
[1;36mForwarding dataplane event[1;m
[1;42m[1;37mNo correctness violations![1;m
[1;36m[1;44m00:11.902 00:11.376 Successfully matched event CheckInvariants:e297[1;m
[1;36m[1;36mRound 102[1;37m[1;m
[1;42m[1;37mNo correctness violations![1;m
[1;36m[1;44m00:12.005 00:11.477 Successfully matched event CheckInvariants:e298[1;m
[1;36m[1;36mRound 103[1;37m[1;m
[1;42m[1;37mNo correctness violations![1;m
[1;36m[1;44m00:12.108 00:11.579 Successfully matched event CheckInvariants:e300[1;m
[1;36m[1;36mRound 104[1;37m[1;m
[1;42m[1;37mNo correctness violations![1;m
[1;36m[1;44m00:12.213 00:11.682 Successfully matched event CheckInvariants:e303[1;m
[1;36m[1;36mRound 105[1;37m[1;m
[1;36mForwarding dataplane event[1;m
[1;42m[1;37mNo correctness violations![1;m
[1;36m[1;44m00:12.316 00:11.784 Successfully matched event CheckInvariants:e305[1;m
[1;36m[1;36mRound 106[1;37m[1;m
[1;42m[1;37mNo correctness violations![1;m
[1;36m[1;44m00:12.413 00:11.879 Successfully matched event CheckInvariants:e307[1;m
[1;36m[1;36mRound 107[1;37m[1;m
[1;42m[1;37mNo correctness violations![1;m
[1;36m[1;44m00:12.515 00:11.980 Successfully matched event CheckInvariants:e308[1;m
[1;36m[1;36mRound 108[1;37m[1;m
[1;36mForwarding dataplane event[1;m
[1;36mCutting link (1:1) -> (4:3)[1;m
[1;36m[1;44m00:12.617 00:12.081 Successfully matched event LinkFailure:e309[1;m
[1;36m[1;36mRound 109[1;37m[1;m
[1;42m[1;37mNo correctness violations![1;m
[1;36m[1;44m00:12.617 00:12.082 Successfully matched event CheckInvariants:e310[1;m
[1;41m[1;33m[c1] WARNING:forwarding.l2_multi_syn_mem_corruption:Port down event, triggering synthetic memory corruption[1;m

[1;42m[1;37mNo correctness violations![1;m
[1;36m[1;44m00:12.721 00:12.184 Successfully matched event CheckInvariants:e312[1;m
[1;36m[1;36mRound 110[1;37m[1;m
[1;42m[1;37mNo correctness violations![1;m
[1;36m[1;44m00:12.824 00:12.286 Successfully matched event CheckInvariants:e314[1;m
[1;36m[1;36mRound 111[1;37m[1;m
[1;36mForwarding dataplane event[1;m
[1;42m[1;37mNo correctness violations![1;m
[1;36m[1;44m00:12.927 00:12.387 Successfully matched event CheckInvariants:e315[1;m
[1;36m[1;36mRound 112[1;37m[1;m
[1;42m[1;37mNo correctness violations![1;m
[1;36m[1;44m00:13.029 00:12.488 Successfully matched event CheckInvariants:e316[1;m
[1;36m[1;36mRound 113[1;37m[1;m
[1;42m[1;37mNo correctness violations![1;m
[1;36m[1;44m00:13.133 00:12.590 Successfully matched event CheckInvariants:e318[1;m
[1;36m[1;36mRound 114[1;37m[1;m
[1;36mForwarding dataplane event[1;m
[1;41m[1;33m[c1] INFO:openflow.discovery:link timeout: 00-00-00-00-00-02.2 -> 00-00-00-00-00-03.2[1;m

[1;41m[1;33m[c1] INFO:openflow.discovery:link timeout: 00-00-00-00-00-01.3 -> 00-00-00-00-00-02.3[1;m

[1;41m[1;33m[c1] INFO:openflow.discovery:link timeout: 00-00-00-00-00-01.2 -> 00-00-00-00-00-03.3[1;m

[1;41m[1;33m[c1] INFO:openflow.discovery:link timeout: 00-00-00-00-00-02.1 -> 00-00-00-00-00-04.2[1;m

[1;41m[1;33m[c1] INFO:openflow.discovery:link timeout: 00-00-00-00-00-01.1 -> 00-00-00-00-00-04.3[1;m

[1;41m[1;33m[c1] INFO:openflow.discovery:link timeout: 00-00-00-00-00-03.2 -> 00-00-00-00-00-02.2[1;m

[1;41m[1;33m[c1] INFO:openflow.discovery:link timeout: 00-00-00-00-00-04.1 -> 00-00-00-00-00-03.1[1;m

[1;41m[1;33m[c1] INFO:openflow.discovery:link timeout: 00-00-00-00-00-03.1 -> 00-00-00-00-00-04.1[1;m

[1;41m[1;33m[c1] INFO:openflow.discovery:link timeout: 00-00-00-00-00-04.2 -> 00-00-00-00-00-02.1[1;m

[1;41m[1;33m[c1] INFO:openflow.discovery:link timeout: 00-00-00-00-00-03.3 -> 00-00-00-00-00-01.2[1;m

[1;41m[1;33m[c1] INFO:openflow.discovery:link timeout: 00-00-00-00-00-02.3 -> 00-00-00-00-00-01.3[1;m

[1;41m[1;33m[c1] INFO:openflow.discovery:link timeout: 00-00-00-00-00-04.3 -> 00-00-00-00-00-01.1[1;m

[1;36mRestoring link (2:2) -> (3:2)[1;m
[1;36m[1;44m00:31.525 00:30.981 Successfully matched event LinkRecovery:e728[1;m
[1;36m[1;36mRound 294[1;37m[1;m
[1;36mForwarding dataplane event[1;m
[1;36mForwarding dataplane event[1;m
[1;36mForwarding dataplane event[1;m
[1;36mForwarding dataplane event[1;m
[1;36mForwarding dataplane event[1;m
[1;36mForwarding dataplane event[1;m
[1;36mForwarding dataplane event[1;m
[1;36mForwarding dataplane event[1;m
[1;36mForwarding dataplane event[1;m
[1;36mForwarding dataplane event[1;m
[1;36mForwarding dataplane event[1;m
[1;36mForwarding dataplane event[1;m
[1;36mForwarding dataplane event[1;m
[1;36mForwarding dataplane event[1;m
[1;36mForwarding dataplane event[1;m
[1;36mForwarding dataplane event[1;m
[1;36mForwarding dataplane event[1;m
[1;36mForwarding dataplane event[1;m
[1;36mForwarding dataplane event[1;m
[1;36mForwarding dataplane event[1;m
[1;36mForwarding dataplane event[1;m
[1;36mForwarding dataplane event[1;m
[1;36mForwarding dataplane event[1;m
[1;36mForwarding dataplane event[1;m
[1;36mForwarding dataplane event[1;m
[1;36mForwarding dataplane event[1;m
[1;36mForwarding dataplane event[1;m
[1;36mForwarding dataplane event[1;m
[1;36mForwarding dataplane event[1;m
[1;36mForwarding dataplane event[1;m
[1;36mForwarding dataplane event[1;m
[1;36mForwarding dataplane event[1;m
[1;36mForwarding dataplane event[1;m
[1;36mForwarding dataplane event[1;m
[1;36mForwarding dataplane event[1;m
[1;36mForwarding dataplane event[1;m
[1;36mForwarding dataplane event[1;m
[1;36mForwarding dataplane event[1;m
[1;36mForwarding dataplane event[1;m
[1;36mForwarding dataplane event[1;m
[1;36mForwarding dataplane event[1;m
[1;36mForwarding dataplane event[1;m
[1;36mForwarding dataplane event[1;m
[1;36mForwarding dataplane event[1;m
[1;36mForwarding dataplane event[1;m
[1;36mForwarding dataplane event[1;m
[1;36mForwarding dataplane event[1;m
[1;36mForwarding dataplane event[1;m
[1;36mForwarding dataplane event[1;m
[1;36mForwarding dataplane event[1;m
[1;36mForwarding dataplane event[1;m
[1;36mForwarding dataplane event[1;m
[1;36mForwarding dataplane event[1;m
[1;36mForwarding dataplane event[1;m
[1;36mForwarding dataplane event[1;m
[1;36mForwarding dataplane event[1;m
[1;36mForwarding dataplane event[1;m
[1;36mForwarding dataplane event[1;m
[1;41m[1;33m[c1] INFO:openflow.discovery:link detected: 00-00-00-00-00-04.1 -> 00-00-00-00-00-03.1[1;m

[1;41m[1;33m[c1] INFO:openflow.discovery:link detected: 00-00-00-00-00-01.2 -> 00-00-00-00-00-03.3[1;m

[1;41m[1;33m[c1] INFO:openflow.discovery:link detected: 00-00-00-00-00-02.2 -> 00-00-00-00-00-03.2[1;m

[1;41m[1;33m[c1] INFO:openflow.discovery:link detected: 00-00-00-00-00-03.1 -> 00-00-00-00-00-04.1[1;m

[1;41m[1;33m[c1] INFO:openflow.discovery:link detected: 00-00-00-00-00-02.1 -> 00-00-00-00-00-04.2[1;m

[1;41m[1;33m[c1] INFO:openflow.discovery:link detected: 00-00-00-00-00-03.3 -> 00-00-00-00-00-01.2[1;m

[1;41m[1;33m[c1] INFO:openflow.discovery:link detected: 00-00-00-00-00-02.3 -> 00-00-00-00-00-01.3[1;m

[1;41m[1;33m[c1] INFO:openflow.discovery:link detected: 00-00-00-00-00-04.3 -> 00-00-00-00-00-01.1[1;m

[1;41m[1;33m[c1] WARNING:forwarding.l2_multi_syn_mem_corruption:Ignoring port status[1;m

[1;41m[1;33m[c1] INFO:openflow.discovery:link detected: 00-00-00-00-00-04.2 -> 00-00-00-00-00-02.1[1;m

[1;41m[1;33m[c1] INFO:openflow.discovery:link detected: 00-00-00-00-00-01.3 -> 00-00-00-00-00-02.3[1;m

[1;41m[1;33m[c1] INFO:openflow.discovery:link detected: 00-00-00-00-00-03.2 -> 00-00-00-00-00-02.2[1;m

[1;36mRestoring link (1:1) -> (4:3)[1;m
[1;36m[1;44m00:32.036 00:31.492 Successfully matched event LinkRecovery:e739[1;m
[1;36m[1;36mRound 299[1;37m[1;m
[1;36mForwarding dataplane event[1;m
[1;36mForwarding dataplane event[1;m
[1;36m[1;36mRound 301[1;37m[1;m
[1;41m[1;33m[c1] WARNING:forwarding.l2_multi_syn_mem_corruption:Invoking controller crash aaaaaargh[1;m

[1;41m[1;37mViolations at end of trace: ['c1'][1;m
[1;42m[1;37mViolation found c1[1;m
[1;36m[1;44mEvent Stats: Events matched: 44, timed out: 0
Matches per event type:
  ConnectToControllers 1
  LinkRecovery 2
  LinkFailure 2
  CheckInvariants 39
Timeouts per event type:
[1;m
[1;36m[1;44mDataplaneDrop Stats: Expected drops (0), Actual drops (0)
Missed Drops (expected if TrafficInjections pruned):[1;m
