xss =  -ea -javaagent:/home/mininet/apache-cassandra-1.2.4/bin/../lib/jamm-0.2.5.jar -XX:+UseThreadPriorities -XX:ThreadPriorityPolicy=42 -Xms1996M -Xmx1996M -Xmn100M -XX:+HeapDumpOnOutOfMemoryError -Xss256k
 INFO 14:03:08,201 Logging initialized
 INFO 14:03:08,217 JVM vendor/version: OpenJDK 64-Bit Server VM/1.7.0_51
 WARN 14:03:08,217 OpenJDK is not recommended. Please upgrade to the newest Oracle Java release
 INFO 14:03:08,217 Heap size: 2082471936/2082471936
 INFO 14:03:08,218 Classpath: /home/mininet/apache-cassandra-1.2.4/bin/../conf:/home/mininet/apache-cassandra-1.2.4/bin/../build/classes/main:/home/mininet/apache-cassandra-1.2.4/bin/../build/classes/thrift:/home/mininet/apache-cassandra-1.2.4/bin/../lib/antlr-3.2.jar:/home/mininet/apache-cassandra-1.2.4/bin/../lib/apache-cassandra-1.2.4.jar:/home/mininet/apache-cassandra-1.2.4/bin/../lib/apache-cassandra-clientutil-1.2.4.jar:/home/mininet/apache-cassandra-1.2.4/bin/../lib/apache-cassandra-thrift-1.2.4.jar:/home/mininet/apache-cassandra-1.2.4/bin/../lib/avro-1.4.0-fixes.jar:/home/mininet/apache-cassandra-1.2.4/bin/../lib/avro-1.4.0-sources-fixes.jar:/home/mininet/apache-cassandra-1.2.4/bin/../lib/commons-cli-1.1.jar:/home/mininet/apache-cassandra-1.2.4/bin/../lib/commons-codec-1.2.jar:/home/mininet/apache-cassandra-1.2.4/bin/../lib/commons-lang-2.6.jar:/home/mininet/apache-cassandra-1.2.4/bin/../lib/compress-lzf-0.8.4.jar:/home/mininet/apache-cassandra-1.2.4/bin/../lib/concurrentlinkedhashmap-lru-1.3.jar:/home/mininet/apache-cassandra-1.2.4/bin/../lib/guava-13.0.1.jar:/home/mininet/apache-cassandra-1.2.4/bin/../lib/high-scale-lib-1.1.2.jar:/home/mininet/apache-cassandra-1.2.4/bin/../lib/jackson-core-asl-1.9.2.jar:/home/mininet/apache-cassandra-1.2.4/bin/../lib/jackson-mapper-asl-1.9.2.jar:/home/mininet/apache-cassandra-1.2.4/bin/../lib/jamm-0.2.5.jar:/home/mininet/apache-cassandra-1.2.4/bin/../lib/jbcrypt-0.3m.jar:/home/mininet/apache-cassandra-1.2.4/bin/../lib/jline-1.0.jar:/home/mininet/apache-cassandra-1.2.4/bin/../lib/json-simple-1.1.jar:/home/mininet/apache-cassandra-1.2.4/bin/../lib/libthrift-0.7.0.jar:/home/mininet/apache-cassandra-1.2.4/bin/../lib/log4j-1.2.16.jar:/home/mininet/apache-cassandra-1.2.4/bin/../lib/lz4-1.1.0.jar:/home/mininet/apache-cassandra-1.2.4/bin/../lib/metrics-core-2.0.3.jar:/home/mininet/apache-cassandra-1.2.4/bin/../lib/netty-3.5.9.Final.jar:/home/mininet/apache-cassandra-1.2.4/bin/../lib/servlet-api-2.5-20081211.jar:/home/mininet/apache-cassandra-1.2.4/bin/../lib/slf4j-api-1.7.2.jar:/home/mininet/apache-cassandra-1.2.4/bin/../lib/slf4j-log4j12-1.7.2.jar:/home/mininet/apache-cassandra-1.2.4/bin/../lib/snakeyaml-1.6.jar:/home/mininet/apache-cassandra-1.2.4/bin/../lib/snappy-java-1.0.4.1.jar:/home/mininet/apache-cassandra-1.2.4/bin/../lib/snaptree-0.1.jar:/home/mininet/apache-cassandra-1.2.4/bin/../lib/jamm-0.2.5.jar
 INFO 14:03:08,220 JNA not found. Native methods will be disabled.
 INFO 14:03:08,232 Loading settings from file:/home/mininet/apache-cassandra-1.2.4/conf/cassandra.yaml
 INFO 14:03:08,968 Data files directories: [/var/lib/cassandra/data]
 INFO 14:03:08,969 Commit log directory: /var/lib/cassandra/commitlog
 INFO 14:03:08,970 DiskAccessMode 'auto' determined to be mmap, indexAccessMode is mmap
 INFO 14:03:08,972 disk_failure_policy is stop
 INFO 14:03:08,989 Global memtable threshold is enabled at 662MB
 INFO 14:03:09,138 Not using multi-threaded compaction
 INFO 14:03:09,583 Initializing key cache with capacity of 99 MBs.
 INFO 14:03:09,600 Scheduling key cache save to each 14400 seconds (going to save all keys).
 INFO 14:03:09,601 Initializing row cache with capacity of 0 MBs and provider org.apache.cassandra.cache.SerializingCacheProvider
 INFO 14:03:09,609 Scheduling row cache save to each 0 seconds (going to save all keys).
 INFO 14:03:09,989 Couldn't detect any schema definitions in local storage.
 INFO 14:03:09,990 To create keyspaces and column families, see 'help create keyspace' in the CLI, or set up a schema using the thrift system_* calls.
 INFO 14:03:10,074 No commitlog files found; skipping replay
 INFO 14:03:10,558 Cassandra version: 1.2.4
 INFO 14:03:10,582 Thrift API version: 19.35.0
 INFO 14:03:10,592 CQL supported versions: 2.0.0,3.0.1 (default: 3.0.1)
 INFO 14:03:10,643 Loading persisted ring state
 INFO 14:03:10,648 Starting up server gossip
 WARN 14:03:10,653 No host ID found, created bcb25b41-251f-4e36-b112-1cecc3a617d1 (Note: This should happen exactly once per node).
 INFO 14:03:10,673 Enqueuing flush of Memtable-local@1156511567(361/361 serialized/live bytes, 15 ops)
 INFO 14:03:10,681 Writing Memtable-local@1156511567(361/361 serialized/live bytes, 15 ops)
 INFO 14:03:10,752 Completed flushing /var/lib/cassandra/data/system/local/system-local-ib-1-Data.db (353 bytes) for commitlog position ReplayPosition(segmentId=1402261389966, position=50656)
 INFO 14:03:10,865 Starting Messaging Service on port 7000
 INFO 14:03:10,919 Enqueuing flush of Memtable-local@1622940842(86/86 serialized/live bytes, 4 ops)
 INFO 14:03:10,920 Writing Memtable-local@1622940842(86/86 serialized/live bytes, 4 ops)
 INFO 14:03:10,936 Completed flushing /var/lib/cassandra/data/system/local/system-local-ib-2-Data.db (122 bytes) for commitlog position ReplayPosition(segmentId=1402261389966, position=50933)
 INFO 14:03:10,939 JOINING: waiting for ring information
 INFO 14:03:12,025 Node /192.168.56.11 is now part of the cluster
 INFO 14:03:12,028 InetAddress /192.168.56.11 is now UP
 INFO 14:03:12,049 Enqueuing flush of Memtable-peers@63447224(182/182 serialized/live bytes, 10 ops)
 INFO 14:03:12,050 Writing Memtable-peers@63447224(182/182 serialized/live bytes, 10 ops)
 INFO 14:03:12,068 Completed flushing /var/lib/cassandra/data/system/peers/system-peers-ib-1-Data.db (233 bytes) for commitlog position ReplayPosition(segmentId=1402261389966, position=51638)
 INFO 14:03:12,105 Enqueuing flush of Memtable-schema_keyspaces@822241569(389/389 serialized/live bytes, 11 ops)
 INFO 14:03:12,106 Writing Memtable-schema_keyspaces@822241569(389/389 serialized/live bytes, 11 ops)
 INFO 14:03:12,121 Completed flushing /var/lib/cassandra/data/system/schema_keyspaces/system-schema_keyspaces-ib-1-Data.db (261 bytes) for commitlog position ReplayPosition(segmentId=1402261389966, position=53730)
 INFO 14:03:12,123 Enqueuing flush of Memtable-schema_columnfamilies@432884427(23066/23066 serialized/live bytes, 379 ops)
 INFO 14:03:12,123 Writing Memtable-schema_columnfamilies@432884427(23066/23066 serialized/live bytes, 379 ops)
 INFO 14:03:12,152 Completed flushing /var/lib/cassandra/data/system/schema_columnfamilies/system-schema_columnfamilies-ib-1-Data.db (4849 bytes) for commitlog position ReplayPosition(segmentId=1402261389966, position=53730)
 INFO 14:03:12,153 Enqueuing flush of Memtable-schema_columns@626077030(22154/22154 serialized/live bytes, 337 ops)
 INFO 14:03:12,154 Writing Memtable-schema_columns@626077030(22154/22154 serialized/live bytes, 337 ops)
 INFO 14:03:12,190 Completed flushing /var/lib/cassandra/data/system/schema_columns/system-schema_columns-ib-1-Data.db (3897 bytes) for commitlog position ReplayPosition(segmentId=1402261389966, position=53730)
 INFO 14:03:12,941 JOINING: schema complete, ready to bootstrap
 INFO 14:03:12,941 JOINING: getting bootstrap token
 INFO 14:03:12,945 Enqueuing flush of Memtable-local@1658221466(73/73 serialized/live bytes, 4 ops)
 INFO 14:03:12,945 Writing Memtable-local@1658221466(73/73 serialized/live bytes, 4 ops)
 INFO 14:03:12,967 Completed flushing /var/lib/cassandra/data/system/local/system-local-ib-3-Data.db (134 bytes) for commitlog position ReplayPosition(segmentId=1402261389966, position=54028)
 INFO 14:03:12,983 JOINING: sleeping 30000 ms for pending range setup
 INFO 14:03:42,985 JOINING: Starting to bootstrap...
 INFO 14:03:43,061 Finished streaming session 5f81c890-ef50-11e3-b343-c1b7d013ecd2 from /192.168.56.11
 INFO 14:03:43,062 Bootstrap completed! for the tokens [0]
 INFO 14:03:43,065 Enqueuing flush of Memtable-local@1699593206(43/43 serialized/live bytes, 2 ops)
 INFO 14:03:43,066 Writing Memtable-local@1699593206(43/43 serialized/live bytes, 2 ops)
 INFO 14:03:43,079 Completed flushing /var/lib/cassandra/data/system/local/system-local-ib-4-Data.db (75 bytes) for commitlog position ReplayPosition(segmentId=1402261389966, position=54161)
 INFO 14:03:43,086 Enqueuing flush of Memtable-local@2108865544(32/32 serialized/live bytes, 2 ops)
 INFO 14:03:43,087 Writing Memtable-local@2108865544(32/32 serialized/live bytes, 2 ops)
 INFO 14:03:43,095 Compacting [SSTableReader(path='/var/lib/cassandra/data/system/local/system-local-ib-2-Data.db'), SSTableReader(path='/var/lib/cassandra/data/system/local/system-local-ib-1-Data.db'), SSTableReader(path='/var/lib/cassandra/data/system/local/system-local-ib-4-Data.db'), SSTableReader(path='/var/lib/cassandra/data/system/local/system-local-ib-3-Data.db')]
 INFO 14:03:43,107 Completed flushing /var/lib/cassandra/data/system/local/system-local-ib-5-Data.db (90 bytes) for commitlog position ReplayPosition(segmentId=1402261389966, position=54317)
 INFO 14:03:43,123 Node /192.168.56.12 state jump to normal
 INFO 14:03:43,125 Startup completed! Now serving reads.
 INFO 14:03:43,194 Compacted 4 sstables to [/var/lib/cassandra/data/system/local/system-local-ib-6,].  684 bytes to 410 (~59% of original) in 95ms = 0.004116MB/s.  4 total rows, 1 unique.  Row merge counts were {1:0, 2:0, 3:0, 4:1, }
