xss =  -ea -javaagent:/home/mininet/apache-cassandra-1.2.4/bin/../lib/jamm-0.2.5.jar -XX:+UseThreadPriorities -XX:ThreadPriorityPolicy=42 -Xms1001M -Xmx1001M -Xmn100M -XX:+HeapDumpOnOutOfMemoryError -Xss228k
 INFO 02:41:52,631 Logging initialized
 INFO 02:41:52,642 JVM vendor/version: OpenJDK 64-Bit Server VM/1.7.0_51
 WARN 02:41:52,643 OpenJDK is not recommended. Please upgrade to the newest Oracle Java release
 INFO 02:41:52,643 Heap size: 1039138816/1040187392
 INFO 02:41:52,644 Classpath: /home/mininet/apache-cassandra-1.2.4/bin/../conf:/home/mininet/apache-cassandra-1.2.4/bin/../build/classes/main:/home/mininet/apache-cassandra-1.2.4/bin/../build/classes/thrift:/home/mininet/apache-cassandra-1.2.4/bin/../lib/antlr-3.2.jar:/home/mininet/apache-cassandra-1.2.4/bin/../lib/apache-cassandra-1.2.4.jar:/home/mininet/apache-cassandra-1.2.4/bin/../lib/apache-cassandra-clientutil-1.2.4.jar:/home/mininet/apache-cassandra-1.2.4/bin/../lib/apache-cassandra-thrift-1.2.4.jar:/home/mininet/apache-cassandra-1.2.4/bin/../lib/avro-1.4.0-fixes.jar:/home/mininet/apache-cassandra-1.2.4/bin/../lib/avro-1.4.0-sources-fixes.jar:/home/mininet/apache-cassandra-1.2.4/bin/../lib/commons-cli-1.1.jar:/home/mininet/apache-cassandra-1.2.4/bin/../lib/commons-codec-1.2.jar:/home/mininet/apache-cassandra-1.2.4/bin/../lib/commons-lang-2.6.jar:/home/mininet/apache-cassandra-1.2.4/bin/../lib/compress-lzf-0.8.4.jar:/home/mininet/apache-cassandra-1.2.4/bin/../lib/concurrentlinkedhashmap-lru-1.3.jar:/home/mininet/apache-cassandra-1.2.4/bin/../lib/guava-13.0.1.jar:/home/mininet/apache-cassandra-1.2.4/bin/../lib/high-scale-lib-1.1.2.jar:/home/mininet/apache-cassandra-1.2.4/bin/../lib/jackson-core-asl-1.9.2.jar:/home/mininet/apache-cassandra-1.2.4/bin/../lib/jackson-mapper-asl-1.9.2.jar:/home/mininet/apache-cassandra-1.2.4/bin/../lib/jamm-0.2.5.jar:/home/mininet/apache-cassandra-1.2.4/bin/../lib/jbcrypt-0.3m.jar:/home/mininet/apache-cassandra-1.2.4/bin/../lib/jline-1.0.jar:/home/mininet/apache-cassandra-1.2.4/bin/../lib/json-simple-1.1.jar:/home/mininet/apache-cassandra-1.2.4/bin/../lib/libthrift-0.7.0.jar:/home/mininet/apache-cassandra-1.2.4/bin/../lib/log4j-1.2.16.jar:/home/mininet/apache-cassandra-1.2.4/bin/../lib/lz4-1.1.0.jar:/home/mininet/apache-cassandra-1.2.4/bin/../lib/metrics-core-2.0.3.jar:/home/mininet/apache-cassandra-1.2.4/bin/../lib/netty-3.5.9.Final.jar:/home/mininet/apache-cassandra-1.2.4/bin/../lib/servlet-api-2.5-20081211.jar:/home/mininet/apache-cassandra-1.2.4/bin/../lib/slf4j-api-1.7.2.jar:/home/mininet/apache-cassandra-1.2.4/bin/../lib/slf4j-log4j12-1.7.2.jar:/home/mininet/apache-cassandra-1.2.4/bin/../lib/snakeyaml-1.6.jar:/home/mininet/apache-cassandra-1.2.4/bin/../lib/snappy-java-1.0.4.1.jar:/home/mininet/apache-cassandra-1.2.4/bin/../lib/snaptree-0.1.jar:/home/mininet/apache-cassandra-1.2.4/bin/../lib/jamm-0.2.5.jar
 INFO 02:41:52,646 JNA not found. Native methods will be disabled.
 INFO 02:41:52,656 Loading settings from file:/home/mininet/apache-cassandra-1.2.4/conf/cassandra.yaml
 INFO 02:41:53,155 Data files directories: [/var/lib/cassandra/data]
 INFO 02:41:53,157 Commit log directory: /var/lib/cassandra/commitlog
 INFO 02:41:53,160 DiskAccessMode 'auto' determined to be mmap, indexAccessMode is mmap
 INFO 02:41:53,160 disk_failure_policy is stop
 INFO 02:41:53,176 Global memtable threshold is enabled at 330MB
 INFO 02:41:53,405 Not using multi-threaded compaction
 INFO 02:41:53,922 Initializing key cache with capacity of 49 MBs.
 INFO 02:41:53,929 Scheduling key cache save to each 14400 seconds (going to save all keys).
 INFO 02:41:53,930 Initializing row cache with capacity of 0 MBs and provider org.apache.cassandra.cache.SerializingCacheProvider
 INFO 02:41:53,938 Scheduling row cache save to each 0 seconds (going to save all keys).
 INFO 02:41:54,319 Couldn't detect any schema definitions in local storage.
 INFO 02:41:54,321 To create keyspaces and column families, see 'help create keyspace' in the CLI, or set up a schema using the thrift system_* calls.
 INFO 02:41:54,395 No commitlog files found; skipping replay
 INFO 02:41:54,835 Cassandra version: 1.2.4
 INFO 02:41:54,837 Thrift API version: 19.35.0
 INFO 02:41:54,837 CQL supported versions: 2.0.0,3.0.1 (default: 3.0.1)
 INFO 02:41:54,900 Loading persisted ring state
 INFO 02:41:54,910 Starting up server gossip
 WARN 02:41:54,914 No host ID found, created 9763964f-4399-4bbb-b82f-f467fe8e1a76 (Note: This should happen exactly once per node).
 INFO 02:41:54,938 Enqueuing flush of Memtable-local@1156511567(361/361 serialized/live bytes, 15 ops)
 INFO 02:41:54,953 Writing Memtable-local@1156511567(361/361 serialized/live bytes, 15 ops)
 INFO 02:41:55,027 Completed flushing /var/lib/cassandra/data/system/local/system-local-ib-1-Data.db (350 bytes) for commitlog position ReplayPosition(segmentId=1391164914293, position=50656)
 INFO 02:41:55,166 Starting Messaging Service on port 7000
 INFO 02:41:55,213 Enqueuing flush of Memtable-local@1622940842(86/86 serialized/live bytes, 4 ops)
 INFO 02:41:55,213 Writing Memtable-local@1622940842(86/86 serialized/live bytes, 4 ops)
 INFO 02:41:55,229 Completed flushing /var/lib/cassandra/data/system/local/system-local-ib-2-Data.db (122 bytes) for commitlog position ReplayPosition(segmentId=1391164914293, position=50933)
 INFO 02:41:55,231 JOINING: waiting for ring information
 INFO 02:41:56,336 Node /192.168.56.11 is now part of the cluster
 INFO 02:41:56,338 InetAddress /192.168.56.11 is now UP
 INFO 02:41:56,361 Enqueuing flush of Memtable-peers@63447224(182/182 serialized/live bytes, 10 ops)
 INFO 02:41:56,362 Writing Memtable-peers@63447224(182/182 serialized/live bytes, 10 ops)
 INFO 02:41:56,382 Completed flushing /var/lib/cassandra/data/system/peers/system-peers-ib-1-Data.db (233 bytes) for commitlog position ReplayPosition(segmentId=1391164914293, position=51638)
 INFO 02:41:56,423 Enqueuing flush of Memtable-schema_keyspaces@191197583(389/389 serialized/live bytes, 11 ops)
 INFO 02:41:56,424 Writing Memtable-schema_keyspaces@191197583(389/389 serialized/live bytes, 11 ops)
 INFO 02:41:56,444 Completed flushing /var/lib/cassandra/data/system/schema_keyspaces/system-schema_keyspaces-ib-1-Data.db (261 bytes) for commitlog position ReplayPosition(segmentId=1391164914293, position=53730)
 INFO 02:41:56,445 Enqueuing flush of Memtable-schema_columnfamilies@203568414(23066/23066 serialized/live bytes, 379 ops)
 INFO 02:41:56,446 Writing Memtable-schema_columnfamilies@203568414(23066/23066 serialized/live bytes, 379 ops)
 INFO 02:41:56,477 Completed flushing /var/lib/cassandra/data/system/schema_columnfamilies/system-schema_columnfamilies-ib-1-Data.db (4847 bytes) for commitlog position ReplayPosition(segmentId=1391164914293, position=53730)
 INFO 02:41:56,480 Enqueuing flush of Memtable-schema_columns@1183600113(22154/22154 serialized/live bytes, 337 ops)
 INFO 02:41:56,481 Writing Memtable-schema_columns@1183600113(22154/22154 serialized/live bytes, 337 ops)
 INFO 02:41:56,521 Completed flushing /var/lib/cassandra/data/system/schema_columns/system-schema_columns-ib-1-Data.db (3898 bytes) for commitlog position ReplayPosition(segmentId=1391164914293, position=53730)
 INFO 02:41:57,232 JOINING: schema complete, ready to bootstrap
 INFO 02:41:57,233 JOINING: getting bootstrap token
 INFO 02:41:57,239 Enqueuing flush of Memtable-local@1658221466(73/73 serialized/live bytes, 4 ops)
 INFO 02:41:57,240 Writing Memtable-local@1658221466(73/73 serialized/live bytes, 4 ops)
 INFO 02:41:57,270 Completed flushing /var/lib/cassandra/data/system/local/system-local-ib-3-Data.db (136 bytes) for commitlog position ReplayPosition(segmentId=1391164914293, position=54028)
 INFO 02:41:57,292 JOINING: sleeping 30000 ms for pending range setup
 INFO 02:42:27,293 JOINING: Starting to bootstrap...
 INFO 02:42:27,380 Finished streaming session 60966ac0-8a64-11e3-a0e2-c1b7d013ecd2 from /192.168.56.11
 INFO 02:42:27,382 Bootstrap completed! for the tokens [0]
 INFO 02:42:27,383 Enqueuing flush of Memtable-local@1699593206(43/43 serialized/live bytes, 2 ops)
 INFO 02:42:27,384 Writing Memtable-local@1699593206(43/43 serialized/live bytes, 2 ops)
 INFO 02:42:27,402 Completed flushing /var/lib/cassandra/data/system/local/system-local-ib-4-Data.db (75 bytes) for commitlog position ReplayPosition(segmentId=1391164914293, position=54161)
 INFO 02:42:27,412 Enqueuing flush of Memtable-local@1078778116(32/32 serialized/live bytes, 2 ops)
 INFO 02:42:27,413 Writing Memtable-local@1078778116(32/32 serialized/live bytes, 2 ops)
 INFO 02:42:27,423 Compacting [SSTableReader(path='/var/lib/cassandra/data/system/local/system-local-ib-2-Data.db'), SSTableReader(path='/var/lib/cassandra/data/system/local/system-local-ib-1-Data.db'), SSTableReader(path='/var/lib/cassandra/data/system/local/system-local-ib-4-Data.db'), SSTableReader(path='/var/lib/cassandra/data/system/local/system-local-ib-3-Data.db')]
 INFO 02:42:27,432 Completed flushing /var/lib/cassandra/data/system/local/system-local-ib-5-Data.db (90 bytes) for commitlog position ReplayPosition(segmentId=1391164914293, position=54317)
 INFO 02:42:27,443 Node /192.168.56.12 state jump to normal
 INFO 02:42:27,448 Startup completed! Now serving reads.
