xss =  -ea -javaagent:/home/mininet/apache-cassandra-1.2.4/bin/../lib/jamm-0.2.5.jar -XX:+UseThreadPriorities -XX:ThreadPriorityPolicy=42 -Xms1001M -Xmx1001M -Xmn100M -XX:+HeapDumpOnOutOfMemoryError -Xss228k
 INFO 01:58:35,945 Logging initialized
 INFO 01:58:35,968 JVM vendor/version: OpenJDK 64-Bit Server VM/1.7.0_51
 WARN 01:58:35,971 OpenJDK is not recommended. Please upgrade to the newest Oracle Java release
 INFO 01:58:35,974 Heap size: 1039138816/1040187392
 INFO 01:58:35,975 Classpath: /home/mininet/apache-cassandra-1.2.4/bin/../conf:/home/mininet/apache-cassandra-1.2.4/bin/../build/classes/main:/home/mininet/apache-cassandra-1.2.4/bin/../build/classes/thrift:/home/mininet/apache-cassandra-1.2.4/bin/../lib/antlr-3.2.jar:/home/mininet/apache-cassandra-1.2.4/bin/../lib/apache-cassandra-1.2.4.jar:/home/mininet/apache-cassandra-1.2.4/bin/../lib/apache-cassandra-clientutil-1.2.4.jar:/home/mininet/apache-cassandra-1.2.4/bin/../lib/apache-cassandra-thrift-1.2.4.jar:/home/mininet/apache-cassandra-1.2.4/bin/../lib/avro-1.4.0-fixes.jar:/home/mininet/apache-cassandra-1.2.4/bin/../lib/avro-1.4.0-sources-fixes.jar:/home/mininet/apache-cassandra-1.2.4/bin/../lib/commons-cli-1.1.jar:/home/mininet/apache-cassandra-1.2.4/bin/../lib/commons-codec-1.2.jar:/home/mininet/apache-cassandra-1.2.4/bin/../lib/commons-lang-2.6.jar:/home/mininet/apache-cassandra-1.2.4/bin/../lib/compress-lzf-0.8.4.jar:/home/mininet/apache-cassandra-1.2.4/bin/../lib/concurrentlinkedhashmap-lru-1.3.jar:/home/mininet/apache-cassandra-1.2.4/bin/../lib/guava-13.0.1.jar:/home/mininet/apache-cassandra-1.2.4/bin/../lib/high-scale-lib-1.1.2.jar:/home/mininet/apache-cassandra-1.2.4/bin/../lib/jackson-core-asl-1.9.2.jar:/home/mininet/apache-cassandra-1.2.4/bin/../lib/jackson-mapper-asl-1.9.2.jar:/home/mininet/apache-cassandra-1.2.4/bin/../lib/jamm-0.2.5.jar:/home/mininet/apache-cassandra-1.2.4/bin/../lib/jbcrypt-0.3m.jar:/home/mininet/apache-cassandra-1.2.4/bin/../lib/jline-1.0.jar:/home/mininet/apache-cassandra-1.2.4/bin/../lib/json-simple-1.1.jar:/home/mininet/apache-cassandra-1.2.4/bin/../lib/libthrift-0.7.0.jar:/home/mininet/apache-cassandra-1.2.4/bin/../lib/log4j-1.2.16.jar:/home/mininet/apache-cassandra-1.2.4/bin/../lib/lz4-1.1.0.jar:/home/mininet/apache-cassandra-1.2.4/bin/../lib/metrics-core-2.0.3.jar:/home/mininet/apache-cassandra-1.2.4/bin/../lib/netty-3.5.9.Final.jar:/home/mininet/apache-cassandra-1.2.4/bin/../lib/servlet-api-2.5-20081211.jar:/home/mininet/apache-cassandra-1.2.4/bin/../lib/slf4j-api-1.7.2.jar:/home/mininet/apache-cassandra-1.2.4/bin/../lib/slf4j-log4j12-1.7.2.jar:/home/mininet/apache-cassandra-1.2.4/bin/../lib/snakeyaml-1.6.jar:/home/mininet/apache-cassandra-1.2.4/bin/../lib/snappy-java-1.0.4.1.jar:/home/mininet/apache-cassandra-1.2.4/bin/../lib/snaptree-0.1.jar:/home/mininet/apache-cassandra-1.2.4/bin/../lib/jamm-0.2.5.jar
 INFO 01:58:35,980 JNA not found. Native methods will be disabled.
 INFO 01:58:35,994 Loading settings from file:/home/mininet/apache-cassandra-1.2.4/conf/cassandra.yaml
 INFO 01:58:36,556 Data files directories: [/var/lib/cassandra/data]
 INFO 01:58:36,557 Commit log directory: /var/lib/cassandra/commitlog
 INFO 01:58:36,557 DiskAccessMode 'auto' determined to be mmap, indexAccessMode is mmap
 INFO 01:58:36,557 disk_failure_policy is stop
 INFO 01:58:36,566 Global memtable threshold is enabled at 330MB
 INFO 01:58:36,681 Not using multi-threaded compaction
 INFO 01:58:37,132 Initializing key cache with capacity of 49 MBs.
 INFO 01:58:37,139 Scheduling key cache save to each 14400 seconds (going to save all keys).
 INFO 01:58:37,140 Initializing row cache with capacity of 0 MBs and provider org.apache.cassandra.cache.SerializingCacheProvider
 INFO 01:58:37,148 Scheduling row cache save to each 0 seconds (going to save all keys).
 INFO 01:58:37,539 Couldn't detect any schema definitions in local storage.
 INFO 01:58:37,542 To create keyspaces and column families, see 'help create keyspace' in the CLI, or set up a schema using the thrift system_* calls.
 INFO 01:58:37,707 No commitlog files found; skipping replay
 INFO 01:58:38,195 Cassandra version: 1.2.4
 INFO 01:58:38,198 Thrift API version: 19.35.0
 INFO 01:58:38,199 CQL supported versions: 2.0.0,3.0.1 (default: 3.0.1)
 INFO 01:58:38,229 Loading persisted ring state
 INFO 01:58:38,231 Starting up server gossip
 WARN 01:58:38,235 No host ID found, created 50066911-2149-4cc3-a03d-90df006676b6 (Note: This should happen exactly once per node).
 INFO 01:58:38,246 Enqueuing flush of Memtable-local@1156511567(361/361 serialized/live bytes, 15 ops)
 INFO 01:58:38,253 Writing Memtable-local@1156511567(361/361 serialized/live bytes, 15 ops)
 INFO 01:58:38,300 Completed flushing /var/lib/cassandra/data/system/local/system-local-ib-1-Data.db (355 bytes) for commitlog position ReplayPosition(segmentId=1391162317505, position=50656)
 INFO 01:58:38,370 Starting Messaging Service on port 7000
 INFO 01:58:38,416 Enqueuing flush of Memtable-local@1622940842(86/86 serialized/live bytes, 4 ops)
 INFO 01:58:38,416 Writing Memtable-local@1622940842(86/86 serialized/live bytes, 4 ops)
 INFO 01:58:38,433 Completed flushing /var/lib/cassandra/data/system/local/system-local-ib-2-Data.db (122 bytes) for commitlog position ReplayPosition(segmentId=1391162317505, position=50933)
 INFO 01:58:38,435 JOINING: waiting for ring information
 INFO 01:58:39,654 Node /192.168.56.11 is now part of the cluster
 INFO 01:58:39,665 InetAddress /192.168.56.11 is now UP
 INFO 01:58:39,696 Enqueuing flush of Memtable-peers@63447224(182/182 serialized/live bytes, 10 ops)
 INFO 01:58:39,696 Writing Memtable-peers@63447224(182/182 serialized/live bytes, 10 ops)
 INFO 01:58:39,718 Completed flushing /var/lib/cassandra/data/system/peers/system-peers-ib-1-Data.db (235 bytes) for commitlog position ReplayPosition(segmentId=1391162317505, position=51638)
 INFO 01:58:39,741 Enqueuing flush of Memtable-schema_keyspaces@822241569(389/389 serialized/live bytes, 11 ops)
 INFO 01:58:39,742 Writing Memtable-schema_keyspaces@822241569(389/389 serialized/live bytes, 11 ops)
 INFO 01:58:39,762 Completed flushing /var/lib/cassandra/data/system/schema_keyspaces/system-schema_keyspaces-ib-1-Data.db (264 bytes) for commitlog position ReplayPosition(segmentId=1391162317505, position=53730)
 INFO 01:58:39,763 Enqueuing flush of Memtable-schema_columnfamilies@432884427(23066/23066 serialized/live bytes, 379 ops)
 INFO 01:58:39,764 Writing Memtable-schema_columnfamilies@432884427(23066/23066 serialized/live bytes, 379 ops)
 INFO 01:58:39,795 Completed flushing /var/lib/cassandra/data/system/schema_columnfamilies/system-schema_columnfamilies-ib-1-Data.db (4872 bytes) for commitlog position ReplayPosition(segmentId=1391162317505, position=53730)
 INFO 01:58:39,797 Enqueuing flush of Memtable-schema_columns@626077030(22154/22154 serialized/live bytes, 337 ops)
 INFO 01:58:39,797 Writing Memtable-schema_columns@626077030(22154/22154 serialized/live bytes, 337 ops)
 INFO 01:58:39,833 Completed flushing /var/lib/cassandra/data/system/schema_columns/system-schema_columns-ib-1-Data.db (3947 bytes) for commitlog position ReplayPosition(segmentId=1391162317505, position=53730)
 INFO 01:58:40,437 JOINING: schema complete, ready to bootstrap
 INFO 01:58:40,438 JOINING: getting bootstrap token
 INFO 01:58:40,444 Enqueuing flush of Memtable-local@1658221466(73/73 serialized/live bytes, 4 ops)
 INFO 01:58:40,444 Writing Memtable-local@1658221466(73/73 serialized/live bytes, 4 ops)
 INFO 01:58:40,474 Completed flushing /var/lib/cassandra/data/system/local/system-local-ib-3-Data.db (136 bytes) for commitlog position ReplayPosition(segmentId=1391162317505, position=54028)
 INFO 01:58:40,500 JOINING: sleeping 30000 ms for pending range setup
 INFO 01:59:10,503 JOINING: Starting to bootstrap...
 INFO 01:59:10,580 Finished streaming session 54c7dc70-8a5e-11e3-b631-c1b7d013ecd2 from /192.168.56.11
 INFO 01:59:10,581 Bootstrap completed! for the tokens [0]
 INFO 01:59:10,583 Enqueuing flush of Memtable-local@1699593206(43/43 serialized/live bytes, 2 ops)
 INFO 01:59:10,584 Writing Memtable-local@1699593206(43/43 serialized/live bytes, 2 ops)
 INFO 01:59:10,608 Completed flushing /var/lib/cassandra/data/system/local/system-local-ib-4-Data.db (75 bytes) for commitlog position ReplayPosition(segmentId=1391162317505, position=54161)
 INFO 01:59:10,616 Enqueuing flush of Memtable-local@260808008(32/32 serialized/live bytes, 2 ops)
 INFO 01:59:10,619 Writing Memtable-local@260808008(32/32 serialized/live bytes, 2 ops)
 INFO 01:59:10,629 Compacting [SSTableReader(path='/var/lib/cassandra/data/system/local/system-local-ib-2-Data.db'), SSTableReader(path='/var/lib/cassandra/data/system/local/system-local-ib-1-Data.db'), SSTableReader(path='/var/lib/cassandra/data/system/local/system-local-ib-4-Data.db'), SSTableReader(path='/var/lib/cassandra/data/system/local/system-local-ib-3-Data.db')]
 INFO 01:59:10,646 Completed flushing /var/lib/cassandra/data/system/local/system-local-ib-5-Data.db (90 bytes) for commitlog position ReplayPosition(segmentId=1391162317505, position=54317)
 INFO 01:59:10,658 Node /192.168.56.12 state jump to normal
 INFO 01:59:10,658 Startup completed! Now serving reads.
 INFO 01:59:10,720 Compacted 4 sstables to [/var/lib/cassandra/data/system/local/system-local-ib-6,].  688 bytes to 409 (~59% of original) in 80ms = 0.004876MB/s.  4 total rows, 1 unique.  Row merge counts were {1:0, 2:0, 3:0, 4:1, }
