xss =  -ea -javaagent:/home/mininet/apache-cassandra-1.2.4/bin/../lib/jamm-0.2.5.jar -XX:+UseThreadPriorities -XX:ThreadPriorityPolicy=42 -Xms1001M -Xmx1001M -Xmn100M -XX:+HeapDumpOnOutOfMemoryError -Xss228k
 INFO 01:44:14,117 Logging initialized
 INFO 01:44:14,129 JVM vendor/version: OpenJDK 64-Bit Server VM/1.7.0_51
 WARN 01:44:14,129 OpenJDK is not recommended. Please upgrade to the newest Oracle Java release
 INFO 01:44:14,130 Heap size: 1039138816/1040187392
 INFO 01:44:14,130 Classpath: /home/mininet/apache-cassandra-1.2.4/bin/../conf:/home/mininet/apache-cassandra-1.2.4/bin/../build/classes/main:/home/mininet/apache-cassandra-1.2.4/bin/../build/classes/thrift:/home/mininet/apache-cassandra-1.2.4/bin/../lib/antlr-3.2.jar:/home/mininet/apache-cassandra-1.2.4/bin/../lib/apache-cassandra-1.2.4.jar:/home/mininet/apache-cassandra-1.2.4/bin/../lib/apache-cassandra-clientutil-1.2.4.jar:/home/mininet/apache-cassandra-1.2.4/bin/../lib/apache-cassandra-thrift-1.2.4.jar:/home/mininet/apache-cassandra-1.2.4/bin/../lib/avro-1.4.0-fixes.jar:/home/mininet/apache-cassandra-1.2.4/bin/../lib/avro-1.4.0-sources-fixes.jar:/home/mininet/apache-cassandra-1.2.4/bin/../lib/commons-cli-1.1.jar:/home/mininet/apache-cassandra-1.2.4/bin/../lib/commons-codec-1.2.jar:/home/mininet/apache-cassandra-1.2.4/bin/../lib/commons-lang-2.6.jar:/home/mininet/apache-cassandra-1.2.4/bin/../lib/compress-lzf-0.8.4.jar:/home/mininet/apache-cassandra-1.2.4/bin/../lib/concurrentlinkedhashmap-lru-1.3.jar:/home/mininet/apache-cassandra-1.2.4/bin/../lib/guava-13.0.1.jar:/home/mininet/apache-cassandra-1.2.4/bin/../lib/high-scale-lib-1.1.2.jar:/home/mininet/apache-cassandra-1.2.4/bin/../lib/jackson-core-asl-1.9.2.jar:/home/mininet/apache-cassandra-1.2.4/bin/../lib/jackson-mapper-asl-1.9.2.jar:/home/mininet/apache-cassandra-1.2.4/bin/../lib/jamm-0.2.5.jar:/home/mininet/apache-cassandra-1.2.4/bin/../lib/jbcrypt-0.3m.jar:/home/mininet/apache-cassandra-1.2.4/bin/../lib/jline-1.0.jar:/home/mininet/apache-cassandra-1.2.4/bin/../lib/json-simple-1.1.jar:/home/mininet/apache-cassandra-1.2.4/bin/../lib/libthrift-0.7.0.jar:/home/mininet/apache-cassandra-1.2.4/bin/../lib/log4j-1.2.16.jar:/home/mininet/apache-cassandra-1.2.4/bin/../lib/lz4-1.1.0.jar:/home/mininet/apache-cassandra-1.2.4/bin/../lib/metrics-core-2.0.3.jar:/home/mininet/apache-cassandra-1.2.4/bin/../lib/netty-3.5.9.Final.jar:/home/mininet/apache-cassandra-1.2.4/bin/../lib/servlet-api-2.5-20081211.jar:/home/mininet/apache-cassandra-1.2.4/bin/../lib/slf4j-api-1.7.2.jar:/home/mininet/apache-cassandra-1.2.4/bin/../lib/slf4j-log4j12-1.7.2.jar:/home/mininet/apache-cassandra-1.2.4/bin/../lib/snakeyaml-1.6.jar:/home/mininet/apache-cassandra-1.2.4/bin/../lib/snappy-java-1.0.4.1.jar:/home/mininet/apache-cassandra-1.2.4/bin/../lib/snaptree-0.1.jar:/home/mininet/apache-cassandra-1.2.4/bin/../lib/jamm-0.2.5.jar
 INFO 01:44:14,132 JNA not found. Native methods will be disabled.
 INFO 01:44:14,141 Loading settings from file:/home/mininet/apache-cassandra-1.2.4/conf/cassandra.yaml
 INFO 01:44:14,595 Data files directories: [/var/lib/cassandra/data]
 INFO 01:44:14,596 Commit log directory: /var/lib/cassandra/commitlog
 INFO 01:44:14,596 DiskAccessMode 'auto' determined to be mmap, indexAccessMode is mmap
 INFO 01:44:14,596 disk_failure_policy is stop
 INFO 01:44:14,607 Global memtable threshold is enabled at 330MB
 INFO 01:44:14,817 Not using multi-threaded compaction
 INFO 01:44:15,377 Initializing key cache with capacity of 49 MBs.
 INFO 01:44:15,384 Scheduling key cache save to each 14400 seconds (going to save all keys).
 INFO 01:44:15,385 Initializing row cache with capacity of 0 MBs and provider org.apache.cassandra.cache.SerializingCacheProvider
 INFO 01:44:15,393 Scheduling row cache save to each 0 seconds (going to save all keys).
 INFO 01:44:15,775 Couldn't detect any schema definitions in local storage.
 INFO 01:44:15,777 To create keyspaces and column families, see 'help create keyspace' in the CLI, or set up a schema using the thrift system_* calls.
 INFO 01:44:15,859 No commitlog files found; skipping replay
 INFO 01:44:16,198 Cassandra version: 1.2.4
 INFO 01:44:16,215 Thrift API version: 19.35.0
 INFO 01:44:16,217 CQL supported versions: 2.0.0,3.0.1 (default: 3.0.1)
 INFO 01:44:16,250 Loading persisted ring state
 INFO 01:44:16,253 Starting up server gossip
 WARN 01:44:16,257 No host ID found, created f4c1b2d9-20e0-4dae-a404-40b8312c8f83 (Note: This should happen exactly once per node).
 INFO 01:44:16,270 Enqueuing flush of Memtable-local@1156511567(361/361 serialized/live bytes, 15 ops)
 INFO 01:44:16,276 Writing Memtable-local@1156511567(361/361 serialized/live bytes, 15 ops)
 INFO 01:44:16,339 Completed flushing /var/lib/cassandra/data/system/local/system-local-ib-1-Data.db (352 bytes) for commitlog position ReplayPosition(segmentId=1391161455749, position=50656)
 INFO 01:44:16,506 Starting Messaging Service on port 7000
 INFO 01:44:16,596 Enqueuing flush of Memtable-local@1622940842(86/86 serialized/live bytes, 4 ops)
 INFO 01:44:16,598 Writing Memtable-local@1622940842(86/86 serialized/live bytes, 4 ops)
 INFO 01:44:16,618 Completed flushing /var/lib/cassandra/data/system/local/system-local-ib-2-Data.db (122 bytes) for commitlog position ReplayPosition(segmentId=1391161455749, position=50933)
 INFO 01:44:16,619 JOINING: waiting for ring information
 INFO 01:44:17,986 Node /192.168.56.11 is now part of the cluster
 INFO 01:44:17,992 InetAddress /192.168.56.11 is now UP
 INFO 01:44:18,012 Enqueuing flush of Memtable-peers@63447224(182/182 serialized/live bytes, 10 ops)
 INFO 01:44:18,013 Writing Memtable-peers@63447224(182/182 serialized/live bytes, 10 ops)
 INFO 01:44:18,040 Completed flushing /var/lib/cassandra/data/system/peers/system-peers-ib-1-Data.db (233 bytes) for commitlog position ReplayPosition(segmentId=1391161455749, position=51638)
 INFO 01:44:18,062 Enqueuing flush of Memtable-schema_keyspaces@822241569(389/389 serialized/live bytes, 11 ops)
 INFO 01:44:18,063 Writing Memtable-schema_keyspaces@822241569(389/389 serialized/live bytes, 11 ops)
 INFO 01:44:18,087 Completed flushing /var/lib/cassandra/data/system/schema_keyspaces/system-schema_keyspaces-ib-1-Data.db (265 bytes) for commitlog position ReplayPosition(segmentId=1391161455749, position=53730)
 INFO 01:44:18,092 Enqueuing flush of Memtable-schema_columnfamilies@432884427(23066/23066 serialized/live bytes, 379 ops)
 INFO 01:44:18,093 Writing Memtable-schema_columnfamilies@432884427(23066/23066 serialized/live bytes, 379 ops)
 INFO 01:44:18,125 Completed flushing /var/lib/cassandra/data/system/schema_columnfamilies/system-schema_columnfamilies-ib-1-Data.db (4872 bytes) for commitlog position ReplayPosition(segmentId=1391161455749, position=53730)
 INFO 01:44:18,126 Enqueuing flush of Memtable-schema_columns@626077030(22154/22154 serialized/live bytes, 337 ops)
 INFO 01:44:18,127 Writing Memtable-schema_columns@626077030(22154/22154 serialized/live bytes, 337 ops)
 INFO 01:44:18,161 Completed flushing /var/lib/cassandra/data/system/schema_columns/system-schema_columns-ib-1-Data.db (4010 bytes) for commitlog position ReplayPosition(segmentId=1391161455749, position=53730)
 INFO 01:44:18,620 JOINING: schema complete, ready to bootstrap
 INFO 01:44:18,621 JOINING: getting bootstrap token
 INFO 01:44:18,627 Enqueuing flush of Memtable-local@1658221466(73/73 serialized/live bytes, 4 ops)
 INFO 01:44:18,628 Writing Memtable-local@1658221466(73/73 serialized/live bytes, 4 ops)
 INFO 01:44:18,651 Completed flushing /var/lib/cassandra/data/system/local/system-local-ib-3-Data.db (137 bytes) for commitlog position ReplayPosition(segmentId=1391161455749, position=54028)
 INFO 01:44:18,672 JOINING: sleeping 30000 ms for pending range setup
 INFO 01:44:48,674 JOINING: Starting to bootstrap...
 INFO 01:44:48,829 Finished streaming session 53166dd0-8a5c-11e3-b39a-c1b7d013ecd2 from /192.168.56.11
 INFO 01:44:48,831 Bootstrap completed! for the tokens [0]
 INFO 01:44:48,833 Enqueuing flush of Memtable-local@1699593206(43/43 serialized/live bytes, 2 ops)
 INFO 01:44:48,835 Writing Memtable-local@1699593206(43/43 serialized/live bytes, 2 ops)
 INFO 01:44:48,867 Completed flushing /var/lib/cassandra/data/system/local/system-local-ib-4-Data.db (75 bytes) for commitlog position ReplayPosition(segmentId=1391161455749, position=54161)
 INFO 01:44:48,876 Enqueuing flush of Memtable-local@1400126543(32/32 serialized/live bytes, 2 ops)
 INFO 01:44:48,877 Writing Memtable-local@1400126543(32/32 serialized/live bytes, 2 ops)
 INFO 01:44:48,893 Compacting [SSTableReader(path='/var/lib/cassandra/data/system/local/system-local-ib-2-Data.db'), SSTableReader(path='/var/lib/cassandra/data/system/local/system-local-ib-1-Data.db'), SSTableReader(path='/var/lib/cassandra/data/system/local/system-local-ib-4-Data.db'), SSTableReader(path='/var/lib/cassandra/data/system/local/system-local-ib-3-Data.db')]
 INFO 01:44:48,919 Completed flushing /var/lib/cassandra/data/system/local/system-local-ib-5-Data.db (91 bytes) for commitlog position ReplayPosition(segmentId=1391161455749, position=54317)
 INFO 01:44:48,944 Node /192.168.56.12 state jump to normal
 INFO 01:44:48,945 Startup completed! Now serving reads.
