xss =  -ea -javaagent:/home/mininet/apache-cassandra-1.2.4/bin/../lib/jamm-0.2.5.jar -XX:+UseThreadPriorities -XX:ThreadPriorityPolicy=42 -Xms1996M -Xmx1996M -Xmn100M -XX:+HeapDumpOnOutOfMemoryError -Xss256k
 INFO 09:15:55,635 Logging initialized
 INFO 09:15:55,647 JVM vendor/version: OpenJDK 64-Bit Server VM/1.7.0_51
 WARN 09:15:55,648 OpenJDK is not recommended. Please upgrade to the newest Oracle Java release
 INFO 09:15:55,648 Heap size: 2082471936/2082471936
 INFO 09:15:55,648 Classpath: /home/mininet/apache-cassandra-1.2.4/bin/../conf:/home/mininet/apache-cassandra-1.2.4/bin/../build/classes/main:/home/mininet/apache-cassandra-1.2.4/bin/../build/classes/thrift:/home/mininet/apache-cassandra-1.2.4/bin/../lib/antlr-3.2.jar:/home/mininet/apache-cassandra-1.2.4/bin/../lib/apache-cassandra-1.2.4.jar:/home/mininet/apache-cassandra-1.2.4/bin/../lib/apache-cassandra-clientutil-1.2.4.jar:/home/mininet/apache-cassandra-1.2.4/bin/../lib/apache-cassandra-thrift-1.2.4.jar:/home/mininet/apache-cassandra-1.2.4/bin/../lib/avro-1.4.0-fixes.jar:/home/mininet/apache-cassandra-1.2.4/bin/../lib/avro-1.4.0-sources-fixes.jar:/home/mininet/apache-cassandra-1.2.4/bin/../lib/commons-cli-1.1.jar:/home/mininet/apache-cassandra-1.2.4/bin/../lib/commons-codec-1.2.jar:/home/mininet/apache-cassandra-1.2.4/bin/../lib/commons-lang-2.6.jar:/home/mininet/apache-cassandra-1.2.4/bin/../lib/compress-lzf-0.8.4.jar:/home/mininet/apache-cassandra-1.2.4/bin/../lib/concurrentlinkedhashmap-lru-1.3.jar:/home/mininet/apache-cassandra-1.2.4/bin/../lib/guava-13.0.1.jar:/home/mininet/apache-cassandra-1.2.4/bin/../lib/high-scale-lib-1.1.2.jar:/home/mininet/apache-cassandra-1.2.4/bin/../lib/jackson-core-asl-1.9.2.jar:/home/mininet/apache-cassandra-1.2.4/bin/../lib/jackson-mapper-asl-1.9.2.jar:/home/mininet/apache-cassandra-1.2.4/bin/../lib/jamm-0.2.5.jar:/home/mininet/apache-cassandra-1.2.4/bin/../lib/jbcrypt-0.3m.jar:/home/mininet/apache-cassandra-1.2.4/bin/../lib/jline-1.0.jar:/home/mininet/apache-cassandra-1.2.4/bin/../lib/json-simple-1.1.jar:/home/mininet/apache-cassandra-1.2.4/bin/../lib/libthrift-0.7.0.jar:/home/mininet/apache-cassandra-1.2.4/bin/../lib/log4j-1.2.16.jar:/home/mininet/apache-cassandra-1.2.4/bin/../lib/lz4-1.1.0.jar:/home/mininet/apache-cassandra-1.2.4/bin/../lib/metrics-core-2.0.3.jar:/home/mininet/apache-cassandra-1.2.4/bin/../lib/netty-3.5.9.Final.jar:/home/mininet/apache-cassandra-1.2.4/bin/../lib/servlet-api-2.5-20081211.jar:/home/mininet/apache-cassandra-1.2.4/bin/../lib/slf4j-api-1.7.2.jar:/home/mininet/apache-cassandra-1.2.4/bin/../lib/slf4j-log4j12-1.7.2.jar:/home/mininet/apache-cassandra-1.2.4/bin/../lib/snakeyaml-1.6.jar:/home/mininet/apache-cassandra-1.2.4/bin/../lib/snappy-java-1.0.4.1.jar:/home/mininet/apache-cassandra-1.2.4/bin/../lib/snaptree-0.1.jar:/home/mininet/apache-cassandra-1.2.4/bin/../lib/jamm-0.2.5.jar
 INFO 09:15:55,650 JNA not found. Native methods will be disabled.
 INFO 09:15:55,660 Loading settings from file:/home/mininet/apache-cassandra-1.2.4/conf/cassandra.yaml
 INFO 09:15:56,083 Data files directories: [/var/lib/cassandra/data]
 INFO 09:15:56,084 Commit log directory: /var/lib/cassandra/commitlog
 INFO 09:15:56,084 DiskAccessMode 'auto' determined to be mmap, indexAccessMode is mmap
 INFO 09:15:56,084 disk_failure_policy is stop
 INFO 09:15:56,092 Global memtable threshold is enabled at 662MB
 INFO 09:15:56,221 Not using multi-threaded compaction
 INFO 09:15:56,673 Initializing key cache with capacity of 99 MBs.
 INFO 09:15:56,687 Scheduling key cache save to each 14400 seconds (going to save all keys).
 INFO 09:15:56,688 Initializing row cache with capacity of 0 MBs and provider org.apache.cassandra.cache.SerializingCacheProvider
 INFO 09:15:56,696 Scheduling row cache save to each 0 seconds (going to save all keys).
 INFO 09:15:57,074 Couldn't detect any schema definitions in local storage.
 INFO 09:15:57,076 To create keyspaces and column families, see 'help create keyspace' in the CLI, or set up a schema using the thrift system_* calls.
 INFO 09:15:57,157 No commitlog files found; skipping replay
 INFO 09:15:57,511 Cassandra version: 1.2.4
 INFO 09:15:57,525 Thrift API version: 19.35.0
 INFO 09:15:57,529 CQL supported versions: 2.0.0,3.0.1 (default: 3.0.1)
 INFO 09:15:57,558 Loading persisted ring state
 INFO 09:15:57,561 Starting up server gossip
 WARN 09:15:57,565 No host ID found, created 0375653e-5549-49f9-88a6-81671c851e70 (Note: This should happen exactly once per node).
 INFO 09:15:57,577 Enqueuing flush of Memtable-local@1156511567(361/361 serialized/live bytes, 15 ops)
 INFO 09:15:57,583 Writing Memtable-local@1156511567(361/361 serialized/live bytes, 15 ops)
 INFO 09:15:57,633 Completed flushing /var/lib/cassandra/data/system/local/system-local-ib-1-Data.db (350 bytes) for commitlog position ReplayPosition(segmentId=1401466557049, position=50656)
 INFO 09:15:57,712 Starting Messaging Service on port 7000
 INFO 09:15:57,758 Enqueuing flush of Memtable-local@1622940842(86/86 serialized/live bytes, 4 ops)
 INFO 09:15:57,759 Writing Memtable-local@1622940842(86/86 serialized/live bytes, 4 ops)
 INFO 09:15:57,774 Completed flushing /var/lib/cassandra/data/system/local/system-local-ib-2-Data.db (121 bytes) for commitlog position ReplayPosition(segmentId=1401466557049, position=50933)
 INFO 09:15:57,776 JOINING: waiting for ring information
 INFO 09:15:59,230 Node /192.168.56.11 is now part of the cluster
 INFO 09:15:59,231 InetAddress /192.168.56.11 is now UP
 INFO 09:15:59,255 Enqueuing flush of Memtable-peers@63447224(182/182 serialized/live bytes, 10 ops)
 INFO 09:15:59,256 Writing Memtable-peers@63447224(182/182 serialized/live bytes, 10 ops)
 INFO 09:15:59,278 Completed flushing /var/lib/cassandra/data/system/peers/system-peers-ib-1-Data.db (233 bytes) for commitlog position ReplayPosition(segmentId=1401466557049, position=51638)
 INFO 09:15:59,302 Enqueuing flush of Memtable-schema_keyspaces@191197583(389/389 serialized/live bytes, 11 ops)
 INFO 09:15:59,302 Writing Memtable-schema_keyspaces@191197583(389/389 serialized/live bytes, 11 ops)
 INFO 09:15:59,318 Completed flushing /var/lib/cassandra/data/system/schema_keyspaces/system-schema_keyspaces-ib-1-Data.db (261 bytes) for commitlog position ReplayPosition(segmentId=1401466557049, position=53730)
 INFO 09:15:59,319 Enqueuing flush of Memtable-schema_columnfamilies@203568414(23066/23066 serialized/live bytes, 379 ops)
 INFO 09:15:59,320 Writing Memtable-schema_columnfamilies@203568414(23066/23066 serialized/live bytes, 379 ops)
 INFO 09:15:59,343 Completed flushing /var/lib/cassandra/data/system/schema_columnfamilies/system-schema_columnfamilies-ib-1-Data.db (4848 bytes) for commitlog position ReplayPosition(segmentId=1401466557049, position=53730)
 INFO 09:15:59,344 Enqueuing flush of Memtable-schema_columns@1183600113(22154/22154 serialized/live bytes, 337 ops)
 INFO 09:15:59,344 Writing Memtable-schema_columns@1183600113(22154/22154 serialized/live bytes, 337 ops)
 INFO 09:15:59,370 Completed flushing /var/lib/cassandra/data/system/schema_columns/system-schema_columns-ib-1-Data.db (3899 bytes) for commitlog position ReplayPosition(segmentId=1401466557049, position=53730)
 INFO 09:15:59,778 JOINING: schema complete, ready to bootstrap
 INFO 09:15:59,779 JOINING: getting bootstrap token
 INFO 09:15:59,784 Enqueuing flush of Memtable-local@1832891943(73/73 serialized/live bytes, 4 ops)
 INFO 09:15:59,785 Writing Memtable-local@1832891943(73/73 serialized/live bytes, 4 ops)
 INFO 09:15:59,807 Completed flushing /var/lib/cassandra/data/system/local/system-local-ib-3-Data.db (137 bytes) for commitlog position ReplayPosition(segmentId=1401466557049, position=54028)
 INFO 09:15:59,825 JOINING: sleeping 30000 ms for pending range setup
 INFO 09:16:29,827 JOINING: Starting to bootstrap...
 INFO 09:16:29,899 Finished streaming session c2065900-e815-11e3-a525-c1b7d013ecd2 from /192.168.56.11
 INFO 09:16:29,902 Bootstrap completed! for the tokens [0]
 INFO 09:16:29,907 Enqueuing flush of Memtable-local@1383024495(43/43 serialized/live bytes, 2 ops)
 INFO 09:16:29,908 Writing Memtable-local@1383024495(43/43 serialized/live bytes, 2 ops)
 INFO 09:16:29,922 Completed flushing /var/lib/cassandra/data/system/local/system-local-ib-4-Data.db (75 bytes) for commitlog position ReplayPosition(segmentId=1401466557049, position=54161)
 INFO 09:16:29,929 Enqueuing flush of Memtable-local@386066929(32/32 serialized/live bytes, 2 ops)
 INFO 09:16:29,931 Writing Memtable-local@386066929(32/32 serialized/live bytes, 2 ops)
 INFO 09:16:29,940 Compacting [SSTableReader(path='/var/lib/cassandra/data/system/local/system-local-ib-2-Data.db'), SSTableReader(path='/var/lib/cassandra/data/system/local/system-local-ib-1-Data.db'), SSTableReader(path='/var/lib/cassandra/data/system/local/system-local-ib-3-Data.db'), SSTableReader(path='/var/lib/cassandra/data/system/local/system-local-ib-4-Data.db')]
 INFO 09:16:29,949 Completed flushing /var/lib/cassandra/data/system/local/system-local-ib-5-Data.db (91 bytes) for commitlog position ReplayPosition(segmentId=1401466557049, position=54317)
 INFO 09:16:29,961 Node /192.168.56.12 state jump to normal
 INFO 09:16:29,963 Startup completed! Now serving reads.
