xss =  -ea -javaagent:/home/mininet/apache-cassandra-1.2.4/bin/../lib/jamm-0.2.5.jar -XX:+UseThreadPriorities -XX:ThreadPriorityPolicy=42 -Xms1996M -Xmx1996M -Xmn100M -XX:+HeapDumpOnOutOfMemoryError -Xss256k
 INFO 04:25:18,422 Logging initialized
 INFO 04:25:18,434 JVM vendor/version: OpenJDK 64-Bit Server VM/1.7.0_51
 WARN 04:25:18,435 OpenJDK is not recommended. Please upgrade to the newest Oracle Java release
 INFO 04:25:18,435 Heap size: 2082471936/2082471936
 INFO 04:25:18,435 Classpath: /home/mininet/apache-cassandra-1.2.4/bin/../conf:/home/mininet/apache-cassandra-1.2.4/bin/../build/classes/main:/home/mininet/apache-cassandra-1.2.4/bin/../build/classes/thrift:/home/mininet/apache-cassandra-1.2.4/bin/../lib/antlr-3.2.jar:/home/mininet/apache-cassandra-1.2.4/bin/../lib/apache-cassandra-1.2.4.jar:/home/mininet/apache-cassandra-1.2.4/bin/../lib/apache-cassandra-clientutil-1.2.4.jar:/home/mininet/apache-cassandra-1.2.4/bin/../lib/apache-cassandra-thrift-1.2.4.jar:/home/mininet/apache-cassandra-1.2.4/bin/../lib/avro-1.4.0-fixes.jar:/home/mininet/apache-cassandra-1.2.4/bin/../lib/avro-1.4.0-sources-fixes.jar:/home/mininet/apache-cassandra-1.2.4/bin/../lib/commons-cli-1.1.jar:/home/mininet/apache-cassandra-1.2.4/bin/../lib/commons-codec-1.2.jar:/home/mininet/apache-cassandra-1.2.4/bin/../lib/commons-lang-2.6.jar:/home/mininet/apache-cassandra-1.2.4/bin/../lib/compress-lzf-0.8.4.jar:/home/mininet/apache-cassandra-1.2.4/bin/../lib/concurrentlinkedhashmap-lru-1.3.jar:/home/mininet/apache-cassandra-1.2.4/bin/../lib/guava-13.0.1.jar:/home/mininet/apache-cassandra-1.2.4/bin/../lib/high-scale-lib-1.1.2.jar:/home/mininet/apache-cassandra-1.2.4/bin/../lib/jackson-core-asl-1.9.2.jar:/home/mininet/apache-cassandra-1.2.4/bin/../lib/jackson-mapper-asl-1.9.2.jar:/home/mininet/apache-cassandra-1.2.4/bin/../lib/jamm-0.2.5.jar:/home/mininet/apache-cassandra-1.2.4/bin/../lib/jbcrypt-0.3m.jar:/home/mininet/apache-cassandra-1.2.4/bin/../lib/jline-1.0.jar:/home/mininet/apache-cassandra-1.2.4/bin/../lib/json-simple-1.1.jar:/home/mininet/apache-cassandra-1.2.4/bin/../lib/libthrift-0.7.0.jar:/home/mininet/apache-cassandra-1.2.4/bin/../lib/log4j-1.2.16.jar:/home/mininet/apache-cassandra-1.2.4/bin/../lib/lz4-1.1.0.jar:/home/mininet/apache-cassandra-1.2.4/bin/../lib/metrics-core-2.0.3.jar:/home/mininet/apache-cassandra-1.2.4/bin/../lib/netty-3.5.9.Final.jar:/home/mininet/apache-cassandra-1.2.4/bin/../lib/servlet-api-2.5-20081211.jar:/home/mininet/apache-cassandra-1.2.4/bin/../lib/slf4j-api-1.7.2.jar:/home/mininet/apache-cassandra-1.2.4/bin/../lib/slf4j-log4j12-1.7.2.jar:/home/mininet/apache-cassandra-1.2.4/bin/../lib/snakeyaml-1.6.jar:/home/mininet/apache-cassandra-1.2.4/bin/../lib/snappy-java-1.0.4.1.jar:/home/mininet/apache-cassandra-1.2.4/bin/../lib/snaptree-0.1.jar:/home/mininet/apache-cassandra-1.2.4/bin/../lib/jamm-0.2.5.jar
 INFO 04:25:18,437 JNA not found. Native methods will be disabled.
 INFO 04:25:18,446 Loading settings from file:/home/mininet/apache-cassandra-1.2.4/conf/cassandra.yaml
 INFO 04:25:18,894 Data files directories: [/var/lib/cassandra/data]
 INFO 04:25:18,895 Commit log directory: /var/lib/cassandra/commitlog
 INFO 04:25:18,895 DiskAccessMode 'auto' determined to be mmap, indexAccessMode is mmap
 INFO 04:25:18,895 disk_failure_policy is stop
 INFO 04:25:18,903 Global memtable threshold is enabled at 662MB
 INFO 04:25:19,011 Not using multi-threaded compaction
 INFO 04:25:19,531 Initializing key cache with capacity of 99 MBs.
 INFO 04:25:19,543 Scheduling key cache save to each 14400 seconds (going to save all keys).
 INFO 04:25:19,549 Initializing row cache with capacity of 0 MBs and provider org.apache.cassandra.cache.SerializingCacheProvider
 INFO 04:25:19,573 Scheduling row cache save to each 0 seconds (going to save all keys).
 INFO 04:25:20,305 Couldn't detect any schema definitions in local storage.
 INFO 04:25:20,305 To create keyspaces and column families, see 'help create keyspace' in the CLI, or set up a schema using the thrift system_* calls.
 INFO 04:25:20,380 No commitlog files found; skipping replay
 INFO 04:25:20,733 Cassandra version: 1.2.4
 INFO 04:25:20,737 Thrift API version: 19.35.0
 INFO 04:25:20,740 CQL supported versions: 2.0.0,3.0.1 (default: 3.0.1)
 INFO 04:25:20,767 Loading persisted ring state
 INFO 04:25:20,769 Starting up server gossip
 WARN 04:25:20,774 No host ID found, created 2b20314a-64b1-40a7-9123-0e0c83b67511 (Note: This should happen exactly once per node).
 INFO 04:25:20,784 Enqueuing flush of Memtable-local@1766610248(361/361 serialized/live bytes, 15 ops)
 INFO 04:25:20,794 Writing Memtable-local@1766610248(361/361 serialized/live bytes, 15 ops)
 INFO 04:25:20,863 Completed flushing /var/lib/cassandra/data/system/local/system-local-ib-1-Data.db (352 bytes) for commitlog position ReplayPosition(segmentId=1401449120263, position=50656)
 INFO 04:25:20,949 Starting Messaging Service on port 7000
 INFO 04:25:21,000 Saved token not found. Using [-9223372036854775808] from configuration
 INFO 04:25:21,001 Enqueuing flush of Memtable-local@93354104(84/84 serialized/live bytes, 4 ops)
 INFO 04:25:21,001 Writing Memtable-local@93354104(84/84 serialized/live bytes, 4 ops)
 INFO 04:25:21,013 Completed flushing /var/lib/cassandra/data/system/local/system-local-ib-2-Data.db (120 bytes) for commitlog position ReplayPosition(segmentId=1401449120263, position=50931)
 INFO 04:25:21,020 Enqueuing flush of Memtable-local@1457065491(51/51 serialized/live bytes, 2 ops)
 INFO 04:25:21,020 Writing Memtable-local@1457065491(51/51 serialized/live bytes, 2 ops)
 INFO 04:25:21,035 Completed flushing /var/lib/cassandra/data/system/local/system-local-ib-3-Data.db (111 bytes) for commitlog position ReplayPosition(segmentId=1401449120263, position=51106)
 INFO 04:25:21,049 Node /192.168.56.11 state jump to normal
 INFO 04:25:21,050 Startup completed! Now serving reads.
 INFO 04:25:21,051 Create new Keyspace: system_auth, rep strategy:SimpleStrategy{}, strategy_options: {replication_factor=1}, durable_writes: true
 INFO 04:25:21,084 Enqueuing flush of Memtable-schema_keyspaces@1001999880(389/389 serialized/live bytes, 11 ops)
 INFO 04:25:21,084 Writing Memtable-schema_keyspaces@1001999880(389/389 serialized/live bytes, 11 ops)
 INFO 04:25:21,100 Completed flushing /var/lib/cassandra/data/system/schema_keyspaces/system-schema_keyspaces-ib-1-Data.db (263 bytes) for commitlog position ReplayPosition(segmentId=1401449120263, position=51347)
 INFO 04:25:21,103 Enqueuing flush of Memtable-schema_columnfamilies@2050685971(21969/21969 serialized/live bytes, 359 ops)
 INFO 04:25:21,104 Writing Memtable-schema_columnfamilies@2050685971(21969/21969 serialized/live bytes, 359 ops)
 INFO 04:25:21,128 Completed flushing /var/lib/cassandra/data/system/schema_columnfamilies/system-schema_columnfamilies-ib-1-Data.db (4536 bytes) for commitlog position ReplayPosition(segmentId=1401449120263, position=51347)
 INFO 04:25:21,129 Enqueuing flush of Memtable-schema_columns@1223124577(21903/21903 serialized/live bytes, 332 ops)
 INFO 04:25:21,130 Writing Memtable-schema_columns@1223124577(21903/21903 serialized/live bytes, 332 ops)
 INFO 04:25:21,153 Completed flushing /var/lib/cassandra/data/system/schema_columns/system-schema_columns-ib-1-Data.db (3771 bytes) for commitlog position ReplayPosition(segmentId=1401449120263, position=51347)
 INFO 04:25:21,251 Create new ColumnFamily: org.apache.cassandra.config.CFMetaData@513d09cd[cfId=473588ad-9c79-38be-8b59-e06c10456ba0,ksName=system_auth,cfName=users,cfType=Standard,comparator=org.apache.cassandra.db.marshal.CompositeType(org.apache.cassandra.db.marshal.UTF8Type),subcolumncomparator=<null>,comment=,readRepairChance=0.1,dclocalReadRepairChance=0.0,replicateOnWrite=true,gcGraceSeconds=7776000,defaultValidator=org.apache.cassandra.db.marshal.BytesType,keyValidator=org.apache.cassandra.db.marshal.UTF8Type,minCompactionThreshold=4,maxCompactionThreshold=32,keyAliases=[java.nio.HeapByteBuffer[pos=0 lim=4 cap=4]],columnAliases=[],valueAlias=<null>,column_metadata={java.nio.HeapByteBuffer[pos=0 lim=5 cap=5]=ColumnDefinition{name=7375706572, validator=org.apache.cassandra.db.marshal.BooleanType, index_type=null, index_name='null', component_index=0}},compactionStrategyClass=class org.apache.cassandra.db.compaction.SizeTieredCompactionStrategy,compactionStrategyOptions={},compressionOptions={sstable_compression=org.apache.cassandra.io.compress.SnappyCompressor},bloomFilterFpChance=0.01,caching=KEYS_ONLY,populateIoCacheOnFlush=false]
 INFO 04:25:21,263 Enqueuing flush of Memtable-schema_columnfamilies@1652916260(1097/1097 serialized/live bytes, 20 ops)
 INFO 04:25:21,263 Writing Memtable-schema_columnfamilies@1652916260(1097/1097 serialized/live bytes, 20 ops)
 INFO 04:25:21,276 Completed flushing /var/lib/cassandra/data/system/schema_columnfamilies/system-schema_columnfamilies-ib-2-Data.db (698 bytes) for commitlog position ReplayPosition(segmentId=1401449120263, position=53131)
 INFO 04:25:21,277 Enqueuing flush of Memtable-schema_columns@1519160860(251/251 serialized/live bytes, 5 ops)
 INFO 04:25:21,277 Writing Memtable-schema_columns@1519160860(251/251 serialized/live bytes, 5 ops)
 INFO 04:25:21,290 Completed flushing /var/lib/cassandra/data/system/schema_columns/system-schema_columns-ib-2-Data.db (209 bytes) for commitlog position ReplayPosition(segmentId=1401449120263, position=53131)
