xss =  -ea -javaagent:/home/mininet/apache-cassandra-1.2.4/bin/../lib/jamm-0.2.5.jar -XX:+UseThreadPriorities -XX:ThreadPriorityPolicy=42 -Xms1996M -Xmx1996M -Xmn100M -XX:+HeapDumpOnOutOfMemoryError -Xss256k
 INFO 02:45:40,008 Logging initialized
 INFO 02:45:40,020 JVM vendor/version: OpenJDK 64-Bit Server VM/1.7.0_51
 WARN 02:45:40,021 OpenJDK is not recommended. Please upgrade to the newest Oracle Java release
 INFO 02:45:40,022 Heap size: 2082471936/2082471936
 INFO 02:45:40,023 Classpath: /home/mininet/apache-cassandra-1.2.4/bin/../conf:/home/mininet/apache-cassandra-1.2.4/bin/../build/classes/main:/home/mininet/apache-cassandra-1.2.4/bin/../build/classes/thrift:/home/mininet/apache-cassandra-1.2.4/bin/../lib/antlr-3.2.jar:/home/mininet/apache-cassandra-1.2.4/bin/../lib/apache-cassandra-1.2.4.jar:/home/mininet/apache-cassandra-1.2.4/bin/../lib/apache-cassandra-clientutil-1.2.4.jar:/home/mininet/apache-cassandra-1.2.4/bin/../lib/apache-cassandra-thrift-1.2.4.jar:/home/mininet/apache-cassandra-1.2.4/bin/../lib/avro-1.4.0-fixes.jar:/home/mininet/apache-cassandra-1.2.4/bin/../lib/avro-1.4.0-sources-fixes.jar:/home/mininet/apache-cassandra-1.2.4/bin/../lib/commons-cli-1.1.jar:/home/mininet/apache-cassandra-1.2.4/bin/../lib/commons-codec-1.2.jar:/home/mininet/apache-cassandra-1.2.4/bin/../lib/commons-lang-2.6.jar:/home/mininet/apache-cassandra-1.2.4/bin/../lib/compress-lzf-0.8.4.jar:/home/mininet/apache-cassandra-1.2.4/bin/../lib/concurrentlinkedhashmap-lru-1.3.jar:/home/mininet/apache-cassandra-1.2.4/bin/../lib/guava-13.0.1.jar:/home/mininet/apache-cassandra-1.2.4/bin/../lib/high-scale-lib-1.1.2.jar:/home/mininet/apache-cassandra-1.2.4/bin/../lib/jackson-core-asl-1.9.2.jar:/home/mininet/apache-cassandra-1.2.4/bin/../lib/jackson-mapper-asl-1.9.2.jar:/home/mininet/apache-cassandra-1.2.4/bin/../lib/jamm-0.2.5.jar:/home/mininet/apache-cassandra-1.2.4/bin/../lib/jbcrypt-0.3m.jar:/home/mininet/apache-cassandra-1.2.4/bin/../lib/jline-1.0.jar:/home/mininet/apache-cassandra-1.2.4/bin/../lib/json-simple-1.1.jar:/home/mininet/apache-cassandra-1.2.4/bin/../lib/libthrift-0.7.0.jar:/home/mininet/apache-cassandra-1.2.4/bin/../lib/log4j-1.2.16.jar:/home/mininet/apache-cassandra-1.2.4/bin/../lib/lz4-1.1.0.jar:/home/mininet/apache-cassandra-1.2.4/bin/../lib/metrics-core-2.0.3.jar:/home/mininet/apache-cassandra-1.2.4/bin/../lib/netty-3.5.9.Final.jar:/home/mininet/apache-cassandra-1.2.4/bin/../lib/servlet-api-2.5-20081211.jar:/home/mininet/apache-cassandra-1.2.4/bin/../lib/slf4j-api-1.7.2.jar:/home/mininet/apache-cassandra-1.2.4/bin/../lib/slf4j-log4j12-1.7.2.jar:/home/mininet/apache-cassandra-1.2.4/bin/../lib/snakeyaml-1.6.jar:/home/mininet/apache-cassandra-1.2.4/bin/../lib/snappy-java-1.0.4.1.jar:/home/mininet/apache-cassandra-1.2.4/bin/../lib/snaptree-0.1.jar:/home/mininet/apache-cassandra-1.2.4/bin/../lib/jamm-0.2.5.jar
 INFO 02:45:40,028 JNA not found. Native methods will be disabled.
 INFO 02:45:40,041 Loading settings from file:/home/mininet/apache-cassandra-1.2.4/conf/cassandra.yaml
 INFO 02:45:40,495 Data files directories: [/var/lib/cassandra/data]
 INFO 02:45:40,495 Commit log directory: /var/lib/cassandra/commitlog
 INFO 02:45:40,496 DiskAccessMode 'auto' determined to be mmap, indexAccessMode is mmap
 INFO 02:45:40,496 disk_failure_policy is stop
 INFO 02:45:40,505 Global memtable threshold is enabled at 662MB
 INFO 02:45:40,617 Not using multi-threaded compaction
 INFO 02:45:41,123 Initializing key cache with capacity of 99 MBs.
 INFO 02:45:41,132 Scheduling key cache save to each 14400 seconds (going to save all keys).
 INFO 02:45:41,132 Initializing row cache with capacity of 0 MBs and provider org.apache.cassandra.cache.SerializingCacheProvider
 INFO 02:45:41,142 Scheduling row cache save to each 0 seconds (going to save all keys).
 INFO 02:45:41,511 Couldn't detect any schema definitions in local storage.
 INFO 02:45:41,512 To create keyspaces and column families, see 'help create keyspace' in the CLI, or set up a schema using the thrift system_* calls.
 INFO 02:45:41,588 No commitlog files found; skipping replay
 INFO 02:45:41,966 Cassandra version: 1.2.4
 INFO 02:45:41,969 Thrift API version: 19.35.0
 INFO 02:45:41,969 CQL supported versions: 2.0.0,3.0.1 (default: 3.0.1)
 INFO 02:45:42,002 Loading persisted ring state
 INFO 02:45:42,004 Starting up server gossip
 WARN 02:45:42,008 No host ID found, created 7aec3cf2-af33-44cd-b977-f9442266b60e (Note: This should happen exactly once per node).
 INFO 02:45:42,020 Enqueuing flush of Memtable-local@1070552419(361/361 serialized/live bytes, 15 ops)
 INFO 02:45:42,031 Writing Memtable-local@1070552419(361/361 serialized/live bytes, 15 ops)
 INFO 02:45:42,072 Completed flushing /var/lib/cassandra/data/system/local/system-local-ib-1-Data.db (350 bytes) for commitlog position ReplayPosition(segmentId=1401443141493, position=50656)
 INFO 02:45:42,156 Starting Messaging Service on port 7000
 INFO 02:45:42,246 Enqueuing flush of Memtable-local@880453696(86/86 serialized/live bytes, 4 ops)
 INFO 02:45:42,250 Writing Memtable-local@880453696(86/86 serialized/live bytes, 4 ops)
 INFO 02:45:42,262 Completed flushing /var/lib/cassandra/data/system/local/system-local-ib-2-Data.db (121 bytes) for commitlog position ReplayPosition(segmentId=1401443141493, position=50933)
 INFO 02:45:42,264 JOINING: waiting for ring information
 INFO 02:45:43,340 Node /192.168.56.11 is now part of the cluster
 INFO 02:45:43,342 InetAddress /192.168.56.11 is now UP
 INFO 02:45:43,367 Enqueuing flush of Memtable-peers@1599979394(51/51 serialized/live bytes, 2 ops)
 INFO 02:45:43,368 Writing Memtable-peers@1599979394(51/51 serialized/live bytes, 2 ops)
 INFO 02:45:43,394 Completed flushing /var/lib/cassandra/data/system/peers/system-peers-ib-1-Data.db (109 bytes) for commitlog position ReplayPosition(segmentId=1401443141493, position=51107)
 INFO 02:45:43,422 Enqueuing flush of Memtable-schema_keyspaces@1033568538(389/389 serialized/live bytes, 11 ops)
 INFO 02:45:43,423 Writing Memtable-schema_keyspaces@1033568538(389/389 serialized/live bytes, 11 ops)
 INFO 02:45:43,439 Completed flushing /var/lib/cassandra/data/system/schema_keyspaces/system-schema_keyspaces-ib-1-Data.db (266 bytes) for commitlog position ReplayPosition(segmentId=1401443141493, position=53730)
 INFO 02:45:43,440 Enqueuing flush of Memtable-schema_columnfamilies@1431071602(23066/23066 serialized/live bytes, 379 ops)
 INFO 02:45:43,441 Writing Memtable-schema_columnfamilies@1431071602(23066/23066 serialized/live bytes, 379 ops)
 INFO 02:45:43,465 Completed flushing /var/lib/cassandra/data/system/schema_columnfamilies/system-schema_columnfamilies-ib-1-Data.db (4848 bytes) for commitlog position ReplayPosition(segmentId=1401443141493, position=53730)
 INFO 02:45:43,466 Enqueuing flush of Memtable-schema_columns@2011220099(22154/22154 serialized/live bytes, 337 ops)
 INFO 02:45:43,467 Writing Memtable-schema_columns@2011220099(22154/22154 serialized/live bytes, 337 ops)
 INFO 02:45:43,492 Completed flushing /var/lib/cassandra/data/system/schema_columns/system-schema_columns-ib-1-Data.db (3899 bytes) for commitlog position ReplayPosition(segmentId=1401443141493, position=53730)
 INFO 02:45:44,265 JOINING: schema complete, ready to bootstrap
 INFO 02:45:44,265 JOINING: getting bootstrap token
 INFO 02:45:44,268 Enqueuing flush of Memtable-local@1658221466(73/73 serialized/live bytes, 4 ops)
 INFO 02:45:44,268 Writing Memtable-local@1658221466(73/73 serialized/live bytes, 4 ops)
 INFO 02:45:44,283 Completed flushing /var/lib/cassandra/data/system/local/system-local-ib-3-Data.db (136 bytes) for commitlog position ReplayPosition(segmentId=1401443141493, position=54028)
 INFO 02:45:44,297 JOINING: sleeping 30000 ms for pending range setup
 INFO 02:46:14,299 JOINING: Starting to bootstrap...
 INFO 02:46:14,400 Finished streaming session 3d48a0a0-e7df-11e3-9335-c1b7d013ecd2 from /192.168.56.11
 INFO 02:46:14,403 Bootstrap completed! for the tokens [0]
 INFO 02:46:14,408 Enqueuing flush of Memtable-local@1699593206(43/43 serialized/live bytes, 2 ops)
 INFO 02:46:14,409 Writing Memtable-local@1699593206(43/43 serialized/live bytes, 2 ops)
 INFO 02:46:14,424 Completed flushing /var/lib/cassandra/data/system/local/system-local-ib-4-Data.db (75 bytes) for commitlog position ReplayPosition(segmentId=1401443141493, position=54161)
 INFO 02:46:14,433 Enqueuing flush of Memtable-local@1400126543(32/32 serialized/live bytes, 2 ops)
 INFO 02:46:14,434 Writing Memtable-local@1400126543(32/32 serialized/live bytes, 2 ops)
 INFO 02:46:14,440 Compacting [SSTableReader(path='/var/lib/cassandra/data/system/local/system-local-ib-2-Data.db'), SSTableReader(path='/var/lib/cassandra/data/system/local/system-local-ib-4-Data.db'), SSTableReader(path='/var/lib/cassandra/data/system/local/system-local-ib-1-Data.db'), SSTableReader(path='/var/lib/cassandra/data/system/local/system-local-ib-3-Data.db')]
 INFO 02:46:14,448 Completed flushing /var/lib/cassandra/data/system/local/system-local-ib-5-Data.db (91 bytes) for commitlog position ReplayPosition(segmentId=1401443141493, position=54317)
 INFO 02:46:14,460 Node /192.168.56.12 state jump to normal
 INFO 02:46:14,466 Startup completed! Now serving reads.
 INFO 02:46:14,524 Compacted 4 sstables to [/var/lib/cassandra/data/system/local/system-local-ib-6,].  682 bytes to 409 (~59% of original) in 82ms = 0.004757MB/s.  4 total rows, 1 unique.  Row merge counts were {1:0, 2:0, 3:0, 4:1, }
