xss =  -ea -javaagent:/home/mininet/apache-cassandra-1.2.4/bin/../lib/jamm-0.2.5.jar -XX:+UseThreadPriorities -XX:ThreadPriorityPolicy=42 -Xms1996M -Xmx1996M -Xmn100M -XX:+HeapDumpOnOutOfMemoryError -Xss256k
 INFO 03:41:16,087 Logging initialized
 INFO 03:41:16,099 JVM vendor/version: OpenJDK 64-Bit Server VM/1.7.0_51
 WARN 03:41:16,100 OpenJDK is not recommended. Please upgrade to the newest Oracle Java release
 INFO 03:41:16,100 Heap size: 2082471936/2082471936
 INFO 03:41:16,100 Classpath: /home/mininet/apache-cassandra-1.2.4/bin/../conf:/home/mininet/apache-cassandra-1.2.4/bin/../build/classes/main:/home/mininet/apache-cassandra-1.2.4/bin/../build/classes/thrift:/home/mininet/apache-cassandra-1.2.4/bin/../lib/antlr-3.2.jar:/home/mininet/apache-cassandra-1.2.4/bin/../lib/apache-cassandra-1.2.4.jar:/home/mininet/apache-cassandra-1.2.4/bin/../lib/apache-cassandra-clientutil-1.2.4.jar:/home/mininet/apache-cassandra-1.2.4/bin/../lib/apache-cassandra-thrift-1.2.4.jar:/home/mininet/apache-cassandra-1.2.4/bin/../lib/avro-1.4.0-fixes.jar:/home/mininet/apache-cassandra-1.2.4/bin/../lib/avro-1.4.0-sources-fixes.jar:/home/mininet/apache-cassandra-1.2.4/bin/../lib/commons-cli-1.1.jar:/home/mininet/apache-cassandra-1.2.4/bin/../lib/commons-codec-1.2.jar:/home/mininet/apache-cassandra-1.2.4/bin/../lib/commons-lang-2.6.jar:/home/mininet/apache-cassandra-1.2.4/bin/../lib/compress-lzf-0.8.4.jar:/home/mininet/apache-cassandra-1.2.4/bin/../lib/concurrentlinkedhashmap-lru-1.3.jar:/home/mininet/apache-cassandra-1.2.4/bin/../lib/guava-13.0.1.jar:/home/mininet/apache-cassandra-1.2.4/bin/../lib/high-scale-lib-1.1.2.jar:/home/mininet/apache-cassandra-1.2.4/bin/../lib/jackson-core-asl-1.9.2.jar:/home/mininet/apache-cassandra-1.2.4/bin/../lib/jackson-mapper-asl-1.9.2.jar:/home/mininet/apache-cassandra-1.2.4/bin/../lib/jamm-0.2.5.jar:/home/mininet/apache-cassandra-1.2.4/bin/../lib/jbcrypt-0.3m.jar:/home/mininet/apache-cassandra-1.2.4/bin/../lib/jline-1.0.jar:/home/mininet/apache-cassandra-1.2.4/bin/../lib/json-simple-1.1.jar:/home/mininet/apache-cassandra-1.2.4/bin/../lib/libthrift-0.7.0.jar:/home/mininet/apache-cassandra-1.2.4/bin/../lib/log4j-1.2.16.jar:/home/mininet/apache-cassandra-1.2.4/bin/../lib/lz4-1.1.0.jar:/home/mininet/apache-cassandra-1.2.4/bin/../lib/metrics-core-2.0.3.jar:/home/mininet/apache-cassandra-1.2.4/bin/../lib/netty-3.5.9.Final.jar:/home/mininet/apache-cassandra-1.2.4/bin/../lib/servlet-api-2.5-20081211.jar:/home/mininet/apache-cassandra-1.2.4/bin/../lib/slf4j-api-1.7.2.jar:/home/mininet/apache-cassandra-1.2.4/bin/../lib/slf4j-log4j12-1.7.2.jar:/home/mininet/apache-cassandra-1.2.4/bin/../lib/snakeyaml-1.6.jar:/home/mininet/apache-cassandra-1.2.4/bin/../lib/snappy-java-1.0.4.1.jar:/home/mininet/apache-cassandra-1.2.4/bin/../lib/snaptree-0.1.jar:/home/mininet/apache-cassandra-1.2.4/bin/../lib/jamm-0.2.5.jar
 INFO 03:41:16,103 JNA not found. Native methods will be disabled.
 INFO 03:41:16,112 Loading settings from file:/home/mininet/apache-cassandra-1.2.4/conf/cassandra.yaml
 INFO 03:41:16,554 Data files directories: [/var/lib/cassandra/data]
 INFO 03:41:16,554 Commit log directory: /var/lib/cassandra/commitlog
 INFO 03:41:16,554 DiskAccessMode 'auto' determined to be mmap, indexAccessMode is mmap
 INFO 03:41:16,555 disk_failure_policy is stop
 INFO 03:41:16,563 Global memtable threshold is enabled at 662MB
 INFO 03:41:16,693 Not using multi-threaded compaction
 INFO 03:41:17,196 Initializing key cache with capacity of 99 MBs.
 INFO 03:41:17,219 Scheduling key cache save to each 14400 seconds (going to save all keys).
 INFO 03:41:17,220 Initializing row cache with capacity of 0 MBs and provider org.apache.cassandra.cache.SerializingCacheProvider
 INFO 03:41:17,232 Scheduling row cache save to each 0 seconds (going to save all keys).
 INFO 03:41:17,682 Couldn't detect any schema definitions in local storage.
 INFO 03:41:17,683 To create keyspaces and column families, see 'help create keyspace' in the CLI, or set up a schema using the thrift system_* calls.
 INFO 03:41:17,780 No commitlog files found; skipping replay
 INFO 03:41:18,211 Cassandra version: 1.2.4
 INFO 03:41:18,225 Thrift API version: 19.35.0
 INFO 03:41:18,227 CQL supported versions: 2.0.0,3.0.1 (default: 3.0.1)
 INFO 03:41:18,255 Loading persisted ring state
 INFO 03:41:18,258 Starting up server gossip
 WARN 03:41:18,262 No host ID found, created 7d49a30b-7fe2-49b6-aec7-3638312efdee (Note: This should happen exactly once per node).
 INFO 03:41:18,274 Enqueuing flush of Memtable-local@1156511567(361/361 serialized/live bytes, 15 ops)
 INFO 03:41:18,283 Writing Memtable-local@1156511567(361/361 serialized/live bytes, 15 ops)
 INFO 03:41:18,324 Completed flushing /var/lib/cassandra/data/system/local/system-local-ib-1-Data.db (350 bytes) for commitlog position ReplayPosition(segmentId=1401446477656, position=50656)
 INFO 03:41:18,406 Starting Messaging Service on port 7000
 INFO 03:41:18,452 Enqueuing flush of Memtable-local@1622940842(86/86 serialized/live bytes, 4 ops)
 INFO 03:41:18,452 Writing Memtable-local@1622940842(86/86 serialized/live bytes, 4 ops)
 INFO 03:41:18,471 Completed flushing /var/lib/cassandra/data/system/local/system-local-ib-2-Data.db (122 bytes) for commitlog position ReplayPosition(segmentId=1401446477656, position=50933)
 INFO 03:41:18,472 JOINING: waiting for ring information
 INFO 03:41:19,720 Node /192.168.56.11 is now part of the cluster
 INFO 03:41:19,722 InetAddress /192.168.56.11 is now UP
 INFO 03:41:19,747 Enqueuing flush of Memtable-peers@63447224(182/182 serialized/live bytes, 10 ops)
 INFO 03:41:19,748 Writing Memtable-peers@63447224(182/182 serialized/live bytes, 10 ops)
 INFO 03:41:19,765 Completed flushing /var/lib/cassandra/data/system/peers/system-peers-ib-1-Data.db (233 bytes) for commitlog position ReplayPosition(segmentId=1401446477656, position=51638)
 INFO 03:41:19,788 Enqueuing flush of Memtable-schema_keyspaces@191197583(389/389 serialized/live bytes, 11 ops)
 INFO 03:41:19,790 Writing Memtable-schema_keyspaces@191197583(389/389 serialized/live bytes, 11 ops)
 INFO 03:41:19,817 Completed flushing /var/lib/cassandra/data/system/schema_keyspaces/system-schema_keyspaces-ib-1-Data.db (266 bytes) for commitlog position ReplayPosition(segmentId=1401446477656, position=53730)
 INFO 03:41:19,820 Enqueuing flush of Memtable-schema_columnfamilies@203568414(23066/23066 serialized/live bytes, 379 ops)
 INFO 03:41:19,821 Writing Memtable-schema_columnfamilies@203568414(23066/23066 serialized/live bytes, 379 ops)
 INFO 03:41:19,851 Completed flushing /var/lib/cassandra/data/system/schema_columnfamilies/system-schema_columnfamilies-ib-1-Data.db (4882 bytes) for commitlog position ReplayPosition(segmentId=1401446477656, position=53730)
 INFO 03:41:19,852 Enqueuing flush of Memtable-schema_columns@1183600113(22154/22154 serialized/live bytes, 337 ops)
 INFO 03:41:19,853 Writing Memtable-schema_columns@1183600113(22154/22154 serialized/live bytes, 337 ops)
 INFO 03:41:19,884 Completed flushing /var/lib/cassandra/data/system/schema_columns/system-schema_columns-ib-1-Data.db (3950 bytes) for commitlog position ReplayPosition(segmentId=1401446477656, position=53730)
 INFO 03:41:20,474 JOINING: schema complete, ready to bootstrap
 INFO 03:41:20,475 JOINING: getting bootstrap token
 INFO 03:41:20,480 Enqueuing flush of Memtable-local@1658221466(73/73 serialized/live bytes, 4 ops)
 INFO 03:41:20,482 Writing Memtable-local@1658221466(73/73 serialized/live bytes, 4 ops)
 INFO 03:41:20,504 Completed flushing /var/lib/cassandra/data/system/local/system-local-ib-3-Data.db (137 bytes) for commitlog position ReplayPosition(segmentId=1401446477656, position=54028)
 INFO 03:41:20,525 JOINING: sleeping 30000 ms for pending range setup
 INFO 03:41:50,528 JOINING: Starting to bootstrap...
 INFO 03:41:50,612 Finished streaming session 01d49ee0-e7e7-11e3-ae78-c1b7d013ecd2 from /192.168.56.11
 INFO 03:41:50,613 Bootstrap completed! for the tokens [0]
 INFO 03:41:50,615 Enqueuing flush of Memtable-local@1699593206(43/43 serialized/live bytes, 2 ops)
 INFO 03:41:50,616 Writing Memtable-local@1699593206(43/43 serialized/live bytes, 2 ops)
 INFO 03:41:50,629 Completed flushing /var/lib/cassandra/data/system/local/system-local-ib-4-Data.db (75 bytes) for commitlog position ReplayPosition(segmentId=1401446477656, position=54161)
 INFO 03:41:50,637 Enqueuing flush of Memtable-local@1400126543(32/32 serialized/live bytes, 2 ops)
 INFO 03:41:50,640 Writing Memtable-local@1400126543(32/32 serialized/live bytes, 2 ops)
 INFO 03:41:50,642 Compacting [SSTableReader(path='/var/lib/cassandra/data/system/local/system-local-ib-2-Data.db'), SSTableReader(path='/var/lib/cassandra/data/system/local/system-local-ib-1-Data.db'), SSTableReader(path='/var/lib/cassandra/data/system/local/system-local-ib-4-Data.db'), SSTableReader(path='/var/lib/cassandra/data/system/local/system-local-ib-3-Data.db')]
 INFO 03:41:50,660 Completed flushing /var/lib/cassandra/data/system/local/system-local-ib-5-Data.db (91 bytes) for commitlog position ReplayPosition(segmentId=1401446477656, position=54317)
 INFO 03:41:50,673 Node /192.168.56.12 state jump to normal
 INFO 03:41:50,674 Startup completed! Now serving reads.
 INFO 03:41:50,714 Compacted 4 sstables to [/var/lib/cassandra/data/system/local/system-local-ib-6,].  684 bytes to 409 (~59% of original) in 66ms = 0.005910MB/s.  4 total rows, 1 unique.  Row merge counts were {1:0, 2:0, 3:0, 4:1, }
