xss =  -ea -javaagent:/home/mininet/apache-cassandra-1.2.4/bin/../lib/jamm-0.2.5.jar -XX:+UseThreadPriorities -XX:ThreadPriorityPolicy=42 -Xms1996M -Xmx1996M -Xmn100M -XX:+HeapDumpOnOutOfMemoryError -Xss256k
 INFO 08:20:19,226 Logging initialized
 INFO 08:20:19,238 JVM vendor/version: OpenJDK 64-Bit Server VM/1.7.0_51
 WARN 08:20:19,239 OpenJDK is not recommended. Please upgrade to the newest Oracle Java release
 INFO 08:20:19,239 Heap size: 2082471936/2082471936
 INFO 08:20:19,239 Classpath: /home/mininet/apache-cassandra-1.2.4/bin/../conf:/home/mininet/apache-cassandra-1.2.4/bin/../build/classes/main:/home/mininet/apache-cassandra-1.2.4/bin/../build/classes/thrift:/home/mininet/apache-cassandra-1.2.4/bin/../lib/antlr-3.2.jar:/home/mininet/apache-cassandra-1.2.4/bin/../lib/apache-cassandra-1.2.4.jar:/home/mininet/apache-cassandra-1.2.4/bin/../lib/apache-cassandra-clientutil-1.2.4.jar:/home/mininet/apache-cassandra-1.2.4/bin/../lib/apache-cassandra-thrift-1.2.4.jar:/home/mininet/apache-cassandra-1.2.4/bin/../lib/avro-1.4.0-fixes.jar:/home/mininet/apache-cassandra-1.2.4/bin/../lib/avro-1.4.0-sources-fixes.jar:/home/mininet/apache-cassandra-1.2.4/bin/../lib/commons-cli-1.1.jar:/home/mininet/apache-cassandra-1.2.4/bin/../lib/commons-codec-1.2.jar:/home/mininet/apache-cassandra-1.2.4/bin/../lib/commons-lang-2.6.jar:/home/mininet/apache-cassandra-1.2.4/bin/../lib/compress-lzf-0.8.4.jar:/home/mininet/apache-cassandra-1.2.4/bin/../lib/concurrentlinkedhashmap-lru-1.3.jar:/home/mininet/apache-cassandra-1.2.4/bin/../lib/guava-13.0.1.jar:/home/mininet/apache-cassandra-1.2.4/bin/../lib/high-scale-lib-1.1.2.jar:/home/mininet/apache-cassandra-1.2.4/bin/../lib/jackson-core-asl-1.9.2.jar:/home/mininet/apache-cassandra-1.2.4/bin/../lib/jackson-mapper-asl-1.9.2.jar:/home/mininet/apache-cassandra-1.2.4/bin/../lib/jamm-0.2.5.jar:/home/mininet/apache-cassandra-1.2.4/bin/../lib/jbcrypt-0.3m.jar:/home/mininet/apache-cassandra-1.2.4/bin/../lib/jline-1.0.jar:/home/mininet/apache-cassandra-1.2.4/bin/../lib/json-simple-1.1.jar:/home/mininet/apache-cassandra-1.2.4/bin/../lib/libthrift-0.7.0.jar:/home/mininet/apache-cassandra-1.2.4/bin/../lib/log4j-1.2.16.jar:/home/mininet/apache-cassandra-1.2.4/bin/../lib/lz4-1.1.0.jar:/home/mininet/apache-cassandra-1.2.4/bin/../lib/metrics-core-2.0.3.jar:/home/mininet/apache-cassandra-1.2.4/bin/../lib/netty-3.5.9.Final.jar:/home/mininet/apache-cassandra-1.2.4/bin/../lib/servlet-api-2.5-20081211.jar:/home/mininet/apache-cassandra-1.2.4/bin/../lib/slf4j-api-1.7.2.jar:/home/mininet/apache-cassandra-1.2.4/bin/../lib/slf4j-log4j12-1.7.2.jar:/home/mininet/apache-cassandra-1.2.4/bin/../lib/snakeyaml-1.6.jar:/home/mininet/apache-cassandra-1.2.4/bin/../lib/snappy-java-1.0.4.1.jar:/home/mininet/apache-cassandra-1.2.4/bin/../lib/snaptree-0.1.jar:/home/mininet/apache-cassandra-1.2.4/bin/../lib/jamm-0.2.5.jar
 INFO 08:20:19,242 JNA not found. Native methods will be disabled.
 INFO 08:20:19,251 Loading settings from file:/home/mininet/apache-cassandra-1.2.4/conf/cassandra.yaml
 INFO 08:20:19,727 Data files directories: [/var/lib/cassandra/data]
 INFO 08:20:19,728 Commit log directory: /var/lib/cassandra/commitlog
 INFO 08:20:19,728 DiskAccessMode 'auto' determined to be mmap, indexAccessMode is mmap
 INFO 08:20:19,728 disk_failure_policy is stop
 INFO 08:20:19,737 Global memtable threshold is enabled at 662MB
 INFO 08:20:19,871 Not using multi-threaded compaction
 INFO 08:20:20,454 Initializing key cache with capacity of 99 MBs.
 INFO 08:20:20,461 Scheduling key cache save to each 14400 seconds (going to save all keys).
 INFO 08:20:20,462 Initializing row cache with capacity of 0 MBs and provider org.apache.cassandra.cache.SerializingCacheProvider
 INFO 08:20:20,472 Scheduling row cache save to each 0 seconds (going to save all keys).
 INFO 08:20:20,849 Couldn't detect any schema definitions in local storage.
 INFO 08:20:20,849 To create keyspaces and column families, see 'help create keyspace' in the CLI, or set up a schema using the thrift system_* calls.
 INFO 08:20:20,923 No commitlog files found; skipping replay
 INFO 08:20:21,293 Cassandra version: 1.2.4
 INFO 08:20:21,295 Thrift API version: 19.35.0
 INFO 08:20:21,297 CQL supported versions: 2.0.0,3.0.1 (default: 3.0.1)
 INFO 08:20:21,330 Loading persisted ring state
 INFO 08:20:21,333 Starting up server gossip
 WARN 08:20:21,337 No host ID found, created e82e3708-ca64-4bed-9f15-0eb28651ab89 (Note: This should happen exactly once per node).
 INFO 08:20:21,350 Enqueuing flush of Memtable-local@1156511567(361/361 serialized/live bytes, 15 ops)
 INFO 08:20:21,362 Writing Memtable-local@1156511567(361/361 serialized/live bytes, 15 ops)
 INFO 08:20:21,404 Completed flushing /var/lib/cassandra/data/system/local/system-local-ib-1-Data.db (351 bytes) for commitlog position ReplayPosition(segmentId=1401463220829, position=50656)
 INFO 08:20:21,491 Starting Messaging Service on port 7000
 INFO 08:20:21,539 Enqueuing flush of Memtable-local@1622940842(86/86 serialized/live bytes, 4 ops)
 INFO 08:20:21,540 Writing Memtable-local@1622940842(86/86 serialized/live bytes, 4 ops)
 INFO 08:20:21,564 Completed flushing /var/lib/cassandra/data/system/local/system-local-ib-2-Data.db (123 bytes) for commitlog position ReplayPosition(segmentId=1401463220829, position=50933)
 INFO 08:20:21,568 JOINING: waiting for ring information
 INFO 08:20:22,858 Node /192.168.56.11 is now part of the cluster
 INFO 08:20:22,860 InetAddress /192.168.56.11 is now UP
 INFO 08:20:22,889 Enqueuing flush of Memtable-peers@63447224(182/182 serialized/live bytes, 10 ops)
 INFO 08:20:22,889 Writing Memtable-peers@63447224(182/182 serialized/live bytes, 10 ops)
 INFO 08:20:22,907 Completed flushing /var/lib/cassandra/data/system/peers/system-peers-ib-1-Data.db (233 bytes) for commitlog position ReplayPosition(segmentId=1401463220829, position=51638)
 INFO 08:20:22,939 Enqueuing flush of Memtable-schema_keyspaces@191197583(389/389 serialized/live bytes, 11 ops)
 INFO 08:20:22,940 Writing Memtable-schema_keyspaces@191197583(389/389 serialized/live bytes, 11 ops)
 INFO 08:20:22,956 Completed flushing /var/lib/cassandra/data/system/schema_keyspaces/system-schema_keyspaces-ib-1-Data.db (271 bytes) for commitlog position ReplayPosition(segmentId=1401463220829, position=53730)
 INFO 08:20:22,961 Enqueuing flush of Memtable-schema_columnfamilies@203568414(23066/23066 serialized/live bytes, 379 ops)
 INFO 08:20:22,961 Writing Memtable-schema_columnfamilies@203568414(23066/23066 serialized/live bytes, 379 ops)
 INFO 08:20:22,991 Completed flushing /var/lib/cassandra/data/system/schema_columnfamilies/system-schema_columnfamilies-ib-1-Data.db (4851 bytes) for commitlog position ReplayPosition(segmentId=1401463220829, position=53730)
 INFO 08:20:22,992 Enqueuing flush of Memtable-schema_columns@1183600113(22154/22154 serialized/live bytes, 337 ops)
 INFO 08:20:22,993 Writing Memtable-schema_columns@1183600113(22154/22154 serialized/live bytes, 337 ops)
 INFO 08:20:23,023 Completed flushing /var/lib/cassandra/data/system/schema_columns/system-schema_columns-ib-1-Data.db (3902 bytes) for commitlog position ReplayPosition(segmentId=1401463220829, position=53730)
 INFO 08:20:23,569 JOINING: schema complete, ready to bootstrap
 INFO 08:20:23,570 JOINING: getting bootstrap token
 INFO 08:20:23,573 Enqueuing flush of Memtable-local@1658221466(73/73 serialized/live bytes, 4 ops)
 INFO 08:20:23,574 Writing Memtable-local@1658221466(73/73 serialized/live bytes, 4 ops)
 INFO 08:20:23,595 Completed flushing /var/lib/cassandra/data/system/local/system-local-ib-3-Data.db (136 bytes) for commitlog position ReplayPosition(segmentId=1401463220829, position=54028)
 INFO 08:20:23,610 JOINING: sleeping 30000 ms for pending range setup
 INFO 08:20:53,612 JOINING: Starting to bootstrap...
 INFO 08:20:53,687 Finished streaming session fd7c7da0-e80d-11e3-b8b8-c1b7d013ecd2 from /192.168.56.11
 INFO 08:20:53,689 Bootstrap completed! for the tokens [0]
 INFO 08:20:53,690 Enqueuing flush of Memtable-local@1699593206(43/43 serialized/live bytes, 2 ops)
 INFO 08:20:53,691 Writing Memtable-local@1699593206(43/43 serialized/live bytes, 2 ops)
 INFO 08:20:53,712 Completed flushing /var/lib/cassandra/data/system/local/system-local-ib-4-Data.db (75 bytes) for commitlog position ReplayPosition(segmentId=1401463220829, position=54161)
 INFO 08:20:53,723 Enqueuing flush of Memtable-local@2108865544(32/32 serialized/live bytes, 2 ops)
 INFO 08:20:53,725 Writing Memtable-local@2108865544(32/32 serialized/live bytes, 2 ops)
 INFO 08:20:53,728 Compacting [SSTableReader(path='/var/lib/cassandra/data/system/local/system-local-ib-2-Data.db'), SSTableReader(path='/var/lib/cassandra/data/system/local/system-local-ib-1-Data.db'), SSTableReader(path='/var/lib/cassandra/data/system/local/system-local-ib-4-Data.db'), SSTableReader(path='/var/lib/cassandra/data/system/local/system-local-ib-3-Data.db')]
 INFO 08:20:53,741 Completed flushing /var/lib/cassandra/data/system/local/system-local-ib-5-Data.db (90 bytes) for commitlog position ReplayPosition(segmentId=1401463220829, position=54317)
 INFO 08:20:53,758 Node /192.168.56.12 state jump to normal
 INFO 08:20:53,759 Startup completed! Now serving reads.
 INFO 08:20:53,807 Compacted 4 sstables to [/var/lib/cassandra/data/system/local/system-local-ib-6,].  685 bytes to 409 (~59% of original) in 76ms = 0.005132MB/s.  4 total rows, 1 unique.  Row merge counts were {1:0, 2:0, 3:0, 4:1, }
