xss =  -ea -javaagent:/home/mininet/apache-cassandra-1.2.4/bin/../lib/jamm-0.2.5.jar -XX:+UseThreadPriorities -XX:ThreadPriorityPolicy=42 -Xms1996M -Xmx1996M -Xmn100M -XX:+HeapDumpOnOutOfMemoryError -Xss256k
 INFO 07:24:42,350 Logging initialized
 INFO 07:24:42,362 JVM vendor/version: OpenJDK 64-Bit Server VM/1.7.0_51
 WARN 07:24:42,362 OpenJDK is not recommended. Please upgrade to the newest Oracle Java release
 INFO 07:24:42,363 Heap size: 2082471936/2082471936
 INFO 07:24:42,363 Classpath: /home/mininet/apache-cassandra-1.2.4/bin/../conf:/home/mininet/apache-cassandra-1.2.4/bin/../build/classes/main:/home/mininet/apache-cassandra-1.2.4/bin/../build/classes/thrift:/home/mininet/apache-cassandra-1.2.4/bin/../lib/antlr-3.2.jar:/home/mininet/apache-cassandra-1.2.4/bin/../lib/apache-cassandra-1.2.4.jar:/home/mininet/apache-cassandra-1.2.4/bin/../lib/apache-cassandra-clientutil-1.2.4.jar:/home/mininet/apache-cassandra-1.2.4/bin/../lib/apache-cassandra-thrift-1.2.4.jar:/home/mininet/apache-cassandra-1.2.4/bin/../lib/avro-1.4.0-fixes.jar:/home/mininet/apache-cassandra-1.2.4/bin/../lib/avro-1.4.0-sources-fixes.jar:/home/mininet/apache-cassandra-1.2.4/bin/../lib/commons-cli-1.1.jar:/home/mininet/apache-cassandra-1.2.4/bin/../lib/commons-codec-1.2.jar:/home/mininet/apache-cassandra-1.2.4/bin/../lib/commons-lang-2.6.jar:/home/mininet/apache-cassandra-1.2.4/bin/../lib/compress-lzf-0.8.4.jar:/home/mininet/apache-cassandra-1.2.4/bin/../lib/concurrentlinkedhashmap-lru-1.3.jar:/home/mininet/apache-cassandra-1.2.4/bin/../lib/guava-13.0.1.jar:/home/mininet/apache-cassandra-1.2.4/bin/../lib/high-scale-lib-1.1.2.jar:/home/mininet/apache-cassandra-1.2.4/bin/../lib/jackson-core-asl-1.9.2.jar:/home/mininet/apache-cassandra-1.2.4/bin/../lib/jackson-mapper-asl-1.9.2.jar:/home/mininet/apache-cassandra-1.2.4/bin/../lib/jamm-0.2.5.jar:/home/mininet/apache-cassandra-1.2.4/bin/../lib/jbcrypt-0.3m.jar:/home/mininet/apache-cassandra-1.2.4/bin/../lib/jline-1.0.jar:/home/mininet/apache-cassandra-1.2.4/bin/../lib/json-simple-1.1.jar:/home/mininet/apache-cassandra-1.2.4/bin/../lib/libthrift-0.7.0.jar:/home/mininet/apache-cassandra-1.2.4/bin/../lib/log4j-1.2.16.jar:/home/mininet/apache-cassandra-1.2.4/bin/../lib/lz4-1.1.0.jar:/home/mininet/apache-cassandra-1.2.4/bin/../lib/metrics-core-2.0.3.jar:/home/mininet/apache-cassandra-1.2.4/bin/../lib/netty-3.5.9.Final.jar:/home/mininet/apache-cassandra-1.2.4/bin/../lib/servlet-api-2.5-20081211.jar:/home/mininet/apache-cassandra-1.2.4/bin/../lib/slf4j-api-1.7.2.jar:/home/mininet/apache-cassandra-1.2.4/bin/../lib/slf4j-log4j12-1.7.2.jar:/home/mininet/apache-cassandra-1.2.4/bin/../lib/snakeyaml-1.6.jar:/home/mininet/apache-cassandra-1.2.4/bin/../lib/snappy-java-1.0.4.1.jar:/home/mininet/apache-cassandra-1.2.4/bin/../lib/snaptree-0.1.jar:/home/mininet/apache-cassandra-1.2.4/bin/../lib/jamm-0.2.5.jar
 INFO 07:24:42,365 JNA not found. Native methods will be disabled.
 INFO 07:24:42,375 Loading settings from file:/home/mininet/apache-cassandra-1.2.4/conf/cassandra.yaml
 INFO 07:24:42,832 Data files directories: [/var/lib/cassandra/data]
 INFO 07:24:42,832 Commit log directory: /var/lib/cassandra/commitlog
 INFO 07:24:42,833 DiskAccessMode 'auto' determined to be mmap, indexAccessMode is mmap
 INFO 07:24:42,833 disk_failure_policy is stop
 INFO 07:24:42,841 Global memtable threshold is enabled at 662MB
 INFO 07:24:42,952 Not using multi-threaded compaction
 INFO 07:24:43,410 Initializing key cache with capacity of 99 MBs.
 INFO 07:24:43,417 Scheduling key cache save to each 14400 seconds (going to save all keys).
 INFO 07:24:43,418 Initializing row cache with capacity of 0 MBs and provider org.apache.cassandra.cache.SerializingCacheProvider
 INFO 07:24:43,427 Scheduling row cache save to each 0 seconds (going to save all keys).
 INFO 07:24:43,806 Couldn't detect any schema definitions in local storage.
 INFO 07:24:43,806 To create keyspaces and column families, see 'help create keyspace' in the CLI, or set up a schema using the thrift system_* calls.
 INFO 07:24:43,883 No commitlog files found; skipping replay
 INFO 07:24:44,233 Cassandra version: 1.2.4
 INFO 07:24:44,235 Thrift API version: 19.35.0
 INFO 07:24:44,237 CQL supported versions: 2.0.0,3.0.1 (default: 3.0.1)
 INFO 07:24:44,278 Loading persisted ring state
 INFO 07:24:44,281 Starting up server gossip
 WARN 07:24:44,285 No host ID found, created d6b6bcb4-8122-48c7-9bd0-84fe0712db45 (Note: This should happen exactly once per node).
 INFO 07:24:44,297 Enqueuing flush of Memtable-local@1156511567(361/361 serialized/live bytes, 15 ops)
 INFO 07:24:44,304 Writing Memtable-local@1156511567(361/361 serialized/live bytes, 15 ops)
 INFO 07:24:44,362 Completed flushing /var/lib/cassandra/data/system/local/system-local-ib-1-Data.db (352 bytes) for commitlog position ReplayPosition(segmentId=1401459883779, position=50656)
 INFO 07:24:44,425 Starting Messaging Service on port 7000
 INFO 07:24:44,480 Enqueuing flush of Memtable-local@1622940842(86/86 serialized/live bytes, 4 ops)
 INFO 07:24:44,481 Writing Memtable-local@1622940842(86/86 serialized/live bytes, 4 ops)
 INFO 07:24:44,497 Completed flushing /var/lib/cassandra/data/system/local/system-local-ib-2-Data.db (122 bytes) for commitlog position ReplayPosition(segmentId=1401459883779, position=50933)
 INFO 07:24:44,503 JOINING: waiting for ring information
 INFO 07:24:45,779 Node /192.168.56.11 is now part of the cluster
 INFO 07:24:45,781 InetAddress /192.168.56.11 is now UP
 INFO 07:24:45,807 Enqueuing flush of Memtable-peers@63447224(182/182 serialized/live bytes, 10 ops)
 INFO 07:24:45,808 Writing Memtable-peers@63447224(182/182 serialized/live bytes, 10 ops)
 INFO 07:24:45,827 Completed flushing /var/lib/cassandra/data/system/peers/system-peers-ib-1-Data.db (235 bytes) for commitlog position ReplayPosition(segmentId=1401459883779, position=51638)
 INFO 07:24:45,849 Enqueuing flush of Memtable-schema_keyspaces@191197583(389/389 serialized/live bytes, 11 ops)
 INFO 07:24:45,850 Writing Memtable-schema_keyspaces@191197583(389/389 serialized/live bytes, 11 ops)
 INFO 07:24:45,866 Completed flushing /var/lib/cassandra/data/system/schema_keyspaces/system-schema_keyspaces-ib-1-Data.db (264 bytes) for commitlog position ReplayPosition(segmentId=1401459883779, position=53730)
 INFO 07:24:45,870 Enqueuing flush of Memtable-schema_columnfamilies@203568414(23066/23066 serialized/live bytes, 379 ops)
 INFO 07:24:45,871 Writing Memtable-schema_columnfamilies@203568414(23066/23066 serialized/live bytes, 379 ops)
 INFO 07:24:45,899 Completed flushing /var/lib/cassandra/data/system/schema_columnfamilies/system-schema_columnfamilies-ib-1-Data.db (4864 bytes) for commitlog position ReplayPosition(segmentId=1401459883779, position=53730)
 INFO 07:24:45,900 Enqueuing flush of Memtable-schema_columns@1183600113(22154/22154 serialized/live bytes, 337 ops)
 INFO 07:24:45,901 Writing Memtable-schema_columns@1183600113(22154/22154 serialized/live bytes, 337 ops)
 INFO 07:24:45,930 Completed flushing /var/lib/cassandra/data/system/schema_columns/system-schema_columns-ib-1-Data.db (3907 bytes) for commitlog position ReplayPosition(segmentId=1401459883779, position=53730)
 INFO 07:24:46,504 JOINING: schema complete, ready to bootstrap
 INFO 07:24:46,505 JOINING: getting bootstrap token
 INFO 07:24:46,508 Enqueuing flush of Memtable-local@1832891943(73/73 serialized/live bytes, 4 ops)
 INFO 07:24:46,509 Writing Memtable-local@1832891943(73/73 serialized/live bytes, 4 ops)
 INFO 07:24:46,528 Completed flushing /var/lib/cassandra/data/system/local/system-local-ib-3-Data.db (136 bytes) for commitlog position ReplayPosition(segmentId=1401459883779, position=54028)
 INFO 07:24:46,541 JOINING: sleeping 30000 ms for pending range setup
 INFO 07:25:16,545 JOINING: Starting to bootstrap...
 INFO 07:25:16,625 Finished streaming session 3870c810-e806-11e3-8417-c1b7d013ecd2 from /192.168.56.11
 INFO 07:25:16,626 Bootstrap completed! for the tokens [0]
 INFO 07:25:16,627 Enqueuing flush of Memtable-local@1383024495(43/43 serialized/live bytes, 2 ops)
 INFO 07:25:16,628 Writing Memtable-local@1383024495(43/43 serialized/live bytes, 2 ops)
 INFO 07:25:16,645 Completed flushing /var/lib/cassandra/data/system/local/system-local-ib-4-Data.db (75 bytes) for commitlog position ReplayPosition(segmentId=1401459883779, position=54161)
 INFO 07:25:16,653 Enqueuing flush of Memtable-local@1633087920(32/32 serialized/live bytes, 2 ops)
 INFO 07:25:16,656 Writing Memtable-local@1633087920(32/32 serialized/live bytes, 2 ops)
 INFO 07:25:16,662 Compacting [SSTableReader(path='/var/lib/cassandra/data/system/local/system-local-ib-2-Data.db'), SSTableReader(path='/var/lib/cassandra/data/system/local/system-local-ib-1-Data.db'), SSTableReader(path='/var/lib/cassandra/data/system/local/system-local-ib-3-Data.db'), SSTableReader(path='/var/lib/cassandra/data/system/local/system-local-ib-4-Data.db')]
 INFO 07:25:16,676 Completed flushing /var/lib/cassandra/data/system/local/system-local-ib-5-Data.db (90 bytes) for commitlog position ReplayPosition(segmentId=1401459883779, position=54317)
 INFO 07:25:16,687 Node /192.168.56.12 state jump to normal
 INFO 07:25:16,692 Startup completed! Now serving reads.
 INFO 07:25:16,740 Compacted 4 sstables to [/var/lib/cassandra/data/system/local/system-local-ib-6,].  685 bytes to 407 (~59% of original) in 76ms = 0.005107MB/s.  4 total rows, 1 unique.  Row merge counts were {1:0, 2:0, 3:0, 4:1, }
