xss =  -ea -javaagent:/home/mininet/apache-cassandra-1.2.4/bin/../lib/jamm-0.2.5.jar -XX:+UseThreadPriorities -XX:ThreadPriorityPolicy=42 -Xms1996M -Xmx1996M -Xmn100M -XX:+HeapDumpOnOutOfMemoryError -Xss256k
 INFO 06:29:08,752 Logging initialized
 INFO 06:29:08,765 JVM vendor/version: OpenJDK 64-Bit Server VM/1.7.0_51
 WARN 06:29:08,765 OpenJDK is not recommended. Please upgrade to the newest Oracle Java release
 INFO 06:29:08,765 Heap size: 2082471936/2082471936
 INFO 06:29:08,765 Classpath: /home/mininet/apache-cassandra-1.2.4/bin/../conf:/home/mininet/apache-cassandra-1.2.4/bin/../build/classes/main:/home/mininet/apache-cassandra-1.2.4/bin/../build/classes/thrift:/home/mininet/apache-cassandra-1.2.4/bin/../lib/antlr-3.2.jar:/home/mininet/apache-cassandra-1.2.4/bin/../lib/apache-cassandra-1.2.4.jar:/home/mininet/apache-cassandra-1.2.4/bin/../lib/apache-cassandra-clientutil-1.2.4.jar:/home/mininet/apache-cassandra-1.2.4/bin/../lib/apache-cassandra-thrift-1.2.4.jar:/home/mininet/apache-cassandra-1.2.4/bin/../lib/avro-1.4.0-fixes.jar:/home/mininet/apache-cassandra-1.2.4/bin/../lib/avro-1.4.0-sources-fixes.jar:/home/mininet/apache-cassandra-1.2.4/bin/../lib/commons-cli-1.1.jar:/home/mininet/apache-cassandra-1.2.4/bin/../lib/commons-codec-1.2.jar:/home/mininet/apache-cassandra-1.2.4/bin/../lib/commons-lang-2.6.jar:/home/mininet/apache-cassandra-1.2.4/bin/../lib/compress-lzf-0.8.4.jar:/home/mininet/apache-cassandra-1.2.4/bin/../lib/concurrentlinkedhashmap-lru-1.3.jar:/home/mininet/apache-cassandra-1.2.4/bin/../lib/guava-13.0.1.jar:/home/mininet/apache-cassandra-1.2.4/bin/../lib/high-scale-lib-1.1.2.jar:/home/mininet/apache-cassandra-1.2.4/bin/../lib/jackson-core-asl-1.9.2.jar:/home/mininet/apache-cassandra-1.2.4/bin/../lib/jackson-mapper-asl-1.9.2.jar:/home/mininet/apache-cassandra-1.2.4/bin/../lib/jamm-0.2.5.jar:/home/mininet/apache-cassandra-1.2.4/bin/../lib/jbcrypt-0.3m.jar:/home/mininet/apache-cassandra-1.2.4/bin/../lib/jline-1.0.jar:/home/mininet/apache-cassandra-1.2.4/bin/../lib/json-simple-1.1.jar:/home/mininet/apache-cassandra-1.2.4/bin/../lib/libthrift-0.7.0.jar:/home/mininet/apache-cassandra-1.2.4/bin/../lib/log4j-1.2.16.jar:/home/mininet/apache-cassandra-1.2.4/bin/../lib/lz4-1.1.0.jar:/home/mininet/apache-cassandra-1.2.4/bin/../lib/metrics-core-2.0.3.jar:/home/mininet/apache-cassandra-1.2.4/bin/../lib/netty-3.5.9.Final.jar:/home/mininet/apache-cassandra-1.2.4/bin/../lib/servlet-api-2.5-20081211.jar:/home/mininet/apache-cassandra-1.2.4/bin/../lib/slf4j-api-1.7.2.jar:/home/mininet/apache-cassandra-1.2.4/bin/../lib/slf4j-log4j12-1.7.2.jar:/home/mininet/apache-cassandra-1.2.4/bin/../lib/snakeyaml-1.6.jar:/home/mininet/apache-cassandra-1.2.4/bin/../lib/snappy-java-1.0.4.1.jar:/home/mininet/apache-cassandra-1.2.4/bin/../lib/snaptree-0.1.jar:/home/mininet/apache-cassandra-1.2.4/bin/../lib/jamm-0.2.5.jar
 INFO 06:29:08,767 JNA not found. Native methods will be disabled.
 INFO 06:29:08,778 Loading settings from file:/home/mininet/apache-cassandra-1.2.4/conf/cassandra.yaml
 INFO 06:29:09,240 Data files directories: [/var/lib/cassandra/data]
 INFO 06:29:09,240 Commit log directory: /var/lib/cassandra/commitlog
 INFO 06:29:09,241 DiskAccessMode 'auto' determined to be mmap, indexAccessMode is mmap
 INFO 06:29:09,241 disk_failure_policy is stop
 INFO 06:29:09,249 Global memtable threshold is enabled at 662MB
 INFO 06:29:09,366 Not using multi-threaded compaction
 INFO 06:29:09,836 Initializing key cache with capacity of 99 MBs.
 INFO 06:29:09,847 Scheduling key cache save to each 14400 seconds (going to save all keys).
 INFO 06:29:09,848 Initializing row cache with capacity of 0 MBs and provider org.apache.cassandra.cache.SerializingCacheProvider
 INFO 06:29:09,856 Scheduling row cache save to each 0 seconds (going to save all keys).
 INFO 06:29:10,238 Couldn't detect any schema definitions in local storage.
 INFO 06:29:10,239 To create keyspaces and column families, see 'help create keyspace' in the CLI, or set up a schema using the thrift system_* calls.
 INFO 06:29:10,316 No commitlog files found; skipping replay
 INFO 06:29:10,695 Cassandra version: 1.2.4
 INFO 06:29:10,709 Thrift API version: 19.35.0
 INFO 06:29:10,711 CQL supported versions: 2.0.0,3.0.1 (default: 3.0.1)
 INFO 06:29:10,743 Loading persisted ring state
 INFO 06:29:10,746 Starting up server gossip
 WARN 06:29:10,751 No host ID found, created 1e6bea20-f9e1-4260-a72b-1b4bc899d70b (Note: This should happen exactly once per node).
 INFO 06:29:10,762 Enqueuing flush of Memtable-local@1156511567(361/361 serialized/live bytes, 15 ops)
 INFO 06:29:10,771 Writing Memtable-local@1156511567(361/361 serialized/live bytes, 15 ops)
 INFO 06:29:10,815 Completed flushing /var/lib/cassandra/data/system/local/system-local-ib-1-Data.db (350 bytes) for commitlog position ReplayPosition(segmentId=1401456550218, position=50656)
 INFO 06:29:10,892 Starting Messaging Service on port 7000
 INFO 06:29:10,939 Enqueuing flush of Memtable-local@1622940842(86/86 serialized/live bytes, 4 ops)
 INFO 06:29:10,940 Writing Memtable-local@1622940842(86/86 serialized/live bytes, 4 ops)
 INFO 06:29:10,954 Completed flushing /var/lib/cassandra/data/system/local/system-local-ib-2-Data.db (122 bytes) for commitlog position ReplayPosition(segmentId=1401456550218, position=50933)
 INFO 06:29:10,955 JOINING: waiting for ring information
 INFO 06:29:12,232 Node /192.168.56.11 is now part of the cluster
 INFO 06:29:12,233 InetAddress /192.168.56.11 is now UP
 INFO 06:29:12,256 Enqueuing flush of Memtable-peers@63447224(182/182 serialized/live bytes, 10 ops)
 INFO 06:29:12,257 Writing Memtable-peers@63447224(182/182 serialized/live bytes, 10 ops)
 INFO 06:29:12,271 Completed flushing /var/lib/cassandra/data/system/peers/system-peers-ib-1-Data.db (235 bytes) for commitlog position ReplayPosition(segmentId=1401456550218, position=51638)
 INFO 06:29:12,296 Enqueuing flush of Memtable-schema_keyspaces@191197583(389/389 serialized/live bytes, 11 ops)
 INFO 06:29:12,297 Writing Memtable-schema_keyspaces@191197583(389/389 serialized/live bytes, 11 ops)
 INFO 06:29:12,315 Completed flushing /var/lib/cassandra/data/system/schema_keyspaces/system-schema_keyspaces-ib-1-Data.db (264 bytes) for commitlog position ReplayPosition(segmentId=1401456550218, position=53730)
 INFO 06:29:12,316 Enqueuing flush of Memtable-schema_columnfamilies@203568414(23066/23066 serialized/live bytes, 379 ops)
 INFO 06:29:12,317 Writing Memtable-schema_columnfamilies@203568414(23066/23066 serialized/live bytes, 379 ops)
 INFO 06:29:12,344 Completed flushing /var/lib/cassandra/data/system/schema_columnfamilies/system-schema_columnfamilies-ib-1-Data.db (4852 bytes) for commitlog position ReplayPosition(segmentId=1401456550218, position=53730)
 INFO 06:29:12,345 Enqueuing flush of Memtable-schema_columns@1183600113(22154/22154 serialized/live bytes, 337 ops)
 INFO 06:29:12,346 Writing Memtable-schema_columns@1183600113(22154/22154 serialized/live bytes, 337 ops)
 INFO 06:29:12,371 Completed flushing /var/lib/cassandra/data/system/schema_columns/system-schema_columns-ib-1-Data.db (3900 bytes) for commitlog position ReplayPosition(segmentId=1401456550218, position=53730)
 INFO 06:29:12,956 JOINING: schema complete, ready to bootstrap
 INFO 06:29:12,957 JOINING: getting bootstrap token
 INFO 06:29:12,960 Enqueuing flush of Memtable-local@1832891943(73/73 serialized/live bytes, 4 ops)
 INFO 06:29:12,960 Writing Memtable-local@1832891943(73/73 serialized/live bytes, 4 ops)
 INFO 06:29:12,983 Completed flushing /var/lib/cassandra/data/system/local/system-local-ib-3-Data.db (138 bytes) for commitlog position ReplayPosition(segmentId=1401456550218, position=54028)
 INFO 06:29:12,997 JOINING: sleeping 30000 ms for pending range setup
 INFO 06:29:43,000 JOINING: Starting to bootstrap...
 INFO 06:29:43,083 Finished streaming session 757de060-e7fe-11e3-9d9c-c1b7d013ecd2 from /192.168.56.11
 INFO 06:29:43,085 Bootstrap completed! for the tokens [0]
 INFO 06:29:43,086 Enqueuing flush of Memtable-local@1383024495(43/43 serialized/live bytes, 2 ops)
 INFO 06:29:43,087 Writing Memtable-local@1383024495(43/43 serialized/live bytes, 2 ops)
 INFO 06:29:43,100 Completed flushing /var/lib/cassandra/data/system/local/system-local-ib-4-Data.db (75 bytes) for commitlog position ReplayPosition(segmentId=1401456550218, position=54161)
 INFO 06:29:43,108 Enqueuing flush of Memtable-local@1819314049(32/32 serialized/live bytes, 2 ops)
 INFO 06:29:43,109 Writing Memtable-local@1819314049(32/32 serialized/live bytes, 2 ops)
 INFO 06:29:43,113 Compacting [SSTableReader(path='/var/lib/cassandra/data/system/local/system-local-ib-2-Data.db'), SSTableReader(path='/var/lib/cassandra/data/system/local/system-local-ib-1-Data.db'), SSTableReader(path='/var/lib/cassandra/data/system/local/system-local-ib-3-Data.db'), SSTableReader(path='/var/lib/cassandra/data/system/local/system-local-ib-4-Data.db')]
 INFO 06:29:43,124 Completed flushing /var/lib/cassandra/data/system/local/system-local-ib-5-Data.db (90 bytes) for commitlog position ReplayPosition(segmentId=1401456550218, position=54317)
 INFO 06:29:43,139 Node /192.168.56.12 state jump to normal
 INFO 06:29:43,140 Startup completed! Now serving reads.
