xss =  -ea -javaagent:/home/mininet/apache-cassandra-1.2.4/bin/../lib/jamm-0.2.5.jar -XX:+UseThreadPriorities -XX:ThreadPriorityPolicy=42 -Xms1996M -Xmx1996M -Xmn100M -XX:+HeapDumpOnOutOfMemoryError -Xss256k
 INFO 04:37:24,578 Logging initialized
 INFO 04:37:24,591 JVM vendor/version: OpenJDK 64-Bit Server VM/1.7.0_51
 WARN 04:37:24,591 OpenJDK is not recommended. Please upgrade to the newest Oracle Java release
 INFO 04:37:24,592 Heap size: 2082471936/2082471936
 INFO 04:37:24,592 Classpath: /home/mininet/apache-cassandra-1.2.4/bin/../conf:/home/mininet/apache-cassandra-1.2.4/bin/../build/classes/main:/home/mininet/apache-cassandra-1.2.4/bin/../build/classes/thrift:/home/mininet/apache-cassandra-1.2.4/bin/../lib/antlr-3.2.jar:/home/mininet/apache-cassandra-1.2.4/bin/../lib/apache-cassandra-1.2.4.jar:/home/mininet/apache-cassandra-1.2.4/bin/../lib/apache-cassandra-clientutil-1.2.4.jar:/home/mininet/apache-cassandra-1.2.4/bin/../lib/apache-cassandra-thrift-1.2.4.jar:/home/mininet/apache-cassandra-1.2.4/bin/../lib/avro-1.4.0-fixes.jar:/home/mininet/apache-cassandra-1.2.4/bin/../lib/avro-1.4.0-sources-fixes.jar:/home/mininet/apache-cassandra-1.2.4/bin/../lib/commons-cli-1.1.jar:/home/mininet/apache-cassandra-1.2.4/bin/../lib/commons-codec-1.2.jar:/home/mininet/apache-cassandra-1.2.4/bin/../lib/commons-lang-2.6.jar:/home/mininet/apache-cassandra-1.2.4/bin/../lib/compress-lzf-0.8.4.jar:/home/mininet/apache-cassandra-1.2.4/bin/../lib/concurrentlinkedhashmap-lru-1.3.jar:/home/mininet/apache-cassandra-1.2.4/bin/../lib/guava-13.0.1.jar:/home/mininet/apache-cassandra-1.2.4/bin/../lib/high-scale-lib-1.1.2.jar:/home/mininet/apache-cassandra-1.2.4/bin/../lib/jackson-core-asl-1.9.2.jar:/home/mininet/apache-cassandra-1.2.4/bin/../lib/jackson-mapper-asl-1.9.2.jar:/home/mininet/apache-cassandra-1.2.4/bin/../lib/jamm-0.2.5.jar:/home/mininet/apache-cassandra-1.2.4/bin/../lib/jbcrypt-0.3m.jar:/home/mininet/apache-cassandra-1.2.4/bin/../lib/jline-1.0.jar:/home/mininet/apache-cassandra-1.2.4/bin/../lib/json-simple-1.1.jar:/home/mininet/apache-cassandra-1.2.4/bin/../lib/libthrift-0.7.0.jar:/home/mininet/apache-cassandra-1.2.4/bin/../lib/log4j-1.2.16.jar:/home/mininet/apache-cassandra-1.2.4/bin/../lib/lz4-1.1.0.jar:/home/mininet/apache-cassandra-1.2.4/bin/../lib/metrics-core-2.0.3.jar:/home/mininet/apache-cassandra-1.2.4/bin/../lib/netty-3.5.9.Final.jar:/home/mininet/apache-cassandra-1.2.4/bin/../lib/servlet-api-2.5-20081211.jar:/home/mininet/apache-cassandra-1.2.4/bin/../lib/slf4j-api-1.7.2.jar:/home/mininet/apache-cassandra-1.2.4/bin/../lib/slf4j-log4j12-1.7.2.jar:/home/mininet/apache-cassandra-1.2.4/bin/../lib/snakeyaml-1.6.jar:/home/mininet/apache-cassandra-1.2.4/bin/../lib/snappy-java-1.0.4.1.jar:/home/mininet/apache-cassandra-1.2.4/bin/../lib/snaptree-0.1.jar:/home/mininet/apache-cassandra-1.2.4/bin/../lib/jamm-0.2.5.jar
 INFO 04:37:24,595 JNA not found. Native methods will be disabled.
 INFO 04:37:24,605 Loading settings from file:/home/mininet/apache-cassandra-1.2.4/conf/cassandra.yaml
 INFO 04:37:25,098 Data files directories: [/var/lib/cassandra/data]
 INFO 04:37:25,099 Commit log directory: /var/lib/cassandra/commitlog
 INFO 04:37:25,100 DiskAccessMode 'auto' determined to be mmap, indexAccessMode is mmap
 INFO 04:37:25,101 disk_failure_policy is stop
 INFO 04:37:25,117 Global memtable threshold is enabled at 662MB
 INFO 04:37:25,260 Not using multi-threaded compaction
 INFO 04:37:25,806 Initializing key cache with capacity of 99 MBs.
 INFO 04:37:25,816 Scheduling key cache save to each 14400 seconds (going to save all keys).
 INFO 04:37:25,817 Initializing row cache with capacity of 0 MBs and provider org.apache.cassandra.cache.SerializingCacheProvider
 INFO 04:37:25,828 Scheduling row cache save to each 0 seconds (going to save all keys).
 INFO 04:37:26,287 Couldn't detect any schema definitions in local storage.
 INFO 04:37:26,288 To create keyspaces and column families, see 'help create keyspace' in the CLI, or set up a schema using the thrift system_* calls.
 INFO 04:37:26,384 No commitlog files found; skipping replay
 INFO 04:37:26,801 Cassandra version: 1.2.4
 INFO 04:37:26,803 Thrift API version: 19.35.0
 INFO 04:37:26,803 CQL supported versions: 2.0.0,3.0.1 (default: 3.0.1)
 INFO 04:37:26,834 Loading persisted ring state
 INFO 04:37:26,837 Starting up server gossip
 WARN 04:37:26,842 No host ID found, created c6e51f9b-8a72-4918-b6e6-261ba816b5c7 (Note: This should happen exactly once per node).
 INFO 04:37:26,858 Enqueuing flush of Memtable-local@1156511567(361/361 serialized/live bytes, 15 ops)
 INFO 04:37:26,863 Writing Memtable-local@1156511567(361/361 serialized/live bytes, 15 ops)
 INFO 04:37:26,928 Completed flushing /var/lib/cassandra/data/system/local/system-local-ib-1-Data.db (350 bytes) for commitlog position ReplayPosition(segmentId=1401449846256, position=50656)
 INFO 04:37:27,010 Starting Messaging Service on port 7000
 INFO 04:37:27,058 Enqueuing flush of Memtable-local@1622940842(86/86 serialized/live bytes, 4 ops)
 INFO 04:37:27,059 Writing Memtable-local@1622940842(86/86 serialized/live bytes, 4 ops)
 INFO 04:37:27,076 Completed flushing /var/lib/cassandra/data/system/local/system-local-ib-2-Data.db (120 bytes) for commitlog position ReplayPosition(segmentId=1401449846256, position=50933)
 INFO 04:37:27,078 JOINING: waiting for ring information
 INFO 04:37:28,947 Node /192.168.56.11 is now part of the cluster
 INFO 04:37:28,949 InetAddress /192.168.56.11 is now UP
 INFO 04:37:28,972 Enqueuing flush of Memtable-peers@717423264(182/182 serialized/live bytes, 10 ops)
 INFO 04:37:28,973 Writing Memtable-peers@717423264(182/182 serialized/live bytes, 10 ops)
 INFO 04:37:28,987 Completed flushing /var/lib/cassandra/data/system/peers/system-peers-ib-1-Data.db (239 bytes) for commitlog position ReplayPosition(segmentId=1401449846256, position=51638)
 INFO 04:37:29,013 Enqueuing flush of Memtable-schema_keyspaces@2087481845(389/389 serialized/live bytes, 11 ops)
 INFO 04:37:29,014 Writing Memtable-schema_keyspaces@2087481845(389/389 serialized/live bytes, 11 ops)
 INFO 04:37:29,028 Completed flushing /var/lib/cassandra/data/system/schema_keyspaces/system-schema_keyspaces-ib-1-Data.db (260 bytes) for commitlog position ReplayPosition(segmentId=1401449846256, position=53730)
 INFO 04:37:29,030 Enqueuing flush of Memtable-schema_columnfamilies@549456918(23066/23066 serialized/live bytes, 379 ops)
 INFO 04:37:29,031 Writing Memtable-schema_columnfamilies@549456918(23066/23066 serialized/live bytes, 379 ops)
 INFO 04:37:29,051 Completed flushing /var/lib/cassandra/data/system/schema_columnfamilies/system-schema_columnfamilies-ib-1-Data.db (4848 bytes) for commitlog position ReplayPosition(segmentId=1401449846256, position=53730)
 INFO 04:37:29,052 Enqueuing flush of Memtable-schema_columns@601005072(22154/22154 serialized/live bytes, 337 ops)
 INFO 04:37:29,053 Writing Memtable-schema_columns@601005072(22154/22154 serialized/live bytes, 337 ops)
 INFO 04:37:29,080 Completed flushing /var/lib/cassandra/data/system/schema_columns/system-schema_columns-ib-1-Data.db (3901 bytes) for commitlog position ReplayPosition(segmentId=1401449846256, position=53730)
 INFO 04:37:30,080 JOINING: schema complete, ready to bootstrap
 INFO 04:37:30,081 JOINING: getting bootstrap token
 INFO 04:37:30,087 Enqueuing flush of Memtable-local@984357737(73/73 serialized/live bytes, 4 ops)
 INFO 04:37:30,088 Writing Memtable-local@984357737(73/73 serialized/live bytes, 4 ops)
 INFO 04:37:30,109 Completed flushing /var/lib/cassandra/data/system/local/system-local-ib-3-Data.db (136 bytes) for commitlog position ReplayPosition(segmentId=1401449846256, position=54028)
 INFO 04:37:30,125 JOINING: sleeping 30000 ms for pending range setup
 INFO 04:38:00,126 JOINING: Starting to bootstrap...
 INFO 04:38:00,209 Finished streaming session da442aa0-e7ee-11e3-965f-c1b7d013ecd2 from /192.168.56.11
 INFO 04:38:00,210 Bootstrap completed! for the tokens [0]
 INFO 04:38:00,212 Enqueuing flush of Memtable-local@43206254(43/43 serialized/live bytes, 2 ops)
 INFO 04:38:00,212 Writing Memtable-local@43206254(43/43 serialized/live bytes, 2 ops)
 INFO 04:38:00,229 Completed flushing /var/lib/cassandra/data/system/local/system-local-ib-4-Data.db (75 bytes) for commitlog position ReplayPosition(segmentId=1401449846256, position=54161)
 INFO 04:38:00,239 Enqueuing flush of Memtable-local@1804152596(32/32 serialized/live bytes, 2 ops)
 INFO 04:38:00,240 Writing Memtable-local@1804152596(32/32 serialized/live bytes, 2 ops)
 INFO 04:38:00,248 Compacting [SSTableReader(path='/var/lib/cassandra/data/system/local/system-local-ib-3-Data.db'), SSTableReader(path='/var/lib/cassandra/data/system/local/system-local-ib-2-Data.db'), SSTableReader(path='/var/lib/cassandra/data/system/local/system-local-ib-1-Data.db'), SSTableReader(path='/var/lib/cassandra/data/system/local/system-local-ib-4-Data.db')]
 INFO 04:38:00,257 Completed flushing /var/lib/cassandra/data/system/local/system-local-ib-5-Data.db (90 bytes) for commitlog position ReplayPosition(segmentId=1401449846256, position=54317)
 INFO 04:38:00,268 Node /192.168.56.12 state jump to normal
 INFO 04:38:00,272 Startup completed! Now serving reads.
