{
  "_iteration": 5,
  "_runtime_stats_path": "experiments/distributed_onos_2014_01_31_01_23_34_mcs_2014_01_31_14_22_55/intermcs_5_/runtime_stats.json",
  "ambiguous_counts": {},
  "ambiguous_events": {},
  "buffered_message_receipts": {
    "10": [
      "PendingReceive(dpid=1, controller_id='c1', fingerprint=OFFingerprint{'actions': ('output(1)',), 'data': DPFingerprint{'dl_type': 35138}, 'class': 'ofp_packet_out', 'in_port': 65535})",
      "PendingReceive(dpid=1, controller_id='c1', fingerprint=OFFingerprint{'actions': ('output(2)',), 'data': DPFingerprint{'dl_type': 35138}, 'class': 'ofp_packet_out', 'in_port': 65535})",
      "PendingReceive(dpid=1, controller_id='c1', fingerprint=OFFingerprint{'class': 'ofp_echo_request'})"
    ],
    "11": [
      "PendingReceive(dpid=2, controller_id='c2', fingerprint=OFFingerprint{'actions': ('output(1)',), 'data': DPFingerprint{'class': 'lldp'}, 'class': 'ofp_packet_out', 'in_port': 65535})",
      "PendingReceive(dpid=2, controller_id='c2', fingerprint=OFFingerprint{'actions': ('output(1)',), 'data': DPFingerprint{'dl_type': 35138}, 'class': 'ofp_packet_out', 'in_port': 65535})",
      "PendingReceive(dpid=1, controller_id='c1', fingerprint=OFFingerprint{'class': 'ofp_echo_request'})",
      "PendingReceive(dpid=1, controller_id='c1', fingerprint=OFFingerprint{'actions': ('output(2)',), 'data': DPFingerprint{'dl_type': 35138}, 'class': 'ofp_packet_out', 'in_port': 65535})",
      "PendingReceive(dpid=1, controller_id='c1', fingerprint=OFFingerprint{'actions': ('output(1)',), 'data': DPFingerprint{'class': 'lldp'}, 'class': 'ofp_packet_out', 'in_port': 65535})",
      "PendingReceive(dpid=2, controller_id='c2', fingerprint=OFFingerprint{'actions': ('output(2)',), 'data': DPFingerprint{'class': 'lldp'}, 'class': 'ofp_packet_out', 'in_port': 65535})",
      "PendingReceive(dpid=2, controller_id='c2', fingerprint=OFFingerprint{'class': 'ofp_echo_request'})",
      "PendingReceive(dpid=2, controller_id='c2', fingerprint=OFFingerprint{'actions': ('output(2)',), 'data': DPFingerprint{'dl_type': 35138}, 'class': 'ofp_packet_out', 'in_port': 65535})",
      "PendingReceive(dpid=1, controller_id='c1', fingerprint=OFFingerprint{'actions': ('output(1)',), 'data': DPFingerprint{'dl_type': 35138}, 'class': 'ofp_packet_out', 'in_port': 65535})",
      "PendingReceive(dpid=1, controller_id='c1', fingerprint=OFFingerprint{'actions': ('output(2)',), 'data': DPFingerprint{'class': 'lldp'}, 'class': 'ofp_packet_out', 'in_port': 65535})"
    ],
    "12": [
      "PendingReceive(dpid=2, controller_id='c2', fingerprint=OFFingerprint{'actions': ('output(1)',), 'data': DPFingerprint{'class': 'lldp'}, 'class': 'ofp_packet_out', 'in_port': 65535})",
      "PendingReceive(dpid=2, controller_id='c2', fingerprint=OFFingerprint{'actions': ('output(1)',), 'data': DPFingerprint{'dl_type': 35138}, 'class': 'ofp_packet_out', 'in_port': 65535})",
      "PendingReceive(dpid=1, controller_id='c1', fingerprint=OFFingerprint{'class': 'ofp_echo_request'})",
      "PendingReceive(dpid=1, controller_id='c1', fingerprint=OFFingerprint{'actions': ('output(2)',), 'data': DPFingerprint{'dl_type': 35138}, 'class': 'ofp_packet_out', 'in_port': 65535})",
      "PendingReceive(dpid=1, controller_id='c1', fingerprint=OFFingerprint{'actions': ('output(1)',), 'data': DPFingerprint{'class': 'lldp'}, 'class': 'ofp_packet_out', 'in_port': 65535})",
      "PendingReceive(dpid=2, controller_id='c2', fingerprint=OFFingerprint{'actions': ('output(2)',), 'data': DPFingerprint{'class': 'lldp'}, 'class': 'ofp_packet_out', 'in_port': 65535})",
      "PendingReceive(dpid=2, controller_id='c2', fingerprint=OFFingerprint{'class': 'ofp_echo_request'})",
      "PendingReceive(dpid=2, controller_id='c2', fingerprint=OFFingerprint{'actions': ('output(2)',), 'data': DPFingerprint{'dl_type': 35138}, 'class': 'ofp_packet_out', 'in_port': 65535})",
      "PendingReceive(dpid=1, controller_id='c1', fingerprint=OFFingerprint{'actions': ('output(1)',), 'data': DPFingerprint{'dl_type': 35138}, 'class': 'ofp_packet_out', 'in_port': 65535})",
      "PendingReceive(dpid=1, controller_id='c1', fingerprint=OFFingerprint{'actions': ('output(2)',), 'data': DPFingerprint{'class': 'lldp'}, 'class': 'ofp_packet_out', 'in_port': 65535})"
    ],
    "13": [
      "PendingReceive(dpid=2, controller_id='c2', fingerprint=OFFingerprint{'actions': ('output(1)',), 'data': DPFingerprint{'class': 'lldp'}, 'class': 'ofp_packet_out', 'in_port': 65535})",
      "PendingReceive(dpid=2, controller_id='c2', fingerprint=OFFingerprint{'actions': ('output(1)',), 'data': DPFingerprint{'dl_type': 35138}, 'class': 'ofp_packet_out', 'in_port': 65535})",
      "PendingReceive(dpid=1, controller_id='c1', fingerprint=OFFingerprint{'class': 'ofp_echo_request'})",
      "PendingReceive(dpid=1, controller_id='c1', fingerprint=OFFingerprint{'actions': ('output(2)',), 'data': DPFingerprint{'dl_type': 35138}, 'class': 'ofp_packet_out', 'in_port': 65535})",
      "PendingReceive(dpid=1, controller_id='c1', fingerprint=OFFingerprint{'actions': ('output(1)',), 'data': DPFingerprint{'class': 'lldp'}, 'class': 'ofp_packet_out', 'in_port': 65535})",
      "PendingReceive(dpid=2, controller_id='c2', fingerprint=OFFingerprint{'actions': ('output(2)',), 'data': DPFingerprint{'class': 'lldp'}, 'class': 'ofp_packet_out', 'in_port': 65535})",
      "PendingReceive(dpid=2, controller_id='c2', fingerprint=OFFingerprint{'class': 'ofp_echo_request'})",
      "PendingReceive(dpid=2, controller_id='c2', fingerprint=OFFingerprint{'actions': ('output(2)',), 'data': DPFingerprint{'dl_type': 35138}, 'class': 'ofp_packet_out', 'in_port': 65535})",
      "PendingReceive(dpid=1, controller_id='c1', fingerprint=OFFingerprint{'actions': ('output(1)',), 'data': DPFingerprint{'dl_type': 35138}, 'class': 'ofp_packet_out', 'in_port': 65535})",
      "PendingReceive(dpid=1, controller_id='c1', fingerprint=OFFingerprint{'actions': ('output(2)',), 'data': DPFingerprint{'class': 'lldp'}, 'class': 'ofp_packet_out', 'in_port': 65535})"
    ],
    "14": [
      "PendingReceive(dpid=1, controller_id='c1', fingerprint=OFFingerprint{'actions': ('output(1)',), 'data': DPFingerprint{'dl_type': 35138}, 'class': 'ofp_packet_out', 'in_port': 65535})",
      "PendingReceive(dpid=1, controller_id='c1', fingerprint=OFFingerprint{'actions': ('output(2)',), 'data': DPFingerprint{'dl_type': 35138}, 'class': 'ofp_packet_out', 'in_port': 65535})",
      "PendingReceive(dpid=1, controller_id='c1', fingerprint=OFFingerprint{'class': 'ofp_echo_request'})"
    ],
    "15": [
      "PendingReceive(dpid=1, controller_id='c1', fingerprint=OFFingerprint{'actions': ('output(1)',), 'data': DPFingerprint{'dl_type': 35138}, 'class': 'ofp_packet_out', 'in_port': 65535})",
      "PendingReceive(dpid=1, controller_id='c1', fingerprint=OFFingerprint{'actions': ('output(2)',), 'data': DPFingerprint{'dl_type': 35138}, 'class': 'ofp_packet_out', 'in_port': 65535})",
      "PendingReceive(dpid=1, controller_id='c1', fingerprint=OFFingerprint{'class': 'ofp_echo_request'})"
    ],
    "5": [
      "PendingReceive(dpid=2, controller_id='c2', fingerprint=OFFingerprint{'actions': ('output(1)',), 'data': DPFingerprint{'class': 'lldp'}, 'class': 'ofp_packet_out', 'in_port': 65535})",
      "PendingReceive(dpid=1, controller_id='c1', fingerprint=OFFingerprint{'actions': ('output(1)',), 'data': (), 'class': 'ofp_packet_out', 'in_port': 2})",
      "PendingReceive(dpid=1, controller_id='c1', fingerprint=OFFingerprint{'actions': ('output(2)', 'output(1)'), 'data': DPFingerprint{'dl_dst': '12:34:56:78:02:02', 'nw_src': '123.123.1.2', 'dl_src': '12:34:56:78:01:02', 'nw_dst': '123.123.2.2'}, 'class': 'ofp_packet_out', 'in_port': 65535})",
      "PendingReceive(dpid=1, controller_id='c1', fingerprint=OFFingerprint{'class': 'ofp_echo_request'})",
      "PendingReceive(dpid=1, controller_id='c1', fingerprint=OFFingerprint{'actions': ('output(2)',), 'data': DPFingerprint{'dl_type': 35138}, 'class': 'ofp_packet_out', 'in_port': 65535})",
      "PendingReceive(dpid=1, controller_id='c1', fingerprint=OFFingerprint{'hard_timeout': 0, 'out_port': 2, 'priority': 100, 'idle_timeout': 5, 'command': 'delete_strict', 'actions': ('output(2)',), 'flags': 1, 'class': 'ofp_flow_mod', 'match': 'dl_src:12:34:56:78:02:02,dl_dst:12:34:56:78:01:02,dl_type:2048,in_port:1'})",
      "PendingReceive(dpid=2, controller_id='c2', fingerprint=OFFingerprint{'actions': (), 'data': DPFingerprint{'dl_dst': '12:34:56:78:01:02', 'nw_src': '123.123.2.2', 'dl_src': '12:34:56:78:02:02', 'nw_dst': '123.123.1.2'}, 'class': 'ofp_packet_out', 'in_port': 65535})",
      "PendingReceive(dpid=1, controller_id='c1', fingerprint=OFFingerprint{'actions': ('output(2)',), 'data': DPFingerprint{'class': 'lldp'}, 'class': 'ofp_packet_out', 'in_port': 65535})",
      "PendingReceive(dpid=2, controller_id='c2', fingerprint=OFFingerprint{'actions': ('output(1)',), 'data': DPFingerprint{'dl_type': 35138}, 'class': 'ofp_packet_out', 'in_port': 65535})",
      "PendingReceive(dpid=1, controller_id='c1', fingerprint=OFFingerprint{'hard_timeout': 0, 'out_port': 65535, 'priority': 100, 'idle_timeout': 5, 'command': 'add', 'actions': ('output(2)',), 'flags': 1, 'class': 'ofp_flow_mod', 'match': 'dl_src:12:34:56:78:02:02,dl_dst:12:34:56:78:01:02,dl_type:2048,in_port:1'})",
      "PendingReceive(dpid=2, controller_id='c2', fingerprint=OFFingerprint{'actions': ('output(2)',), 'data': DPFingerprint{'dl_dst': '12:34:56:78:02:02', 'nw_src': '123.123.1.2', 'dl_src': '12:34:56:78:01:02', 'nw_dst': '123.123.2.2'}, 'class': 'ofp_packet_out', 'in_port': 65535})",
      "PendingReceive(dpid=1, controller_id='c1', fingerprint=OFFingerprint{'actions': ('output(1)',), 'data': DPFingerprint{'class': 'lldp'}, 'class': 'ofp_packet_out', 'in_port': 65535})",
      "PendingReceive(dpid=2, controller_id='c2', fingerprint=OFFingerprint{'class': 'ofp_echo_request'})",
      "PendingReceive(dpid=2, controller_id='c2', fingerprint=OFFingerprint{'actions': ('output(2)',), 'data': DPFingerprint{'dl_type': 35138}, 'class': 'ofp_packet_out', 'in_port': 65535})",
      "PendingReceive(dpid=2, controller_id='c2', fingerprint=OFFingerprint{'hard_timeout': 0, 'out_port': 1, 'priority': 100, 'idle_timeout': 5, 'command': 'delete_strict', 'actions': ('output(1)',), 'flags': 1, 'class': 'ofp_flow_mod', 'match': 'dl_src:12:34:56:78:02:02,dl_dst:12:34:56:78:01:02,dl_type:2048,in_port:2'})",
      "PendingReceive(dpid=2, controller_id='c2', fingerprint=OFFingerprint{'hard_timeout': 0, 'out_port': 65535, 'priority': 100, 'idle_timeout': 5, 'command': 'add', 'actions': ('output(1)',), 'flags': 1, 'class': 'ofp_flow_mod', 'match': 'dl_src:12:34:56:78:02:02,dl_dst:12:34:56:78:01:02,dl_type:2048,in_port:2'})",
      "PendingReceive(dpid=1, controller_id='c1', fingerprint=OFFingerprint{'actions': ('output(2)',), 'data': DPFingerprint{'dl_dst': '12:34:56:78:01:02', 'nw_src': '123.123.2.2', 'dl_src': '12:34:56:78:02:02', 'nw_dst': '123.123.1.2'}, 'class': 'ofp_packet_out', 'in_port': 65535})",
      "PendingReceive(dpid=1, controller_id='c1', fingerprint=OFFingerprint{'hard_timeout': 0, 'out_port': 1, 'priority': 100, 'idle_timeout': 5, 'command': 'delete_strict', 'actions': ('output(1)',), 'flags': 1, 'class': 'ofp_flow_mod', 'match': 'dl_src:12:34:56:78:01:02,dl_dst:12:34:56:78:02:02,dl_type:2048,in_port:2'})",
      "PendingReceive(dpid=2, controller_id='c2', fingerprint=OFFingerprint{'actions': ('output(2)',), 'data': DPFingerprint{'class': 'lldp'}, 'class': 'ofp_packet_out', 'in_port': 65535})",
      "PendingReceive(dpid=1, controller_id='c1', fingerprint=OFFingerprint{'hard_timeout': 0, 'out_port': 65535, 'priority': 100, 'idle_timeout': 5, 'command': 'add', 'actions': ('output(1)',), 'flags': 1, 'class': 'ofp_flow_mod', 'match': 'dl_src:12:34:56:78:01:02,dl_dst:12:34:56:78:02:02,dl_type:2048,in_port:2'})",
      "PendingReceive(dpid=1, controller_id='c1', fingerprint=OFFingerprint{'actions': ('output(1)',), 'data': DPFingerprint{'dl_type': 35138}, 'class': 'ofp_packet_out', 'in_port': 65535})",
      "PendingReceive(dpid=2, controller_id='c2', fingerprint=OFFingerprint{'hard_timeout': 0, 'out_port': 2, 'priority': 100, 'idle_timeout': 5, 'command': 'delete_strict', 'actions': ('output(2)',), 'flags': 1, 'class': 'ofp_flow_mod', 'match': 'dl_src:12:34:56:78:01:02,dl_dst:12:34:56:78:02:02,dl_type:2048,in_port:1'})"
    ],
    "6": [
      "PendingReceive(dpid=1, controller_id='c1', fingerprint=OFFingerprint{'actions': ('output(1)',), 'data': DPFingerprint{'dl_type': 35138}, 'class': 'ofp_packet_out', 'in_port': 65535})",
      "PendingReceive(dpid=1, controller_id='c1', fingerprint=OFFingerprint{'actions': ('output(2)',), 'data': DPFingerprint{'dl_type': 35138}, 'class': 'ofp_packet_out', 'in_port': 65535})",
      "PendingReceive(dpid=1, controller_id='c1', fingerprint=OFFingerprint{'class': 'ofp_echo_request'})"
    ],
    "7": [
      "PendingReceive(dpid=2, controller_id='c2', fingerprint=OFFingerprint{'actions': ('output(1)',), 'data': DPFingerprint{'class': 'lldp'}, 'class': 'ofp_packet_out', 'in_port': 65535})",
      "PendingReceive(dpid=2, controller_id='c2', fingerprint=OFFingerprint{'actions': ('output(1)',), 'data': DPFingerprint{'dl_type': 35138}, 'class': 'ofp_packet_out', 'in_port': 65535})",
      "PendingReceive(dpid=1, controller_id='c1', fingerprint=OFFingerprint{'actions': ('output(1)',), 'data': (), 'class': 'ofp_packet_out', 'in_port': 2})",
      "PendingReceive(dpid=2, controller_id='c2', fingerprint=OFFingerprint{'hard_timeout': 0, 'out_port': 65535, 'priority': 100, 'idle_timeout': 5, 'command': 'add', 'actions': ('output(1)',), 'flags': 1, 'class': 'ofp_flow_mod', 'match': 'dl_src:12:34:56:78:02:02,dl_dst:12:34:56:78:01:02,dl_type:2048,in_port:2'})",
      "PendingReceive(dpid=1, controller_id='c1', fingerprint=OFFingerprint{'hard_timeout': 0, 'out_port': 1, 'priority': 100, 'idle_timeout': 5, 'command': 'delete_strict', 'actions': ('output(1)',), 'flags': 1, 'class': 'ofp_flow_mod', 'match': 'dl_src:12:34:56:78:01:02,dl_dst:12:34:56:78:02:02,dl_type:2048,in_port:2'})",
      "PendingReceive(dpid=1, controller_id='c1', fingerprint=OFFingerprint{'hard_timeout': 0, 'out_port': 65535, 'priority': 100, 'idle_timeout': 5, 'command': 'add', 'actions': ('output(1)',), 'flags': 1, 'class': 'ofp_flow_mod', 'match': 'dl_src:12:34:56:78:01:02,dl_dst:12:34:56:78:02:02,dl_type:2048,in_port:2'})",
      "PendingReceive(dpid=1, controller_id='c1', fingerprint=OFFingerprint{'class': 'ofp_echo_request'})",
      "PendingReceive(dpid=1, controller_id='c1', fingerprint=OFFingerprint{'actions': ('output(2)',), 'data': DPFingerprint{'dl_type': 35138}, 'class': 'ofp_packet_out', 'in_port': 65535})",
      "PendingReceive(dpid=1, controller_id='c1', fingerprint=OFFingerprint{'actions': ('output(1)',), 'data': DPFingerprint{'class': 'lldp'}, 'class': 'ofp_packet_out', 'in_port': 65535})",
      "PendingReceive(dpid=2, controller_id='c2', fingerprint=OFFingerprint{'hard_timeout': 0, 'out_port': 1, 'priority': 100, 'idle_timeout': 5, 'command': 'delete_strict', 'actions': ('output(1)',), 'flags': 1, 'class': 'ofp_flow_mod', 'match': 'dl_src:12:34:56:78:02:02,dl_dst:12:34:56:78:01:02,dl_type:2048,in_port:2'})",
      "PendingReceive(dpid=1, controller_id='c1', fingerprint=OFFingerprint{'hard_timeout': 0, 'out_port': 65535, 'priority': 100, 'idle_timeout': 5, 'command': 'add', 'actions': ('output(2)',), 'flags': 1, 'class': 'ofp_flow_mod', 'match': 'dl_src:12:34:56:78:02:02,dl_dst:12:34:56:78:01:02,dl_type:2048,in_port:1'})",
      "PendingReceive(dpid=2, controller_id='c2', fingerprint=OFFingerprint{'actions': ('output(2)',), 'data': DPFingerprint{'class': 'lldp'}, 'class': 'ofp_packet_out', 'in_port': 65535})",
      "PendingReceive(dpid=2, controller_id='c2', fingerprint=OFFingerprint{'class': 'ofp_echo_request'})",
      "PendingReceive(dpid=1, controller_id='c1', fingerprint=OFFingerprint{'actions': ('output(2)',), 'data': DPFingerprint{'dl_dst': '12:34:56:78:01:02', 'nw_src': '123.123.2.2', 'dl_src': '12:34:56:78:02:02', 'nw_dst': '123.123.1.2'}, 'class': 'ofp_packet_out', 'in_port': 65535})",
      "PendingReceive(dpid=1, controller_id='c1', fingerprint=OFFingerprint{'actions': ('output(1)',), 'data': DPFingerprint{'dl_type': 35138}, 'class': 'ofp_packet_out', 'in_port': 65535})",
      "PendingReceive(dpid=1, controller_id='c1', fingerprint=OFFingerprint{'hard_timeout': 0, 'out_port': 2, 'priority': 100, 'idle_timeout': 5, 'command': 'delete_strict', 'actions': ('output(2)',), 'flags': 1, 'class': 'ofp_flow_mod', 'match': 'dl_src:12:34:56:78:02:02,dl_dst:12:34:56:78:01:02,dl_type:2048,in_port:1'})",
      "PendingReceive(dpid=2, controller_id='c2', fingerprint=OFFingerprint{'actions': ('output(2)',), 'data': DPFingerprint{'dl_type': 35138}, 'class': 'ofp_packet_out', 'in_port': 65535})",
      "PendingReceive(dpid=2, controller_id='c2', fingerprint=OFFingerprint{'actions': (), 'data': DPFingerprint{'dl_dst': '12:34:56:78:01:02', 'nw_src': '123.123.2.2', 'dl_src': '12:34:56:78:02:02', 'nw_dst': '123.123.1.2'}, 'class': 'ofp_packet_out', 'in_port': 65535})",
      "PendingReceive(dpid=1, controller_id='c1', fingerprint=OFFingerprint{'actions': ('output(2)',), 'data': DPFingerprint{'class': 'lldp'}, 'class': 'ofp_packet_out', 'in_port': 65535})",
      "PendingReceive(dpid=2, controller_id='c2', fingerprint=OFFingerprint{'hard_timeout': 0, 'out_port': 2, 'priority': 100, 'idle_timeout': 5, 'command': 'delete_strict', 'actions': ('output(2)',), 'flags': 1, 'class': 'ofp_flow_mod', 'match': 'dl_src:12:34:56:78:01:02,dl_dst:12:34:56:78:02:02,dl_type:2048,in_port:1'})"
    ],
    "8": [
      "PendingReceive(dpid=1, controller_id='c1', fingerprint=OFFingerprint{'actions': ('output(2)',), 'data': DPFingerprint{'dl_dst': '12:34:56:78:01:02', 'nw_src': '123.123.2.2', 'dl_src': '12:34:56:78:02:02', 'nw_dst': '123.123.1.2'}, 'class': 'ofp_packet_out', 'in_port': 65535})",
      "PendingReceive(dpid=2, controller_id='c2', fingerprint=OFFingerprint{'actions': ('output(1)',), 'data': DPFingerprint{'class': 'lldp'}, 'class': 'ofp_packet_out', 'in_port': 65535})",
      "PendingReceive(dpid=2, controller_id='c2', fingerprint=OFFingerprint{'actions': ('output(1)',), 'data': DPFingerprint{'dl_type': 35138}, 'class': 'ofp_packet_out', 'in_port': 65535})",
      "PendingReceive(dpid=1, controller_id='c1', fingerprint=OFFingerprint{'actions': ('output(1)',), 'data': (), 'class': 'ofp_packet_out', 'in_port': 2})",
      "PendingReceive(dpid=2, controller_id='c2', fingerprint=OFFingerprint{'hard_timeout': 0, 'out_port': 65535, 'priority': 100, 'idle_timeout': 5, 'command': 'add', 'actions': ('output(1)',), 'flags': 1, 'class': 'ofp_flow_mod', 'match': 'dl_src:12:34:56:78:02:02,dl_dst:12:34:56:78:01:02,dl_type:2048,in_port:2'})",
      "PendingReceive(dpid=1, controller_id='c1', fingerprint=OFFingerprint{'hard_timeout': 0, 'out_port': 1, 'priority': 100, 'idle_timeout': 5, 'command': 'delete_strict', 'actions': ('output(1)',), 'flags': 1, 'class': 'ofp_flow_mod', 'match': 'dl_src:12:34:56:78:01:02,dl_dst:12:34:56:78:02:02,dl_type:2048,in_port:2'})",
      "PendingReceive(dpid=1, controller_id='c1', fingerprint=OFFingerprint{'class': 'ofp_echo_request'})",
      "PendingReceive(dpid=1, controller_id='c1', fingerprint=OFFingerprint{'actions': ('output(2)',), 'data': DPFingerprint{'dl_type': 35138}, 'class': 'ofp_packet_out', 'in_port': 65535})",
      "PendingReceive(dpid=1, controller_id='c1', fingerprint=OFFingerprint{'actions': ('output(1)',), 'data': DPFingerprint{'class': 'lldp'}, 'class': 'ofp_packet_out', 'in_port': 65535})",
      "PendingReceive(dpid=2, controller_id='c2', fingerprint=OFFingerprint{'hard_timeout': 0, 'out_port': 1, 'priority': 100, 'idle_timeout': 5, 'command': 'delete_strict', 'actions': ('output(1)',), 'flags': 1, 'class': 'ofp_flow_mod', 'match': 'dl_src:12:34:56:78:02:02,dl_dst:12:34:56:78:01:02,dl_type:2048,in_port:2'})",
      "PendingReceive(dpid=1, controller_id='c1', fingerprint=OFFingerprint{'hard_timeout': 0, 'out_port': 65535, 'priority': 100, 'idle_timeout': 5, 'command': 'add', 'actions': ('output(2)',), 'flags': 1, 'class': 'ofp_flow_mod', 'match': 'dl_src:12:34:56:78:02:02,dl_dst:12:34:56:78:01:02,dl_type:2048,in_port:1'})",
      "PendingReceive(dpid=2, controller_id='c2', fingerprint=OFFingerprint{'actions': ('output(2)',), 'data': DPFingerprint{'class': 'lldp'}, 'class': 'ofp_packet_out', 'in_port': 65535})",
      "PendingReceive(dpid=2, controller_id='c2', fingerprint=OFFingerprint{'class': 'ofp_echo_request'})",
      "PendingReceive(dpid=2, controller_id='c2', fingerprint=OFFingerprint{'actions': ('output(2)',), 'data': DPFingerprint{'dl_type': 35138}, 'class': 'ofp_packet_out', 'in_port': 65535})",
      "PendingReceive(dpid=1, controller_id='c1', fingerprint=OFFingerprint{'hard_timeout': 0, 'out_port': 65535, 'priority': 100, 'idle_timeout': 5, 'command': 'add', 'actions': ('output(1)',), 'flags': 1, 'class': 'ofp_flow_mod', 'match': 'dl_src:12:34:56:78:01:02,dl_dst:12:34:56:78:02:02,dl_type:2048,in_port:2'})",
      "PendingReceive(dpid=1, controller_id='c1', fingerprint=OFFingerprint{'hard_timeout': 0, 'out_port': 2, 'priority': 100, 'idle_timeout': 5, 'command': 'delete_strict', 'actions': ('output(2)',), 'flags': 1, 'class': 'ofp_flow_mod', 'match': 'dl_src:12:34:56:78:02:02,dl_dst:12:34:56:78:01:02,dl_type:2048,in_port:1'})",
      "PendingReceive(dpid=1, controller_id='c1', fingerprint=OFFingerprint{'actions': ('output(1)',), 'data': DPFingerprint{'dl_type': 35138}, 'class': 'ofp_packet_out', 'in_port': 65535})",
      "PendingReceive(dpid=2, controller_id='c2', fingerprint=OFFingerprint{'actions': (), 'data': DPFingerprint{'dl_dst': '12:34:56:78:01:02', 'nw_src': '123.123.2.2', 'dl_src': '12:34:56:78:02:02', 'nw_dst': '123.123.1.2'}, 'class': 'ofp_packet_out', 'in_port': 65535})",
      "PendingReceive(dpid=1, controller_id='c1', fingerprint=OFFingerprint{'actions': ('output(2)',), 'data': DPFingerprint{'class': 'lldp'}, 'class': 'ofp_packet_out', 'in_port': 65535})",
      "PendingReceive(dpid=2, controller_id='c2', fingerprint=OFFingerprint{'hard_timeout': 0, 'out_port': 2, 'priority': 100, 'idle_timeout': 5, 'command': 'delete_strict', 'actions': ('output(2)',), 'flags': 1, 'class': 'ofp_flow_mod', 'match': 'dl_src:12:34:56:78:01:02,dl_dst:12:34:56:78:02:02,dl_type:2048,in_port:1'})"
    ],
    "9": [
      "PendingReceive(dpid=1, controller_id='c1', fingerprint=OFFingerprint{'actions': ('output(1)',), 'data': DPFingerprint{'dl_type': 35138}, 'class': 'ofp_packet_out', 'in_port': 65535})",
      "PendingReceive(dpid=1, controller_id='c1', fingerprint=OFFingerprint{'actions': ('output(2)',), 'data': DPFingerprint{'dl_type': 35138}, 'class': 'ofp_packet_out', 'in_port': 65535})",
      "PendingReceive(dpid=1, controller_id='c1', fingerprint=OFFingerprint{'class': 'ofp_echo_request'})"
    ]
  },
  "config": "SimulationConfig(controller_configs=[ControllerConfig(start_cmd=' onos stop; zk stop ; cassandra stop; echo \"sleeping for 5sec\"; sleep 5; /mnt/ahassany/vagrant_onosdev/scripts/conf_setup.sh 2 ; zk start ; cassandra start; echo \"sleeping for 10sec\"; sleep 10 ; onos start ; echo \"sleeping for 40 secs\"; sleep 40 ; onos stop; sleep 10; cassandra cleandb; onos start; sleep 40', label='c1', address='192.168.56.11', cwd='/mnt/ahassany/vagrant_onosdev', controller_type='onos', kill_cmd=' ssh onosdev1 \"cd ONOS; ./start-onos.sh stop\"; echo \"killed\"; sleep 5', restart_cmd='ssh onosdev1 \"cd ONOS; ./start-onos.sh start\"; echo \"restarted\"; sleep 20'), ControllerConfig(start_cmd='echo \"DUMMY COMMAND\"; sleep 1', label='c2', address='192.168.56.12', cwd='/mnt/ahassany/vagrant_onosdev', controller_type='onos', kill_cmd=' ssh onosdev2 \"cd ONOS; ./start-onos.sh stop\"; echo \"killed\"; sleep 5', restart_cmd='ssh onosdev2 \"cd ONOS; ./start-onos.sh start\"; echo \"restarted\"; sleep 20')],\n                 topology_class=MeshTopology,\n                 topology_params=\"num_switches=2\",\n                 patch_panel_class=BufferedPatchPanel,\n                 multiplex_sockets=False,\n                 kill_controllers_on_exit=False)",
  "early_internal_events": {
    "10": [],
    "11": [],
    "12": [],
    "13": [],
    "14": [],
    "15": [],
    "5": [],
    "6": [],
    "7": [],
    "8": [],
    "9": []
  },
  "initial_verification_runs_needed": 3,
  "iteration_size": {
    "0": 30,
    "1": 14,
    "2": 7,
    "3": 3,
    "4": 2
  },
  "matched_events": {
    "10": {
      "ConnectToControllers": 1,
      "ControlMessageReceive": 88,
      "ControlMessageSend": 55,
      "DataplanePermit": 186,
      "TrafficInjection": 3
    },
    "11": {
      "ConnectToControllers": 1,
      "ControlMessageReceive": 158,
      "ControlMessageSend": 90,
      "DataplanePermit": 186,
      "TrafficInjection": 2
    },
    "12": {
      "ConnectToControllers": 1,
      "ControlMessageReceive": 158,
      "ControlMessageSend": 90,
      "DataplanePermit": 186,
      "TrafficInjection": 2
    },
    "13": {
      "ConnectToControllers": 1,
      "ControlMessageReceive": 158,
      "ControlMessageSend": 90,
      "DataplanePermit": 186,
      "TrafficInjection": 2
    },
    "14": {
      "ConnectToControllers": 1,
      "ControlMessageReceive": 86,
      "ControlMessageSend": 53,
      "DataplanePermit": 186,
      "TrafficInjection": 2
    },
    "15": {
      "ConnectToControllers": 1,
      "ControlMessageReceive": 88,
      "ControlMessageSend": 53,
      "DataplanePermit": 186,
      "TrafficInjection": 1
    },
    "5": {
      "ConnectToControllers": 1,
      "ControlMessageReceive": 186,
      "ControlMessageSend": 97,
      "ControllerFailure": 3,
      "ControllerRecovery": 3,
      "DataplanePermit": 186,
      "TrafficInjection": 8
    },
    "6": {
      "ConnectToControllers": 1,
      "ControlMessageReceive": 88,
      "ControlMessageSend": 58,
      "ControllerFailure": 3,
      "ControllerRecovery": 3,
      "DataplanePermit": 186,
      "TrafficInjection": 8
    },
    "7": {
      "ConnectToControllers": 1,
      "ControlMessageReceive": 179,
      "ControlMessageSend": 92,
      "ControllerFailure": 1,
      "ControllerRecovery": 1,
      "DataplanePermit": 186,
      "TrafficInjection": 5
    },
    "8": {
      "ConnectToControllers": 1,
      "ControlMessageReceive": 179,
      "ControlMessageSend": 92,
      "ControllerFailure": 1,
      "ControllerRecovery": 1,
      "DataplanePermit": 186,
      "TrafficInjection": 5
    },
    "9": {
      "ConnectToControllers": 1,
      "ControlMessageReceive": 88,
      "ControlMessageSend": 57,
      "ControllerFailure": 1,
      "ControllerRecovery": 1,
      "DataplanePermit": 186,
      "TrafficInjection": 5
    }
  },
  "new_internal_events": {
    "10": [],
    "11": [],
    "12": [],
    "13": [],
    "14": [],
    "15": [],
    "5": [],
    "6": [],
    "7": [],
    "8": [],
    "9": []
  },
  "original_duration_seconds": 297.2985088825226,
  "peeker": false,
  "prune_duration_seconds": 0,
  "prune_start_epoch": 1391209165.872625,
  "replay_duration_seconds": 2190.0839989185333,
  "replay_end_epoch": 1391209165.872387,
  "replay_start_epoch": 1391206975.788388,
  "subsequence_id": 0,
  "timed_out_events": {
    "10": {
      "ControlMessageReceive": 177,
      "ControlMessageSend": 106
    },
    "11": {
      "ControlMessageReceive": 107,
      "ControlMessageSend": 71
    },
    "12": {
      "ControlMessageReceive": 107,
      "ControlMessageSend": 71
    },
    "13": {
      "ControlMessageReceive": 107,
      "ControlMessageSend": 71
    },
    "14": {
      "ControlMessageReceive": 179,
      "ControlMessageSend": 108
    },
    "15": {
      "ControlMessageReceive": 177,
      "ControlMessageSend": 108
    },
    "5": {
      "ControlMessageReceive": 79,
      "ControlMessageSend": 64
    },
    "6": {
      "ControlMessageReceive": 177,
      "ControlMessageSend": 103
    },
    "7": {
      "ControlMessageReceive": 86,
      "ControlMessageSend": 69
    },
    "8": {
      "ControlMessageReceive": 86,
      "ControlMessageSend": 69
    },
    "9": {
      "ControlMessageReceive": 177,
      "ControlMessageSend": 104
    }
  },
  "total_events": 653,
  "total_inputs": 39,
  "total_inputs_replayed": 181,
  "total_replays": 15,
  "violation_found_in_run": {
    "0": 2,
    "1": 1,
    "2": 1,
    "3": 1
  }
}