{"fingerprint": ["ConnectToControllers"], "dependent_labels": [], "time": [1398214555, 873357], "timeout_disallowed": true, "prunable": false, "class": "ConnectToControllers", "timed_out": false, "round": 0, "label": "e1"}
{"class": "ControlChannelBlock", "time": [1398214555, 886499], "controller_id": "c1", "fingerprint": ["ControlChannelBlock", 7, "c1"], "timed_out": false, "dependent_labels": ["e136"], "dpid": 7, "label": "e2", "round": 1, "prunable": true}
{"class": "ControlChannelBlock", "time": [1398214555, 886688], "controller_id": "c1", "fingerprint": ["ControlChannelBlock", 8, "c1"], "timed_out": false, "dependent_labels": ["e61"], "dpid": 8, "label": "e3", "round": 1, "prunable": true}
{"pass_through_sends": false, "timeout_disallowed": false, "time": [1398214555, 887049], "controller_id": "c1", "fingerprint": ["ControlMessageReceive", {"class": "ofp_hello"}, 9, ["c", "1"]], "timed_out": false, "dependent_labels": [], "ignore_whitelisted_packets": false, "dpid": 9, "label": "i4", "class": "ControlMessageReceive", "b64_packet": "AQAACAAAABE=", "round": 1, "prunable": true}
{"pass_through_sends": false, "timeout_disallowed": false, "time": [1398214555, 887420], "controller_id": "c1", "fingerprint": ["ControlMessageReceive", {"class": "ofp_hello"}, 20, ["c", "1"]], "timed_out": false, "dependent_labels": [], "ignore_whitelisted_packets": false, "dpid": 20, "label": "i5", "class": "ControlMessageReceive", "b64_packet": "AQAACAAAACc=", "round": 1, "prunable": true}
{"pass_through_sends": false, "timeout_disallowed": false, "time": [1398214555, 887708], "controller_id": "c1", "fingerprint": ["ControlMessageReceive", {"class": "ofp_hello"}, 7, ["c", "1"]], "timed_out": false, "dependent_labels": [], "ignore_whitelisted_packets": false, "dpid": 7, "label": "i6", "class": "ControlMessageReceive", "b64_packet": "AQAACAAAAA0=", "round": 1, "prunable": true}
{"pass_through_sends": false, "timeout_disallowed": false, "time": [1398214555, 887963], "controller_id": "c1", "fingerprint": ["ControlMessageReceive", {"class": "ofp_hello"}, 1, ["c", "1"]], "timed_out": false, "dependent_labels": [], "ignore_whitelisted_packets": false, "dpid": 1, "label": "i7", "class": "ControlMessageReceive", "b64_packet": "AQAACAAAAAE=", "round": 1, "prunable": true}
{"pass_through_sends": false, "timeout_disallowed": false, "time": [1398214555, 888220], "controller_id": "c1", "fingerprint": ["ControlMessageReceive", {"class": "ofp_hello"}, 12, ["c", "1"]], "timed_out": false, "dependent_labels": [], "ignore_whitelisted_packets": false, "dpid": 12, "label": "i8", "class": "ControlMessageReceive", "b64_packet": "AQAACAAAABc=", "round": 1, "prunable": true}
{"pass_through_sends": false, "timeout_disallowed": false, "time": [1398214555, 888565], "controller_id": "c1", "fingerprint": ["ControlMessageReceive", {"class": "ofp_hello"}, 19, ["c", "1"]], "timed_out": false, "dependent_labels": [], "ignore_whitelisted_packets": false, "dpid": 19, "label": "i9", "class": "ControlMessageReceive", "b64_packet": "AQAACAAAACU=", "round": 1, "prunable": true}
{"pass_through_sends": false, "timeout_disallowed": false, "time": [1398214555, 888824], "controller_id": "c1", "fingerprint": ["ControlMessageReceive", {"class": "ofp_hello"}, 13, ["c", "1"]], "timed_out": false, "dependent_labels": [], "ignore_whitelisted_packets": false, "dpid": 13, "label": "i10", "class": "ControlMessageReceive", "b64_packet": "AQAACAAAABk=", "round": 1, "prunable": true}
{"pass_through_sends": false, "timeout_disallowed": false, "time": [1398214555, 889077], "controller_id": "c1", "fingerprint": ["ControlMessageReceive", {"class": "ofp_hello"}, 18, ["c", "1"]], "timed_out": false, "dependent_labels": [], "ignore_whitelisted_packets": false, "dpid": 18, "label": "i11", "class": "ControlMessageReceive", "b64_packet": "AQAACAAAACM=", "round": 1, "prunable": true}
{"pass_through_sends": false, "timeout_disallowed": false, "time": [1398214555, 889330], "controller_id": "c1", "fingerprint": ["ControlMessageReceive", {"class": "ofp_hello"}, 4, ["c", "1"]], "timed_out": false, "dependent_labels": [], "ignore_whitelisted_packets": false, "dpid": 4, "label": "i12", "class": "ControlMessageReceive", "b64_packet": "AQAACAAAAAc=", "round": 1, "prunable": true}
{"pass_through_sends": false, "timeout_disallowed": false, "time": [1398214555, 889606], "controller_id": "c1", "fingerprint": ["ControlMessageReceive", {"class": "ofp_hello"}, 11, ["c", "1"]], "timed_out": false, "dependent_labels": [], "ignore_whitelisted_packets": false, "dpid": 11, "label": "i13", "class": "ControlMessageReceive", "b64_packet": "AQAACAAAABU=", "round": 1, "prunable": true}
{"pass_through_sends": false, "timeout_disallowed": false, "time": [1398214555, 889922], "controller_id": "c1", "fingerprint": ["ControlMessageReceive", {"class": "ofp_hello"}, 14, ["c", "1"]], "timed_out": false, "dependent_labels": [], "ignore_whitelisted_packets": false, "dpid": 14, "label": "i14", "class": "ControlMessageReceive", "b64_packet": "AQAACAAAABs=", "round": 1, "prunable": true}
{"pass_through_sends": false, "timeout_disallowed": false, "time": [1398214555, 890177], "controller_id": "c1", "fingerprint": ["ControlMessageReceive", {"class": "ofp_hello"}, 5, ["c", "1"]], "timed_out": false, "dependent_labels": [], "ignore_whitelisted_packets": false, "dpid": 5, "label": "i15", "class": "ControlMessageReceive", "b64_packet": "AQAACAAAAAk=", "round": 1, "prunable": true}
{"pass_through_sends": false, "timeout_disallowed": false, "time": [1398214555, 890430], "controller_id": "c1", "fingerprint": ["ControlMessageReceive", {"class": "ofp_hello"}, 16, ["c", "1"]], "timed_out": false, "dependent_labels": [], "ignore_whitelisted_packets": false, "dpid": 16, "label": "i16", "class": "ControlMessageReceive", "b64_packet": "AQAACAAAAB8=", "round": 1, "prunable": true}
{"pass_through_sends": false, "timeout_disallowed": false, "time": [1398214555, 890686], "controller_id": "c1", "fingerprint": ["ControlMessageReceive", {"class": "ofp_hello"}, 10, ["c", "1"]], "timed_out": false, "dependent_labels": [], "ignore_whitelisted_packets": false, "dpid": 10, "label": "i17", "class": "ControlMessageReceive", "b64_packet": "AQAACAAAABM=", "round": 1, "prunable": true}
{"pass_through_sends": false, "timeout_disallowed": false, "time": [1398214555, 890935], "controller_id": "c1", "fingerprint": ["ControlMessageReceive", {"class": "ofp_hello"}, 17, ["c", "1"]], "timed_out": false, "dependent_labels": [], "ignore_whitelisted_packets": false, "dpid": 17, "label": "i18", "class": "ControlMessageReceive", "b64_packet": "AQAACAAAACE=", "round": 1, "prunable": true}
{"pass_through_sends": false, "timeout_disallowed": false, "time": [1398214555, 891186], "controller_id": "c1", "fingerprint": ["ControlMessageReceive", {"class": "ofp_hello"}, 3, ["c", "1"]], "timed_out": false, "dependent_labels": [], "ignore_whitelisted_packets": false, "dpid": 3, "label": "i19", "class": "ControlMessageReceive", "b64_packet": "AQAACAAAAAU=", "round": 1, "prunable": true}
{"pass_through_sends": false, "timeout_disallowed": false, "time": [1398214555, 891437], "controller_id": "c1", "fingerprint": ["ControlMessageReceive", {"class": "ofp_hello"}, 6, ["c", "1"]], "timed_out": false, "dependent_labels": [], "ignore_whitelisted_packets": false, "dpid": 6, "label": "i20", "class": "ControlMessageReceive", "b64_packet": "AQAACAAAAAs=", "round": 1, "prunable": true}
{"pass_through_sends": false, "timeout_disallowed": false, "time": [1398214555, 891690], "controller_id": "c1", "fingerprint": ["ControlMessageReceive", {"class": "ofp_hello"}, 8, ["c", "1"]], "timed_out": false, "dependent_labels": [], "ignore_whitelisted_packets": false, "dpid": 8, "label": "i21", "class": "ControlMessageReceive", "b64_packet": "AQAACAAAAA8=", "round": 1, "prunable": true}
{"pass_through_sends": false, "timeout_disallowed": false, "time": [1398214555, 891943], "controller_id": "c1", "fingerprint": ["ControlMessageReceive", {"class": "ofp_hello"}, 15, ["c", "1"]], "timed_out": false, "dependent_labels": [], "ignore_whitelisted_packets": false, "dpid": 15, "label": "i22", "class": "ControlMessageReceive", "b64_packet": "AQAACAAAAB0=", "round": 1, "prunable": true}
{"pass_through_sends": false, "timeout_disallowed": false, "time": [1398214555, 892199], "controller_id": "c1", "fingerprint": ["ControlMessageReceive", {"class": "ofp_hello"}, 2, ["c", "1"]], "timed_out": false, "dependent_labels": [], "ignore_whitelisted_packets": false, "dpid": 2, "label": "i23", "class": "ControlMessageReceive", "b64_packet": "AQAACAAAAAM=", "round": 1, "prunable": true}
{"pass_through_sends": false, "timeout_disallowed": false, "time": [1398214555, 892467], "controller_id": "c1", "fingerprint": ["ControlMessageSend", {"class": "ofp_hello"}, 9, ["c", "1"]], "timed_out": false, "dependent_labels": [], "ignore_whitelisted_packets": false, "dpid": 9, "label": "i24", "class": "ControlMessageSend", "b64_packet": "AQAACAAAAAE=", "round": 1, "prunable": true}
{"pass_through_sends": false, "timeout_disallowed": false, "time": [1398214555, 892650], "controller_id": "c1", "fingerprint": ["ControlMessageSend", {"class": "ofp_hello"}, 20, ["c", "1"]], "timed_out": false, "dependent_labels": [], "ignore_whitelisted_packets": false, "dpid": 20, "label": "i25", "class": "ControlMessageSend", "b64_packet": "AQAACAAAAAM=", "round": 1, "prunable": true}
{"pass_through_sends": false, "timeout_disallowed": false, "time": [1398214555, 892828], "controller_id": "c1", "fingerprint": ["ControlMessageSend", {"class": "ofp_hello"}, 7, ["c", "1"]], "timed_out": false, "dependent_labels": [], "ignore_whitelisted_packets": false, "dpid": 7, "label": "i26", "class": "ControlMessageSend", "b64_packet": "AQAACAAAAAU=", "round": 1, "prunable": true}
{"pass_through_sends": false, "timeout_disallowed": false, "time": [1398214555, 893010], "controller_id": "c1", "fingerprint": ["ControlMessageSend", {"class": "ofp_hello"}, 1, ["c", "1"]], "timed_out": false, "dependent_labels": [], "ignore_whitelisted_packets": false, "dpid": 1, "label": "i27", "class": "ControlMessageSend", "b64_packet": "AQAACAAAAAc=", "round": 1, "prunable": true}
{"pass_through_sends": false, "timeout_disallowed": false, "time": [1398214555, 893182], "controller_id": "c1", "fingerprint": ["ControlMessageSend", {"class": "ofp_hello"}, 12, ["c", "1"]], "timed_out": false, "dependent_labels": [], "ignore_whitelisted_packets": false, "dpid": 12, "label": "i28", "class": "ControlMessageSend", "b64_packet": "AQAACAAAAAk=", "round": 1, "prunable": true}
{"pass_through_sends": false, "timeout_disallowed": false, "time": [1398214555, 893352], "controller_id": "c1", "fingerprint": ["ControlMessageSend", {"class": "ofp_hello"}, 19, ["c", "1"]], "timed_out": false, "dependent_labels": [], "ignore_whitelisted_packets": false, "dpid": 19, "label": "i29", "class": "ControlMessageSend", "b64_packet": "AQAACAAAAAs=", "round": 1, "prunable": true}
{"pass_through_sends": false, "timeout_disallowed": false, "time": [1398214555, 893540], "controller_id": "c1", "fingerprint": ["ControlMessageSend", {"class": "ofp_hello"}, 13, ["c", "1"]], "timed_out": false, "dependent_labels": [], "ignore_whitelisted_packets": false, "dpid": 13, "label": "i30", "class": "ControlMessageSend", "b64_packet": "AQAACAAAAA0=", "round": 1, "prunable": true}
{"pass_through_sends": false, "timeout_disallowed": false, "time": [1398214555, 893722], "controller_id": "c1", "fingerprint": ["ControlMessageSend", {"class": "ofp_hello"}, 18, ["c", "1"]], "timed_out": false, "dependent_labels": [], "ignore_whitelisted_packets": false, "dpid": 18, "label": "i31", "class": "ControlMessageSend", "b64_packet": "AQAACAAAAA8=", "round": 1, "prunable": true}
{"pass_through_sends": false, "timeout_disallowed": false, "time": [1398214555, 893887], "controller_id": "c1", "fingerprint": ["ControlMessageSend", {"class": "ofp_hello"}, 4, ["c", "1"]], "timed_out": false, "dependent_labels": [], "ignore_whitelisted_packets": false, "dpid": 4, "label": "i32", "class": "ControlMessageSend", "b64_packet": "AQAACAAAABE=", "round": 1, "prunable": true}
{"pass_through_sends": false, "timeout_disallowed": false, "time": [1398214555, 894057], "controller_id": "c1", "fingerprint": ["ControlMessageSend", {"class": "ofp_hello"}, 11, ["c", "1"]], "timed_out": false, "dependent_labels": [], "ignore_whitelisted_packets": false, "dpid": 11, "label": "i33", "class": "ControlMessageSend", "b64_packet": "AQAACAAAABM=", "round": 1, "prunable": true}
{"pass_through_sends": false, "timeout_disallowed": false, "time": [1398214555, 894263], "controller_id": "c1", "fingerprint": ["ControlMessageSend", {"class": "ofp_hello"}, 14, ["c", "1"]], "timed_out": false, "dependent_labels": [], "ignore_whitelisted_packets": false, "dpid": 14, "label": "i34", "class": "ControlMessageSend", "b64_packet": "AQAACAAAABU=", "round": 1, "prunable": true}
{"pass_through_sends": false, "timeout_disallowed": false, "time": [1398214555, 894433], "controller_id": "c1", "fingerprint": ["ControlMessageSend", {"class": "ofp_hello"}, 5, ["c", "1"]], "timed_out": false, "dependent_labels": [], "ignore_whitelisted_packets": false, "dpid": 5, "label": "i35", "class": "ControlMessageSend", "b64_packet": "AQAACAAAABc=", "round": 1, "prunable": true}
{"pass_through_sends": false, "timeout_disallowed": false, "time": [1398214555, 894603], "controller_id": "c1", "fingerprint": ["ControlMessageSend", {"class": "ofp_hello"}, 16, ["c", "1"]], "timed_out": false, "dependent_labels": [], "ignore_whitelisted_packets": false, "dpid": 16, "label": "i36", "class": "ControlMessageSend", "b64_packet": "AQAACAAAABk=", "round": 1, "prunable": true}
{"pass_through_sends": false, "timeout_disallowed": false, "time": [1398214555, 894771], "controller_id": "c1", "fingerprint": ["ControlMessageSend", {"class": "ofp_hello"}, 10, ["c", "1"]], "timed_out": false, "dependent_labels": [], "ignore_whitelisted_packets": false, "dpid": 10, "label": "i37", "class": "ControlMessageSend", "b64_packet": "AQAACAAAABs=", "round": 1, "prunable": true}
{"pass_through_sends": false, "timeout_disallowed": false, "time": [1398214555, 894964], "controller_id": "c1", "fingerprint": ["ControlMessageSend", {"class": "ofp_hello"}, 17, ["c", "1"]], "timed_out": false, "dependent_labels": [], "ignore_whitelisted_packets": false, "dpid": 17, "label": "i38", "class": "ControlMessageSend", "b64_packet": "AQAACAAAAB0=", "round": 1, "prunable": true}
{"pass_through_sends": false, "timeout_disallowed": false, "time": [1398214555, 895133], "controller_id": "c1", "fingerprint": ["ControlMessageSend", {"class": "ofp_hello"}, 3, ["c", "1"]], "timed_out": false, "dependent_labels": [], "ignore_whitelisted_packets": false, "dpid": 3, "label": "i39", "class": "ControlMessageSend", "b64_packet": "AQAACAAAAB8=", "round": 1, "prunable": true}
{"pass_through_sends": false, "timeout_disallowed": false, "time": [1398214555, 895303], "controller_id": "c1", "fingerprint": ["ControlMessageSend", {"class": "ofp_hello"}, 6, ["c", "1"]], "timed_out": false, "dependent_labels": [], "ignore_whitelisted_packets": false, "dpid": 6, "label": "i40", "class": "ControlMessageSend", "b64_packet": "AQAACAAAACE=", "round": 1, "prunable": true}
{"pass_through_sends": false, "timeout_disallowed": false, "time": [1398214555, 895474], "controller_id": "c1", "fingerprint": ["ControlMessageSend", {"class": "ofp_hello"}, 8, ["c", "1"]], "timed_out": false, "dependent_labels": [], "ignore_whitelisted_packets": false, "dpid": 8, "label": "i41", "class": "ControlMessageSend", "b64_packet": "AQAACAAAACM=", "round": 1, "prunable": true}
{"pass_through_sends": false, "timeout_disallowed": false, "time": [1398214555, 895647], "controller_id": "c1", "fingerprint": ["ControlMessageSend", {"class": "ofp_hello"}, 15, ["c", "1"]], "timed_out": false, "dependent_labels": [], "ignore_whitelisted_packets": false, "dpid": 15, "label": "i42", "class": "ControlMessageSend", "b64_packet": "AQAACAAAACU=", "round": 1, "prunable": true}
{"pass_through_sends": false, "timeout_disallowed": false, "time": [1398214555, 895819], "controller_id": "c1", "fingerprint": ["ControlMessageSend", {"class": "ofp_hello"}, 2, ["c", "1"]], "timed_out": false, "dependent_labels": [], "ignore_whitelisted_packets": false, "dpid": 2, "label": "i43", "class": "ControlMessageSend", "b64_packet": "AQAACAAAACc=", "round": 1, "prunable": true}
{"end_port_no": 4, "dependent_labels": ["e122"], "start_dpid": 20, "fingerprint": ["LinkFailure", 20, 4, 16, 4], "timed_out": false, "label": "e44", "start_port_no": 4, "end_dpid": 16, "time": [1398214555, 896226], "class": "LinkFailure", "round": 1, "prunable": true}
{"end_port_no": 1, "dependent_labels": ["e124"], "start_dpid": 5, "fingerprint": ["LinkFailure", 5, 4, 14, 1], "timed_out": false, "label": "e45", "start_port_no": 4, "end_dpid": 14, "time": [1398214555, 896651], "class": "LinkFailure", "round": 1, "prunable": true}
{"end_port_no": 2, "dependent_labels": ["e123"], "start_dpid": 6, "fingerprint": ["LinkFailure", 6, 3, 13, 2], "timed_out": false, "label": "e46", "start_port_no": 3, "end_dpid": 13, "time": [1398214555, 896926], "class": "LinkFailure", "round": 1, "prunable": true}
{"end_port_no": 1, "dependent_labels": ["e260"], "start_dpid": 9, "fingerprint": ["LinkFailure", 9, 3, 17, 1], "timed_out": false, "label": "e47", "start_port_no": 3, "end_dpid": 17, "time": [1398214555, 897295], "class": "LinkFailure", "round": 1, "prunable": true}
{"timeout_disallowed": false, "fingerprint": ["DataplanePermit", {"dl_dst": "00:00:00:01:00:01", "nw_src": "123.1.0.1", "dl_src": "00:00:00:01:00:01", "nw_dst": "123.1.0.1"}, 5, "00:00:00:01:00:01"], "timed_out": true, "label": "i58", "passive": true, "dependent_labels": [], "time": [1398214556, 2827], "class": "DataplanePermit", "round": 2, "prunable": true}
{"timeout_disallowed": false, "fingerprint": ["DataplanePermit", {"dl_dst": "00:00:00:00:00:02", "nw_src": "123.0.0.2", "dl_src": "00:00:00:00:00:02", "nw_dst": "123.0.0.2"}, 2, "00:00:00:00:00:02"], "timed_out": true, "label": "i59", "passive": true, "dependent_labels": [], "time": [1398214556, 4000], "class": "DataplanePermit", "round": 2, "prunable": true}
{"timeout_disallowed": false, "fingerprint": ["DataplanePermit", {"dl_dst": "00:00:00:00:01:01", "nw_src": "123.0.1.1", "dl_src": "00:00:00:00:01:01", "nw_dst": "123.0.1.1"}, 3, "00:00:00:00:01:01"], "timed_out": true, "label": "i60", "passive": true, "dependent_labels": [], "time": [1398214556, 4989], "class": "DataplanePermit", "round": 2, "prunable": true}
{"class": "ControlChannelUnblock", "time": [1398214556, 6002], "controller_id": "c1", "fingerprint": ["ControlChannelUnblock", 8, "c1"], "timed_out": false, "dependent_labels": [], "dpid": 8, "label": "e61", "round": 2, "prunable": true}
{"pass_through_sends": false, "timeout_disallowed": false, "time": [1398214556, 6269], "controller_id": "c1", "fingerprint": ["ControlMessageReceive", {"class": "ofp_features_request"}, 9, ["c", "1"]], "timed_out": false, "dependent_labels": [], "ignore_whitelisted_packets": false, "dpid": 9, "label": "i62", "class": "ControlMessageReceive", "b64_packet": "AQUACAAAAD8=", "round": 2, "prunable": true}
{"pass_through_sends": false, "timeout_disallowed": false, "time": [1398214556, 6773], "controller_id": "c1", "fingerprint": ["ControlMessageReceive", {"class": "ofp_features_request"}, 20, ["c", "1"]], "timed_out": false, "dependent_labels": [], "ignore_whitelisted_packets": false, "dpid": 20, "label": "i63", "class": "ControlMessageReceive", "b64_packet": "AQUACAAAACk=", "round": 2, "prunable": true}
{"pass_through_sends": false, "timeout_disallowed": false, "time": [1398214556, 7222], "controller_id": "c1", "fingerprint": ["ControlMessageReceive", {"class": "ofp_features_request"}, 1, ["c", "1"]], "timed_out": false, "dependent_labels": [], "ignore_whitelisted_packets": false, "dpid": 1, "label": "i64", "class": "ControlMessageReceive", "b64_packet": "AQUACAAAAEs=", "round": 2, "prunable": true}
{"pass_through_sends": false, "timeout_disallowed": false, "time": [1398214556, 7669], "controller_id": "c1", "fingerprint": ["ControlMessageReceive", {"class": "ofp_features_request"}, 12, ["c", "1"]], "timed_out": false, "dependent_labels": [], "ignore_whitelisted_packets": false, "dpid": 12, "label": "i65", "class": "ControlMessageReceive", "b64_packet": "AQUACAAAADk=", "round": 2, "prunable": true}
{"pass_through_sends": false, "timeout_disallowed": false, "time": [1398214556, 8142], "controller_id": "c1", "fingerprint": ["ControlMessageReceive", {"class": "ofp_features_request"}, 19, ["c", "1"]], "timed_out": false, "dependent_labels": [], "ignore_whitelisted_packets": false, "dpid": 19, "label": "i66", "class": "ControlMessageReceive", "b64_packet": "AQUACAAAACs=", "round": 2, "prunable": true}
{"pass_through_sends": false, "timeout_disallowed": false, "time": [1398214556, 8635], "controller_id": "c1", "fingerprint": ["ControlMessageReceive", {"class": "ofp_features_request"}, 13, ["c", "1"]], "timed_out": false, "dependent_labels": [], "ignore_whitelisted_packets": false, "dpid": 13, "label": "i67", "class": "ControlMessageReceive", "b64_packet": "AQUACAAAADc=", "round": 2, "prunable": true}
{"pass_through_sends": false, "timeout_disallowed": false, "time": [1398214556, 9107], "controller_id": "c1", "fingerprint": ["ControlMessageReceive", {"class": "ofp_features_request"}, 18, ["c", "1"]], "timed_out": false, "dependent_labels": [], "ignore_whitelisted_packets": false, "dpid": 18, "label": "i68", "class": "ControlMessageReceive", "b64_packet": "AQUACAAAAC0=", "round": 2, "prunable": true}
{"pass_through_sends": false, "timeout_disallowed": false, "time": [1398214556, 9555], "controller_id": "c1", "fingerprint": ["ControlMessageReceive", {"class": "ofp_features_request"}, 4, ["c", "1"]], "timed_out": false, "dependent_labels": [], "ignore_whitelisted_packets": false, "dpid": 4, "label": "i69", "class": "ControlMessageReceive", "b64_packet": "AQUACAAAAEU=", "round": 2, "prunable": true}
{"pass_through_sends": false, "timeout_disallowed": false, "time": [1398214556, 9932], "controller_id": "c1", "fingerprint": ["ControlMessageReceive", {"class": "ofp_features_request"}, 11, ["c", "1"]], "timed_out": false, "dependent_labels": [], "ignore_whitelisted_packets": false, "dpid": 11, "label": "i70", "class": "ControlMessageReceive", "b64_packet": "AQUACAAAADs=", "round": 2, "prunable": true}
{"pass_through_sends": false, "timeout_disallowed": false, "time": [1398214556, 10219], "controller_id": "c1", "fingerprint": ["ControlMessageReceive", {"class": "ofp_features_request"}, 14, ["c", "1"]], "timed_out": false, "dependent_labels": [], "ignore_whitelisted_packets": false, "dpid": 14, "label": "i71", "class": "ControlMessageReceive", "b64_packet": "AQUACAAAADU=", "round": 2, "prunable": true}
{"pass_through_sends": false, "timeout_disallowed": false, "time": [1398214556, 10490], "controller_id": "c1", "fingerprint": ["ControlMessageReceive", {"class": "ofp_features_request"}, 5, ["c", "1"]], "timed_out": false, "dependent_labels": [], "ignore_whitelisted_packets": false, "dpid": 5, "label": "i72", "class": "ControlMessageReceive", "b64_packet": "AQUACAAAAEM=", "round": 2, "prunable": true}
{"pass_through_sends": false, "timeout_disallowed": false, "time": [1398214556, 10754], "controller_id": "c1", "fingerprint": ["ControlMessageReceive", {"class": "ofp_features_request"}, 16, ["c", "1"]], "timed_out": false, "dependent_labels": [], "ignore_whitelisted_packets": false, "dpid": 16, "label": "i73", "class": "ControlMessageReceive", "b64_packet": "AQUACAAAADE=", "round": 2, "prunable": true}
{"pass_through_sends": false, "timeout_disallowed": false, "time": [1398214556, 11039], "controller_id": "c1", "fingerprint": ["ControlMessageReceive", {"class": "ofp_features_request"}, 10, ["c", "1"]], "timed_out": false, "dependent_labels": [], "ignore_whitelisted_packets": false, "dpid": 10, "label": "i74", "class": "ControlMessageReceive", "b64_packet": "AQUACAAAAD0=", "round": 2, "prunable": true}
{"pass_through_sends": false, "timeout_disallowed": false, "time": [1398214556, 11325], "controller_id": "c1", "fingerprint": ["ControlMessageReceive", {"class": "ofp_features_request"}, 17, ["c", "1"]], "timed_out": false, "dependent_labels": [], "ignore_whitelisted_packets": false, "dpid": 17, "label": "i75", "class": "ControlMessageReceive", "b64_packet": "AQUACAAAAC8=", "round": 2, "prunable": true}
{"pass_through_sends": false, "timeout_disallowed": false, "time": [1398214556, 11596], "controller_id": "c1", "fingerprint": ["ControlMessageReceive", {"class": "ofp_features_request"}, 3, ["c", "1"]], "timed_out": false, "dependent_labels": [], "ignore_whitelisted_packets": false, "dpid": 3, "label": "i76", "class": "ControlMessageReceive", "b64_packet": "AQUACAAAAEc=", "round": 2, "prunable": true}
{"pass_through_sends": false, "timeout_disallowed": false, "time": [1398214556, 11876], "controller_id": "c1", "fingerprint": ["ControlMessageReceive", {"class": "ofp_features_request"}, 6, ["c", "1"]], "timed_out": false, "dependent_labels": [], "ignore_whitelisted_packets": false, "dpid": 6, "label": "i77", "class": "ControlMessageReceive", "b64_packet": "AQUACAAAAEE=", "round": 2, "prunable": true}
{"pass_through_sends": false, "timeout_disallowed": false, "time": [1398214556, 12152], "controller_id": "c1", "fingerprint": ["ControlMessageReceive", {"class": "ofp_features_request"}, 15, ["c", "1"]], "timed_out": false, "dependent_labels": [], "ignore_whitelisted_packets": false, "dpid": 15, "label": "i78", "class": "ControlMessageReceive", "b64_packet": "AQUACAAAADM=", "round": 2, "prunable": true}
{"pass_through_sends": false, "timeout_disallowed": false, "time": [1398214556, 12437], "controller_id": "c1", "fingerprint": ["ControlMessageReceive", {"class": "ofp_features_request"}, 2, ["c", "1"]], "timed_out": false, "dependent_labels": [], "ignore_whitelisted_packets": false, "dpid": 2, "label": "i79", "class": "ControlMessageReceive", "b64_packet": "AQUACAAAAEk=", "round": 2, "prunable": true}
{"pass_through_sends": false, "timeout_disallowed": false, "time": [1398214556, 12724], "controller_id": "c1", "fingerprint": ["ControlMessageSend", {"reason": 2, "class": "ofp_port_status", "desc": [3, "00:00:00:00:09:03"]}, 9, ["c", "1"]], "timed_out": false, "dependent_labels": [], "ignore_whitelisted_packets": false, "dpid": 9, "label": "i80", "class": "ControlMessageSend", "b64_packet": "AQwAQAAAAC8CAAAAAAAAAAADAAAAAAkDZXRoMwAAAAAAAAAAAAAAAAAAAAAAAAABAAAAAAAAAAAAAAAAAAAAAA==", "round": 2, "prunable": true}
{"pass_through_sends": false, "timeout_disallowed": false, "time": [1398214556, 13179], "controller_id": "c1", "fingerprint": ["ControlMessageSend", {"datapath_id": 9, "class": "ofp_features_reply"}, 9, ["c", "1"]], "timed_out": false, "dependent_labels": [], "ignore_whitelisted_packets": false, "dpid": 9, "label": "i81", "class": "ControlMessageSend", "b64_packet": "AQYA4AAAAD8AAAAAAAAACQAAAGQBAAAAAAAA7wAAB/8AAQAAAAAJAWV0aDEAAAAAAAAAAAAAAAAAAAAAAAAAAAAAAAAAAAAAAAAAAAAAAAAAAgAAAAAJAmV0aDIAAAAAAAAAAAAAAAAAAAAAAAAAAAAAAAAAAAAAAAAAAAAAAAAAAwAAAAAJA2V0aDMAAAAAAAAAAAAAAAAAAAAAAAAAAQAAAAAAAAAAAAAAAAAAAAAABAAAAAAJBGV0aDQAAAAAAAAAAAAAAAAAAAAAAAAAAAAAAAAAAAAAAAAAAAAAAAA=", "round": 2, "prunable": true}
{"pass_through_sends": false, "timeout_disallowed": false, "time": [1398214556, 13412], "controller_id": "c1", "fingerprint": ["ControlMessageSend", {"reason": 2, "class": "ofp_port_status", "desc": [4, "00:00:00:00:14:04"]}, 20, ["c", "1"]], "timed_out": false, "dependent_labels": [], "ignore_whitelisted_packets": false, "dpid": 20, "label": "i82", "class": "ControlMessageSend", "b64_packet": "AQwAQAAAACkCAAAAAAAAAAAEAAAAABQEZXRoNAAAAAAAAAAAAAAAAAAAAAAAAAABAAAAAAAAAAAAAAAAAAAAAA==", "round": 2, "prunable": true}
{"pass_through_sends": false, "timeout_disallowed": false, "time": [1398214556, 13852], "controller_id": "c1", "fingerprint": ["ControlMessageSend", {"datapath_id": 20, "class": "ofp_features_reply"}, 20, ["c", "1"]], "timed_out": false, "dependent_labels": [], "ignore_whitelisted_packets": false, "dpid": 20, "label": "i83", "class": "ControlMessageSend", "b64_packet": "AQYA4AAAACkAAAAAAAAAFAAAAGQBAAAAAAAA7wAAB/8AAQAAAAAUAWV0aDEAAAAAAAAAAAAAAAAAAAAAAAAAAAAAAAAAAAAAAAAAAAAAAAAAAgAAAAAUAmV0aDIAAAAAAAAAAAAAAAAAAAAAAAAAAAAAAAAAAAAAAAAAAAAAAAAAAwAAAAAUA2V0aDMAAAAAAAAAAAAAAAAAAAAAAAAAAAAAAAAAAAAAAAAAAAAAAAAABAAAAAAUBGV0aDQAAAAAAAAAAAAAAAAAAAAAAAAAAQAAAAAAAAAAAAAAAAAAAAA=", "round": 2, "prunable": true}
{"pass_through_sends": false, "timeout_disallowed": false, "time": [1398214556, 14081], "controller_id": "c1", "fingerprint": ["ControlMessageSend", {"reason": 2, "class": "ofp_port_status", "desc": [2, "00:00:00:00:01:02"]}, 1, ["c", "1"]], "timed_out": true, "dependent_labels": [], "ignore_whitelisted_packets": false, "dpid": 1, "label": "i84", "class": "ControlMessageSend", "b64_packet": "AQwAQAAAAD8CAAAAAAAAAAACAAAAAAECZXRoMgAAAAAAAAAAAAAAAAAAAAAAAAABAAAAAAAAAAAAAAAAAAAAAA==", "round": 2, "prunable": true}
{"pass_through_sends": false, "timeout_disallowed": false, "time": [1398214556, 14505], "controller_id": "c1", "fingerprint": ["ControlMessageSend", {"datapath_id": 1, "class": "ofp_features_reply"}, 1, ["c", "1"]], "timed_out": false, "dependent_labels": [], "ignore_whitelisted_packets": false, "dpid": 1, "label": "i85", "class": "ControlMessageSend", "b64_packet": "AQYA4AAAAEsAAAAAAAAAAQAAAGQBAAAAAAAA7wAAB/8AAQAAAAABAWV0aDEAAAAAAAAAAAAAAAAAAAAAAAAAAAAAAAAAAAAAAAAAAAAAAAAAAgAAAAABAmV0aDIAAAAAAAAAAAAAAAAAAAAAAAAAAQAAAAAAAAAAAAAAAAAAAAAAAwAAAAABA2V0aDMAAAAAAAAAAAAAAAAAAAAAAAAAAAAAAAAAAAAAAAAAAAAAAAAABAAAAAABBGV0aDQAAAAAAAAAAAAAAAAAAAAAAAAAAAAAAAAAAAAAAAAAAAAAAAA=", "round": 2, "prunable": true}
{"pass_through_sends": false, "timeout_disallowed": false, "time": [1398214556, 14746], "controller_id": "c1", "fingerprint": ["ControlMessageSend", {"datapath_id": 12, "class": "ofp_features_reply"}, 12, ["c", "1"]], "timed_out": false, "dependent_labels": [], "ignore_whitelisted_packets": false, "dpid": 12, "label": "i86", "class": "ControlMessageSend", "b64_packet": "AQYA4AAAADkAAAAAAAAADAAAAGQBAAAAAAAA7wAAB/8AAQAAAAAMAWV0aDEAAAAAAAAAAAAAAAAAAAAAAAAAAAAAAAAAAAAAAAAAAAAAAAAAAgAAAAAMAmV0aDIAAAAAAAAAAAAAAAAAAAAAAAAAAAAAAAAAAAAAAAAAAAAAAAAAAwAAAAAMA2V0aDMAAAAAAAAAAAAAAAAAAAAAAAAAAAAAAAAAAAAAAAAAAAAAAAAABAAAAAAMBGV0aDQAAAAAAAAAAAAAAAAAAAAAAAAAAAAAAAAAAAAAAAAAAAAAAAA=", "round": 2, "prunable": true}
{"pass_through_sends": false, "timeout_disallowed": false, "time": [1398214556, 14990], "controller_id": "c1", "fingerprint": ["ControlMessageSend", {"datapath_id": 19, "class": "ofp_features_reply"}, 19, ["c", "1"]], "timed_out": false, "dependent_labels": [], "ignore_whitelisted_packets": false, "dpid": 19, "label": "i87", "class": "ControlMessageSend", "b64_packet": "AQYA4AAAACsAAAAAAAAAEwAAAGQBAAAAAAAA7wAAB/8AAQAAAAATAWV0aDEAAAAAAAAAAAAAAAAAAAAAAAAAAAAAAAAAAAAAAAAAAAAAAAAAAgAAAAATAmV0aDIAAAAAAAAAAAAAAAAAAAAAAAAAAAAAAAAAAAAAAAAAAAAAAAAAAwAAAAATA2V0aDMAAAAAAAAAAAAAAAAAAAAAAAAAAAAAAAAAAAAAAAAAAAAAAAAABAAAAAATBGV0aDQAAAAAAAAAAAAAAAAAAAAAAAAAAAAAAAAAAAAAAAAAAAAAAAA=", "round": 2, "prunable": true}
{"pass_through_sends": false, "timeout_disallowed": false, "time": [1398214556, 15224], "controller_id": "c1", "fingerprint": ["ControlMessageSend", {"datapath_id": 13, "class": "ofp_features_reply"}, 13, ["c", "1"]], "timed_out": false, "dependent_labels": [], "ignore_whitelisted_packets": false, "dpid": 13, "label": "i88", "class": "ControlMessageSend", "b64_packet": "AQYA4AAAADcAAAAAAAAADQAAAGQBAAAAAAAA7wAAB/8AAQAAAAANAWV0aDEAAAAAAAAAAAAAAAAAAAAAAAAAAAAAAAAAAAAAAAAAAAAAAAAAAgAAAAANAmV0aDIAAAAAAAAAAAAAAAAAAAAAAAAAAAAAAAAAAAAAAAAAAAAAAAAAAwAAAAANA2V0aDMAAAAAAAAAAAAAAAAAAAAAAAAAAAAAAAAAAAAAAAAAAAAAAAAABAAAAAANBGV0aDQAAAAAAAAAAAAAAAAAAAAAAAAAAAAAAAAAAAAAAAAAAAAAAAA=", "round": 2, "prunable": true}
{"pass_through_sends": false, "timeout_disallowed": false, "time": [1398214556, 15445], "controller_id": "c1", "fingerprint": ["ControlMessageSend", {"reason": 2, "class": "ofp_port_status", "desc": [4, "00:00:00:00:12:04"]}, 18, ["c", "1"]], "timed_out": true, "dependent_labels": [], "ignore_whitelisted_packets": false, "dpid": 18, "label": "i89", "class": "ControlMessageSend", "b64_packet": "AQwAQAAAADUCAAAAAAAAAAAEAAAAABIEZXRoNAAAAAAAAAAAAAAAAAAAAAAAAAABAAAAAAAAAAAAAAAAAAAAAA==", "round": 2, "prunable": true}
{"pass_through_sends": false, "timeout_disallowed": false, "time": [1398214556, 15857], "controller_id": "c1", "fingerprint": ["ControlMessageSend", {"datapath_id": 18, "class": "ofp_features_reply"}, 18, ["c", "1"]], "timed_out": false, "dependent_labels": [], "ignore_whitelisted_packets": false, "dpid": 18, "label": "i90", "class": "ControlMessageSend", "b64_packet": "AQYA4AAAAC0AAAAAAAAAEgAAAGQBAAAAAAAA7wAAB/8AAQAAAAASAWV0aDEAAAAAAAAAAAAAAAAAAAAAAAAAAAAAAAAAAAAAAAAAAAAAAAAAAgAAAAASAmV0aDIAAAAAAAAAAAAAAAAAAAAAAAAAAAAAAAAAAAAAAAAAAAAAAAAAAwAAAAASA2V0aDMAAAAAAAAAAAAAAAAAAAAAAAAAAAAAAAAAAAAAAAAAAAAAAAAABAAAAAASBGV0aDQAAAAAAAAAAAAAAAAAAAAAAAAAAQAAAAAAAAAAAAAAAAAAAAA=", "round": 2, "prunable": true}
{"pass_through_sends": false, "timeout_disallowed": false, "time": [1398214556, 16111], "controller_id": "c1", "fingerprint": ["ControlMessageSend", {"datapath_id": 4, "class": "ofp_features_reply"}, 4, ["c", "1"]], "timed_out": false, "dependent_labels": [], "ignore_whitelisted_packets": false, "dpid": 4, "label": "i91", "class": "ControlMessageSend", "b64_packet": "AQYA4AAAAEUAAAAAAAAABAAAAGQBAAAAAAAA7wAAB/8AAQAAAAAEAWV0aDEAAAAAAAAAAAAAAAAAAAAAAAAAAAAAAAAAAAAAAAAAAAAAAAAAAgAAAAAEAmV0aDIAAAAAAAAAAAAAAAAAAAAAAAAAAAAAAAAAAAAAAAAAAAAAAAAAAwAAAAAEA2V0aDMAAAAAAAAAAAAAAAAAAAAAAAAAAAAAAAAAAAAAAAAAAAAAAAAABAAAAAAEBGV0aDQAAAAAAAAAAAAAAAAAAAAAAAAAAAAAAAAAAAAAAAAAAAAAAAA=", "round": 2, "prunable": true}
{"pass_through_sends": false, "timeout_disallowed": false, "time": [1398214556, 16348], "controller_id": "c1", "fingerprint": ["ControlMessageSend", {"datapath_id": 11, "class": "ofp_features_reply"}, 11, ["c", "1"]], "timed_out": false, "dependent_labels": [], "ignore_whitelisted_packets": false, "dpid": 11, "label": "i92", "class": "ControlMessageSend", "b64_packet": "AQYA4AAAADsAAAAAAAAACwAAAGQBAAAAAAAA7wAAB/8AAQAAAAALAWV0aDEAAAAAAAAAAAAAAAAAAAAAAAAAAAAAAAAAAAAAAAAAAAAAAAAAAgAAAAALAmV0aDIAAAAAAAAAAAAAAAAAAAAAAAAAAAAAAAAAAAAAAAAAAAAAAAAAAwAAAAALA2V0aDMAAAAAAAAAAAAAAAAAAAAAAAAAAAAAAAAAAAAAAAAAAAAAAAAABAAAAAALBGV0aDQAAAAAAAAAAAAAAAAAAAAAAAAAAAAAAAAAAAAAAAAAAAAAAAA=", "round": 2, "prunable": true}
{"pass_through_sends": false, "timeout_disallowed": false, "time": [1398214556, 16569], "controller_id": "c1", "fingerprint": ["ControlMessageSend", {"reason": 2, "class": "ofp_port_status", "desc": [3, "00:00:00:00:0e:03"]}, 14, ["c", "1"]], "timed_out": true, "dependent_labels": [], "ignore_whitelisted_packets": false, "dpid": 14, "label": "i93", "class": "ControlMessageSend", "b64_packet": "AQwAQAAAADMCAAAAAAAAAAADAAAAAA4DZXRoMwAAAAAAAAAAAAAAAAAAAAAAAAABAAAAAAAAAAAAAAAAAAAAAA==", "round": 2, "prunable": true}
{"pass_through_sends": false, "timeout_disallowed": false, "time": [1398214556, 16949], "controller_id": "c1", "fingerprint": ["ControlMessageSend", {"datapath_id": 14, "class": "ofp_features_reply"}, 14, ["c", "1"]], "timed_out": false, "dependent_labels": [], "ignore_whitelisted_packets": false, "dpid": 14, "label": "i94", "class": "ControlMessageSend", "b64_packet": "AQYA4AAAADUAAAAAAAAADgAAAGQBAAAAAAAA7wAAB/8AAQAAAAAOAWV0aDEAAAAAAAAAAAAAAAAAAAAAAAAAAAAAAAAAAAAAAAAAAAAAAAAAAgAAAAAOAmV0aDIAAAAAAAAAAAAAAAAAAAAAAAAAAAAAAAAAAAAAAAAAAAAAAAAAAwAAAAAOA2V0aDMAAAAAAAAAAAAAAAAAAAAAAAAAAQAAAAAAAAAAAAAAAAAAAAAABAAAAAAOBGV0aDQAAAAAAAAAAAAAAAAAAAAAAAAAAAAAAAAAAAAAAAAAAAAAAAA=", "round": 2, "prunable": true}
{"pass_through_sends": false, "timeout_disallowed": false, "time": [1398214556, 17179], "controller_id": "c1", "fingerprint": ["ControlMessageSend", {"reason": 2, "class": "ofp_port_status", "desc": [4, "00:00:00:00:05:04"]}, 5, ["c", "1"]], "timed_out": false, "dependent_labels": [], "ignore_whitelisted_packets": false, "dpid": 5, "label": "i95", "class": "ControlMessageSend", "b64_packet": "AQwAQAAAACsCAAAAAAAAAAAEAAAAAAUEZXRoNAAAAAAAAAAAAAAAAAAAAAAAAAABAAAAAAAAAAAAAAAAAAAAAA==", "round": 2, "prunable": true}
{"pass_through_sends": false, "timeout_disallowed": false, "time": [1398214556, 17632], "controller_id": "c1", "fingerprint": ["ControlMessageSend", {"datapath_id": 5, "class": "ofp_features_reply"}, 5, ["c", "1"]], "timed_out": false, "dependent_labels": [], "ignore_whitelisted_packets": false, "dpid": 5, "label": "i96", "class": "ControlMessageSend", "b64_packet": "AQYA4AAAAEMAAAAAAAAABQAAAGQBAAAAAAAA7wAAB/8AAQAAAAAFAWV0aDEAAAAAAAAAAAAAAAAAAAAAAAAAAAAAAAAAAAAAAAAAAAAAAAAAAgAAAAAFAmV0aDIAAAAAAAAAAAAAAAAAAAAAAAAAAAAAAAAAAAAAAAAAAAAAAAAAAwAAAAAFA2V0aDMAAAAAAAAAAAAAAAAAAAAAAAAAAAAAAAAAAAAAAAAAAAAAAAAABAAAAAAFBGV0aDQAAAAAAAAAAAAAAAAAAAAAAAAAAQAAAAAAAAAAAAAAAAAAAAA=", "round": 2, "prunable": true}
{"pass_through_sends": false, "timeout_disallowed": false, "time": [1398214556, 17882], "controller_id": "c1", "fingerprint": ["ControlMessageSend", {"datapath_id": 16, "class": "ofp_features_reply"}, 16, ["c", "1"]], "timed_out": false, "dependent_labels": [], "ignore_whitelisted_packets": false, "dpid": 16, "label": "i97", "class": "ControlMessageSend", "b64_packet": "AQYA4AAAADEAAAAAAAAAEAAAAGQBAAAAAAAA7wAAB/8AAQAAAAAQAWV0aDEAAAAAAAAAAAAAAAAAAAAAAAAAAAAAAAAAAAAAAAAAAAAAAAAAAgAAAAAQAmV0aDIAAAAAAAAAAAAAAAAAAAAAAAAAAAAAAAAAAAAAAAAAAAAAAAAAAwAAAAAQA2V0aDMAAAAAAAAAAAAAAAAAAAAAAAAAAAAAAAAAAAAAAAAAAAAAAAAABAAAAAAQBGV0aDQAAAAAAAAAAAAAAAAAAAAAAAAAAAAAAAAAAAAAAAAAAAAAAAA=", "round": 2, "prunable": true}
{"pass_through_sends": false, "timeout_disallowed": false, "time": [1398214556, 18131], "controller_id": "c1", "fingerprint": ["ControlMessageSend", {"datapath_id": 10, "class": "ofp_features_reply"}, 10, ["c", "1"]], "timed_out": false, "dependent_labels": [], "ignore_whitelisted_packets": false, "dpid": 10, "label": "i98", "class": "ControlMessageSend", "b64_packet": "AQYA4AAAAD0AAAAAAAAACgAAAGQBAAAAAAAA7wAAB/8AAQAAAAAKAWV0aDEAAAAAAAAAAAAAAAAAAAAAAAAAAAAAAAAAAAAAAAAAAAAAAAAAAgAAAAAKAmV0aDIAAAAAAAAAAAAAAAAAAAAAAAAAAAAAAAAAAAAAAAAAAAAAAAAAAwAAAAAKA2V0aDMAAAAAAAAAAAAAAAAAAAAAAAAAAAAAAAAAAAAAAAAAAAAAAAAABAAAAAAKBGV0aDQAAAAAAAAAAAAAAAAAAAAAAAAAAAAAAAAAAAAAAAAAAAAAAAA=", "round": 2, "prunable": true}
{"pass_through_sends": false, "timeout_disallowed": false, "time": [1398214556, 18354], "controller_id": "c1", "fingerprint": ["ControlMessageSend", {"reason": 2, "class": "ofp_port_status", "desc": [3, "00:00:00:00:11:03"]}, 17, ["c", "1"]], "timed_out": true, "dependent_labels": [], "ignore_whitelisted_packets": false, "dpid": 17, "label": "i99", "class": "ControlMessageSend", "b64_packet": "AQwAQAAAADECAAAAAAAAAAADAAAAABEDZXRoMwAAAAAAAAAAAAAAAAAAAAAAAAABAAAAAAAAAAAAAAAAAAAAAA==", "round": 2, "prunable": true}
{"pass_through_sends": false, "timeout_disallowed": false, "time": [1398214556, 18747], "controller_id": "c1", "fingerprint": ["ControlMessageSend", {"datapath_id": 17, "class": "ofp_features_reply"}, 17, ["c", "1"]], "timed_out": false, "dependent_labels": [], "ignore_whitelisted_packets": false, "dpid": 17, "label": "i100", "class": "ControlMessageSend", "b64_packet": "AQYA4AAAAC8AAAAAAAAAEQAAAGQBAAAAAAAA7wAAB/8AAQAAAAARAWV0aDEAAAAAAAAAAAAAAAAAAAAAAAAAAAAAAAAAAAAAAAAAAAAAAAAAAgAAAAARAmV0aDIAAAAAAAAAAAAAAAAAAAAAAAAAAAAAAAAAAAAAAAAAAAAAAAAAAwAAAAARA2V0aDMAAAAAAAAAAAAAAAAAAAAAAAAAAQAAAAAAAAAAAAAAAAAAAAAABAAAAAARBGV0aDQAAAAAAAAAAAAAAAAAAAAAAAAAAAAAAAAAAAAAAAAAAAAAAAA=", "round": 2, "prunable": true}
{"pass_through_sends": false, "timeout_disallowed": false, "time": [1398214556, 18976], "controller_id": "c1", "fingerprint": ["ControlMessageSend", {"reason": 2, "class": "ofp_port_status", "desc": [1, "00:00:00:00:03:01"]}, 3, ["c", "1"]], "timed_out": true, "dependent_labels": [], "ignore_whitelisted_packets": false, "dpid": 3, "label": "i101", "class": "ControlMessageSend", "b64_packet": "AQwAQAAAADcCAAAAAAAAAAABAAAAAAMBZXRoMQAAAAAAAAAAAAAAAAAAAAAAAAABAAAAAAAAAAAAAAAAAAAAAA==", "round": 2, "prunable": true}
{"pass_through_sends": false, "timeout_disallowed": false, "time": [1398214556, 19350], "controller_id": "c1", "fingerprint": ["ControlMessageSend", {"datapath_id": 3, "class": "ofp_features_reply"}, 3, ["c", "1"]], "timed_out": false, "dependent_labels": [], "ignore_whitelisted_packets": false, "dpid": 3, "label": "i102", "class": "ControlMessageSend", "b64_packet": "AQYA4AAAAEcAAAAAAAAAAwAAAGQBAAAAAAAA7wAAB/8AAQAAAAADAWV0aDEAAAAAAAAAAAAAAAAAAAAAAAAAAQAAAAAAAAAAAAAAAAAAAAAAAgAAAAADAmV0aDIAAAAAAAAAAAAAAAAAAAAAAAAAAAAAAAAAAAAAAAAAAAAAAAAAAwAAAAADA2V0aDMAAAAAAAAAAAAAAAAAAAAAAAAAAAAAAAAAAAAAAAAAAAAAAAAABAAAAAADBGV0aDQAAAAAAAAAAAAAAAAAAAAAAAAAAAAAAAAAAAAAAAAAAAAAAAA=", "round": 2, "prunable": true}
{"pass_through_sends": false, "timeout_disallowed": false, "time": [1398214556, 19578], "controller_id": "c1", "fingerprint": ["ControlMessageSend", {"reason": 2, "class": "ofp_port_status", "desc": [3, "00:00:00:00:06:03"]}, 6, ["c", "1"]], "timed_out": false, "dependent_labels": [], "ignore_whitelisted_packets": false, "dpid": 6, "label": "i103", "class": "ControlMessageSend", "b64_packet": "AQwAQAAAAC0CAAAAAAAAAAADAAAAAAYDZXRoMwAAAAAAAAAAAAAAAAAAAAAAAAABAAAAAAAAAAAAAAAAAAAAAA==", "round": 2, "prunable": true}
{"pass_through_sends": false, "timeout_disallowed": false, "time": [1398214556, 19976], "controller_id": "c1", "fingerprint": ["ControlMessageSend", {"reason": 2, "class": "ofp_port_status", "desc": [5, "00:00:00:00:03:01"]}, 6, ["c", "1"]], "timed_out": true, "dependent_labels": [], "ignore_whitelisted_packets": false, "dpid": 6, "label": "i104", "class": "ControlMessageSend", "b64_packet": "AQwAQAAAADkCAAAAAAAAAAAFAAAAAAMBZXRoNQAAAAAAAAAAAAAAAAAAAAAAAAAAAAAAAAAAAAAAAAAAAAAAAA==", "round": 2, "prunable": true}
{"pass_through_sends": false, "timeout_disallowed": false, "time": [1398214556, 20360], "controller_id": "c1", "fingerprint": ["ControlMessageSend", {"reason": 2, "class": "ofp_port_status", "desc": [6, "00:00:00:00:02:01"]}, 6, ["c", "1"]], "timed_out": true, "dependent_labels": [], "ignore_whitelisted_packets": false, "dpid": 6, "label": "i105", "class": "ControlMessageSend", "b64_packet": "AQwAQAAAAD0CAAAAAAAAAAAGAAAAAAIBZXRoNgAAAAAAAAAAAAAAAAAAAAAAAAAAAAAAAAAAAAAAAAAAAAAAAA==", "round": 2, "prunable": true}
{"pass_through_sends": false, "timeout_disallowed": false, "time": [1398214556, 20746], "controller_id": "c1", "fingerprint": ["ControlMessageSend", {"data": {"dl_dst": "00:00:00:01:00:01", "nw_src": "123.1.0.1", "dl_src": "00:00:00:01:00:01", "nw_dst": "123.1.0.1"}, "class": "ofp_packet_in", "in_port": 5}, 6, ["c", "1"]], "timed_out": true, "dependent_labels": [], "ignore_whitelisted_packets": false, "dpid": 6, "label": "i106", "class": "ControlMessageSend", "b64_packet": "AQoAaAAAAAEAAAABAGgABQAAAAAAAQABAAAAAQABCABFAABID5sAAEABdRZ7AQABewEAAQgABjdQaW5nUGluZ1BpbmdQaW5nUGluZ1BpbmdQaW5nUGluZ1BpbmdQaW5nUGluZ1Bpbmc=", "round": 2, "prunable": true}
{"pass_through_sends": false, "timeout_disallowed": false, "time": [1398214556, 21250], "controller_id": "c1", "fingerprint": ["ControlMessageSend", {"data": {"dl_dst": "00:00:00:00:01:01", "nw_src": "123.0.1.1", "dl_src": "00:00:00:00:01:01", "nw_dst": "123.0.1.1"}, "class": "ofp_packet_in", "in_port": 6}, 6, ["c", "1"]], "timed_out": true, "dependent_labels": [], "ignore_whitelisted_packets": false, "dpid": 6, "label": "i107", "class": "ControlMessageSend", "b64_packet": "AQoAaAAAAAIAAAACAGgABgAAAAAAAAEBAAAAAAEBCABFAABID5wAAEABcxd7AAEBewABAQAADjdQaW5nUGluZ1BpbmdQaW5nUGluZ1BpbmdQaW5nUGluZ1BpbmdQaW5nUGluZ1Bpbmc=", "round": 2, "prunable": true}
{"pass_through_sends": false, "timeout_disallowed": false, "time": [1398214556, 21802], "controller_id": "c1", "fingerprint": ["ControlMessageSend", {"datapath_id": 6, "class": "ofp_features_reply"}, 6, ["c", "1"]], "timed_out": false, "dependent_labels": [], "ignore_whitelisted_packets": false, "dpid": 6, "label": "i108", "class": "ControlMessageSend", "b64_packet": "AQYBQAAAAEEAAAAAAAAABgAAAGQBAAAAAAAA7wAAB/8AAQAAAAAGAWV0aDEAAAAAAAAAAAAAAAAAAAAAAAAAAAAAAAAAAAAAAAAAAAAAAAAAAgAAAAAGAmV0aDIAAAAAAAAAAAAAAAAAAAAAAAAAAAAAAAAAAAAAAAAAAAAAAAAAAwAAAAAGA2V0aDMAAAAAAAAAAAAAAAAAAAAAAAAAAQAAAAAAAAAAAAAAAAAAAAAABAAAAAAGBGV0aDQAAAAAAAAAAAAAAAAAAAAAAAAAAAAAAAAAAAAAAAAAAAAAAAAABQAAAAADAWV0aDUAAAAAAAAAAAAAAAAAAAAAAAAAAAAAAAAAAAAAAAAAAAAAAAAABgAAAAACAWV0aDYAAAAAAAAAAAAAAAAAAAAAAAAAAAAAAAAAAAAAAAAAAAAAAAA=", "round": 2, "prunable": true}
{"pass_through_sends": false, "timeout_disallowed": false, "time": [1398214556, 22044], "controller_id": "c1", "fingerprint": ["ControlMessageSend", {"reason": 2, "class": "ofp_port_status", "desc": [5, "00:00:00:00:01:02"]}, 8, ["c", "1"]], "timed_out": true, "dependent_labels": [], "ignore_whitelisted_packets": false, "dpid": 8, "label": "i109", "class": "ControlMessageSend", "b64_packet": "AQwAQAAAAEECAAAAAAAAAAAFAAAAAAECZXRoNQAAAAAAAAAAAAAAAAAAAAAAAAAAAAAAAAAAAAAAAAAAAAAAAA==", "round": 2, "prunable": true}
{"pass_through_sends": false, "timeout_disallowed": false, "time": [1398214556, 22402], "controller_id": "c1", "fingerprint": ["ControlMessageSend", {"data": {"dl_dst": "00:00:00:00:00:02", "nw_src": "123.0.0.2", "dl_src": "00:00:00:00:00:02", "nw_dst": "123.0.0.2"}, "class": "ofp_packet_in", "in_port": 5}, 8, ["c", "1"]], "timed_out": true, "dependent_labels": [], "ignore_whitelisted_packets": false, "dpid": 8, "label": "i110", "class": "ControlMessageSend", "b64_packet": "AQoAaAAAAAEAAAABAGgABQAAAAAAAAACAAAAAAACCABFAABID50AAEABdRR7AAACewAAAggABjdQaW5nUGluZ1BpbmdQaW5nUGluZ1BpbmdQaW5nUGluZ1BpbmdQaW5nUGluZ1Bpbmc=", "round": 2, "prunable": true}
{"pass_through_sends": false, "timeout_disallowed": false, "time": [1398214556, 22904], "controller_id": "c1", "fingerprint": ["ControlMessageSend", {"datapath_id": 15, "class": "ofp_features_reply"}, 15, ["c", "1"]], "timed_out": false, "dependent_labels": [], "ignore_whitelisted_packets": false, "dpid": 15, "label": "i111", "class": "ControlMessageSend", "b64_packet": "AQYA4AAAADMAAAAAAAAADwAAAGQBAAAAAAAA7wAAB/8AAQAAAAAPAWV0aDEAAAAAAAAAAAAAAAAAAAAAAAAAAAAAAAAAAAAAAAAAAAAAAAAAAgAAAAAPAmV0aDIAAAAAAAAAAAAAAAAAAAAAAAAAAAAAAAAAAAAAAAAAAAAAAAAAAwAAAAAPA2V0aDMAAAAAAAAAAAAAAAAAAAAAAAAAAAAAAAAAAAAAAAAAAAAAAAAABAAAAAAPBGV0aDQAAAAAAAAAAAAAAAAAAAAAAAAAAAAAAAAAAAAAAAAAAAAAAAA=", "round": 2, "prunable": true}
{"pass_through_sends": false, "timeout_disallowed": false, "time": [1398214556, 23131], "controller_id": "c1", "fingerprint": ["ControlMessageSend", {"reason": 2, "class": "ofp_port_status", "desc": [1, "00:00:00:00:02:01"]}, 2, ["c", "1"]], "timed_out": true, "dependent_labels": [], "ignore_whitelisted_packets": false, "dpid": 2, "label": "i112", "class": "ControlMessageSend", "b64_packet": "AQwAQAAAADsCAAAAAAAAAAABAAAAAAIBZXRoMQAAAAAAAAAAAAAAAAAAAAAAAAABAAAAAAAAAAAAAAAAAAAAAA==", "round": 2, "prunable": true}
{"pass_through_sends": false, "timeout_disallowed": false, "time": [1398214556, 23505], "controller_id": "c1", "fingerprint": ["ControlMessageSend", {"datapath_id": 2, "class": "ofp_features_reply"}, 2, ["c", "1"]], "timed_out": false, "dependent_labels": [], "ignore_whitelisted_packets": false, "dpid": 2, "label": "i113", "class": "ControlMessageSend", "b64_packet": "AQYA4AAAAEkAAAAAAAAAAgAAAGQBAAAAAAAA7wAAB/8AAQAAAAACAWV0aDEAAAAAAAAAAAAAAAAAAAAAAAAAAQAAAAAAAAAAAAAAAAAAAAAAAgAAAAACAmV0aDIAAAAAAAAAAAAAAAAAAAAAAAAAAAAAAAAAAAAAAAAAAAAAAAAAAwAAAAACA2V0aDMAAAAAAAAAAAAAAAAAAAAAAAAAAAAAAAAAAAAAAAAAAAAAAAAABAAAAAACBGV0aDQAAAAAAAAAAAAAAAAAAAAAAAAAAAAAAAAAAAAAAAAAAAAAAAA=", "round": 2, "prunable": true}
{"end_port_no": 4, "dependent_labels": [], "start_dpid": 20, "fingerprint": ["LinkRecovery", 20, 4, 16, 4], "timed_out": false, "label": "e122", "start_port_no": 4, "end_dpid": 16, "time": [1398214556, 26032], "class": "LinkRecovery", "round": 2, "prunable": true}
{"end_port_no": 2, "dependent_labels": [], "start_dpid": 6, "fingerprint": ["LinkRecovery", 6, 3, 13, 2], "timed_out": false, "label": "e123", "start_port_no": 3, "end_dpid": 13, "time": [1398214556, 26274], "class": "LinkRecovery", "round": 2, "prunable": true}
{"end_port_no": 1, "dependent_labels": [], "start_dpid": 5, "fingerprint": ["LinkRecovery", 5, 4, 14, 1], "timed_out": false, "label": "e124", "start_port_no": 4, "end_dpid": 14, "time": [1398214556, 26523], "class": "LinkRecovery", "round": 2, "prunable": true}
{"timeout_disallowed": false, "fingerprint": ["DataplanePermit", {"dl_dst": "00:00:00:02:01:01", "nw_src": "123.2.1.1", "dl_src": "00:00:00:02:01:01", "nw_dst": "123.2.1.1"}, 11, "00:00:00:02:01:01"], "timed_out": true, "label": "i130", "passive": true, "dependent_labels": [], "time": [1398214556, 129132], "class": "DataplanePermit", "round": 3, "prunable": true}
{"timeout_disallowed": false, "fingerprint": ["DataplanePermit", {"dl_dst": "00:00:00:03:01:01", "nw_src": "123.3.1.1", "dl_src": "00:00:00:03:01:01", "nw_dst": "123.3.1.1"}, 15, "00:00:00:03:01:01"], "timed_out": true, "label": "i131", "passive": true, "dependent_labels": [], "time": [1398214556, 130176], "class": "DataplanePermit", "round": 3, "prunable": true}
{"class": "ControlChannelUnblock", "time": [1398214556, 131998], "controller_id": "c1", "fingerprint": ["ControlChannelUnblock", 7, "c1"], "timed_out": false, "dependent_labels": [], "dpid": 7, "label": "e136", "round": 3, "prunable": true}
{"pass_through_sends": false, "timeout_disallowed": false, "time": [1398214556, 132304], "controller_id": "c1", "fingerprint": ["ControlMessageReceive", {"class": "ofp_set_config"}, 9, ["c", "1"]], "timed_out": false, "dependent_labels": [], "ignore_whitelisted_packets": false, "dpid": 9, "label": "i137", "class": "ControlMessageReceive", "b64_packet": "AQkADAAAAI8AAACA", "round": 3, "prunable": true}
{"pass_through_sends": false, "timeout_disallowed": false, "time": [1398214556, 132687], "controller_id": "c1", "fingerprint": ["ControlMessageReceive", {"hard_timeout": 0, "actions": [], "priority": 32768, "idle_timeout": 0, "command": "delete", "out_port": 65535, "flags": 0, "class": "ofp_flow_mod", "match": "x^L,in_port:None"}, 9, ["c", "1"]], "timed_out": false, "dependent_labels": [], "ignore_whitelisted_packets": false, "dpid": 9, "label": "i138", "class": "ControlMessageReceive", "b64_packet": "AQ4ASAAAAJEAEAAfAAAAAAAAAAAAAAAAAAAAAAAAAAAAAAAAAAAAAAAAAAAAAAAAAAAAAAAAAAAAAwAAAACAAP///////wAA", "round": 3, "prunable": true}
{"pass_through_sends": false, "timeout_disallowed": false, "time": [1398214556, 133398], "controller_id": "c1", "fingerprint": ["ControlMessageReceive", {"class": "ofp_barrier_request"}, 9, ["c", "1"]], "timed_out": false, "dependent_labels": [], "ignore_whitelisted_packets": false, "dpid": 9, "label": "i139", "class": "ControlMessageReceive", "b64_packet": "ARIACAAAAJM=", "round": 3, "prunable": true}
{"pass_through_sends": false, "timeout_disallowed": false, "time": [1398214556, 133842], "controller_id": "c1", "fingerprint": ["ControlMessageReceive", {"class": "ofp_set_config"}, 20, ["c", "1"]], "timed_out": false, "dependent_labels": [], "ignore_whitelisted_packets": false, "dpid": 20, "label": "i140", "class": "ControlMessageReceive", "b64_packet": "AQkADAAAAE0AAACA", "round": 3, "prunable": true}
{"pass_through_sends": false, "timeout_disallowed": false, "time": [1398214556, 134197], "controller_id": "c1", "fingerprint": ["ControlMessageReceive", {"hard_timeout": 0, "actions": [], "priority": 32768, "idle_timeout": 0, "command": "delete", "out_port": 65535, "flags": 0, "class": "ofp_flow_mod", "match": "x^L,in_port:None"}, 20, ["c", "1"]], "timed_out": false, "dependent_labels": [], "ignore_whitelisted_packets": false, "dpid": 20, "label": "i141", "class": "ControlMessageReceive", "b64_packet": "AQ4ASAAAAE8AEAAfAAAAAAAAAAAAAAAAAAAAAAAAAAAAAAAAAAAAAAAAAAAAAAAAAAAAAAAAAAAAAwAAAACAAP///////wAA", "round": 3, "prunable": true}
{"pass_through_sends": false, "timeout_disallowed": false, "time": [1398214556, 134882], "controller_id": "c1", "fingerprint": ["ControlMessageReceive", {"class": "ofp_barrier_request"}, 20, ["c", "1"]], "timed_out": false, "dependent_labels": [], "ignore_whitelisted_packets": false, "dpid": 20, "label": "i142", "class": "ControlMessageReceive", "b64_packet": "ARIACAAAAFE=", "round": 3, "prunable": true}
{"pass_through_sends": false, "timeout_disallowed": false, "time": [1398214556, 135278], "controller_id": "c1", "fingerprint": ["ControlMessageReceive", {"class": "ofp_set_config"}, 1, ["c", "1"]], "timed_out": false, "dependent_labels": [], "ignore_whitelisted_packets": false, "dpid": 1, "label": "i143", "class": "ControlMessageReceive", "b64_packet": "AQkADAAAALUAAACA", "round": 3, "prunable": true}
{"pass_through_sends": false, "timeout_disallowed": false, "time": [1398214556, 135631], "controller_id": "c1", "fingerprint": ["ControlMessageReceive", {"hard_timeout": 0, "actions": [], "priority": 32768, "idle_timeout": 0, "command": "delete", "out_port": 65535, "flags": 0, "class": "ofp_flow_mod", "match": "x^L,in_port:None"}, 1, ["c", "1"]], "timed_out": false, "dependent_labels": [], "ignore_whitelisted_packets": false, "dpid": 1, "label": "i144", "class": "ControlMessageReceive", "b64_packet": "AQ4ASAAAALcAEAAfAAAAAAAAAAAAAAAAAAAAAAAAAAAAAAAAAAAAAAAAAAAAAAAAAAAAAAAAAAAAAwAAAACAAP///////wAA", "round": 3, "prunable": true}
{"pass_through_sends": false, "timeout_disallowed": false, "time": [1398214556, 136315], "controller_id": "c1", "fingerprint": ["ControlMessageReceive", {"class": "ofp_barrier_request"}, 1, ["c", "1"]], "timed_out": false, "dependent_labels": [], "ignore_whitelisted_packets": false, "dpid": 1, "label": "i145", "class": "ControlMessageReceive", "b64_packet": "ARIACAAAALk=", "round": 3, "prunable": true}
{"pass_through_sends": false, "timeout_disallowed": false, "time": [1398214556, 136687], "controller_id": "c1", "fingerprint": ["ControlMessageReceive", {"class": "ofp_set_config"}, 12, ["c", "1"]], "timed_out": false, "dependent_labels": [], "ignore_whitelisted_packets": false, "dpid": 12, "label": "i146", "class": "ControlMessageReceive", "b64_packet": "AQkADAAAAH0AAACA", "round": 3, "prunable": true}
{"pass_through_sends": false, "timeout_disallowed": false, "time": [1398214556, 137039], "controller_id": "c1", "fingerprint": ["ControlMessageReceive", {"hard_timeout": 0, "actions": [], "priority": 32768, "idle_timeout": 0, "command": "delete", "out_port": 65535, "flags": 0, "class": "ofp_flow_mod", "match": "x^L,in_port:None"}, 12, ["c", "1"]], "timed_out": false, "dependent_labels": [], "ignore_whitelisted_packets": false, "dpid": 12, "label": "i147", "class": "ControlMessageReceive", "b64_packet": "AQ4ASAAAAH8AEAAfAAAAAAAAAAAAAAAAAAAAAAAAAAAAAAAAAAAAAAAAAAAAAAAAAAAAAAAAAAAAAwAAAACAAP///////wAA", "round": 3, "prunable": true}
{"pass_through_sends": false, "timeout_disallowed": false, "time": [1398214556, 137772], "controller_id": "c1", "fingerprint": ["ControlMessageReceive", {"class": "ofp_barrier_request"}, 12, ["c", "1"]], "timed_out": false, "dependent_labels": [], "ignore_whitelisted_packets": false, "dpid": 12, "label": "i148", "class": "ControlMessageReceive", "b64_packet": "ARIACAAAAIE=", "round": 3, "prunable": true}
{"pass_through_sends": false, "timeout_disallowed": false, "time": [1398214556, 138178], "controller_id": "c1", "fingerprint": ["ControlMessageReceive", {"class": "ofp_set_config"}, 19, ["c", "1"]], "timed_out": false, "dependent_labels": [], "ignore_whitelisted_packets": false, "dpid": 19, "label": "i149", "class": "ControlMessageReceive", "b64_packet": "AQkADAAAAFMAAACA", "round": 3, "prunable": true}
{"pass_through_sends": false, "timeout_disallowed": false, "time": [1398214556, 138532], "controller_id": "c1", "fingerprint": ["ControlMessageReceive", {"hard_timeout": 0, "actions": [], "priority": 32768, "idle_timeout": 0, "command": "delete", "out_port": 65535, "flags": 0, "class": "ofp_flow_mod", "match": "x^L,in_port:None"}, 19, ["c", "1"]], "timed_out": false, "dependent_labels": [], "ignore_whitelisted_packets": false, "dpid": 19, "label": "i150", "class": "ControlMessageReceive", "b64_packet": "AQ4ASAAAAFUAEAAfAAAAAAAAAAAAAAAAAAAAAAAAAAAAAAAAAAAAAAAAAAAAAAAAAAAAAAAAAAAAAwAAAACAAP///////wAA", "round": 3, "prunable": true}
{"pass_through_sends": false, "timeout_disallowed": false, "time": [1398214556, 139215], "controller_id": "c1", "fingerprint": ["ControlMessageReceive", {"class": "ofp_barrier_request"}, 19, ["c", "1"]], "timed_out": false, "dependent_labels": [], "ignore_whitelisted_packets": false, "dpid": 19, "label": "i151", "class": "ControlMessageReceive", "b64_packet": "ARIACAAAAFc=", "round": 3, "prunable": true}
{"pass_through_sends": false, "timeout_disallowed": false, "time": [1398214556, 139640], "controller_id": "c1", "fingerprint": ["ControlMessageReceive", {"class": "ofp_set_config"}, 13, ["c", "1"]], "timed_out": false, "dependent_labels": [], "ignore_whitelisted_packets": false, "dpid": 13, "label": "i152", "class": "ControlMessageReceive", "b64_packet": "AQkADAAAAHcAAACA", "round": 3, "prunable": true}
{"pass_through_sends": false, "timeout_disallowed": false, "time": [1398214556, 139994], "controller_id": "c1", "fingerprint": ["ControlMessageReceive", {"hard_timeout": 0, "actions": [], "priority": 32768, "idle_timeout": 0, "command": "delete", "out_port": 65535, "flags": 0, "class": "ofp_flow_mod", "match": "x^L,in_port:None"}, 13, ["c", "1"]], "timed_out": false, "dependent_labels": [], "ignore_whitelisted_packets": false, "dpid": 13, "label": "i153", "class": "ControlMessageReceive", "b64_packet": "AQ4ASAAAAHkAEAAfAAAAAAAAAAAAAAAAAAAAAAAAAAAAAAAAAAAAAAAAAAAAAAAAAAAAAAAAAAAAAwAAAACAAP///////wAA", "round": 3, "prunable": true}
{"pass_through_sends": false, "timeout_disallowed": false, "time": [1398214556, 140679], "controller_id": "c1", "fingerprint": ["ControlMessageReceive", {"class": "ofp_barrier_request"}, 13, ["c", "1"]], "timed_out": false, "dependent_labels": [], "ignore_whitelisted_packets": false, "dpid": 13, "label": "i154", "class": "ControlMessageReceive", "b64_packet": "ARIACAAAAHs=", "round": 3, "prunable": true}
{"pass_through_sends": false, "timeout_disallowed": false, "time": [1398214556, 141052], "controller_id": "c1", "fingerprint": ["ControlMessageReceive", {"class": "ofp_set_config"}, 18, ["c", "1"]], "timed_out": false, "dependent_labels": [], "ignore_whitelisted_packets": false, "dpid": 18, "label": "i155", "class": "ControlMessageReceive", "b64_packet": "AQkADAAAAFkAAACA", "round": 3, "prunable": true}
{"pass_through_sends": false, "timeout_disallowed": false, "time": [1398214556, 141403], "controller_id": "c1", "fingerprint": ["ControlMessageReceive", {"hard_timeout": 0, "actions": [], "priority": 32768, "idle_timeout": 0, "command": "delete", "out_port": 65535, "flags": 0, "class": "ofp_flow_mod", "match": "x^L,in_port:None"}, 18, ["c", "1"]], "timed_out": false, "dependent_labels": [], "ignore_whitelisted_packets": false, "dpid": 18, "label": "i156", "class": "ControlMessageReceive", "b64_packet": "AQ4ASAAAAFsAEAAfAAAAAAAAAAAAAAAAAAAAAAAAAAAAAAAAAAAAAAAAAAAAAAAAAAAAAAAAAAAAAwAAAACAAP///////wAA", "round": 3, "prunable": true}
{"pass_through_sends": false, "timeout_disallowed": false, "time": [1398214556, 141967], "controller_id": "c1", "fingerprint": ["ControlMessageReceive", {"class": "ofp_barrier_request"}, 18, ["c", "1"]], "timed_out": false, "dependent_labels": [], "ignore_whitelisted_packets": false, "dpid": 18, "label": "i157", "class": "ControlMessageReceive", "b64_packet": "ARIACAAAAF0=", "round": 3, "prunable": true}
{"pass_through_sends": false, "timeout_disallowed": false, "time": [1398214556, 142194], "controller_id": "c1", "fingerprint": ["ControlMessageReceive", {"class": "ofp_set_config"}, 4, ["c", "1"]], "timed_out": false, "dependent_labels": [], "ignore_whitelisted_packets": false, "dpid": 4, "label": "i158", "class": "ControlMessageReceive", "b64_packet": "AQkADAAAAKMAAACA", "round": 3, "prunable": true}
{"pass_through_sends": false, "timeout_disallowed": false, "time": [1398214556, 142407], "controller_id": "c1", "fingerprint": ["ControlMessageReceive", {"hard_timeout": 0, "actions": [], "priority": 32768, "idle_timeout": 0, "command": "delete", "out_port": 65535, "flags": 0, "class": "ofp_flow_mod", "match": "x^L,in_port:None"}, 4, ["c", "1"]], "timed_out": false, "dependent_labels": [], "ignore_whitelisted_packets": false, "dpid": 4, "label": "i159", "class": "ControlMessageReceive", "b64_packet": "AQ4ASAAAAKUAEAAfAAAAAAAAAAAAAAAAAAAAAAAAAAAAAAAAAAAAAAAAAAAAAAAAAAAAAAAAAAAAAwAAAACAAP///////wAA", "round": 3, "prunable": true}
{"pass_through_sends": false, "timeout_disallowed": false, "time": [1398214556, 142825], "controller_id": "c1", "fingerprint": ["ControlMessageReceive", {"class": "ofp_barrier_request"}, 4, ["c", "1"]], "timed_out": false, "dependent_labels": [], "ignore_whitelisted_packets": false, "dpid": 4, "label": "i160", "class": "ControlMessageReceive", "b64_packet": "ARIACAAAAKc=", "round": 3, "prunable": true}
{"pass_through_sends": false, "timeout_disallowed": false, "time": [1398214556, 143071], "controller_id": "c1", "fingerprint": ["ControlMessageReceive", {"class": "ofp_set_config"}, 11, ["c", "1"]], "timed_out": false, "dependent_labels": [], "ignore_whitelisted_packets": false, "dpid": 11, "label": "i161", "class": "ControlMessageReceive", "b64_packet": "AQkADAAAAIMAAACA", "round": 3, "prunable": true}
{"pass_through_sends": false, "timeout_disallowed": false, "time": [1398214556, 143283], "controller_id": "c1", "fingerprint": ["ControlMessageReceive", {"hard_timeout": 0, "actions": [], "priority": 32768, "idle_timeout": 0, "command": "delete", "out_port": 65535, "flags": 0, "class": "ofp_flow_mod", "match": "x^L,in_port:None"}, 11, ["c", "1"]], "timed_out": false, "dependent_labels": [], "ignore_whitelisted_packets": false, "dpid": 11, "label": "i162", "class": "ControlMessageReceive", "b64_packet": "AQ4ASAAAAIUAEAAfAAAAAAAAAAAAAAAAAAAAAAAAAAAAAAAAAAAAAAAAAAAAAAAAAAAAAAAAAAAAAwAAAACAAP///////wAA", "round": 3, "prunable": true}
{"pass_through_sends": false, "timeout_disallowed": false, "time": [1398214556, 143685], "controller_id": "c1", "fingerprint": ["ControlMessageReceive", {"class": "ofp_barrier_request"}, 11, ["c", "1"]], "timed_out": false, "dependent_labels": [], "ignore_whitelisted_packets": false, "dpid": 11, "label": "i163", "class": "ControlMessageReceive", "b64_packet": "ARIACAAAAIc=", "round": 3, "prunable": true}
{"pass_through_sends": false, "timeout_disallowed": false, "time": [1398214556, 143932], "controller_id": "c1", "fingerprint": ["ControlMessageReceive", {"class": "ofp_set_config"}, 14, ["c", "1"]], "timed_out": false, "dependent_labels": [], "ignore_whitelisted_packets": false, "dpid": 14, "label": "i164", "class": "ControlMessageReceive", "b64_packet": "AQkADAAAAHEAAACA", "round": 3, "prunable": true}
{"pass_through_sends": false, "timeout_disallowed": false, "time": [1398214556, 144145], "controller_id": "c1", "fingerprint": ["ControlMessageReceive", {"hard_timeout": 0, "actions": [], "priority": 32768, "idle_timeout": 0, "command": "delete", "out_port": 65535, "flags": 0, "class": "ofp_flow_mod", "match": "x^L,in_port:None"}, 14, ["c", "1"]], "timed_out": false, "dependent_labels": [], "ignore_whitelisted_packets": false, "dpid": 14, "label": "i165", "class": "ControlMessageReceive", "b64_packet": "AQ4ASAAAAHMAEAAfAAAAAAAAAAAAAAAAAAAAAAAAAAAAAAAAAAAAAAAAAAAAAAAAAAAAAAAAAAAAAwAAAACAAP///////wAA", "round": 3, "prunable": true}
{"pass_through_sends": false, "timeout_disallowed": false, "time": [1398214556, 144547], "controller_id": "c1", "fingerprint": ["ControlMessageReceive", {"class": "ofp_barrier_request"}, 14, ["c", "1"]], "timed_out": false, "dependent_labels": [], "ignore_whitelisted_packets": false, "dpid": 14, "label": "i166", "class": "ControlMessageReceive", "b64_packet": "ARIACAAAAHU=", "round": 3, "prunable": true}
{"pass_through_sends": false, "timeout_disallowed": false, "time": [1398214556, 144793], "controller_id": "c1", "fingerprint": ["ControlMessageReceive", {"class": "ofp_set_config"}, 5, ["c", "1"]], "timed_out": false, "dependent_labels": [], "ignore_whitelisted_packets": false, "dpid": 5, "label": "i167", "class": "ControlMessageReceive", "b64_packet": "AQkADAAAAJ0AAACA", "round": 3, "prunable": true}
{"pass_through_sends": false, "timeout_disallowed": false, "time": [1398214556, 145007], "controller_id": "c1", "fingerprint": ["ControlMessageReceive", {"hard_timeout": 0, "actions": [], "priority": 32768, "idle_timeout": 0, "command": "delete", "out_port": 65535, "flags": 0, "class": "ofp_flow_mod", "match": "x^L,in_port:None"}, 5, ["c", "1"]], "timed_out": false, "dependent_labels": [], "ignore_whitelisted_packets": false, "dpid": 5, "label": "i168", "class": "ControlMessageReceive", "b64_packet": "AQ4ASAAAAJ8AEAAfAAAAAAAAAAAAAAAAAAAAAAAAAAAAAAAAAAAAAAAAAAAAAAAAAAAAAAAAAAAAAwAAAACAAP///////wAA", "round": 3, "prunable": true}
{"pass_through_sends": false, "timeout_disallowed": false, "time": [1398214556, 145424], "controller_id": "c1", "fingerprint": ["ControlMessageReceive", {"class": "ofp_barrier_request"}, 5, ["c", "1"]], "timed_out": false, "dependent_labels": [], "ignore_whitelisted_packets": false, "dpid": 5, "label": "i169", "class": "ControlMessageReceive", "b64_packet": "ARIACAAAAKE=", "round": 3, "prunable": true}
{"pass_through_sends": false, "timeout_disallowed": false, "time": [1398214556, 145651], "controller_id": "c1", "fingerprint": ["ControlMessageReceive", {"class": "ofp_set_config"}, 16, ["c", "1"]], "timed_out": false, "dependent_labels": [], "ignore_whitelisted_packets": false, "dpid": 16, "label": "i170", "class": "ControlMessageReceive", "b64_packet": "AQkADAAAAGUAAACA", "round": 3, "prunable": true}
{"pass_through_sends": false, "timeout_disallowed": false, "time": [1398214556, 145875], "controller_id": "c1", "fingerprint": ["ControlMessageReceive", {"hard_timeout": 0, "actions": [], "priority": 32768, "idle_timeout": 0, "command": "delete", "out_port": 65535, "flags": 0, "class": "ofp_flow_mod", "match": "x^L,in_port:None"}, 16, ["c", "1"]], "timed_out": false, "dependent_labels": [], "ignore_whitelisted_packets": false, "dpid": 16, "label": "i171", "class": "ControlMessageReceive", "b64_packet": "AQ4ASAAAAGcAEAAfAAAAAAAAAAAAAAAAAAAAAAAAAAAAAAAAAAAAAAAAAAAAAAAAAAAAAAAAAAAAAwAAAACAAP///////wAA", "round": 3, "prunable": true}
{"pass_through_sends": false, "timeout_disallowed": false, "time": [1398214556, 146282], "controller_id": "c1", "fingerprint": ["ControlMessageReceive", {"class": "ofp_barrier_request"}, 16, ["c", "1"]], "timed_out": false, "dependent_labels": [], "ignore_whitelisted_packets": false, "dpid": 16, "label": "i172", "class": "ControlMessageReceive", "b64_packet": "ARIACAAAAGk=", "round": 3, "prunable": true}
{"pass_through_sends": false, "timeout_disallowed": false, "time": [1398214556, 146509], "controller_id": "c1", "fingerprint": ["ControlMessageReceive", {"class": "ofp_set_config"}, 10, ["c", "1"]], "timed_out": false, "dependent_labels": [], "ignore_whitelisted_packets": false, "dpid": 10, "label": "i173", "class": "ControlMessageReceive", "b64_packet": "AQkADAAAAIkAAACA", "round": 3, "prunable": true}
{"pass_through_sends": false, "timeout_disallowed": false, "time": [1398214556, 146722], "controller_id": "c1", "fingerprint": ["ControlMessageReceive", {"hard_timeout": 0, "actions": [], "priority": 32768, "idle_timeout": 0, "command": "delete", "out_port": 65535, "flags": 0, "class": "ofp_flow_mod", "match": "x^L,in_port:None"}, 10, ["c", "1"]], "timed_out": false, "dependent_labels": [], "ignore_whitelisted_packets": false, "dpid": 10, "label": "i174", "class": "ControlMessageReceive", "b64_packet": "AQ4ASAAAAIsAEAAfAAAAAAAAAAAAAAAAAAAAAAAAAAAAAAAAAAAAAAAAAAAAAAAAAAAAAAAAAAAAAwAAAACAAP///////wAA", "round": 3, "prunable": true}
{"pass_through_sends": false, "timeout_disallowed": false, "time": [1398214556, 147128], "controller_id": "c1", "fingerprint": ["ControlMessageReceive", {"class": "ofp_barrier_request"}, 10, ["c", "1"]], "timed_out": false, "dependent_labels": [], "ignore_whitelisted_packets": false, "dpid": 10, "label": "i175", "class": "ControlMessageReceive", "b64_packet": "ARIACAAAAI0=", "round": 3, "prunable": true}
{"pass_through_sends": false, "timeout_disallowed": false, "time": [1398214556, 147355], "controller_id": "c1", "fingerprint": ["ControlMessageReceive", {"class": "ofp_set_config"}, 17, ["c", "1"]], "timed_out": false, "dependent_labels": [], "ignore_whitelisted_packets": false, "dpid": 17, "label": "i176", "class": "ControlMessageReceive", "b64_packet": "AQkADAAAAF8AAACA", "round": 3, "prunable": true}
{"pass_through_sends": false, "timeout_disallowed": false, "time": [1398214556, 147567], "controller_id": "c1", "fingerprint": ["ControlMessageReceive", {"hard_timeout": 0, "actions": [], "priority": 32768, "idle_timeout": 0, "command": "delete", "out_port": 65535, "flags": 0, "class": "ofp_flow_mod", "match": "x^L,in_port:None"}, 17, ["c", "1"]], "timed_out": false, "dependent_labels": [], "ignore_whitelisted_packets": false, "dpid": 17, "label": "i177", "class": "ControlMessageReceive", "b64_packet": "AQ4ASAAAAGEAEAAfAAAAAAAAAAAAAAAAAAAAAAAAAAAAAAAAAAAAAAAAAAAAAAAAAAAAAAAAAAAAAwAAAACAAP///////wAA", "round": 3, "prunable": true}
{"pass_through_sends": false, "timeout_disallowed": false, "time": [1398214556, 147987], "controller_id": "c1", "fingerprint": ["ControlMessageReceive", {"class": "ofp_barrier_request"}, 17, ["c", "1"]], "timed_out": false, "dependent_labels": [], "ignore_whitelisted_packets": false, "dpid": 17, "label": "i178", "class": "ControlMessageReceive", "b64_packet": "ARIACAAAAGM=", "round": 3, "prunable": true}
{"pass_through_sends": false, "timeout_disallowed": false, "time": [1398214556, 148215], "controller_id": "c1", "fingerprint": ["ControlMessageReceive", {"class": "ofp_set_config"}, 3, ["c", "1"]], "timed_out": false, "dependent_labels": [], "ignore_whitelisted_packets": false, "dpid": 3, "label": "i179", "class": "ControlMessageReceive", "b64_packet": "AQkADAAAAKkAAACA", "round": 3, "prunable": true}
{"pass_through_sends": false, "timeout_disallowed": false, "time": [1398214556, 148428], "controller_id": "c1", "fingerprint": ["ControlMessageReceive", {"hard_timeout": 0, "actions": [], "priority": 32768, "idle_timeout": 0, "command": "delete", "out_port": 65535, "flags": 0, "class": "ofp_flow_mod", "match": "x^L,in_port:None"}, 3, ["c", "1"]], "timed_out": false, "dependent_labels": [], "ignore_whitelisted_packets": false, "dpid": 3, "label": "i180", "class": "ControlMessageReceive", "b64_packet": "AQ4ASAAAAKsAEAAfAAAAAAAAAAAAAAAAAAAAAAAAAAAAAAAAAAAAAAAAAAAAAAAAAAAAAAAAAAAAAwAAAACAAP///////wAA", "round": 3, "prunable": true}
{"pass_through_sends": false, "timeout_disallowed": false, "time": [1398214556, 148833], "controller_id": "c1", "fingerprint": ["ControlMessageReceive", {"class": "ofp_barrier_request"}, 3, ["c", "1"]], "timed_out": false, "dependent_labels": [], "ignore_whitelisted_packets": false, "dpid": 3, "label": "i181", "class": "ControlMessageReceive", "b64_packet": "ARIACAAAAK0=", "round": 3, "prunable": true}
{"pass_through_sends": false, "timeout_disallowed": false, "time": [1398214556, 149079], "controller_id": "c1", "fingerprint": ["ControlMessageReceive", {"class": "ofp_set_config"}, 6, ["c", "1"]], "timed_out": false, "dependent_labels": [], "ignore_whitelisted_packets": false, "dpid": 6, "label": "i182", "class": "ControlMessageReceive", "b64_packet": "AQkADAAAAJcAAACA", "round": 3, "prunable": true}
{"pass_through_sends": false, "timeout_disallowed": false, "time": [1398214556, 149291], "controller_id": "c1", "fingerprint": ["ControlMessageReceive", {"hard_timeout": 0, "actions": [], "priority": 32768, "idle_timeout": 0, "command": "delete", "out_port": 65535, "flags": 0, "class": "ofp_flow_mod", "match": "x^L,in_port:None"}, 6, ["c", "1"]], "timed_out": false, "dependent_labels": [], "ignore_whitelisted_packets": false, "dpid": 6, "label": "i183", "class": "ControlMessageReceive", "b64_packet": "AQ4ASAAAAJkAEAAfAAAAAAAAAAAAAAAAAAAAAAAAAAAAAAAAAAAAAAAAAAAAAAAAAAAAAAAAAAAAAwAAAACAAP///////wAA", "round": 3, "prunable": true}
{"pass_through_sends": false, "timeout_disallowed": false, "time": [1398214556, 149703], "controller_id": "c1", "fingerprint": ["ControlMessageReceive", {"class": "ofp_barrier_request"}, 6, ["c", "1"]], "timed_out": false, "dependent_labels": [], "ignore_whitelisted_packets": false, "dpid": 6, "label": "i184", "class": "ControlMessageReceive", "b64_packet": "ARIACAAAAJs=", "round": 3, "prunable": true}
{"pass_through_sends": false, "timeout_disallowed": false, "time": [1398214556, 149930], "controller_id": "c1", "fingerprint": ["ControlMessageReceive", {"class": "ofp_features_request"}, 8, ["c", "1"]], "timed_out": false, "dependent_labels": [], "ignore_whitelisted_packets": false, "dpid": 8, "label": "i185", "class": "ControlMessageReceive", "b64_packet": "AQUACAAAAJU=", "round": 3, "prunable": true}
{"pass_through_sends": false, "timeout_disallowed": false, "time": [1398214556, 150217], "controller_id": "c1", "fingerprint": ["ControlMessageReceive", {"class": "ofp_set_config"}, 15, ["c", "1"]], "timed_out": false, "dependent_labels": [], "ignore_whitelisted_packets": false, "dpid": 15, "label": "i186", "class": "ControlMessageReceive", "b64_packet": "AQkADAAAAGsAAACA", "round": 3, "prunable": true}
{"pass_through_sends": false, "timeout_disallowed": false, "time": [1398214556, 150431], "controller_id": "c1", "fingerprint": ["ControlMessageReceive", {"hard_timeout": 0, "actions": [], "priority": 32768, "idle_timeout": 0, "command": "delete", "out_port": 65535, "flags": 0, "class": "ofp_flow_mod", "match": "x^L,in_port:None"}, 15, ["c", "1"]], "timed_out": false, "dependent_labels": [], "ignore_whitelisted_packets": false, "dpid": 15, "label": "i187", "class": "ControlMessageReceive", "b64_packet": "AQ4ASAAAAG0AEAAfAAAAAAAAAAAAAAAAAAAAAAAAAAAAAAAAAAAAAAAAAAAAAAAAAAAAAAAAAAAAAwAAAACAAP///////wAA", "round": 3, "prunable": true}
{"pass_through_sends": false, "timeout_disallowed": false, "time": [1398214556, 150835], "controller_id": "c1", "fingerprint": ["ControlMessageReceive", {"class": "ofp_barrier_request"}, 15, ["c", "1"]], "timed_out": false, "dependent_labels": [], "ignore_whitelisted_packets": false, "dpid": 15, "label": "i188", "class": "ControlMessageReceive", "b64_packet": "ARIACAAAAG8=", "round": 3, "prunable": true}
{"pass_through_sends": false, "timeout_disallowed": false, "time": [1398214556, 151061], "controller_id": "c1", "fingerprint": ["ControlMessageReceive", {"class": "ofp_set_config"}, 2, ["c", "1"]], "timed_out": false, "dependent_labels": [], "ignore_whitelisted_packets": false, "dpid": 2, "label": "i189", "class": "ControlMessageReceive", "b64_packet": "AQkADAAAAK8AAACA", "round": 3, "prunable": true}
{"pass_through_sends": false, "timeout_disallowed": false, "time": [1398214556, 151274], "controller_id": "c1", "fingerprint": ["ControlMessageReceive", {"hard_timeout": 0, "actions": [], "priority": 32768, "idle_timeout": 0, "command": "delete", "out_port": 65535, "flags": 0, "class": "ofp_flow_mod", "match": "x^L,in_port:None"}, 2, ["c", "1"]], "timed_out": false, "dependent_labels": [], "ignore_whitelisted_packets": false, "dpid": 2, "label": "i190", "class": "ControlMessageReceive", "b64_packet": "AQ4ASAAAALEAEAAfAAAAAAAAAAAAAAAAAAAAAAAAAAAAAAAAAAAAAAAAAAAAAAAAAAAAAAAAAAAAAwAAAACAAP///////wAA", "round": 3, "prunable": true}
{"pass_through_sends": false, "timeout_disallowed": false, "time": [1398214556, 151679], "controller_id": "c1", "fingerprint": ["ControlMessageReceive", {"class": "ofp_barrier_request"}, 2, ["c", "1"]], "timed_out": false, "dependent_labels": [], "ignore_whitelisted_packets": false, "dpid": 2, "label": "i191", "class": "ControlMessageReceive", "b64_packet": "ARIACAAAALM=", "round": 3, "prunable": true}
{"pass_through_sends": false, "timeout_disallowed": false, "time": [1398214556, 151927], "controller_id": "c1", "fingerprint": ["ControlMessageSend", {"class": "ofp_barrier_reply"}, 9, ["c", "1"]], "timed_out": false, "dependent_labels": [], "ignore_whitelisted_packets": false, "dpid": 9, "label": "i192", "class": "ControlMessageSend", "b64_packet": "ARMACAAAAJM=", "round": 3, "prunable": true}
{"pass_through_sends": false, "timeout_disallowed": false, "time": [1398214556, 152103], "controller_id": "c1", "fingerprint": ["ControlMessageSend", {"reason": 2, "class": "ofp_port_status", "desc": [4, "00:00:00:00:14:04"]}, 20, ["c", "1"]], "timed_out": false, "dependent_labels": [], "ignore_whitelisted_packets": false, "dpid": 20, "label": "i193", "class": "ControlMessageSend", "b64_packet": "AQwAQAAAAFMCAAAAAAAAAAAEAAAAABQEZXRoNAAAAAAAAAAAAAAAAAAAAAAAAAAAAAAAAAAAAAAAAAAAAAAAAA==", "round": 3, "prunable": true}
{"pass_through_sends": false, "timeout_disallowed": false, "time": [1398214556, 152313], "controller_id": "c1", "fingerprint": ["ControlMessageSend", {"class": "ofp_barrier_reply"}, 20, ["c", "1"]], "timed_out": false, "dependent_labels": [], "ignore_whitelisted_packets": false, "dpid": 20, "label": "i194", "class": "ControlMessageSend", "b64_packet": "ARMACAAAAFE=", "round": 3, "prunable": true}
{"pass_through_sends": false, "timeout_disallowed": false, "time": [1398214556, 152499], "controller_id": "c1", "fingerprint": ["ControlMessageSend", {"reason": 2, "class": "ofp_port_status", "desc": [5, "00:00:00:00:08:01"]}, 1, ["c", "1"]], "timed_out": true, "dependent_labels": [], "ignore_whitelisted_packets": false, "dpid": 1, "label": "i195", "class": "ControlMessageSend", "b64_packet": "AQwAQAAAAFsCAAAAAAAAAAAFAAAAAAgBZXRoNQAAAAAAAAAAAAAAAAAAAAAAAAAAAAAAAAAAAAAAAAAAAAAAAA==", "round": 3, "prunable": true}
{"pass_through_sends": false, "timeout_disallowed": false, "time": [1398214556, 152718], "controller_id": "c1", "fingerprint": ["ControlMessageSend", {"data": {"dl_dst": "00:00:00:03:01:01", "nw_src": "123.3.1.1", "dl_src": "00:00:00:03:01:01", "nw_dst": "123.3.1.1"}, "class": "ofp_packet_in", "in_port": 5}, 1, ["c", "1"]], "timed_out": true, "dependent_labels": [], "ignore_whitelisted_packets": false, "dpid": 1, "label": "i196", "class": "ControlMessageSend", "b64_packet": "AQoAaAAAAAEAAAABAGgABQAAAAAAAwEBAAAAAwEBCABFAABID6EAAEABcwx7AwEBewMBAQgABjdQaW5nUGluZ1BpbmdQaW5nUGluZ1BpbmdQaW5nUGluZ1BpbmdQaW5nUGluZ1Bpbmc=", "round": 3, "prunable": true}
{"pass_through_sends": false, "timeout_disallowed": false, "time": [1398214556, 153032], "controller_id": "c1", "fingerprint": ["ControlMessageSend", {"class": "ofp_barrier_reply"}, 1, ["c", "1"]], "timed_out": false, "dependent_labels": [], "ignore_whitelisted_packets": false, "dpid": 1, "label": "i197", "class": "ControlMessageSend", "b64_packet": "ARMACAAAALk=", "round": 3, "prunable": true}
{"pass_through_sends": false, "timeout_disallowed": false, "time": [1398214556, 153193], "controller_id": "c1", "fingerprint": ["ControlMessageSend", {"class": "ofp_barrier_reply"}, 12, ["c", "1"]], "timed_out": false, "dependent_labels": [], "ignore_whitelisted_packets": false, "dpid": 12, "label": "i198", "class": "ControlMessageSend", "b64_packet": "ARMACAAAAIE=", "round": 3, "prunable": true}
{"pass_through_sends": false, "timeout_disallowed": false, "time": [1398214556, 153350], "controller_id": "c1", "fingerprint": ["ControlMessageSend", {"class": "ofp_barrier_reply"}, 19, ["c", "1"]], "timed_out": false, "dependent_labels": [], "ignore_whitelisted_packets": false, "dpid": 19, "label": "i199", "class": "ControlMessageSend", "b64_packet": "ARMACAAAAFc=", "round": 3, "prunable": true}
{"pass_through_sends": false, "timeout_disallowed": false, "time": [1398214556, 153518], "controller_id": "c1", "fingerprint": ["ControlMessageSend", {"reason": 2, "class": "ofp_port_status", "desc": [1, "00:00:00:00:0d:01"]}, 13, ["c", "1"]], "timed_out": true, "dependent_labels": [], "ignore_whitelisted_packets": false, "dpid": 13, "label": "i200", "class": "ControlMessageSend", "b64_packet": "AQwAQAAAAEUCAAAAAAAAAAABAAAAAA0BZXRoMQAAAAAAAAAAAAAAAAAAAAAAAAABAAAAAAAAAAAAAAAAAAAAAA==", "round": 3, "prunable": true}
{"pass_through_sends": false, "timeout_disallowed": false, "time": [1398214556, 153744], "controller_id": "c1", "fingerprint": ["ControlMessageSend", {"class": "ofp_barrier_reply"}, 13, ["c", "1"]], "timed_out": false, "dependent_labels": [], "ignore_whitelisted_packets": false, "dpid": 13, "label": "i201", "class": "ControlMessageSend", "b64_packet": "ARMACAAAAHs=", "round": 3, "prunable": true}
{"pass_through_sends": false, "timeout_disallowed": false, "time": [1398214556, 153916], "controller_id": "c1", "fingerprint": ["ControlMessageSend", {"reason": 2, "class": "ofp_port_status", "desc": [3, "00:00:00:00:12:03"]}, 18, ["c", "1"]], "timed_out": true, "dependent_labels": [], "ignore_whitelisted_packets": false, "dpid": 18, "label": "i202", "class": "ControlMessageSend", "b64_packet": "AQwAQAAAAE0CAAAAAAAAAAADAAAAABIDZXRoMwAAAAAAAAAAAAAAAAAAAAAAAAABAAAAAAAAAAAAAAAAAAAAAA==", "round": 3, "prunable": true}
{"pass_through_sends": false, "timeout_disallowed": false, "time": [1398214556, 154132], "controller_id": "c1", "fingerprint": ["ControlMessageSend", {"reason": 2, "class": "ofp_port_status", "desc": [4, "00:00:00:00:12:04"]}, 18, ["c", "1"]], "timed_out": true, "dependent_labels": [], "ignore_whitelisted_packets": false, "dpid": 18, "label": "i203", "class": "ControlMessageSend", "b64_packet": "AQwAQAAAAFECAAAAAAAAAAAEAAAAABIEZXRoNAAAAAAAAAAAAAAAAAAAAAAAAAAAAAAAAAAAAAAAAAAAAAAAAA==", "round": 3, "prunable": true}
{"pass_through_sends": false, "timeout_disallowed": false, "time": [1398214556, 154355], "controller_id": "c1", "fingerprint": ["ControlMessageSend", {"class": "ofp_barrier_reply"}, 18, ["c", "1"]], "timed_out": false, "dependent_labels": [], "ignore_whitelisted_packets": false, "dpid": 18, "label": "i204", "class": "ControlMessageSend", "b64_packet": "ARMACAAAAF0=", "round": 3, "prunable": true}
{"pass_through_sends": false, "timeout_disallowed": false, "time": [1398214556, 154518], "controller_id": "c1", "fingerprint": ["ControlMessageSend", {"class": "ofp_barrier_reply"}, 4, ["c", "1"]], "timed_out": false, "dependent_labels": [], "ignore_whitelisted_packets": false, "dpid": 4, "label": "i205", "class": "ControlMessageSend", "b64_packet": "ARMACAAAAKc=", "round": 3, "prunable": true}
{"pass_through_sends": false, "timeout_disallowed": false, "time": [1398214556, 154676], "controller_id": "c1", "fingerprint": ["ControlMessageSend", {"class": "ofp_barrier_reply"}, 11, ["c", "1"]], "timed_out": false, "dependent_labels": [], "ignore_whitelisted_packets": false, "dpid": 11, "label": "i206", "class": "ControlMessageSend", "b64_packet": "ARMACAAAAIc=", "round": 3, "prunable": true}
{"pass_through_sends": false, "timeout_disallowed": false, "time": [1398214556, 154834], "controller_id": "c1", "fingerprint": ["ControlMessageSend", {"class": "ofp_barrier_reply"}, 14, ["c", "1"]], "timed_out": false, "dependent_labels": [], "ignore_whitelisted_packets": false, "dpid": 14, "label": "i207", "class": "ControlMessageSend", "b64_packet": "ARMACAAAAHU=", "round": 3, "prunable": true}
{"pass_through_sends": false, "timeout_disallowed": false, "time": [1398214556, 155006], "controller_id": "c1", "fingerprint": ["ControlMessageSend", {"reason": 2, "class": "ofp_port_status", "desc": [4, "00:00:00:00:05:04"]}, 5, ["c", "1"]], "timed_out": false, "dependent_labels": [], "ignore_whitelisted_packets": false, "dpid": 5, "label": "i208", "class": "ControlMessageSend", "b64_packet": "AQwAQAAAAFcCAAAAAAAAAAAEAAAAAAUEZXRoNAAAAAAAAAAAAAAAAAAAAAAAAAAAAAAAAAAAAAAAAAAAAAAAAA==", "round": 3, "prunable": true}
{"pass_through_sends": false, "timeout_disallowed": false, "time": [1398214556, 155222], "controller_id": "c1", "fingerprint": ["ControlMessageSend", {"reason": 2, "class": "ofp_port_status", "desc": [5, "00:00:00:00:06:01"]}, 5, ["c", "1"]], "timed_out": true, "dependent_labels": [], "ignore_whitelisted_packets": false, "dpid": 5, "label": "i209", "class": "ControlMessageSend", "b64_packet": "AQwAQAAAAF8CAAAAAAAAAAAFAAAAAAYBZXRoNQAAAAAAAAAAAAAAAAAAAAAAAAAAAAAAAAAAAAAAAAAAAAAAAA==", "round": 3, "prunable": true}
{"pass_through_sends": false, "timeout_disallowed": false, "time": [1398214556, 155441], "controller_id": "c1", "fingerprint": ["ControlMessageSend", {"data": {"dl_dst": "00:00:00:02:01:01", "nw_src": "123.2.1.1", "dl_src": "00:00:00:02:01:01", "nw_dst": "123.2.1.1"}, "class": "ofp_packet_in", "in_port": 5}, 5, ["c", "1"]], "timed_out": true, "dependent_labels": [], "ignore_whitelisted_packets": false, "dpid": 5, "label": "i210", "class": "ControlMessageSend", "b64_packet": "AQoAaAAAAAEAAAABAGgABQAAAAAAAgEBAAAAAgEBCABFAABID6IAAEABcw17AgEBewIBAQAADjdQaW5nUGluZ1BpbmdQaW5nUGluZ1BpbmdQaW5nUGluZ1BpbmdQaW5nUGluZ1Bpbmc=", "round": 3, "prunable": true}
{"pass_through_sends": false, "timeout_disallowed": false, "time": [1398214556, 155757], "controller_id": "c1", "fingerprint": ["ControlMessageSend", {"class": "ofp_barrier_reply"}, 5, ["c", "1"]], "timed_out": false, "dependent_labels": [], "ignore_whitelisted_packets": false, "dpid": 5, "label": "i211", "class": "ControlMessageSend", "b64_packet": "ARMACAAAAKE=", "round": 3, "prunable": true}
{"pass_through_sends": false, "timeout_disallowed": false, "time": [1398214556, 155931], "controller_id": "c1", "fingerprint": ["ControlMessageSend", {"reason": 2, "class": "ofp_port_status", "desc": [1, "00:00:00:00:10:01"]}, 16, ["c", "1"]], "timed_out": true, "dependent_labels": [], "ignore_whitelisted_packets": false, "dpid": 16, "label": "i212", "class": "ControlMessageSend", "b64_packet": "AQwAQAAAAEkCAAAAAAAAAAABAAAAABABZXRoMQAAAAAAAAAAAAAAAAAAAAAAAAABAAAAAAAAAAAAAAAAAAAAAA==", "round": 3, "prunable": true}
{"pass_through_sends": false, "timeout_disallowed": false, "time": [1398214556, 156154], "controller_id": "c1", "fingerprint": ["ControlMessageSend", {"class": "ofp_barrier_reply"}, 16, ["c", "1"]], "timed_out": false, "dependent_labels": [], "ignore_whitelisted_packets": false, "dpid": 16, "label": "i213", "class": "ControlMessageSend", "b64_packet": "ARMACAAAAGk=", "round": 3, "prunable": true}
{"pass_through_sends": false, "timeout_disallowed": false, "time": [1398214556, 156328], "controller_id": "c1", "fingerprint": ["ControlMessageSend", {"reason": 2, "class": "ofp_port_status", "desc": [2, "00:00:00:00:0a:02"]}, 10, ["c", "1"]], "timed_out": true, "dependent_labels": [], "ignore_whitelisted_packets": false, "dpid": 10, "label": "i214", "class": "ControlMessageSend", "b64_packet": "AQwAQAAAAEMCAAAAAAAAAAACAAAAAAoCZXRoMgAAAAAAAAAAAAAAAAAAAAAAAAABAAAAAAAAAAAAAAAAAAAAAA==", "round": 3, "prunable": true}
{"pass_through_sends": false, "timeout_disallowed": false, "time": [1398214556, 156539], "controller_id": "c1", "fingerprint": ["ControlMessageSend", {"class": "ofp_barrier_reply"}, 10, ["c", "1"]], "timed_out": false, "dependent_labels": [], "ignore_whitelisted_packets": false, "dpid": 10, "label": "i215", "class": "ControlMessageSend", "b64_packet": "ARMACAAAAI0=", "round": 3, "prunable": true}
{"pass_through_sends": false, "timeout_disallowed": false, "time": [1398214556, 156711], "controller_id": "c1", "fingerprint": ["ControlMessageSend", {"reason": 2, "class": "ofp_port_status", "desc": [3, "00:00:00:00:11:03"]}, 17, ["c", "1"]], "timed_out": true, "dependent_labels": [], "ignore_whitelisted_packets": false, "dpid": 17, "label": "i216", "class": "ControlMessageSend", "b64_packet": "AQwAQAAAAE8CAAAAAAAAAAADAAAAABEDZXRoMwAAAAAAAAAAAAAAAAAAAAAAAAAAAAAAAAAAAAAAAAAAAAAAAA==", "round": 3, "prunable": true}
{"pass_through_sends": false, "timeout_disallowed": false, "time": [1398214556, 156922], "controller_id": "c1", "fingerprint": ["ControlMessageSend", {"class": "ofp_barrier_reply"}, 17, ["c", "1"]], "timed_out": false, "dependent_labels": [], "ignore_whitelisted_packets": false, "dpid": 17, "label": "i217", "class": "ControlMessageSend", "b64_packet": "ARMACAAAAGM=", "round": 3, "prunable": true}
{"pass_through_sends": false, "timeout_disallowed": false, "time": [1398214556, 157086], "controller_id": "c1", "fingerprint": ["ControlMessageSend", {"class": "ofp_barrier_reply"}, 3, ["c", "1"]], "timed_out": false, "dependent_labels": [], "ignore_whitelisted_packets": false, "dpid": 3, "label": "i218", "class": "ControlMessageSend", "b64_packet": "ARMACAAAAK0=", "round": 3, "prunable": true}
{"pass_through_sends": false, "timeout_disallowed": false, "time": [1398214556, 157259], "controller_id": "c1", "fingerprint": ["ControlMessageSend", {"reason": 2, "class": "ofp_port_status", "desc": [3, "00:00:00:00:06:03"]}, 6, ["c", "1"]], "timed_out": false, "dependent_labels": [], "ignore_whitelisted_packets": false, "dpid": 6, "label": "i219", "class": "ControlMessageSend", "b64_packet": "AQwAQAAAAFUCAAAAAAAAAAADAAAAAAYDZXRoMwAAAAAAAAAAAAAAAAAAAAAAAAAAAAAAAAAAAAAAAAAAAAAAAA==", "round": 3, "prunable": true}
{"pass_through_sends": false, "timeout_disallowed": false, "time": [1398214556, 157477], "controller_id": "c1", "fingerprint": ["ControlMessageSend", {"reason": 2, "class": "ofp_port_status", "desc": [1, "00:00:00:00:06:01"]}, 6, ["c", "1"]], "timed_out": true, "dependent_labels": [], "ignore_whitelisted_packets": false, "dpid": 6, "label": "i220", "class": "ControlMessageSend", "b64_packet": "AQwAQAAAAF0CAAAAAAAAAAABAAAAAAYBZXRoMQAAAAAAAAAAAAAAAAAAAAAAAAABAAAAAAAAAAAAAAAAAAAAAA==", "round": 3, "prunable": true}
{"pass_through_sends": false, "timeout_disallowed": false, "time": [1398214556, 157698], "controller_id": "c1", "fingerprint": ["ControlMessageSend", {"class": "ofp_barrier_reply"}, 6, ["c", "1"]], "timed_out": false, "dependent_labels": [], "ignore_whitelisted_packets": false, "dpid": 6, "label": "i221", "class": "ControlMessageSend", "b64_packet": "ARMACAAAAJs=", "round": 3, "prunable": true}
{"pass_through_sends": false, "timeout_disallowed": false, "time": [1398214556, 157885], "controller_id": "c1", "fingerprint": ["ControlMessageSend", {"reason": 2, "class": "ofp_port_status", "desc": [1, "00:00:00:00:08:01"]}, 8, ["c", "1"]], "timed_out": true, "dependent_labels": [], "ignore_whitelisted_packets": false, "dpid": 8, "label": "i222", "class": "ControlMessageSend", "b64_packet": "AQwAQAAAAFkCAAAAAAAAAAABAAAAAAgBZXRoMQAAAAAAAAAAAAAAAAAAAAAAAAABAAAAAAAAAAAAAAAAAAAAAA==", "round": 3, "prunable": true}
{"pass_through_sends": false, "timeout_disallowed": false, "time": [1398214556, 158304], "controller_id": "c1", "fingerprint": ["ControlMessageSend", {"datapath_id": 8, "class": "ofp_features_reply"}, 8, ["c", "1"]], "timed_out": false, "dependent_labels": [], "ignore_whitelisted_packets": false, "dpid": 8, "label": "i223", "class": "ControlMessageSend", "b64_packet": "AQYBEAAAAJUAAAAAAAAACAAAAGQBAAAAAAAA7wAAB/8AAQAAAAAIAWV0aDEAAAAAAAAAAAAAAAAAAAAAAAAAAQAAAAAAAAAAAAAAAAAAAAAAAgAAAAAIAmV0aDIAAAAAAAAAAAAAAAAAAAAAAAAAAAAAAAAAAAAAAAAAAAAAAAAAAwAAAAAIA2V0aDMAAAAAAAAAAAAAAAAAAAAAAAAAAAAAAAAAAAAAAAAAAAAAAAAABAAAAAAIBGV0aDQAAAAAAAAAAAAAAAAAAAAAAAAAAAAAAAAAAAAAAAAAAAAAAAAABQAAAAABAmV0aDUAAAAAAAAAAAAAAAAAAAAAAAAAAAAAAAAAAAAAAAAAAAAAAAA=", "round": 3, "prunable": true}
{"pass_through_sends": false, "timeout_disallowed": false, "time": [1398214556, 158540], "controller_id": "c1", "fingerprint": ["ControlMessageSend", {"reason": 2, "class": "ofp_port_status", "desc": [2, "00:00:00:00:0f:02"]}, 15, ["c", "1"]], "timed_out": true, "dependent_labels": [], "ignore_whitelisted_packets": false, "dpid": 15, "label": "i224", "class": "ControlMessageSend", "b64_packet": "AQwAQAAAAEcCAAAAAAAAAAACAAAAAA8CZXRoMgAAAAAAAAAAAAAAAAAAAAAAAAABAAAAAAAAAAAAAAAAAAAAAA==", "round": 3, "prunable": true}
{"pass_through_sends": false, "timeout_disallowed": false, "time": [1398214556, 158759], "controller_id": "c1", "fingerprint": ["ControlMessageSend", {"reason": 2, "class": "ofp_port_status", "desc": [1, "00:00:00:00:0f:01"]}, 15, ["c", "1"]], "timed_out": true, "dependent_labels": [], "ignore_whitelisted_packets": false, "dpid": 15, "label": "i225", "class": "ControlMessageSend", "b64_packet": "AQwAQAAAAEsCAAAAAAAAAAABAAAAAA8BZXRoMQAAAAAAAAAAAAAAAAAAAAAAAAABAAAAAAAAAAAAAAAAAAAAAA==", "round": 3, "prunable": true}
{"pass_through_sends": false, "timeout_disallowed": false, "time": [1398214556, 158970], "controller_id": "c1", "fingerprint": ["ControlMessageSend", {"class": "ofp_barrier_reply"}, 15, ["c", "1"]], "timed_out": false, "dependent_labels": [], "ignore_whitelisted_packets": false, "dpid": 15, "label": "i226", "class": "ControlMessageSend", "b64_packet": "ARMACAAAAG8=", "round": 3, "prunable": true}
{"pass_through_sends": false, "timeout_disallowed": false, "time": [1398214556, 159132], "controller_id": "c1", "fingerprint": ["ControlMessageSend", {"class": "ofp_barrier_reply"}, 2, ["c", "1"]], "timed_out": false, "dependent_labels": [], "ignore_whitelisted_packets": false, "dpid": 2, "label": "i227", "class": "ControlMessageSend", "b64_packet": "ARMACAAAALM=", "round": 3, "prunable": true}
{"timeout_disallowed": false, "fingerprint": ["DataplanePermit", {"dl_dst": "00:00:00:01:01:01", "nw_src": "123.1.1.1", "dl_src": "00:00:00:01:01:01", "nw_dst": "123.1.1.1"}, 7, "00:00:00:01:01:01"], "timed_out": true, "label": "i238", "passive": true, "dependent_labels": [], "time": [1398214556, 262981], "class": "DataplanePermit", "round": 4, "prunable": true}
{"pass_through_sends": false, "timeout_disallowed": false, "time": [1398214556, 264494], "controller_id": "c1", "fingerprint": ["ControlMessageSend", {"reason": 2, "class": "ofp_port_status", "desc": [1, "00:00:00:00:04:01"]}, 4, ["c", "1"]], "timed_out": true, "dependent_labels": [], "ignore_whitelisted_packets": false, "dpid": 4, "label": "i241", "class": "ControlMessageSend", "b64_packet": "AQwAQAAAAG8CAAAAAAAAAAABAAAAAAQBZXRoMQAAAAAAAAAAAAAAAAAAAAAAAAABAAAAAAAAAAAAAAAAAAAAAA==", "round": 4, "prunable": true}
{"pass_through_sends": false, "timeout_disallowed": false, "time": [1398214556, 264877], "controller_id": "c1", "fingerprint": ["ControlMessageSend", {"reason": 2, "class": "ofp_port_status", "desc": [3, "00:00:00:00:0e:03"]}, 14, ["c", "1"]], "timed_out": true, "dependent_labels": [], "ignore_whitelisted_packets": false, "dpid": 14, "label": "i242", "class": "ControlMessageSend", "b64_packet": "AQwAQAAAAGUCAAAAAAAAAAADAAAAAA4DZXRoMwAAAAAAAAAAAAAAAAAAAAAAAAAAAAAAAAAAAAAAAAAAAAAAAA==", "round": 4, "prunable": true}
{"pass_through_sends": false, "timeout_disallowed": false, "time": [1398214556, 265275], "controller_id": "c1", "fingerprint": ["ControlMessageSend", {"reason": 2, "class": "ofp_port_status", "desc": [3, "00:00:00:00:05:03"]}, 5, ["c", "1"]], "timed_out": true, "dependent_labels": [], "ignore_whitelisted_packets": false, "dpid": 5, "label": "i243", "class": "ControlMessageSend", "b64_packet": "AQwAQAAAAGECAAAAAAAAAAADAAAAAAUDZXRoMwAAAAAAAAAAAAAAAAAAAAAAAAABAAAAAAAAAAAAAAAAAAAAAA==", "round": 4, "prunable": true}
{"pass_through_sends": false, "timeout_disallowed": false, "time": [1398214556, 265651], "controller_id": "c1", "fingerprint": ["ControlMessageSend", {"reason": 2, "class": "ofp_port_status", "desc": [1, "00:00:00:00:10:01"]}, 16, ["c", "1"]], "timed_out": true, "dependent_labels": [], "ignore_whitelisted_packets": false, "dpid": 16, "label": "i244", "class": "ControlMessageSend", "b64_packet": "AQwAQAAAAGcCAAAAAAAAAAABAAAAABABZXRoMQAAAAAAAAAAAAAAAAAAAAAAAAAAAAAAAAAAAAAAAAAAAAAAAA==", "round": 4, "prunable": true}
{"pass_through_sends": false, "timeout_disallowed": false, "time": [1398214556, 266054], "controller_id": "c1", "fingerprint": ["ControlMessageSend", {"reason": 2, "class": "ofp_port_status", "desc": [2, "00:00:00:00:0a:02"]}, 10, ["c", "1"]], "timed_out": true, "dependent_labels": [], "ignore_whitelisted_packets": false, "dpid": 10, "label": "i245", "class": "ControlMessageSend", "b64_packet": "AQwAQAAAAGkCAAAAAAAAAAACAAAAAAoCZXRoMgAAAAAAAAAAAAAAAAAAAAAAAAAAAAAAAAAAAAAAAAAAAAAAAA==", "round": 4, "prunable": true}
{"pass_through_sends": false, "timeout_disallowed": false, "time": [1398214556, 266429], "controller_id": "c1", "fingerprint": ["ControlMessageSend", {"reason": 2, "class": "ofp_port_status", "desc": [3, "00:00:00:00:06:03"]}, 6, ["c", "1"]], "timed_out": true, "dependent_labels": [], "ignore_whitelisted_packets": false, "dpid": 6, "label": "i246", "class": "ControlMessageSend", "b64_packet": "AQwAQAAAAGMCAAAAAAAAAAADAAAAAAYDZXRoMwAAAAAAAAAAAAAAAAAAAAAAAAABAAAAAAAAAAAAAAAAAAAAAA==", "round": 4, "prunable": true}
{"pass_through_sends": false, "timeout_disallowed": false, "time": [1398214556, 266790], "controller_id": "c1", "fingerprint": ["ControlMessageSend", {"reason": 2, "class": "ofp_port_status", "desc": [7, "00:00:00:00:04:01"]}, 6, ["c", "1"]], "timed_out": true, "dependent_labels": [], "ignore_whitelisted_packets": false, "dpid": 6, "label": "i247", "class": "ControlMessageSend", "b64_packet": "AQwAQAAAAHECAAAAAAAAAAAHAAAAAAQBZXRoNwAAAAAAAAAAAAAAAAAAAAAAAAAAAAAAAAAAAAAAAAAAAAAAAA==", "round": 4, "prunable": true}
{"pass_through_sends": false, "timeout_disallowed": false, "time": [1398214556, 267152], "controller_id": "c1", "fingerprint": ["ControlMessageSend", {"data": {"dl_dst": "00:00:00:01:01:01", "nw_src": "123.1.1.1", "dl_src": "00:00:00:01:01:01", "nw_dst": "123.1.1.1"}, "class": "ofp_packet_in", "in_port": 7}, 6, ["c", "1"]], "timed_out": true, "dependent_labels": [], "ignore_whitelisted_packets": false, "dpid": 6, "label": "i248", "class": "ControlMessageSend", "b64_packet": "AQoAaAAAAAMAAAADAGgABwAAAAAAAQEBAAAAAQEBCABFAABID6UAAEABcwx7AQEBewEBAQAADjdQaW5nUGluZ1BpbmdQaW5nUGluZ1BpbmdQaW5nUGluZ1BpbmdQaW5nUGluZ1Bpbmc=", "round": 4, "prunable": true}
{"pass_through_sends": false, "timeout_disallowed": false, "time": [1398214556, 267715], "controller_id": "c1", "fingerprint": ["ControlMessageSend", {"reason": 2, "class": "ofp_port_status", "desc": [1, "00:00:00:00:0f:01"]}, 15, ["c", "1"]], "timed_out": true, "dependent_labels": [], "ignore_whitelisted_packets": false, "dpid": 15, "label": "i249", "class": "ControlMessageSend", "b64_packet": "AQwAQAAAAGsCAAAAAAAAAAABAAAAAA8BZXRoMQAAAAAAAAAAAAAAAAAAAAAAAAAAAAAAAAAAAAAAAAAAAAAAAA==", "round": 4, "prunable": true}
{"pass_through_sends": false, "timeout_disallowed": false, "time": [1398214556, 268077], "controller_id": "c1", "fingerprint": ["ControlMessageSend", {"reason": 2, "class": "ofp_port_status", "desc": [2, "00:00:00:00:0f:02"]}, 15, ["c", "1"]], "timed_out": true, "dependent_labels": [], "ignore_whitelisted_packets": false, "dpid": 15, "label": "i250", "class": "ControlMessageSend", "b64_packet": "AQwAQAAAAG0CAAAAAAAAAAACAAAAAA8CZXRoMgAAAAAAAAAAAAAAAAAAAAAAAAAAAAAAAAAAAAAAAAAAAAAAAA==", "round": 4, "prunable": true}
{"end_port_no": 1, "dependent_labels": [], "start_dpid": 9, "fingerprint": ["LinkRecovery", 9, 3, 17, 1], "timed_out": false, "label": "e260", "start_port_no": 3, "end_dpid": 17, "time": [1398214556, 272850], "class": "LinkRecovery", "round": 4, "prunable": true}
{"class": "InvariantViolation", "fingerprint": ["InvariantViolation"], "persistent": true, "timed_out": false, "dependent_labels": [], "time": [1398214556, 273582], "violations": ["c1"], "label": "e262", "round": 4, "prunable": true}
{"wait_time": 1.0, "dependent_labels": [], "fingerprint": ["WaitTime"], "time": [1398214556, 273582], "class": "WaitTime", "prunable": true, "timed_out": false, "round": -1, "label": "e267"}
