{"timeout_disallowed": true, "fingerprint": ["ConnectToControllers"], "timed_out": false, "label": "e1", "dependent_labels": [], "time": [1390800573, 85613], "replay_time": [1390804127, 889242], "class": "ConnectToControllers", "round": 0, "prunable": false}
{"pass_through_sends": false, "timeout_disallowed": false, "time": [1390800573, 93258], "controller_id": "c1", "fingerprint": ["ControlMessageReceive", {"class": "ofp_hello"}, 3, ["c", "1"]], "timed_out": false, "dependent_labels": [], "ignore_whitelisted_packets": false, "dpid": 3, "replay_time": [1390804127, 891905], "label": "i2", "class": "ControlMessageReceive", "b64_packet": "AQAACAAAAAU=", "round": 1, "prunable": true}
{"pass_through_sends": false, "timeout_disallowed": false, "time": [1390800573, 94031], "controller_id": "c1", "fingerprint": ["ControlMessageReceive", {"class": "ofp_hello"}, 2, ["c", "1"]], "timed_out": false, "dependent_labels": [], "ignore_whitelisted_packets": false, "dpid": 2, "replay_time": [1390804127, 892858], "label": "i3", "class": "ControlMessageReceive", "b64_packet": "AQAACAAAAAM=", "round": 1, "prunable": true}
{"pass_through_sends": false, "timeout_disallowed": false, "time": [1390800573, 94534], "controller_id": "c1", "fingerprint": ["ControlMessageReceive", {"class": "ofp_hello"}, 1, ["c", "1"]], "timed_out": false, "dependent_labels": [], "ignore_whitelisted_packets": false, "dpid": 1, "replay_time": [1390804127, 893618], "label": "i4", "class": "ControlMessageReceive", "b64_packet": "AQAACAAAAAE=", "round": 1, "prunable": true}
{"pass_through_sends": false, "timeout_disallowed": false, "time": [1390800573, 94775], "controller_id": "c1", "fingerprint": ["ControlMessageSend", {"class": "ofp_hello"}, 3, ["c", "1"]], "timed_out": false, "dependent_labels": [], "ignore_whitelisted_packets": false, "dpid": 3, "replay_time": [1390804127, 894313], "label": "i5", "class": "ControlMessageSend", "b64_packet": "AQAACAAAAAE=", "round": 1, "prunable": true}
{"pass_through_sends": false, "timeout_disallowed": false, "time": [1390800573, 94966], "controller_id": "c1", "fingerprint": ["ControlMessageSend", {"class": "ofp_hello"}, 2, ["c", "1"]], "timed_out": false, "dependent_labels": [], "ignore_whitelisted_packets": false, "dpid": 2, "replay_time": [1390804127, 894930], "label": "i6", "class": "ControlMessageSend", "b64_packet": "AQAACAAAAAM=", "round": 1, "prunable": true}
{"pass_through_sends": false, "timeout_disallowed": false, "time": [1390800573, 95134], "controller_id": "c1", "fingerprint": ["ControlMessageSend", {"class": "ofp_hello"}, 1, ["c", "1"]], "timed_out": false, "dependent_labels": [], "ignore_whitelisted_packets": false, "dpid": 1, "replay_time": [1390804127, 895541], "label": "i7", "class": "ControlMessageSend", "b64_packet": "AQAACAAAAAU=", "round": 1, "prunable": true}
{"pass_through_sends": false, "timeout_disallowed": false, "time": [1390800573, 195651], "controller_id": "c1", "fingerprint": ["ControlMessageReceive", {"class": "ofp_features_request"}, 3, ["c", "1"]], "timed_out": false, "dependent_labels": [], "ignore_whitelisted_packets": false, "dpid": 3, "replay_time": [1390804127, 897677], "label": "i8", "class": "ControlMessageReceive", "b64_packet": "AQUACAAAAAc=", "round": 2, "prunable": true}
{"pass_through_sends": false, "timeout_disallowed": false, "time": [1390800573, 196340], "controller_id": "c1", "fingerprint": ["ControlMessageReceive", {"class": "ofp_features_request"}, 2, ["c", "1"]], "timed_out": false, "dependent_labels": [], "ignore_whitelisted_packets": false, "dpid": 2, "replay_time": [1390804127, 899214], "label": "i9", "class": "ControlMessageReceive", "b64_packet": "AQUACAAAAAk=", "round": 2, "prunable": true}
{"pass_through_sends": false, "timeout_disallowed": false, "time": [1390800573, 196877], "controller_id": "c1", "fingerprint": ["ControlMessageReceive", {"class": "ofp_features_request"}, 1, ["c", "1"]], "timed_out": false, "dependent_labels": [], "ignore_whitelisted_packets": false, "dpid": 1, "replay_time": [1390804127, 935193], "label": "i10", "class": "ControlMessageReceive", "b64_packet": "AQUACAAAAAs=", "round": 2, "prunable": true}
{"pass_through_sends": false, "timeout_disallowed": false, "time": [1390800573, 197455], "controller_id": "c1", "fingerprint": ["ControlMessageSend", {"datapath_id": 3, "class": "ofp_features_reply"}, 3, ["c", "1"]], "timed_out": false, "dependent_labels": [], "ignore_whitelisted_packets": false, "dpid": 3, "replay_time": [1390804127, 936023], "label": "i11", "class": "ControlMessageSend", "b64_packet": "AQYAsAAAAAcAAAAAAAAAAwAAAGQBAAAAAAAA7wAAB/8AAQAAAAADAWV0aDEAAAAAAAAAAAAAAAAAAAAAAAAAAAAAAAAAAAAAAAAAAAAAAAAAAgAAAAADAmV0aDIAAAAAAAAAAAAAAAAAAAAAAAAAAAAAAAAAAAAAAAAAAAAAAAAAAwAAAAADA2V0aDMAAAAAAAAAAAAAAAAAAAAAAAAAAAAAAAAAAAAAAAAAAAAAAAA=", "round": 2, "prunable": true}
{"pass_through_sends": false, "timeout_disallowed": false, "time": [1390800573, 197984], "controller_id": "c1", "fingerprint": ["ControlMessageSend", {"datapath_id": 2, "class": "ofp_features_reply"}, 2, ["c", "1"]], "timed_out": false, "dependent_labels": [], "ignore_whitelisted_packets": false, "dpid": 2, "replay_time": [1390804127, 936887], "label": "i12", "class": "ControlMessageSend", "b64_packet": "AQYAsAAAAAkAAAAAAAAAAgAAAGQBAAAAAAAA7wAAB/8AAQAAAAACAWV0aDEAAAAAAAAAAAAAAAAAAAAAAAAAAAAAAAAAAAAAAAAAAAAAAAAAAgAAAAACAmV0aDIAAAAAAAAAAAAAAAAAAAAAAAAAAAAAAAAAAAAAAAAAAAAAAAAAAwAAAAACA2V0aDMAAAAAAAAAAAAAAAAAAAAAAAAAAAAAAAAAAAAAAAAAAAAAAAA=", "round": 2, "prunable": true}
{"pass_through_sends": false, "timeout_disallowed": false, "time": [1390800573, 198502], "controller_id": "c1", "fingerprint": ["ControlMessageSend", {"datapath_id": 1, "class": "ofp_features_reply"}, 1, ["c", "1"]], "timed_out": false, "dependent_labels": [], "ignore_whitelisted_packets": false, "dpid": 1, "replay_time": [1390804127, 937745], "label": "i13", "class": "ControlMessageSend", "b64_packet": "AQYAsAAAAAsAAAAAAAAAAQAAAGQBAAAAAAAA7wAAB/8AAQAAAAABAWV0aDEAAAAAAAAAAAAAAAAAAAAAAAAAAAAAAAAAAAAAAAAAAAAAAAAAAgAAAAABAmV0aDIAAAAAAAAAAAAAAAAAAAAAAAAAAAAAAAAAAAAAAAAAAAAAAAAAAwAAAAABA2V0aDMAAAAAAAAAAAAAAAAAAAAAAAAAAAAAAAAAAAAAAAAAAAAAAAA=", "round": 2, "prunable": true}
{"pass_through_sends": false, "timeout_disallowed": false, "time": [1390800573, 299300], "controller_id": "c1", "fingerprint": ["ControlMessageReceive", {"class": "ofp_set_config"}, 1, ["c", "1"]], "timed_out": false, "dependent_labels": [], "ignore_whitelisted_packets": false, "dpid": 1, "replay_time": [1390804127, 979664], "label": "i14", "class": "ControlMessageReceive", "b64_packet": "AQkADAAAABkAAACA", "round": 3, "prunable": true}
{"pass_through_sends": false, "timeout_disallowed": false, "time": [1390800573, 299723], "controller_id": "c1", "fingerprint": ["ControlMessageReceive", {"class": "ofp_barrier_request"}, 3, ["c", "1"]], "timed_out": false, "dependent_labels": [], "ignore_whitelisted_packets": false, "dpid": 3, "replay_time": [1390804127, 980615], "label": "i15", "class": "ControlMessageReceive", "b64_packet": "ARIACAAAABE=", "round": 3, "prunable": true}
{"pass_through_sends": false, "timeout_disallowed": false, "time": [1390800573, 300298], "controller_id": "c1", "fingerprint": ["ControlMessageReceive", {"hard_timeout": 0, "actions": [], "priority": 32768, "idle_timeout": 0, "command": "delete", "out_port": 65535, "flags": 0, "class": "ofp_flow_mod", "match": "x^L,in_port:None"}, 1, ["c", "1"]], "timed_out": false, "dependent_labels": [], "ignore_whitelisted_packets": false, "dpid": 1, "replay_time": [1390804127, 982775], "label": "i16", "class": "ControlMessageReceive", "b64_packet": "AQ4ASAAAABsAEAAfAAAAAAAAAAAAAAAAAAAAAAAAAAAAAAAAAAAAAAAAAAAAAAAAAAAAAAAAAAAAAwAAAACAAP///////wAA", "round": 3, "prunable": true}
{"pass_through_sends": false, "timeout_disallowed": false, "time": [1390800573, 301230], "controller_id": "c1", "fingerprint": ["ControlMessageReceive", {"class": "ofp_set_config"}, 2, ["c", "1"]], "timed_out": false, "dependent_labels": [], "ignore_whitelisted_packets": false, "dpid": 2, "replay_time": [1390804127, 983897], "label": "i17", "class": "ControlMessageReceive", "b64_packet": "AQkADAAAABMAAACA", "round": 3, "prunable": true}
{"pass_through_sends": false, "timeout_disallowed": false, "time": [1390800573, 301692], "controller_id": "c1", "fingerprint": ["ControlMessageReceive", {"hard_timeout": 0, "actions": [], "priority": 32768, "idle_timeout": 0, "command": "delete", "out_port": 65535, "flags": 0, "class": "ofp_flow_mod", "match": "x^L,in_port:None"}, 2, ["c", "1"]], "timed_out": false, "dependent_labels": [], "ignore_whitelisted_packets": false, "dpid": 2, "replay_time": [1390804127, 984816], "label": "i18", "class": "ControlMessageReceive", "b64_packet": "AQ4ASAAAABUAEAAfAAAAAAAAAAAAAAAAAAAAAAAAAAAAAAAAAAAAAAAAAAAAAAAAAAAAAAAAAAAAAwAAAACAAP///////wAA", "round": 3, "prunable": true}
{"pass_through_sends": false, "timeout_disallowed": false, "time": [1390800573, 302599], "controller_id": "c1", "fingerprint": ["ControlMessageReceive", {"class": "ofp_barrier_request"}, 2, ["c", "1"]], "timed_out": false, "dependent_labels": [], "ignore_whitelisted_packets": false, "dpid": 2, "replay_time": [1390804127, 986325], "label": "i19", "class": "ControlMessageReceive", "b64_packet": "ARIACAAAABc=", "round": 3, "prunable": true}
{"pass_through_sends": false, "timeout_disallowed": false, "time": [1390800573, 303083], "controller_id": "c1", "fingerprint": ["ControlMessageReceive", {"class": "ofp_barrier_request"}, 1, ["c", "1"]], "timed_out": false, "dependent_labels": [], "ignore_whitelisted_packets": false, "dpid": 1, "replay_time": [1390804127, 986754], "label": "i20", "class": "ControlMessageReceive", "b64_packet": "ARIACAAAAB0=", "round": 3, "prunable": true}
{"pass_through_sends": false, "timeout_disallowed": false, "time": [1390800573, 303614], "controller_id": "c1", "fingerprint": ["ControlMessageReceive", {"hard_timeout": 0, "actions": [], "priority": 32768, "idle_timeout": 0, "command": "delete", "out_port": 65535, "flags": 0, "class": "ofp_flow_mod", "match": "x^L,in_port:None"}, 3, ["c", "1"]], "timed_out": false, "dependent_labels": [], "ignore_whitelisted_packets": false, "dpid": 3, "replay_time": [1390804127, 987171], "label": "i21", "class": "ControlMessageReceive", "b64_packet": "AQ4ASAAAAA8AEAAfAAAAAAAAAAAAAAAAAAAAAAAAAAAAAAAAAAAAAAAAAAAAAAAAAAAAAAAAAAAAAwAAAACAAP///////wAA", "round": 3, "prunable": true}
{"pass_through_sends": false, "timeout_disallowed": false, "time": [1390800573, 304452], "controller_id": "c1", "fingerprint": ["ControlMessageReceive", {"class": "ofp_set_config"}, 3, ["c", "1"]], "timed_out": false, "dependent_labels": [], "ignore_whitelisted_packets": false, "dpid": 3, "replay_time": [1390804127, 987646], "label": "i22", "class": "ControlMessageReceive", "b64_packet": "AQkADAAAAA0AAACA", "round": 3, "prunable": true}
{"pass_through_sends": false, "timeout_disallowed": false, "time": [1390800573, 304814], "controller_id": "c1", "fingerprint": ["ControlMessageSend", {"class": "ofp_barrier_reply"}, 3, ["c", "1"]], "timed_out": false, "dependent_labels": [], "ignore_whitelisted_packets": false, "dpid": 3, "replay_time": [1390804127, 987926], "label": "i23", "class": "ControlMessageSend", "b64_packet": "ARMACAAAABE=", "round": 3, "prunable": true}
{"pass_through_sends": false, "timeout_disallowed": false, "time": [1390800573, 305119], "controller_id": "c1", "fingerprint": ["ControlMessageSend", {"class": "ofp_barrier_reply"}, 2, ["c", "1"]], "timed_out": false, "dependent_labels": [], "ignore_whitelisted_packets": false, "dpid": 2, "replay_time": [1390804127, 988202], "label": "i24", "class": "ControlMessageSend", "b64_packet": "ARMACAAAABc=", "round": 3, "prunable": true}
{"pass_through_sends": false, "timeout_disallowed": false, "time": [1390800573, 305414], "controller_id": "c1", "fingerprint": ["ControlMessageSend", {"class": "ofp_barrier_reply"}, 1, ["c", "1"]], "timed_out": false, "dependent_labels": [], "ignore_whitelisted_packets": false, "dpid": 1, "replay_time": [1390804127, 988497], "label": "i25", "class": "ControlMessageSend", "b64_packet": "ARMACAAAAB0=", "round": 3, "prunable": true}
{"pass_through_sends": false, "timeout_disallowed": false, "time": [1390800573, 406171], "controller_id": "c1", "fingerprint": ["ControlMessageReceive", {"hard_timeout": 0, "actions": ["output(65533)"], "priority": 32768, "idle_timeout": 0, "command": "add", "out_port": 65535, "flags": 0, "class": "ofp_flow_mod", "match": "dl_dst:01:23:20:00:00:01,dl_type:35020,in_port:None"}, 2, ["c", "1"]], "timed_out": false, "dependent_labels": [], "ignore_whitelisted_packets": false, "dpid": 2, "replay_time": [1390804127, 995099], "label": "i26", "class": "ControlMessageReceive", "b64_packet": "AQ4AUAAAACcAEAAHAAAAAAAAAAABIyAAAAEAAAAAiMwAAAAAAAAAAAAAAAAAAAAAAAAAAAAAAAAAAAAAAACAAP///////wAAAAAACP/9//8=", "round": 4, "prunable": true}
{"pass_through_sends": false, "timeout_disallowed": false, "time": [1390800573, 407457], "controller_id": "c1", "fingerprint": ["ControlMessageReceive", {"hard_timeout": 0, "actions": ["output(65533)"], "priority": 32768, "idle_timeout": 0, "command": "add", "out_port": 65535, "flags": 0, "class": "ofp_flow_mod", "match": "dl_dst:01:23:20:00:00:01,dl_type:35020,in_port:None"}, 1, ["c", "1"]], "timed_out": false, "dependent_labels": [], "ignore_whitelisted_packets": false, "dpid": 1, "replay_time": [1390804128, 32335], "label": "i27", "class": "ControlMessageReceive", "b64_packet": "AQ4AUAAAAC8AEAAHAAAAAAAAAAABIyAAAAEAAAAAiMwAAAAAAAAAAAAAAAAAAAAAAAAAAAAAAAAAAAAAAACAAP///////wAAAAAACP/9//8=", "round": 4, "prunable": true}
{"pass_through_sends": false, "timeout_disallowed": false, "time": [1390800573, 408603], "controller_id": "c1", "fingerprint": ["ControlMessageReceive", {"hard_timeout": 0, "actions": ["output(65533)"], "priority": 32768, "idle_timeout": 0, "command": "add", "out_port": 65535, "flags": 0, "class": "ofp_flow_mod", "match": "dl_dst:01:23:20:00:00:01,dl_type:35020,in_port:None"}, 3, ["c", "1"]], "timed_out": false, "dependent_labels": [], "ignore_whitelisted_packets": false, "dpid": 3, "replay_time": [1390804128, 33784], "label": "i28", "class": "ControlMessageReceive", "b64_packet": "AQ4AUAAAAB8AEAAHAAAAAAAAAAABIyAAAAEAAAAAiMwAAAAAAAAAAAAAAAAAAAAAAAAAAAAAAAAAAAAAAACAAP///////wAAAAAACP/9//8=", "round": 4, "prunable": true}
{"pass_through_sends": false, "timeout_disallowed": false, "time": [1390800573, 911470], "controller_id": "c1", "fingerprint": ["ControlMessageReceive", {"in_port": 65535, "data": {"class": "lldp"}, "class": "ofp_packet_out", "actions": ["output(1)"]}, 3, ["c", "1"]], "timed_out": false, "dependent_labels": [], "ignore_whitelisted_packets": false, "dpid": 3, "replay_time": [1390804128, 552848], "label": "i29", "class": "ControlMessageReceive", "b64_packet": "AQ0AQQAAACH///////8ACAAAAAgAAQAAASMgAAABAAAAAAMBiMwCBwdkcGlkOjMEAgIxBgIAeAwGZHBpZDozAAA=", "round": 9, "prunable": true}
{"timeout_disallowed": false, "fingerprint": ["DataplanePermit", {"class": "lldp"}, 3, 1], "timed_out": false, "label": "i30", "passive": false, "dependent_labels": [], "time": [1390800573, 912414], "replay_time": [1390804128, 554859], "class": "DataplanePermit", "round": 9, "prunable": true}
{"pass_through_sends": false, "timeout_disallowed": false, "time": [1390800574, 14123], "controller_id": "c1", "fingerprint": ["ControlMessageSend", {"data": {"class": "lldp"}, "class": "ofp_packet_in", "in_port": 1}, 2, ["c", "1"]], "timed_out": false, "dependent_labels": [], "ignore_whitelisted_packets": false, "dpid": 2, "replay_time": [1390804128, 555529], "label": "i31", "class": "ControlMessageSend", "b64_packet": "AQoAOwAAAAEAAAABADsAAQEAASMgAAABAAAAAAMBiMwCBwdkcGlkOjMEAgIxBgIAeAwGZHBpZDozAAA=", "round": 10, "prunable": true}
{"pass_through_sends": false, "timeout_disallowed": false, "time": [1390800574, 115153], "controller_id": "c1", "fingerprint": ["ControlMessageReceive", {"in_port": 1, "data": [], "class": "ofp_packet_out", "actions": []}, 2, ["c", "1"]], "timed_out": false, "dependent_labels": [], "ignore_whitelisted_packets": false, "dpid": 2, "replay_time": [1390804128, 596446], "label": "i32", "class": "ControlMessageReceive", "b64_packet": "AQ0AEAAAADkAAAABAAEAAA==", "round": 11, "prunable": true}
{"pass_through_sends": false, "timeout_disallowed": false, "time": [1390800574, 115848], "controller_id": "c1", "fingerprint": ["ControlMessageReceive", {"hard_timeout": 0, "actions": [], "priority": 32768, "idle_timeout": 0, "command": "delete", "out_port": 65535, "flags": 0, "class": "ofp_flow_mod", "match": "x^L,in_port:None"}, 1, ["c", "1"]], "timed_out": false, "dependent_labels": [], "ignore_whitelisted_packets": false, "dpid": 1, "replay_time": [1390804128, 597683], "label": "i33", "class": "ControlMessageReceive", "b64_packet": "AQ4ASAAAADcAEAAfAAAAAAAAAAAAAAAAAAAAAAAAAAAAAAAAAAAAAAAAAAAAAAAAAAAAAAAAAAAAAwAAAACAAP///////wAA", "round": 11, "prunable": true}
{"pass_through_sends": false, "timeout_disallowed": false, "time": [1390800574, 116899], "controller_id": "c1", "fingerprint": ["ControlMessageReceive", {"hard_timeout": 0, "actions": [], "priority": 32768, "idle_timeout": 0, "command": "delete", "out_port": 65535, "flags": 0, "class": "ofp_flow_mod", "match": "x^L,in_port:None"}, 2, ["c", "1"]], "timed_out": false, "dependent_labels": [], "ignore_whitelisted_packets": false, "dpid": 2, "replay_time": [1390804128, 599112], "label": "i34", "class": "ControlMessageReceive", "b64_packet": "AQ4ASAAAADcAEAAfAAAAAAAAAAAAAAAAAAAAAAAAAAAAAAAAAAAAAAAAAAAAAAAAAAAAAAAAAAAAAwAAAACAAP///////wAA", "round": 11, "prunable": true}
{"pass_through_sends": false, "timeout_disallowed": false, "time": [1390800574, 117921], "controller_id": "c1", "fingerprint": ["ControlMessageReceive", {"hard_timeout": 0, "actions": [], "priority": 32768, "idle_timeout": 0, "command": "delete", "out_port": 65535, "flags": 0, "class": "ofp_flow_mod", "match": "x^L,in_port:None"}, 3, ["c", "1"]], "timed_out": false, "dependent_labels": [], "ignore_whitelisted_packets": false, "dpid": 3, "replay_time": [1390804128, 600413], "label": "i35", "class": "ControlMessageReceive", "b64_packet": "AQ4ASAAAADcAEAAfAAAAAAAAAAAAAAAAAAAAAAAAAAAAAAAAAAAAAAAAAAAAAAAAAAAAAAAAAAAAAwAAAACAAP///////wAA", "round": 11, "prunable": true}
{"pass_through_sends": false, "timeout_disallowed": false, "time": [1390800574, 520466], "controller_id": "c1", "fingerprint": ["ControlMessageReceive", {"in_port": 65535, "data": {"class": "lldp"}, "class": "ofp_packet_out", "actions": ["output(2)"]}, 3, ["c", "1"]], "timed_out": false, "dependent_labels": [], "ignore_whitelisted_packets": false, "dpid": 3, "replay_time": [1390804129, 109088], "label": "i36", "class": "ControlMessageReceive", "b64_packet": "AQ0AQQAAACP///////8ACAAAAAgAAgAAASMgAAABAAAAAAMCiMwCBwdkcGlkOjMEAgIyBgIAeAwGZHBpZDozAAA=", "round": 15, "prunable": true}
{"timeout_disallowed": false, "fingerprint": ["DataplanePermit", {"class": "lldp"}, 3, 2], "timed_out": false, "label": "i37", "passive": false, "dependent_labels": [], "time": [1390800574, 521312], "replay_time": [1390804129, 110685], "class": "DataplanePermit", "round": 15, "prunable": true}
{"pass_through_sends": false, "timeout_disallowed": false, "time": [1390800574, 622626], "controller_id": "c1", "fingerprint": ["ControlMessageSend", {"data": {"class": "lldp"}, "class": "ofp_packet_in", "in_port": 1}, 1, ["c", "1"]], "timed_out": false, "dependent_labels": [], "ignore_whitelisted_packets": false, "dpid": 1, "replay_time": [1390804129, 111355], "label": "i38", "class": "ControlMessageSend", "b64_packet": "AQoAOwAAAAEAAAABADsAAQAAASMgAAABAAAAAAMCiMwCBwdkcGlkOjMEAgIyBgIAeAwGZHBpZDozAAA=", "round": 16, "prunable": true}
{"pass_through_sends": false, "timeout_disallowed": false, "time": [1390800574, 723695], "controller_id": "c1", "fingerprint": ["ControlMessageReceive", {"hard_timeout": 0, "actions": [], "priority": 32768, "idle_timeout": 0, "command": "delete", "out_port": 65535, "flags": 0, "class": "ofp_flow_mod", "match": "x^L,in_port:None"}, 1, ["c", "1"]], "timed_out": false, "dependent_labels": [], "ignore_whitelisted_packets": false, "dpid": 1, "replay_time": [1390804129, 114708], "label": "i39", "class": "ControlMessageReceive", "b64_packet": "AQ4ASAAAADsAEAAfAAAAAAAAAAAAAAAAAAAAAAAAAAAAAAAAAAAAAAAAAAAAAAAAAAAAAAAAAAAAAwAAAACAAP///////wAA", "round": 17, "prunable": true}
{"pass_through_sends": false, "timeout_disallowed": false, "time": [1390800574, 724719], "controller_id": "c1", "fingerprint": ["ControlMessageReceive", {"hard_timeout": 0, "actions": [], "priority": 32768, "idle_timeout": 0, "command": "delete", "out_port": 65535, "flags": 0, "class": "ofp_flow_mod", "match": "x^L,in_port:None"}, 2, ["c", "1"]], "timed_out": false, "dependent_labels": [], "ignore_whitelisted_packets": false, "dpid": 2, "replay_time": [1390804129, 152473], "label": "i40", "class": "ControlMessageReceive", "b64_packet": "AQ4ASAAAADsAEAAfAAAAAAAAAAAAAAAAAAAAAAAAAAAAAAAAAAAAAAAAAAAAAAAAAAAAAAAAAAAAAwAAAACAAP///////wAA", "round": 17, "prunable": true}
{"pass_through_sends": false, "timeout_disallowed": false, "time": [1390800574, 725591], "controller_id": "c1", "fingerprint": ["ControlMessageReceive", {"in_port": 1, "data": [], "class": "ofp_packet_out", "actions": []}, 1, ["c", "1"]], "timed_out": false, "dependent_labels": [], "ignore_whitelisted_packets": false, "dpid": 1, "replay_time": [1390804129, 153758], "label": "i41", "class": "ControlMessageReceive", "b64_packet": "AQ0AEAAAAD0AAAABAAEAAA==", "round": 17, "prunable": true}
{"pass_through_sends": false, "timeout_disallowed": false, "time": [1390800574, 726187], "controller_id": "c1", "fingerprint": ["ControlMessageReceive", {"hard_timeout": 0, "actions": [], "priority": 32768, "idle_timeout": 0, "command": "delete", "out_port": 65535, "flags": 0, "class": "ofp_flow_mod", "match": "x^L,in_port:None"}, 3, ["c", "1"]], "timed_out": false, "dependent_labels": [], "ignore_whitelisted_packets": false, "dpid": 3, "replay_time": [1390804129, 154921], "label": "i42", "class": "ControlMessageReceive", "b64_packet": "AQ4ASAAAADsAEAAfAAAAAAAAAAAAAAAAAAAAAAAAAAAAAAAAAAAAAAAAAAAAAAAAAAAAAAAAAAAAAwAAAACAAP///////wAA", "round": 17, "prunable": true}
{"pass_through_sends": false, "timeout_disallowed": false, "time": [1390800575, 28292], "controller_id": "c1", "fingerprint": ["ControlMessageReceive", {"in_port": 65535, "data": {"class": "lldp"}, "class": "ofp_packet_out", "actions": ["output(3)"]}, 3, ["c", "1"]], "timed_out": false, "dependent_labels": [], "ignore_whitelisted_packets": false, "dpid": 3, "replay_time": [1390804129, 664735], "label": "i43", "class": "ControlMessageReceive", "b64_packet": "AQ0AQQAAACX///////8ACAAAAAgAAwAAASMgAAABAAAAAAMDiMwCBwdkcGlkOjMEAgIzBgIAeAwGZHBpZDozAAA=", "round": 20, "prunable": true}
{"timeout_disallowed": false, "fingerprint": ["DataplanePermit", {"class": "lldp"}, 3, 3], "timed_out": false, "label": "i44", "passive": false, "dependent_labels": [], "time": [1390800575, 29180], "replay_time": [1390804129, 666535], "class": "DataplanePermit", "round": 20, "prunable": true}
{"pass_through_sends": false, "timeout_disallowed": false, "time": [1390800575, 632419], "controller_id": "c1", "fingerprint": ["ControlMessageReceive", {"in_port": 65535, "data": {"class": "lldp"}, "class": "ofp_packet_out", "actions": ["output(1)"]}, 2, ["c", "1"]], "timed_out": false, "dependent_labels": [], "ignore_whitelisted_packets": false, "dpid": 2, "replay_time": [1390804130, 221386], "label": "i45", "class": "ControlMessageReceive", "b64_packet": "AQ0AQQAAACn///////8ACAAAAAgAAQAAASMgAAABAAAAAAIBiMwCBwdkcGlkOjIEAgIxBgIAeAwGZHBpZDoyAAA=", "round": 26, "prunable": true}
{"timeout_disallowed": false, "fingerprint": ["DataplanePermit", {"class": "lldp"}, 2, 1], "timed_out": false, "label": "i46", "passive": false, "dependent_labels": [], "time": [1390800575, 633260], "replay_time": [1390804130, 223278], "class": "DataplanePermit", "round": 26, "prunable": true}
{"pass_through_sends": false, "timeout_disallowed": false, "time": [1390800575, 734524], "controller_id": "c1", "fingerprint": ["ControlMessageSend", {"data": {"class": "lldp"}, "class": "ofp_packet_in", "in_port": 1}, 3, ["c", "1"]], "timed_out": false, "dependent_labels": [], "ignore_whitelisted_packets": false, "dpid": 3, "replay_time": [1390804130, 224035], "label": "i47", "class": "ControlMessageSend", "b64_packet": "AQoAOwAAAAEAAAABADsAAQAAASMgAAABAAAAAAIBiMwCBwdkcGlkOjIEAgIxBgIAeAwGZHBpZDoyAAA=", "round": 27, "prunable": true}
{"pass_through_sends": false, "timeout_disallowed": false, "time": [1390800575, 835488], "controller_id": "c1", "fingerprint": ["ControlMessageReceive", {"in_port": 1, "data": [], "class": "ofp_packet_out", "actions": []}, 3, ["c", "1"]], "timed_out": false, "dependent_labels": [], "ignore_whitelisted_packets": false, "dpid": 3, "replay_time": [1390804130, 264346], "label": "i48", "class": "ControlMessageReceive", "b64_packet": "AQ0AEAAAAEEAAAABAAEAAA==", "round": 28, "prunable": true}
{"pass_through_sends": false, "timeout_disallowed": false, "time": [1390800575, 836156], "controller_id": "c1", "fingerprint": ["ControlMessageReceive", {"hard_timeout": 0, "actions": [], "priority": 32768, "idle_timeout": 0, "command": "delete", "out_port": 65535, "flags": 0, "class": "ofp_flow_mod", "match": "x^L,in_port:None"}, 1, ["c", "1"]], "timed_out": false, "dependent_labels": [], "ignore_whitelisted_packets": false, "dpid": 1, "replay_time": [1390804130, 265538], "label": "i49", "class": "ControlMessageReceive", "b64_packet": "AQ4ASAAAAD8AEAAfAAAAAAAAAAAAAAAAAAAAAAAAAAAAAAAAAAAAAAAAAAAAAAAAAAAAAAAAAAAAAwAAAACAAP///////wAA", "round": 28, "prunable": true}
{"pass_through_sends": false, "timeout_disallowed": false, "time": [1390800575, 837115], "controller_id": "c1", "fingerprint": ["ControlMessageReceive", {"hard_timeout": 0, "actions": [], "priority": 32768, "idle_timeout": 0, "command": "delete", "out_port": 65535, "flags": 0, "class": "ofp_flow_mod", "match": "x^L,in_port:None"}, 2, ["c", "1"]], "timed_out": false, "dependent_labels": [], "ignore_whitelisted_packets": false, "dpid": 2, "replay_time": [1390804130, 266836], "label": "i50", "class": "ControlMessageReceive", "b64_packet": "AQ4ASAAAAD8AEAAfAAAAAAAAAAAAAAAAAAAAAAAAAAAAAAAAAAAAAAAAAAAAAAAAAAAAAAAAAAAAAwAAAACAAP///////wAA", "round": 28, "prunable": true}
{"pass_through_sends": false, "timeout_disallowed": false, "time": [1390800575, 838033], "controller_id": "c1", "fingerprint": ["ControlMessageReceive", {"hard_timeout": 0, "actions": [], "priority": 32768, "idle_timeout": 0, "command": "delete", "out_port": 65535, "flags": 0, "class": "ofp_flow_mod", "match": "x^L,in_port:None"}, 3, ["c", "1"]], "timed_out": false, "dependent_labels": [], "ignore_whitelisted_packets": false, "dpid": 3, "replay_time": [1390804130, 268065], "label": "i51", "class": "ControlMessageReceive", "b64_packet": "AQ4ASAAAAD8AEAAfAAAAAAAAAAAAAAAAAAAAAAAAAAAAAAAAAAAAAAAAAAAAAAAAAAAAAAAAAAAAAwAAAACAAP///////wAA", "round": 28, "prunable": true}
{"pass_through_sends": false, "timeout_disallowed": false, "time": [1390800576, 140187], "controller_id": "c1", "fingerprint": ["ControlMessageReceive", {"in_port": 65535, "data": {"class": "lldp"}, "class": "ofp_packet_out", "actions": ["output(2)"]}, 2, ["c", "1"]], "timed_out": false, "dependent_labels": [], "ignore_whitelisted_packets": false, "dpid": 2, "replay_time": [1390804130, 777423], "label": "i52", "class": "ControlMessageReceive", "b64_packet": "AQ0AQQAAACv///////8ACAAAAAgAAgAAASMgAAABAAAAAAICiMwCBwdkcGlkOjIEAgIyBgIAeAwGZHBpZDoyAAA=", "round": 31, "prunable": true}
{"timeout_disallowed": false, "fingerprint": ["DataplanePermit", {"class": "lldp"}, 2, 2], "timed_out": false, "label": "i53", "passive": false, "dependent_labels": [], "time": [1390800576, 141024], "replay_time": [1390804130, 778921], "class": "DataplanePermit", "round": 31, "prunable": true}
{"pass_through_sends": false, "timeout_disallowed": false, "time": [1390800576, 242312], "controller_id": "c1", "fingerprint": ["ControlMessageSend", {"data": {"class": "lldp"}, "class": "ofp_packet_in", "in_port": 2}, 1, ["c", "1"]], "timed_out": false, "dependent_labels": [], "ignore_whitelisted_packets": false, "dpid": 1, "replay_time": [1390804130, 779563], "label": "i54", "class": "ControlMessageSend", "b64_packet": "AQoAOwAAAAIAAAABADsAAgAAASMgAAABAAAAAAICiMwCBwdkcGlkOjIEAgIyBgIAeAwGZHBpZDoyAAA=", "round": 32, "prunable": true}
{"pass_through_sends": false, "timeout_disallowed": false, "time": [1390800576, 343399], "controller_id": "c1", "fingerprint": ["ControlMessageReceive", {"hard_timeout": 0, "actions": [], "priority": 32768, "idle_timeout": 0, "command": "delete", "out_port": 65535, "flags": 0, "class": "ofp_flow_mod", "match": "x^L,in_port:None"}, 1, ["c", "1"]], "timed_out": false, "dependent_labels": [], "ignore_whitelisted_packets": false, "dpid": 1, "replay_time": [1390804130, 782698], "label": "i55", "class": "ControlMessageReceive", "b64_packet": "AQ4ASAAAAEMAEAAfAAAAAAAAAAAAAAAAAAAAAAAAAAAAAAAAAAAAAAAAAAAAAAAAAAAAAAAAAAAAAwAAAACAAP///////wAA", "round": 33, "prunable": true}
{"pass_through_sends": false, "timeout_disallowed": false, "time": [1390800576, 344445], "controller_id": "c1", "fingerprint": ["ControlMessageReceive", {"hard_timeout": 0, "actions": [], "priority": 32768, "idle_timeout": 0, "command": "delete", "out_port": 65535, "flags": 0, "class": "ofp_flow_mod", "match": "x^L,in_port:None"}, 2, ["c", "1"]], "timed_out": false, "dependent_labels": [], "ignore_whitelisted_packets": false, "dpid": 2, "replay_time": [1390804130, 820434], "label": "i56", "class": "ControlMessageReceive", "b64_packet": "AQ4ASAAAAEMAEAAfAAAAAAAAAAAAAAAAAAAAAAAAAAAAAAAAAAAAAAAAAAAAAAAAAAAAAAAAAAAAAwAAAACAAP///////wAA", "round": 33, "prunable": true}
{"pass_through_sends": false, "timeout_disallowed": false, "time": [1390800576, 345334], "controller_id": "c1", "fingerprint": ["ControlMessageReceive", {"in_port": 2, "data": [], "class": "ofp_packet_out", "actions": []}, 1, ["c", "1"]], "timed_out": false, "dependent_labels": [], "ignore_whitelisted_packets": false, "dpid": 1, "replay_time": [1390804130, 821574], "label": "i57", "class": "ControlMessageReceive", "b64_packet": "AQ0AEAAAAEUAAAABAAIAAA==", "round": 33, "prunable": true}
{"pass_through_sends": false, "timeout_disallowed": false, "time": [1390800576, 345942], "controller_id": "c1", "fingerprint": ["ControlMessageReceive", {"hard_timeout": 0, "actions": [], "priority": 32768, "idle_timeout": 0, "command": "delete", "out_port": 65535, "flags": 0, "class": "ofp_flow_mod", "match": "x^L,in_port:None"}, 3, ["c", "1"]], "timed_out": false, "dependent_labels": [], "ignore_whitelisted_packets": false, "dpid": 3, "replay_time": [1390804130, 822579], "label": "i58", "class": "ControlMessageReceive", "b64_packet": "AQ4ASAAAAEMAEAAfAAAAAAAAAAAAAAAAAAAAAAAAAAAAAAAAAAAAAAAAAAAAAAAAAAAAAAAAAAAAAwAAAACAAP///////wAA", "round": 33, "prunable": true}
{"pass_through_sends": false, "timeout_disallowed": false, "time": [1390800576, 748385], "controller_id": "c1", "fingerprint": ["ControlMessageReceive", {"in_port": 65535, "data": {"class": "lldp"}, "class": "ofp_packet_out", "actions": ["output(3)"]}, 2, ["c", "1"]], "timed_out": false, "dependent_labels": [], "ignore_whitelisted_packets": false, "dpid": 2, "replay_time": [1390804131, 333746], "label": "i59", "class": "ControlMessageReceive", "b64_packet": "AQ0AQQAAAC3///////8ACAAAAAgAAwAAASMgAAABAAAAAAIDiMwCBwdkcGlkOjIEAgIzBgIAeAwGZHBpZDoyAAA=", "round": 37, "prunable": true}
{"timeout_disallowed": false, "fingerprint": ["DataplanePermit", {"class": "lldp"}, 2, 3], "timed_out": false, "label": "i60", "passive": false, "dependent_labels": [], "time": [1390800576, 749295], "replay_time": [1390804131, 335172], "class": "DataplanePermit", "round": 37, "prunable": true}
{"pass_through_sends": false, "timeout_disallowed": false, "time": [1390800577, 252013], "controller_id": "c1", "fingerprint": ["ControlMessageReceive", {"in_port": 65535, "data": {"class": "lldp"}, "class": "ofp_packet_out", "actions": ["output(1)"]}, 1, ["c", "1"]], "timed_out": false, "dependent_labels": [], "ignore_whitelisted_packets": false, "dpid": 1, "replay_time": [1390804131, 890123], "label": "i61", "class": "ControlMessageReceive", "b64_packet": "AQ0AQQAAADH///////8ACAAAAAgAAQAAASMgAAABAAAAAAEBiMwCBwdkcGlkOjEEAgIxBgIAeAwGZHBpZDoxAAA=", "round": 42, "prunable": true}
{"timeout_disallowed": false, "fingerprint": ["DataplanePermit", {"class": "lldp"}, 1, 1], "timed_out": false, "label": "i62", "passive": false, "dependent_labels": [], "time": [1390800577, 252848], "replay_time": [1390804131, 891650], "class": "DataplanePermit", "round": 42, "prunable": true}
{"pass_through_sends": false, "timeout_disallowed": false, "time": [1390800577, 354322], "controller_id": "c1", "fingerprint": ["ControlMessageSend", {"data": {"class": "lldp"}, "class": "ofp_packet_in", "in_port": 2}, 3, ["c", "1"]], "timed_out": false, "dependent_labels": [], "ignore_whitelisted_packets": false, "dpid": 3, "replay_time": [1390804131, 892284], "label": "i63", "class": "ControlMessageSend", "b64_packet": "AQoAOwAAAAIAAAABADsAAgAAASMgAAABAAAAAAEBiMwCBwdkcGlkOjEEAgIxBgIAeAwGZHBpZDoxAAA=", "round": 43, "prunable": true}
{"pass_through_sends": false, "timeout_disallowed": false, "time": [1390800577, 455443], "controller_id": "c1", "fingerprint": ["ControlMessageReceive", {"hard_timeout": 0, "actions": [], "priority": 32768, "idle_timeout": 0, "command": "delete", "out_port": 65535, "flags": 0, "class": "ofp_flow_mod", "match": "x^L,in_port:None"}, 1, ["c", "1"]], "timed_out": false, "dependent_labels": [], "ignore_whitelisted_packets": false, "dpid": 1, "replay_time": [1390804131, 895588], "label": "i64", "class": "ControlMessageReceive", "b64_packet": "AQ4ASAAAAEcAEAAfAAAAAAAAAAAAAAAAAAAAAAAAAAAAAAAAAAAAAAAAAAAAAAAAAAAAAAAAAAAAAwAAAACAAP///////wAA", "round": 44, "prunable": true}
{"pass_through_sends": false, "timeout_disallowed": false, "time": [1390800577, 456419], "controller_id": "c1", "fingerprint": ["ControlMessageReceive", {"in_port": 2, "data": [], "class": "ofp_packet_out", "actions": []}, 3, ["c", "1"]], "timed_out": false, "dependent_labels": [], "ignore_whitelisted_packets": false, "dpid": 3, "replay_time": [1390804131, 932437], "label": "i65", "class": "ControlMessageReceive", "b64_packet": "AQ0AEAAAAEkAAAABAAIAAA==", "round": 44, "prunable": true}
{"pass_through_sends": false, "timeout_disallowed": false, "time": [1390800577, 457031], "controller_id": "c1", "fingerprint": ["ControlMessageReceive", {"hard_timeout": 0, "actions": [], "priority": 32768, "idle_timeout": 0, "command": "delete", "out_port": 65535, "flags": 0, "class": "ofp_flow_mod", "match": "x^L,in_port:None"}, 2, ["c", "1"]], "timed_out": false, "dependent_labels": [], "ignore_whitelisted_packets": false, "dpid": 2, "replay_time": [1390804131, 933488], "label": "i66", "class": "ControlMessageReceive", "b64_packet": "AQ4ASAAAAEcAEAAfAAAAAAAAAAAAAAAAAAAAAAAAAAAAAAAAAAAAAAAAAAAAAAAAAAAAAAAAAAAAAwAAAACAAP///////wAA", "round": 44, "prunable": true}
{"pass_through_sends": false, "timeout_disallowed": false, "time": [1390800577, 457964], "controller_id": "c1", "fingerprint": ["ControlMessageReceive", {"hard_timeout": 0, "actions": [], "priority": 32768, "idle_timeout": 0, "command": "delete", "out_port": 65535, "flags": 0, "class": "ofp_flow_mod", "match": "x^L,in_port:None"}, 3, ["c", "1"]], "timed_out": false, "dependent_labels": [], "ignore_whitelisted_packets": false, "dpid": 3, "replay_time": [1390804131, 934793], "label": "i67", "class": "ControlMessageReceive", "b64_packet": "AQ4ASAAAAEcAEAAfAAAAAAAAAAAAAAAAAAAAAAAAAAAAAAAAAAAAAAAAAAAAAAAAAAAAAAAAAAAAAwAAAACAAP///////wAA", "round": 44, "prunable": true}
{"pass_through_sends": false, "timeout_disallowed": false, "time": [1390800577, 860532], "controller_id": "c1", "fingerprint": ["ControlMessageReceive", {"in_port": 65535, "data": {"class": "lldp"}, "class": "ofp_packet_out", "actions": ["output(2)"]}, 1, ["c", "1"]], "timed_out": false, "dependent_labels": [], "ignore_whitelisted_packets": false, "dpid": 1, "replay_time": [1390804132, 445957], "label": "i68", "class": "ControlMessageReceive", "b64_packet": "AQ0AQQAAADP///////8ACAAAAAgAAgAAASMgAAABAAAAAAECiMwCBwdkcGlkOjEEAgIyBgIAeAwGZHBpZDoxAAA=", "round": 48, "prunable": true}
{"timeout_disallowed": false, "fingerprint": ["DataplanePermit", {"class": "lldp"}, 1, 2], "timed_out": false, "label": "i69", "passive": false, "dependent_labels": [], "time": [1390800577, 861266], "replay_time": [1390804132, 447513], "class": "DataplanePermit", "round": 48, "prunable": true}
{"pass_through_sends": false, "timeout_disallowed": false, "time": [1390800577, 962520], "controller_id": "c1", "fingerprint": ["ControlMessageSend", {"data": {"class": "lldp"}, "class": "ofp_packet_in", "in_port": 2}, 2, ["c", "1"]], "timed_out": false, "dependent_labels": [], "ignore_whitelisted_packets": false, "dpid": 2, "replay_time": [1390804132, 448156], "label": "i70", "class": "ControlMessageSend", "b64_packet": "AQoAOwAAAAIAAAABADsAAgAAASMgAAABAAAAAAECiMwCBwdkcGlkOjEEAgIyBgIAeAwGZHBpZDoxAAA=", "round": 49, "prunable": true}
{"pass_through_sends": false, "timeout_disallowed": false, "time": [1390800578, 63604], "controller_id": "c1", "fingerprint": ["ControlMessageReceive", {"hard_timeout": 0, "actions": [], "priority": 32768, "idle_timeout": 0, "command": "delete", "out_port": 65535, "flags": 0, "class": "ofp_flow_mod", "match": "x^L,in_port:None"}, 1, ["c", "1"]], "timed_out": false, "dependent_labels": [], "ignore_whitelisted_packets": false, "dpid": 1, "replay_time": [1390804132, 451493], "label": "i71", "class": "ControlMessageReceive", "b64_packet": "AQ4ASAAAAEsAEAAfAAAAAAAAAAAAAAAAAAAAAAAAAAAAAAAAAAAAAAAAAAAAAAAAAAAAAAAAAAAAAwAAAACAAP///////wAA", "round": 50, "prunable": true}
{"pass_through_sends": false, "timeout_disallowed": false, "time": [1390800578, 64660], "controller_id": "c1", "fingerprint": ["ControlMessageReceive", {"hard_timeout": 0, "actions": [], "priority": 32768, "idle_timeout": 0, "command": "delete", "out_port": 65535, "flags": 0, "class": "ofp_flow_mod", "match": "x^L,in_port:None"}, 2, ["c", "1"]], "timed_out": false, "dependent_labels": [], "ignore_whitelisted_packets": false, "dpid": 2, "replay_time": [1390804132, 488281], "label": "i72", "class": "ControlMessageReceive", "b64_packet": "AQ4ASAAAAEsAEAAfAAAAAAAAAAAAAAAAAAAAAAAAAAAAAAAAAAAAAAAAAAAAAAAAAAAAAAAAAAAAAwAAAACAAP///////wAA", "round": 50, "prunable": true}
{"pass_through_sends": false, "timeout_disallowed": false, "time": [1390800578, 65606], "controller_id": "c1", "fingerprint": ["ControlMessageReceive", {"hard_timeout": 0, "actions": [], "priority": 32768, "idle_timeout": 0, "command": "delete", "out_port": 65535, "flags": 0, "class": "ofp_flow_mod", "match": "x^L,in_port:None"}, 3, ["c", "1"]], "timed_out": false, "dependent_labels": [], "ignore_whitelisted_packets": false, "dpid": 3, "replay_time": [1390804132, 489574], "label": "i73", "class": "ControlMessageReceive", "b64_packet": "AQ4ASAAAAEsAEAAfAAAAAAAAAAAAAAAAAAAAAAAAAAAAAAAAAAAAAAAAAAAAAAAAAAAAAAAAAAAAAwAAAACAAP///////wAA", "round": 50, "prunable": true}
{"pass_through_sends": false, "timeout_disallowed": false, "time": [1390800578, 66505], "controller_id": "c1", "fingerprint": ["ControlMessageReceive", {"in_port": 2, "data": [], "class": "ofp_packet_out", "actions": []}, 2, ["c", "1"]], "timed_out": false, "dependent_labels": [], "ignore_whitelisted_packets": false, "dpid": 2, "replay_time": [1390804132, 490989], "label": "i74", "class": "ControlMessageReceive", "b64_packet": "AQ0AEAAAAE0AAAABAAIAAA==", "round": 50, "prunable": true}
{"pass_through_sends": false, "timeout_disallowed": false, "time": [1390800578, 368223], "controller_id": "c1", "fingerprint": ["ControlMessageReceive", {"in_port": 65535, "data": {"class": "lldp"}, "class": "ofp_packet_out", "actions": ["output(3)"]}, 1, ["c", "1"]], "timed_out": false, "dependent_labels": [], "ignore_whitelisted_packets": false, "dpid": 1, "replay_time": [1390804133, 2238], "label": "i75", "class": "ControlMessageReceive", "b64_packet": "AQ0AQQAAADX///////8ACAAAAAgAAwAAASMgAAABAAAAAAEDiMwCBwdkcGlkOjEEAgIzBgIAeAwGZHBpZDoxAAA=", "round": 53, "prunable": true}
{"timeout_disallowed": false, "fingerprint": ["DataplanePermit", {"class": "lldp"}, 1, 3], "timed_out": false, "label": "i76", "passive": false, "dependent_labels": [], "time": [1390800578, 369108], "replay_time": [1390804133, 3464], "class": "DataplanePermit", "round": 53, "prunable": true}
{"pass_through_sends": false, "timeout_disallowed": false, "time": [1390800578, 972279], "controller_id": "c1", "fingerprint": ["ControlMessageReceive", {"in_port": 65535, "data": {"class": "lldp"}, "class": "ofp_packet_out", "actions": ["output(1)"]}, 3, ["c", "1"]], "timed_out": false, "dependent_labels": [], "ignore_whitelisted_packets": false, "dpid": 3, "replay_time": [1390804133, 558738], "label": "i77", "class": "ControlMessageReceive", "b64_packet": "AQ0AQQAAACH///////8ACAAAAAgAAQAAASMgAAABAAAAAAMBiMwCBwdkcGlkOjMEAgIxBgIAeAwGZHBpZDozAAA=", "round": 59, "prunable": true}
{"timeout_disallowed": false, "fingerprint": ["DataplanePermit", {"class": "lldp"}, 3, 1], "timed_out": false, "label": "i78", "passive": false, "dependent_labels": [], "time": [1390800578, 973129], "replay_time": [1390804133, 560289], "class": "DataplanePermit", "round": 59, "prunable": true}
{"pass_through_sends": false, "timeout_disallowed": false, "time": [1390800579, 74468], "controller_id": "c1", "fingerprint": ["ControlMessageSend", {"data": {"class": "lldp"}, "class": "ofp_packet_in", "in_port": 1}, 2, ["c", "1"]], "timed_out": false, "dependent_labels": [], "ignore_whitelisted_packets": false, "dpid": 2, "replay_time": [1390804133, 560971], "label": "i79", "class": "ControlMessageSend", "b64_packet": "AQoAOwAAAAMAAAABADsAAQAAASMgAAABAAAAAAMBiMwCBwdkcGlkOjMEAgIxBgIAeAwGZHBpZDozAAA=", "round": 60, "prunable": true}
{"pass_through_sends": false, "timeout_disallowed": false, "time": [1390800579, 175461], "controller_id": "c1", "fingerprint": ["ControlMessageReceive", {"in_port": 1, "data": [], "class": "ofp_packet_out", "actions": []}, 2, ["c", "1"]], "timed_out": false, "dependent_labels": [], "ignore_whitelisted_packets": false, "dpid": 2, "replay_time": [1390804133, 563555], "label": "i80", "class": "ControlMessageReceive", "b64_packet": "AQ0AEAAAAE8AAAABAAEAAA==", "round": 61, "prunable": true}
{"pass_through_sends": false, "timeout_disallowed": false, "time": [1390800579, 477231], "controller_id": "c1", "fingerprint": ["ControlMessageReceive", {"in_port": 65535, "data": {"class": "lldp"}, "class": "ofp_packet_out", "actions": ["output(2)"]}, 3, ["c", "1"]], "timed_out": false, "dependent_labels": [], "ignore_whitelisted_packets": false, "dpid": 3, "replay_time": [1390804134, 115011], "label": "i81", "class": "ControlMessageReceive", "b64_packet": "AQ0AQQAAACP///////8ACAAAAAgAAgAAASMgAAABAAAAAAMCiMwCBwdkcGlkOjMEAgIyBgIAeAwGZHBpZDozAAA=", "round": 64, "prunable": true}
{"timeout_disallowed": false, "fingerprint": ["DataplanePermit", {"class": "lldp"}, 3, 2], "timed_out": false, "label": "i82", "passive": false, "dependent_labels": [], "time": [1390800579, 478076], "replay_time": [1390804134, 116493], "class": "DataplanePermit", "round": 64, "prunable": true}
{"pass_through_sends": false, "timeout_disallowed": false, "time": [1390800579, 579382], "controller_id": "c1", "fingerprint": ["ControlMessageSend", {"data": {"class": "lldp"}, "class": "ofp_packet_in", "in_port": 1}, 1, ["c", "1"]], "timed_out": false, "dependent_labels": [], "ignore_whitelisted_packets": false, "dpid": 1, "replay_time": [1390804134, 117141], "label": "i83", "class": "ControlMessageSend", "b64_packet": "AQoAOwAAAAMAAAABADsAAQAAASMgAAABAAAAAAMCiMwCBwdkcGlkOjMEAgIyBgIAeAwGZHBpZDozAAA=", "round": 65, "prunable": true}
{"pass_through_sends": false, "timeout_disallowed": false, "time": [1390800579, 680417], "controller_id": "c1", "fingerprint": ["ControlMessageReceive", {"in_port": 1, "data": [], "class": "ofp_packet_out", "actions": []}, 1, ["c", "1"]], "timed_out": false, "dependent_labels": [], "ignore_whitelisted_packets": false, "dpid": 1, "replay_time": [1390804134, 119636], "label": "i84", "class": "ControlMessageReceive", "b64_packet": "AQ0AEAAAAFEAAAABAAEAAA==", "round": 66, "prunable": true}
{"pass_through_sends": false, "timeout_disallowed": false, "time": [1390800580, 82545], "controller_id": "c1", "fingerprint": ["ControlMessageReceive", {"in_port": 65535, "data": {"class": "lldp"}, "class": "ofp_packet_out", "actions": ["output(3)"]}, 3, ["c", "1"]], "timed_out": false, "dependent_labels": [], "ignore_whitelisted_packets": false, "dpid": 3, "replay_time": [1390804134, 671108], "label": "i85", "class": "ControlMessageReceive", "b64_packet": "AQ0AQQAAACX///////8ACAAAAAgAAwAAASMgAAABAAAAAAMDiMwCBwdkcGlkOjMEAgIzBgIAeAwGZHBpZDozAAA=", "round": 70, "prunable": true}
{"timeout_disallowed": false, "fingerprint": ["DataplanePermit", {"class": "lldp"}, 3, 3], "timed_out": false, "label": "i86", "passive": false, "dependent_labels": [], "time": [1390800580, 83422], "replay_time": [1390804134, 672565], "class": "DataplanePermit", "round": 70, "prunable": true}
{"dependent_labels": [], "class": "TrafficInjection", "fingerprint": ["TrafficInjection", {"interface": {"hw_addr": "12:34:56:78:01:03", "ips": ["10.1.3.2"], "name": "eth1"}, "packet": "EjRWeAEDEjRWeAEDCABFAABI7rwAAEABcfMKAQMCCgEDAgAADjdQaW5nUGluZ1BpbmdQaW5nUGluZ1BpbmdQaW5nUGluZ1BpbmdQaW5nUGluZ1Bpbmc="}, 1], "timed_out": false, "label": "e87", "dp_event": {"interface": {"hw_addr": "12:34:56:78:01:03", "ips": ["10.1.3.2"], "name": "eth1"}, "packet": "EjRWeAEDEjRWeAEDCABFAABI7rwAAEABcfMKAQMCCgEDAgAADjdQaW5nUGluZ1BpbmdQaW5nUGluZ1BpbmdQaW5nUGluZ1BpbmdQaW5nUGluZ1Bpbmc="}, "time": [1390800580, 184896], "replay_time": [1390804134, 775260], "host_id": 1, "round": 71, "prunable": true}
{"dependent_labels": [], "class": "TrafficInjection", "fingerprint": ["TrafficInjection", {"interface": {"hw_addr": "12:34:56:78:03:03", "ips": ["10.3.3.2"], "name": "eth3"}, "packet": "EjRWeAMDEjRWeAMDCABFAABI7r4AAEABce0KAwMCCgMDAggABjdQaW5nUGluZ1BpbmdQaW5nUGluZ1BpbmdQaW5nUGluZ1BpbmdQaW5nUGluZ1Bpbmc="}, 3], "timed_out": false, "label": "e89", "dp_event": {"interface": {"hw_addr": "12:34:56:78:03:03", "ips": ["10.3.3.2"], "name": "eth3"}, "packet": "EjRWeAMDEjRWeAMDCABFAABI7r4AAEABce0KAwMCCgMDAggABjdQaW5nUGluZ1BpbmdQaW5nUGluZ1BpbmdQaW5nUGluZ1BpbmdQaW5nUGluZ1Bpbmc="}, "time": [1390800580, 187369], "replay_time": [1390804134, 776668], "host_id": 3, "round": 71, "prunable": true}
{"timeout_disallowed": false, "fingerprint": ["DataplanePermit", {"dl_dst": "12:34:56:78:01:03", "nw_src": "10.1.3.2", "dl_src": "12:34:56:78:01:03", "nw_dst": "10.1.3.2"}, 1, "12:34:56:78:01:03"], "timed_out": false, "label": "i90", "passive": false, "dependent_labels": [], "time": [1390800580, 188421], "replay_time": [1390804134, 778493], "class": "DataplanePermit", "round": 71, "prunable": true}
{"timeout_disallowed": false, "fingerprint": ["DataplanePermit", {"dl_dst": "12:34:56:78:03:03", "nw_src": "10.3.3.2", "dl_src": "12:34:56:78:03:03", "nw_dst": "10.3.3.2"}, 3, "12:34:56:78:03:03"], "timed_out": false, "label": "i91", "passive": false, "dependent_labels": [], "time": [1390800580, 189818], "replay_time": [1390804134, 779190], "class": "DataplanePermit", "round": 71, "prunable": true}
{"timeout_disallowed": false, "fingerprint": ["DataplanePermit", {"dl_dst": "12:34:56:78:02:03", "nw_src": "10.2.3.2", "dl_src": "12:34:56:78:02:03", "nw_dst": "10.2.3.2"}, 2, "12:34:56:78:02:03"], "timed_out": true, "label": "i92", "passive": false, "dependent_labels": [], "time": [1390800580, 191116], "replay_time": [1390804135, 427895], "class": "DataplanePermit", "round": 71, "prunable": true}
{"pass_through_sends": false, "timeout_disallowed": false, "time": [1390800580, 292934], "controller_id": "c1", "fingerprint": ["ControlMessageSend", {"data": {"dl_dst": "12:34:56:78:02:03", "nw_src": "10.2.3.2", "dl_src": "12:34:56:78:02:03", "nw_dst": "10.2.3.2"}, "class": "ofp_packet_in", "in_port": 3}, 2, ["c", "1"]], "timed_out": true, "dependent_labels": [], "ignore_whitelisted_packets": false, "dpid": 2, "replay_time": [1390804136, 184038], "label": "i93", "class": "ControlMessageSend", "b64_packet": "AQoAaAAAAAQAAAABAGgAAwAAEjRWeAIDEjRWeAIDCABFAABI7r0AAEABcfAKAgMCCgIDAggABjdQaW5nUGluZ1BpbmdQaW5nUGluZ1BpbmdQaW5nUGluZ1BpbmdQaW5nUGluZ1Bpbmc=", "round": 72, "prunable": true}
{"pass_through_sends": false, "timeout_disallowed": false, "time": [1390800580, 293704], "controller_id": "c1", "fingerprint": ["ControlMessageSend", {"data": {"dl_dst": "12:34:56:78:01:03", "nw_src": "10.1.3.2", "dl_src": "12:34:56:78:01:03", "nw_dst": "10.1.3.2"}, "class": "ofp_packet_in", "in_port": 3}, 1, ["c", "1"]], "timed_out": false, "dependent_labels": [], "ignore_whitelisted_packets": false, "dpid": 1, "replay_time": [1390804136, 185288], "label": "i94", "class": "ControlMessageSend", "b64_packet": "AQoAaAAAAAQAAAABAGgAAwAAEjRWeAEDEjRWeAEDCABFAABI7rwAAEABcfMKAQMCCgEDAgAADjdQaW5nUGluZ1BpbmdQaW5nUGluZ1BpbmdQaW5nUGluZ1BpbmdQaW5nUGluZ1Bpbmc=", "round": 72, "prunable": true}
{"pass_through_sends": false, "timeout_disallowed": false, "time": [1390800580, 294349], "controller_id": "c1", "fingerprint": ["ControlMessageSend", {"data": {"dl_dst": "12:34:56:78:03:03", "nw_src": "10.3.3.2", "dl_src": "12:34:56:78:03:03", "nw_dst": "10.3.3.2"}, "class": "ofp_packet_in", "in_port": 3}, 3, ["c", "1"]], "timed_out": false, "dependent_labels": [], "ignore_whitelisted_packets": false, "dpid": 3, "replay_time": [1390804136, 186398], "label": "i95", "class": "ControlMessageSend", "b64_packet": "AQoAaAAAAAMAAAABAGgAAwAAEjRWeAMDEjRWeAMDCABFAABI7r4AAEABce0KAwMCCgMDAggABjdQaW5nUGluZ1BpbmdQaW5nUGluZ1BpbmdQaW5nUGluZ1BpbmdQaW5nUGluZ1Bpbmc=", "round": 72, "prunable": true}
{"timeout_disallowed": false, "fingerprint": ["DataplanePermit", {"dl_dst": "12:34:56:78:01:03", "nw_src": "10.2.3.2", "dl_src": "12:34:56:78:02:03", "nw_dst": "10.1.3.2"}, 2, "12:34:56:78:02:03"], "timed_out": true, "label": "i98", "passive": false, "dependent_labels": [], "time": [1390800580, 417508], "replay_time": [1390804136, 895456], "class": "DataplanePermit", "round": 73, "prunable": true}
{"pass_through_sends": false, "timeout_disallowed": false, "time": [1390800580, 419320], "controller_id": "c1", "fingerprint": ["ControlMessageReceive", {"hard_timeout": 30, "actions": ["output(3)"], "priority": 32768, "idle_timeout": 10, "command": "add", "out_port": 65535, "flags": 0, "class": "ofp_flow_mod", "match": "dl_src:12:34:56:78:01:03,dl_dst:12:34:56:78:01:03,dl_vlan:65535,dl_vlan_pcp:0,dl_type:2048,nw_tos:0,nw_proto:1,nw_src:10.1.3.2/32,nw_dst:10.1.3.2/32,tp_src:0,tp_dst:0,in_port:None"}, 1, ["c", "1"]], "timed_out": false, "dependent_labels": [], "ignore_whitelisted_packets": false, "dpid": 1, "replay_time": [1390804136, 897151], "label": "i99", "class": "ControlMessageReceive", "b64_packet": "AQ4AUAAAAFcAAAABAAASNFZ4AQMSNFZ4AQP//wAACAAAAQAACgEDAgoBAwIAAAAAAAAAAAAAAAAAAAAKAB6AAAAAAAH//wAAAAAACAADAAA=", "round": 73, "prunable": true}
{"pass_through_sends": false, "timeout_disallowed": false, "time": [1390800580, 421030], "controller_id": "c1", "fingerprint": ["ControlMessageReceive", {"hard_timeout": 30, "actions": ["output(3)"], "priority": 32768, "idle_timeout": 10, "command": "add", "out_port": 65535, "flags": 0, "class": "ofp_flow_mod", "match": "dl_src:12:34:56:78:02:03,dl_dst:12:34:56:78:02:03,dl_vlan:65535,dl_vlan_pcp:0,dl_type:2048,nw_tos:0,nw_proto:1,nw_src:10.2.3.2/32,nw_dst:10.2.3.2/32,tp_src:8,tp_dst:0,in_port:None"}, 2, ["c", "1"]], "timed_out": true, "dependent_labels": [], "ignore_whitelisted_packets": false, "dpid": 2, "replay_time": [1390804137, 451548], "label": "i100", "class": "ControlMessageReceive", "b64_packet": "AQ4AUAAAAFUAAAABAAASNFZ4AgMSNFZ4AgP//wAACAAAAQAACgIDAgoCAwIACAAAAAAAAAAAAAAAAAAKAB6AAAAAAAH//wAAAAAACAADAAA=", "round": 73, "prunable": true}
{"pass_through_sends": false, "timeout_disallowed": false, "time": [1390800580, 422482], "controller_id": "c1", "fingerprint": ["ControlMessageReceive", {"hard_timeout": 30, "actions": ["output(3)"], "priority": 32768, "idle_timeout": 10, "command": "add", "out_port": 65535, "flags": 0, "class": "ofp_flow_mod", "match": "dl_src:12:34:56:78:03:03,dl_dst:12:34:56:78:03:03,dl_vlan:65535,dl_vlan_pcp:0,dl_type:2048,nw_tos:0,nw_proto:1,nw_src:10.3.3.2/32,nw_dst:10.3.3.2/32,tp_src:8,tp_dst:0,in_port:None"}, 3, ["c", "1"]], "timed_out": false, "dependent_labels": [], "ignore_whitelisted_packets": false, "dpid": 3, "replay_time": [1390804137, 453360], "label": "i101", "class": "ControlMessageReceive", "b64_packet": "AQ4AUAAAAFMAAAABAAASNFZ4AwMSNFZ4AwP//wAACAAAAQAACgMDAgoDAwIACAAAAAAAAAAAAAAAAAAKAB6AAAAAAAH//wAAAAAACAADAAA=", "round": 73, "prunable": true}
{"pass_through_sends": false, "timeout_disallowed": false, "time": [1390800580, 423726], "controller_id": "c1", "fingerprint": ["ControlMessageSend", {"data": {"dl_dst": "12:34:56:78:01:03", "nw_src": "10.2.3.2", "dl_src": "12:34:56:78:02:03", "nw_dst": "10.1.3.2"}, "class": "ofp_packet_in", "in_port": 3}, 2, ["c", "1"]], "timed_out": true, "dependent_labels": [], "ignore_whitelisted_packets": false, "dpid": 2, "replay_time": [1390804138, 7764], "label": "i102", "class": "ControlMessageSend", "b64_packet": "AQoAaAAAAAUAAAACAGgAAwAAEjRWeAEDEjRWeAIDCABFAABI7sIAAEABcewKAgMCCgEDAggABjdQaW5nUGluZ1BpbmdQaW5nUGluZ1BpbmdQaW5nUGluZ1BpbmdQaW5nUGluZ1Bpbmc=", "round": 73, "prunable": true}
{"pass_through_sends": false, "timeout_disallowed": false, "time": [1390800580, 543141], "controller_id": "c1", "fingerprint": ["ControlMessageReceive", {"hard_timeout": 30, "actions": ["output(3)"], "priority": 32768, "idle_timeout": 10, "command": "add", "out_port": 65535, "flags": 0, "class": "ofp_flow_mod", "match": "dl_src:12:34:56:78:02:03,dl_dst:12:34:56:78:01:03,dl_vlan:65535,dl_vlan_pcp:0,dl_type:2048,nw_tos:0,nw_proto:1,nw_src:10.2.3.2/32,nw_dst:10.1.3.2/32,tp_src:8,tp_dst:0,in_port:None"}, 1, ["c", "1"]], "timed_out": true, "dependent_labels": [], "ignore_whitelisted_packets": false, "dpid": 1, "replay_time": [1390804138, 764861], "label": "i104", "class": "ControlMessageReceive", "b64_packet": "AQ4AUAAAAFkAAAABAAASNFZ4AgMSNFZ4AQP//wAACAAAAQAACgIDAgoBAwIACAAAAAAAAAAAAAAAAAAKAB6AAP///////wAAAAAACAADAAA=", "round": 74, "prunable": true}
{"pass_through_sends": false, "timeout_disallowed": false, "time": [1390800580, 544574], "controller_id": "c1", "fingerprint": ["ControlMessageReceive", {"hard_timeout": 30, "actions": ["output(2)"], "priority": 32768, "idle_timeout": 10, "command": "add", "out_port": 65535, "flags": 0, "class": "ofp_flow_mod", "match": "dl_src:12:34:56:78:02:03,dl_dst:12:34:56:78:01:03,dl_vlan:65535,dl_vlan_pcp:0,dl_type:2048,nw_tos:0,nw_proto:1,nw_src:10.2.3.2/32,nw_dst:10.1.3.2/32,tp_src:8,tp_dst:0,in_port:None"}, 2, ["c", "1"]], "timed_out": true, "dependent_labels": [], "ignore_whitelisted_packets": false, "dpid": 2, "replay_time": [1390804139, 320908], "label": "i105", "class": "ControlMessageReceive", "b64_packet": "AQ4AUAAAAFsAAAABAAASNFZ4AgMSNFZ4AQP//wAACAAAAQAACgIDAgoBAwIACAAAAAAAAAAAAAAAAAAKAB6AAAAAAAL//wAAAAAACAACAAA=", "round": 74, "prunable": true}
{"pass_through_sends": false, "timeout_disallowed": false, "time": [1390800580, 545850], "controller_id": "c1", "fingerprint": ["ControlMessageReceive", {"in_port": 65535, "data": {"class": "lldp"}, "class": "ofp_packet_out", "actions": ["output(1)"]}, 2, ["c", "1"]], "timed_out": false, "dependent_labels": [], "ignore_whitelisted_packets": false, "dpid": 2, "replay_time": [1390804139, 322430], "label": "i106", "class": "ControlMessageReceive", "b64_packet": "AQ0AQQAAACn///////8ACAAAAAgAAQAAASMgAAABAAAAAAIBiMwCBwdkcGlkOjIEAgIxBgIAeAwGZHBpZDoyAAA=", "round": 74, "prunable": true}
{"timeout_disallowed": false, "fingerprint": ["DataplanePermit", {"dl_dst": "12:34:56:78:01:03", "nw_src": "10.2.3.2", "dl_src": "12:34:56:78:02:03", "nw_dst": "10.1.3.2"}, 2, 2], "timed_out": true, "label": "i108", "passive": false, "dependent_labels": [], "time": [1390800580, 664810], "replay_time": [1390804140, 77268], "class": "DataplanePermit", "round": 75, "prunable": true}
{"timeout_disallowed": false, "fingerprint": ["DataplanePermit", {"class": "lldp"}, 2, 1], "timed_out": false, "label": "i109", "passive": false, "dependent_labels": [], "time": [1390800580, 666553], "replay_time": [1390804140, 78067], "class": "DataplanePermit", "round": 75, "prunable": true}
{"pass_through_sends": false, "timeout_disallowed": false, "time": [1390800580, 667711], "controller_id": "c1", "fingerprint": ["ControlMessageSend", {"data": {"class": "lldp"}, "class": "ofp_packet_in", "in_port": 1}, 3, ["c", "1"]], "timed_out": false, "dependent_labels": [], "ignore_whitelisted_packets": false, "dpid": 3, "replay_time": [1390804140, 78405], "label": "i110", "class": "ControlMessageSend", "b64_packet": "AQoAOwAAAAQAAAABADsAAQAAASMgAAABAAAAAAIBiMwCBwdkcGlkOjIEAgIxBgIAeAwGZHBpZDoyAAA=", "round": 75, "prunable": true}
{"timeout_disallowed": false, "fingerprint": ["DataplanePermit", {"dl_dst": "12:34:56:78:01:03", "nw_src": "10.2.3.2", "dl_src": "12:34:56:78:02:03", "nw_dst": "10.1.3.2"}, 1, 3], "timed_out": true, "label": "i112", "passive": false, "dependent_labels": [], "time": [1390800580, 791536], "replay_time": [1390804140, 788975], "class": "DataplanePermit", "round": 76, "prunable": true}
{"pass_through_sends": false, "timeout_disallowed": false, "time": [1390800580, 792855], "controller_id": "c1", "fingerprint": ["ControlMessageReceive", {"in_port": 1, "data": [], "class": "ofp_packet_out", "actions": []}, 3, ["c", "1"]], "timed_out": false, "dependent_labels": [], "ignore_whitelisted_packets": false, "dpid": 3, "replay_time": [1390804140, 790037], "label": "i113", "class": "ControlMessageReceive", "b64_packet": "AQ0AEAAAAF0AAAABAAEAAA==", "round": 76, "prunable": true}
{"pass_through_sends": false, "timeout_disallowed": false, "time": [1390800581, 163110], "controller_id": "c1", "fingerprint": ["ControlMessageReceive", {"in_port": 65535, "data": {"class": "lldp"}, "class": "ofp_packet_out", "actions": ["output(2)"]}, 2, ["c", "1"]], "timed_out": false, "dependent_labels": [], "ignore_whitelisted_packets": false, "dpid": 2, "replay_time": [1390804140, 791170], "label": "i117", "class": "ControlMessageReceive", "b64_packet": "AQ0AQQAAACv///////8ACAAAAAgAAgAAASMgAAABAAAAAAICiMwCBwdkcGlkOjIEAgIyBgIAeAwGZHBpZDoyAAA=", "round": 79, "prunable": true}
{"timeout_disallowed": false, "fingerprint": ["DataplanePermit", {"class": "lldp"}, 2, 2], "timed_out": false, "label": "i119", "passive": false, "dependent_labels": [], "time": [1390800581, 287288], "replay_time": [1390804140, 792687], "class": "DataplanePermit", "round": 80, "prunable": true}
{"pass_through_sends": false, "timeout_disallowed": false, "time": [1390800581, 288877], "controller_id": "c1", "fingerprint": ["ControlMessageSend", {"data": {"class": "lldp"}, "class": "ofp_packet_in", "in_port": 2}, 1, ["c", "1"]], "timed_out": false, "dependent_labels": [], "ignore_whitelisted_packets": false, "dpid": 1, "replay_time": [1390804140, 793400], "label": "i120", "class": "ControlMessageSend", "b64_packet": "AQoAOwAAAAUAAAABADsAAgAAASMgAAABAAAAAAICiMwCBwdkcGlkOjIEAgIyBgIAeAwGZHBpZDoyAAA=", "round": 80, "prunable": true}
{"dependent_labels": [], "class": "TrafficInjection", "fingerprint": ["TrafficInjection", {"interface": {"hw_addr": "12:34:56:78:02:03", "ips": ["10.2.3.2"], "name": "eth2"}, "packet": "EjRWeAMDEjRWeAIDCABFAABI7sQAAEABcegKAgMCCgMDAggABjdQaW5nUGluZ1BpbmdQaW5nUGluZ1BpbmdQaW5nUGluZ1BpbmdQaW5nUGluZ1Bpbmc="}, null], "timed_out": false, "label": "e121", "dp_event": {"interface": {"hw_addr": "12:34:56:78:02:03", "ips": ["10.2.3.2"], "name": "eth2"}, "packet": "EjRWeAMDEjRWeAIDCABFAABI7sQAAEABcegKAgMCCgMDAggABjdQaW5nUGluZ1BpbmdQaW5nUGluZ1BpbmdQaW5nUGluZ1BpbmdQaW5nUGluZ1Bpbmc="}, "time": [1390800581, 290055], "replay_time": [1390804140, 794657], "host_id": null, "round": 80, "prunable": true}
{"timeout_disallowed": false, "fingerprint": ["DataplanePermit", {"dl_dst": "12:34:56:78:03:03", "nw_src": "10.2.3.2", "dl_src": "12:34:56:78:02:03", "nw_dst": "10.3.3.2"}, 2, "12:34:56:78:02:03"], "timed_out": false, "label": "i123", "passive": false, "dependent_labels": [], "time": [1390800581, 415026], "replay_time": [1390804140, 796389], "class": "DataplanePermit", "round": 81, "prunable": true}
{"pass_through_sends": false, "timeout_disallowed": false, "time": [1390800581, 416916], "controller_id": "c1", "fingerprint": ["ControlMessageReceive", {"in_port": 2, "data": [], "class": "ofp_packet_out", "actions": []}, 1, ["c", "1"]], "timed_out": false, "dependent_labels": [], "ignore_whitelisted_packets": false, "dpid": 1, "replay_time": [1390804140, 798899], "label": "i124", "class": "ControlMessageReceive", "b64_packet": "AQ0AEAAAAF8AAAABAAIAAA==", "round": 81, "prunable": true}
{"pass_through_sends": false, "timeout_disallowed": false, "time": [1390800581, 417626], "controller_id": "c1", "fingerprint": ["ControlMessageSend", {"data": {"dl_dst": "12:34:56:78:03:03", "nw_src": "10.2.3.2", "dl_src": "12:34:56:78:02:03", "nw_dst": "10.3.3.2"}, "class": "ofp_packet_in", "in_port": 3}, 2, ["c", "1"]], "timed_out": false, "dependent_labels": [], "ignore_whitelisted_packets": false, "dpid": 2, "replay_time": [1390804140, 799820], "label": "i125", "class": "ControlMessageSend", "b64_packet": "AQoAaAAAAAYAAAABAGgAAwAAEjRWeAMDEjRWeAIDCABFAABI7sQAAEABcegKAgMCCgMDAggABjdQaW5nUGluZ1BpbmdQaW5nUGluZ1BpbmdQaW5nUGluZ1BpbmdQaW5nUGluZ1Bpbmc=", "round": 81, "prunable": true}
{"dependent_labels": [], "class": "TrafficInjection", "fingerprint": ["TrafficInjection", {"interface": {"hw_addr": "12:34:56:78:03:03", "ips": ["10.3.3.2"], "name": "eth3"}, "packet": "EjRWeAIDEjRWeAMDCABFAABI7sYAAEABceYKAwMCCgIDAggABjdQaW5nUGluZ1BpbmdQaW5nUGluZ1BpbmdQaW5nUGluZ1BpbmdQaW5nUGluZ1Bpbmc="}, null], "timed_out": false, "label": "e126", "dp_event": {"interface": {"hw_addr": "12:34:56:78:03:03", "ips": ["10.3.3.2"], "name": "eth3"}, "packet": "EjRWeAIDEjRWeAMDCABFAABI7sYAAEABceYKAwMCCgIDAggABjdQaW5nUGluZ1BpbmdQaW5nUGluZ1BpbmdQaW5nUGluZ1BpbmdQaW5nUGluZ1Bpbmc="}, "time": [1390800581, 418863], "replay_time": [1390804140, 801126], "host_id": null, "round": 81, "prunable": true}
{"timeout_disallowed": false, "fingerprint": ["DataplanePermit", {"dl_dst": "12:34:56:78:02:03", "nw_src": "10.3.3.2", "dl_src": "12:34:56:78:03:03", "nw_dst": "10.2.3.2"}, 3, "12:34:56:78:03:03"], "timed_out": false, "label": "i128", "passive": false, "dependent_labels": [], "time": [1390800581, 540073], "replay_time": [1390804140, 802911], "class": "DataplanePermit", "round": 82, "prunable": true}
{"pass_through_sends": false, "timeout_disallowed": false, "time": [1390800581, 541914], "controller_id": "c1", "fingerprint": ["ControlMessageReceive", {"hard_timeout": 30, "actions": ["output(1)"], "priority": 32768, "idle_timeout": 10, "command": "add", "out_port": 65535, "flags": 0, "class": "ofp_flow_mod", "match": "dl_src:12:34:56:78:02:03,dl_dst:12:34:56:78:03:03,dl_vlan:65535,dl_vlan_pcp:0,dl_type:2048,nw_tos:0,nw_proto:1,nw_src:10.2.3.2/32,nw_dst:10.3.3.2/32,tp_src:8,tp_dst:0,in_port:None"}, 2, ["c", "1"]], "timed_out": false, "dependent_labels": [], "ignore_whitelisted_packets": false, "dpid": 2, "replay_time": [1390804140, 845022], "label": "i129", "class": "ControlMessageReceive", "b64_packet": "AQ4AUAAAAGMAAAABAAASNFZ4AgMSNFZ4AwP//wAACAAAAQAACgIDAgoDAwIACAAAAAAAAAAAAAAAAAAKAB6AAAAAAAH//wAAAAAACAABAAA=", "round": 82, "prunable": true}
{"pass_through_sends": false, "timeout_disallowed": false, "time": [1390800581, 543572], "controller_id": "c1", "fingerprint": ["ControlMessageReceive", {"hard_timeout": 30, "actions": ["output(3)"], "priority": 32768, "idle_timeout": 10, "command": "add", "out_port": 65535, "flags": 0, "class": "ofp_flow_mod", "match": "dl_src:12:34:56:78:02:03,dl_dst:12:34:56:78:03:03,dl_vlan:65535,dl_vlan_pcp:0,dl_type:2048,nw_tos:0,nw_proto:1,nw_src:10.2.3.2/32,nw_dst:10.3.3.2/32,tp_src:8,tp_dst:0,in_port:None"}, 3, ["c", "1"]], "timed_out": false, "dependent_labels": [], "ignore_whitelisted_packets": false, "dpid": 3, "replay_time": [1390804140, 846552], "label": "i130", "class": "ControlMessageReceive", "b64_packet": "AQ4AUAAAAGEAAAABAAASNFZ4AgMSNFZ4AwP//wAACAAAAQAACgIDAgoDAwIACAAAAAAAAAAAAAAAAAAKAB6AAP///////wAAAAAACAADAAA=", "round": 82, "prunable": true}
{"pass_through_sends": false, "timeout_disallowed": false, "time": [1390800581, 544642], "controller_id": "c1", "fingerprint": ["ControlMessageSend", {"data": {"dl_dst": "12:34:56:78:02:03", "nw_src": "10.3.3.2", "dl_src": "12:34:56:78:03:03", "nw_dst": "10.2.3.2"}, "class": "ofp_packet_in", "in_port": 3}, 3, ["c", "1"]], "timed_out": false, "dependent_labels": [], "ignore_whitelisted_packets": false, "dpid": 3, "replay_time": [1390804140, 847681], "label": "i131", "class": "ControlMessageSend", "b64_packet": "AQoAaAAAAAUAAAABAGgAAwAAEjRWeAIDEjRWeAMDCABFAABI7sYAAEABceYKAwMCCgIDAggABjdQaW5nUGluZ1BpbmdQaW5nUGluZ1BpbmdQaW5nUGluZ1BpbmdQaW5nUGluZ1Bpbmc=", "round": 82, "prunable": true}
{"timeout_disallowed": false, "fingerprint": ["DataplanePermit", {"dl_dst": "12:34:56:78:03:03", "nw_src": "10.2.3.2", "dl_src": "12:34:56:78:02:03", "nw_dst": "10.3.3.2"}, 2, 1], "timed_out": false, "label": "i133", "passive": false, "dependent_labels": [], "time": [1390800581, 670351], "replay_time": [1390804140, 849299], "class": "DataplanePermit", "round": 83, "prunable": true}
{"pass_through_sends": false, "timeout_disallowed": false, "time": [1390800581, 672058], "controller_id": "c1", "fingerprint": ["ControlMessageReceive", {"hard_timeout": 30, "actions": ["output(3)"], "priority": 32768, "idle_timeout": 10, "command": "add", "out_port": 65535, "flags": 0, "class": "ofp_flow_mod", "match": "dl_src:12:34:56:78:03:03,dl_dst:12:34:56:78:02:03,dl_vlan:65535,dl_vlan_pcp:0,dl_type:2048,nw_tos:0,nw_proto:1,nw_src:10.3.3.2/32,nw_dst:10.2.3.2/32,tp_src:8,tp_dst:0,in_port:None"}, 2, ["c", "1"]], "timed_out": false, "dependent_labels": [], "ignore_whitelisted_packets": false, "dpid": 2, "replay_time": [1390804140, 854339], "label": "i134", "class": "ControlMessageReceive", "b64_packet": "AQ4AUAAAAGUAAAABAAASNFZ4AwMSNFZ4AgP//wAACAAAAQAACgMDAgoCAwIACAAAAAAAAAAAAAAAAAAKAB6AAP///////wAAAAAACAADAAA=", "round": 83, "prunable": true}
{"pass_through_sends": false, "timeout_disallowed": false, "time": [1390800581, 673459], "controller_id": "c1", "fingerprint": ["ControlMessageReceive", {"hard_timeout": 30, "actions": ["output(1)"], "priority": 32768, "idle_timeout": 10, "command": "add", "out_port": 65535, "flags": 0, "class": "ofp_flow_mod", "match": "dl_src:12:34:56:78:03:03,dl_dst:12:34:56:78:02:03,dl_vlan:65535,dl_vlan_pcp:0,dl_type:2048,nw_tos:0,nw_proto:1,nw_src:10.3.3.2/32,nw_dst:10.2.3.2/32,tp_src:8,tp_dst:0,in_port:None"}, 3, ["c", "1"]], "timed_out": false, "dependent_labels": [], "ignore_whitelisted_packets": false, "dpid": 3, "replay_time": [1390804140, 893183], "label": "i135", "class": "ControlMessageReceive", "b64_packet": "AQ4AUAAAAGcAAAABAAASNFZ4AwMSNFZ4AgP//wAACAAAAQAACgMDAgoCAwIACAAAAAAAAAAAAAAAAAAKAB6AAAAAAAH//wAAAAAACAABAAA=", "round": 83, "prunable": true}
{"pass_through_sends": false, "timeout_disallowed": false, "time": [1390800581, 674583], "controller_id": "c1", "fingerprint": ["ControlMessageReceive", {"in_port": 65535, "data": {"class": "lldp"}, "class": "ofp_packet_out", "actions": ["output(3)"]}, 2, ["c", "1"]], "timed_out": false, "dependent_labels": [], "ignore_whitelisted_packets": false, "dpid": 2, "replay_time": [1390804140, 894656], "label": "i136", "class": "ControlMessageReceive", "b64_packet": "AQ0AQQAAAC3///////8ACAAAAAgAAwAAASMgAAABAAAAAAIDiMwCBwdkcGlkOjIEAgIzBgIAeAwGZHBpZDoyAAA=", "round": 83, "prunable": true}
{"timeout_disallowed": false, "fingerprint": ["DataplanePermit", {"dl_dst": "12:34:56:78:03:03", "nw_src": "10.2.3.2", "dl_src": "12:34:56:78:02:03", "nw_dst": "10.3.3.2"}, 2, "12:34:56:78:02:03"], "timed_out": true, "label": "i139", "passive": false, "dependent_labels": [], "time": [1390800581, 796570], "replay_time": [1390804141, 545703], "class": "DataplanePermit", "round": 84, "prunable": true}
{"timeout_disallowed": false, "fingerprint": ["DataplanePermit", {"class": "lldp"}, 2, 3], "timed_out": false, "label": "i140", "passive": false, "dependent_labels": [], "time": [1390800581, 798638], "replay_time": [1390804141, 546998], "class": "DataplanePermit", "round": 84, "prunable": true}
{"timeout_disallowed": false, "fingerprint": ["DataplanePermit", {"dl_dst": "12:34:56:78:02:03", "nw_src": "10.3.3.2", "dl_src": "12:34:56:78:03:03", "nw_dst": "10.2.3.2"}, 3, 1], "timed_out": false, "label": "i141", "passive": false, "dependent_labels": [], "time": [1390800581, 799601], "replay_time": [1390804141, 548288], "class": "DataplanePermit", "round": 84, "prunable": true}
{"timeout_disallowed": false, "fingerprint": ["DataplanePermit", {"dl_dst": "12:34:56:78:03:03", "nw_src": "10.2.3.2", "dl_src": "12:34:56:78:02:03", "nw_dst": "10.3.3.2"}, 3, 3], "timed_out": false, "label": "i142", "passive": false, "dependent_labels": [], "time": [1390800581, 800912], "replay_time": [1390804141, 549374], "class": "DataplanePermit", "round": 84, "prunable": true}
{"pass_through_sends": false, "timeout_disallowed": false, "time": [1390800581, 801874], "controller_id": "c1", "fingerprint": ["ControlMessageSend", {"data": {"dl_dst": "12:34:56:78:03:03", "nw_src": "10.2.3.2", "dl_src": "12:34:56:78:02:03", "nw_dst": "10.3.3.2"}, "class": "ofp_packet_in", "in_port": 3}, 2, ["c", "1"]], "timed_out": true, "dependent_labels": [], "ignore_whitelisted_packets": false, "dpid": 2, "replay_time": [1390804142, 102145], "label": "i143", "class": "ControlMessageSend", "b64_packet": "AQoAaAAAAAcAAAABAGgAAwAAEjRWeAMDEjRWeAIDCABFAABI7sgAAEABceQKAgMCCgMDAgAADjdQaW5nUGluZ1BpbmdQaW5nUGluZ1BpbmdQaW5nUGluZ1BpbmdQaW5nUGluZ1Bpbmc=", "round": 84, "prunable": true}
{"timeout_disallowed": false, "fingerprint": ["DataplanePermit", {"dl_dst": "12:34:56:78:02:03", "nw_src": "10.3.3.2", "dl_src": "12:34:56:78:03:03", "nw_dst": "10.2.3.2"}, 2, 3], "timed_out": false, "label": "i145", "passive": false, "dependent_labels": [], "time": [1390800581, 925368], "replay_time": [1390804142, 103640], "class": "DataplanePermit", "round": 85, "prunable": true}
{"pass_through_sends": false, "timeout_disallowed": false, "time": [1390800581, 926805], "controller_id": "c1", "fingerprint": ["ControlMessageReceive", {"hard_timeout": 30, "actions": ["output(3)"], "priority": 32768, "idle_timeout": 10, "command": "add", "out_port": 65535, "flags": 0, "class": "ofp_flow_mod", "match": "dl_src:12:34:56:78:02:03,dl_dst:12:34:56:78:03:03,dl_vlan:65535,dl_vlan_pcp:0,dl_type:2048,nw_tos:0,nw_proto:1,nw_src:10.2.3.2/32,nw_dst:10.3.3.2/32,tp_src:0,tp_dst:0,in_port:None"}, 3, ["c", "1"]], "timed_out": true, "dependent_labels": [], "ignore_whitelisted_packets": false, "dpid": 3, "replay_time": [1390804142, 657989], "label": "i146", "class": "ControlMessageReceive", "b64_packet": "AQ4AUAAAAGkAAAABAAASNFZ4AgMSNFZ4AwP//wAACAAAAQAACgIDAgoDAwIAAAAAAAAAAAAAAAAAAAAKAB6AAP///////wAAAAAACAADAAA=", "round": 85, "prunable": true}
{"pass_through_sends": false, "timeout_disallowed": false, "time": [1390800581, 928341], "controller_id": "c1", "fingerprint": ["ControlMessageReceive", {"hard_timeout": 30, "actions": ["output(1)"], "priority": 32768, "idle_timeout": 10, "command": "add", "out_port": 65535, "flags": 0, "class": "ofp_flow_mod", "match": "dl_src:12:34:56:78:02:03,dl_dst:12:34:56:78:03:03,dl_vlan:65535,dl_vlan_pcp:0,dl_type:2048,nw_tos:0,nw_proto:1,nw_src:10.2.3.2/32,nw_dst:10.3.3.2/32,tp_src:0,tp_dst:0,in_port:None"}, 2, ["c", "1"]], "timed_out": true, "dependent_labels": [], "ignore_whitelisted_packets": false, "dpid": 2, "replay_time": [1390804143, 214359], "label": "i147", "class": "ControlMessageReceive", "b64_packet": "AQ4AUAAAAGsAAAABAAASNFZ4AgMSNFZ4AwP//wAACAAAAQAACgIDAgoDAwIAAAAAAAAAAAAAAAAAAAAKAB6AAAAAAAH//wAAAAAACAABAAA=", "round": 85, "prunable": true}
{"end_port_no": 2, "dependent_labels": ["e166"], "start_dpid": 1, "fingerprint": ["LinkFailure", 1, 1, 3, 2], "timed_out": false, "label": "e148", "start_port_no": 1, "end_dpid": 3, "time": [1390800581, 929972], "replay_time": [1390804143, 215793], "class": "LinkFailure", "round": 85, "prunable": true}
{"timeout_disallowed": false, "fingerprint": ["DataplanePermit", {"dl_dst": "12:34:56:78:03:03", "nw_src": "10.2.3.2", "dl_src": "12:34:56:78:02:03", "nw_dst": "10.3.3.2"}, 2, 1], "timed_out": true, "label": "i151", "passive": false, "dependent_labels": [], "time": [1390800582, 57938], "replay_time": [1390804143, 971086], "class": "DataplanePermit", "round": 86, "prunable": true}
{"timeout_disallowed": false, "fingerprint": ["DataplanePermit", {"dl_dst": "12:34:56:78:01:03", "nw_src": "10.2.3.2", "dl_src": "12:34:56:78:02:03", "nw_dst": "10.1.3.2"}, 2, "12:34:56:78:02:03"], "timed_out": true, "label": "i152", "passive": false, "dependent_labels": [], "time": [1390800582, 59781], "replay_time": [1390804144, 527354], "class": "DataplanePermit", "round": 86, "prunable": true}
{"pass_through_sends": false, "timeout_disallowed": false, "time": [1390800582, 61517], "controller_id": "c1", "fingerprint": ["ControlMessageSend", {"data": {"dl_dst": "12:34:56:78:01:03", "nw_src": "10.2.3.2", "dl_src": "12:34:56:78:02:03", "nw_dst": "10.1.3.2"}, "class": "ofp_packet_in", "in_port": 3}, 2, ["c", "1"]], "timed_out": true, "dependent_labels": [], "ignore_whitelisted_packets": false, "dpid": 2, "replay_time": [1390804145, 83865], "label": "i153", "class": "ControlMessageSend", "b64_packet": "AQoAaAAAAAgAAAABAGgAAwAAEjRWeAEDEjRWeAIDCABFAABI7soAAEABceQKAgMCCgEDAgAADjdQaW5nUGluZ1BpbmdQaW5nUGluZ1BpbmdQaW5nUGluZ1BpbmdQaW5nUGluZ1Bpbmc=", "round": 86, "prunable": true}
{"pass_through_sends": false, "timeout_disallowed": false, "time": [1390800582, 62300], "controller_id": "c1", "fingerprint": ["ControlMessageSend", {"reason": 1, "class": "ofp_port_status", "desc": [1, "00:00:00:00:01:01"]}, 1, ["c", "1"]], "timed_out": false, "dependent_labels": [], "ignore_whitelisted_packets": false, "dpid": 1, "replay_time": [1390804145, 85005], "label": "i154", "class": "ControlMessageSend", "b64_packet": "AQwAQAAAAAcBAAAAAAAAAAABAAAAAAEBZXRoMQAAAAAAAAAAAAAAAAAAAAAAAAAAAAAAAAAAAAAAAAAAAAAAAA==", "round": 86, "prunable": true}
{"timeout_disallowed": false, "fingerprint": ["DataplanePermit", {"dl_dst": "12:34:56:78:03:03", "nw_src": "10.2.3.2", "dl_src": "12:34:56:78:02:03", "nw_dst": "10.3.3.2"}, 3, 3], "timed_out": true, "label": "i156", "passive": false, "dependent_labels": [], "time": [1390800582, 189507], "replay_time": [1390804145, 713489], "class": "DataplanePermit", "round": 87, "prunable": true}
{"pass_through_sends": false, "timeout_disallowed": false, "time": [1390800582, 190988], "controller_id": "c1", "fingerprint": ["ControlMessageReceive", {"hard_timeout": 30, "actions": ["output(3)"], "priority": 32768, "idle_timeout": 10, "command": "add", "out_port": 65535, "flags": 0, "class": "ofp_flow_mod", "match": "dl_src:12:34:56:78:02:03,dl_dst:12:34:56:78:01:03,dl_vlan:65535,dl_vlan_pcp:0,dl_type:2048,nw_tos:0,nw_proto:1,nw_src:10.2.3.2/32,nw_dst:10.1.3.2/32,tp_src:0,tp_dst:0,in_port:None"}, 1, ["c", "1"]], "timed_out": true, "dependent_labels": [], "ignore_whitelisted_packets": false, "dpid": 1, "replay_time": [1390804146, 315749], "label": "i157", "class": "ControlMessageReceive", "b64_packet": "AQ4AUAAAAG0AAAABAAASNFZ4AgMSNFZ4AQP//wAACAAAAQAACgIDAgoBAwIAAAAAAAAAAAAAAAAAAAAKAB6AAP///////wAAAAAACAADAAA=", "round": 87, "prunable": true}
{"pass_through_sends": false, "timeout_disallowed": false, "time": [1390800582, 192475], "controller_id": "c1", "fingerprint": ["ControlMessageReceive", {"hard_timeout": 30, "actions": ["output(2)"], "priority": 32768, "idle_timeout": 10, "command": "add", "out_port": 65535, "flags": 0, "class": "ofp_flow_mod", "match": "dl_src:12:34:56:78:02:03,dl_dst:12:34:56:78:01:03,dl_vlan:65535,dl_vlan_pcp:0,dl_type:2048,nw_tos:0,nw_proto:1,nw_src:10.2.3.2/32,nw_dst:10.1.3.2/32,tp_src:0,tp_dst:0,in_port:None"}, 2, ["c", "1"]], "timed_out": true, "dependent_labels": [], "ignore_whitelisted_packets": false, "dpid": 2, "replay_time": [1390804146, 940155], "label": "i158", "class": "ControlMessageReceive", "b64_packet": "AQ4AUAAAAG8AAAABAAASNFZ4AgMSNFZ4AQP//wAACAAAAQAACgIDAgoBAwIAAAAAAAAAAAAAAAAAAAAKAB6AAAAAAAH//wAAAAAACAACAAA=", "round": 87, "prunable": true}
{"timeout_disallowed": false, "fingerprint": ["DataplanePermit", {"dl_dst": "12:34:56:78:01:03", "nw_src": "10.2.3.2", "dl_src": "12:34:56:78:02:03", "nw_dst": "10.1.3.2"}, 2, 2], "timed_out": true, "label": "i160", "passive": false, "dependent_labels": [], "time": [1390800582, 321515], "replay_time": [1390804147, 590310], "class": "DataplanePermit", "round": 88, "prunable": true}
{"timeout_disallowed": false, "fingerprint": ["DataplanePermit", {"dl_dst": "12:34:56:78:01:03", "nw_src": "10.2.3.2", "dl_src": "12:34:56:78:02:03", "nw_dst": "10.1.3.2"}, 1, 3], "timed_out": true, "label": "i162", "passive": false, "dependent_labels": [], "time": [1390800582, 451426], "replay_time": [1390804148, 215801], "class": "DataplanePermit", "round": 89, "prunable": true}
{"timeout_disallowed": false, "fingerprint": ["DataplanePermit", {"dl_dst": "12:34:56:78:03:03", "nw_src": "10.2.3.2", "dl_src": "12:34:56:78:02:03", "nw_dst": "10.3.3.2"}, 2, "12:34:56:78:02:03"], "timed_out": true, "label": "i165", "passive": false, "dependent_labels": [], "time": [1390800582, 583651], "replay_time": [1390804148, 841694], "class": "DataplanePermit", "round": 90, "prunable": true}
{"end_port_no": 2, "dependent_labels": [], "start_dpid": 1, "fingerprint": ["LinkRecovery", 1, 1, 3, 2], "timed_out": false, "label": "e166", "start_port_no": 1, "end_dpid": 3, "time": [1390800582, 585669], "replay_time": [1390804148, 842874], "class": "LinkRecovery", "round": 90, "prunable": true}
{"timeout_disallowed": false, "fingerprint": ["DataplanePermit", {"dl_dst": "12:34:56:78:03:03", "nw_src": "10.2.3.2", "dl_src": "12:34:56:78:02:03", "nw_dst": "10.3.3.2"}, 2, 1], "timed_out": true, "label": "i168", "passive": false, "dependent_labels": [], "time": [1390800582, 717039], "replay_time": [1390804149, 467515], "class": "DataplanePermit", "round": 91, "prunable": true}
{"pass_through_sends": false, "timeout_disallowed": false, "time": [1390800582, 718989], "controller_id": "c1", "fingerprint": ["ControlMessageSend", {"reason": 0, "class": "ofp_port_status", "desc": [1, "00:00:00:00:01:01"]}, 1, ["c", "1"]], "timed_out": false, "dependent_labels": [], "ignore_whitelisted_packets": false, "dpid": 1, "replay_time": [1390804149, 468469], "label": "i169", "class": "ControlMessageSend", "b64_packet": "AQwAQAAAAAkAAAAAAAAAAAABAAAAAAEBZXRoMQAAAAAAAAAAAAAAAAAAAAAAAAAAAAAAAAAAAAAAAAAAAAAAAA==", "round": 91, "prunable": true}
{"timeout_disallowed": false, "fingerprint": ["DataplanePermit", {"dl_dst": "12:34:56:78:03:03", "nw_src": "10.2.3.2", "dl_src": "12:34:56:78:02:03", "nw_dst": "10.3.3.2"}, 3, 3], "timed_out": true, "label": "i171", "passive": false, "dependent_labels": [], "time": [1390800582, 848315], "replay_time": [1390804150, 227625], "class": "DataplanePermit", "round": 92, "prunable": true}
{"pass_through_sends": false, "timeout_disallowed": false, "time": [1390800582, 848949], "controller_id": "c1", "fingerprint": ["ControlMessageReceive", {"in_port": 65535, "data": {"class": "lldp"}, "class": "ofp_packet_out", "actions": ["output(2)"]}, 1, ["c", "1"]], "timed_out": false, "dependent_labels": [], "ignore_whitelisted_packets": false, "dpid": 1, "replay_time": [1390804150, 228927], "label": "i172", "class": "ControlMessageReceive", "b64_packet": "AQ0AQQAAADP///////8ACAAAAAgAAgAAASMgAAABAAAAAAECiMwCBwdkcGlkOjEEAgIyBgIAeAwGZHBpZDoxAAA=", "round": 92, "prunable": true}
{"timeout_disallowed": false, "fingerprint": ["DataplanePermit", {"class": "lldp"}, 1, 2], "timed_out": false, "label": "i175", "passive": false, "dependent_labels": [], "time": [1390800582, 981063], "replay_time": [1390804150, 230491], "class": "DataplanePermit", "round": 93, "prunable": true}
{"timeout_disallowed": false, "fingerprint": ["DataplanePermit", {"dl_dst": "12:34:56:78:02:03", "nw_src": "10.1.3.2", "dl_src": "12:34:56:78:01:03", "nw_dst": "10.2.3.2"}, 1, "12:34:56:78:01:03"], "timed_out": true, "label": "i176", "passive": false, "dependent_labels": [], "time": [1390800582, 982850], "replay_time": [1390804150, 784399], "class": "DataplanePermit", "round": 93, "prunable": true}
{"pass_through_sends": false, "timeout_disallowed": false, "time": [1390800582, 984430], "controller_id": "c1", "fingerprint": ["ControlMessageSend", {"data": {"dl_dst": "12:34:56:78:02:03", "nw_src": "10.1.3.2", "dl_src": "12:34:56:78:01:03", "nw_dst": "10.2.3.2"}, "class": "ofp_packet_in", "in_port": 3}, 1, ["c", "1"]], "timed_out": true, "dependent_labels": [], "ignore_whitelisted_packets": false, "dpid": 1, "replay_time": [1390804151, 340384], "label": "i177", "class": "ControlMessageSend", "b64_packet": "AQoAaAAAAAYAAAABAGgAAwAAEjRWeAIDEjRWeAEDCABFAABI7s0AAEABceEKAQMCCgIDAggABjdQaW5nUGluZ1BpbmdQaW5nUGluZ1BpbmdQaW5nUGluZ1BpbmdQaW5nUGluZ1Bpbmc=", "round": 93, "prunable": true}
{"pass_through_sends": false, "timeout_disallowed": false, "time": [1390800582, 985232], "controller_id": "c1", "fingerprint": ["ControlMessageSend", {"data": {"class": "lldp"}, "class": "ofp_packet_in", "in_port": 2}, 2, ["c", "1"]], "timed_out": false, "dependent_labels": [], "ignore_whitelisted_packets": false, "dpid": 2, "replay_time": [1390804151, 341430], "label": "i178", "class": "ControlMessageSend", "b64_packet": "AQoAOwAAAAkAAAABADsAAgAAASMgAAABAAAAAAECiMwCBwdkcGlkOjEEAgIyBgIAeAwGZHBpZDoxAAA=", "round": 93, "prunable": true}
{"pass_through_sends": false, "timeout_disallowed": false, "time": [1390800583, 114296], "controller_id": "c1", "fingerprint": ["ControlMessageReceive", {"hard_timeout": 30, "actions": ["output(2)"], "priority": 32768, "idle_timeout": 10, "command": "add", "out_port": 65535, "flags": 0, "class": "ofp_flow_mod", "match": "dl_src:12:34:56:78:01:03,dl_dst:12:34:56:78:02:03,dl_vlan:65535,dl_vlan_pcp:0,dl_type:2048,nw_tos:0,nw_proto:1,nw_src:10.1.3.2/32,nw_dst:10.2.3.2/32,tp_src:8,tp_dst:0,in_port:None"}, 1, ["c", "1"]], "timed_out": true, "dependent_labels": [], "ignore_whitelisted_packets": false, "dpid": 1, "replay_time": [1390804152, 96914], "label": "i180", "class": "ControlMessageReceive", "b64_packet": "AQ4AUAAAAHcAAAABAAASNFZ4AQMSNFZ4AgP//wAACAAAAQAACgEDAgoCAwIACAAAAAAAAAAAAAAAAAAKAB6AAAAAAAH//wAAAAAACAACAAA=", "round": 94, "prunable": true}
{"pass_through_sends": false, "timeout_disallowed": false, "time": [1390800583, 115948], "controller_id": "c1", "fingerprint": ["ControlMessageReceive", {"in_port": 2, "data": [], "class": "ofp_packet_out", "actions": []}, 2, ["c", "1"]], "timed_out": false, "dependent_labels": [], "ignore_whitelisted_packets": false, "dpid": 2, "replay_time": [1390804152, 98523], "label": "i181", "class": "ControlMessageReceive", "b64_packet": "AQ0AEAAAAHMAAAABAAIAAA==", "round": 94, "prunable": true}
{"pass_through_sends": false, "timeout_disallowed": false, "time": [1390800583, 116675], "controller_id": "c1", "fingerprint": ["ControlMessageReceive", {"hard_timeout": 30, "actions": ["output(3)"], "priority": 32768, "idle_timeout": 10, "command": "add", "out_port": 65535, "flags": 0, "class": "ofp_flow_mod", "match": "dl_src:12:34:56:78:01:03,dl_dst:12:34:56:78:02:03,dl_vlan:65535,dl_vlan_pcp:0,dl_type:2048,nw_tos:0,nw_proto:1,nw_src:10.1.3.2/32,nw_dst:10.2.3.2/32,tp_src:8,tp_dst:0,in_port:None"}, 2, ["c", "1"]], "timed_out": true, "dependent_labels": [], "ignore_whitelisted_packets": false, "dpid": 2, "replay_time": [1390804152, 593383], "label": "i182", "class": "ControlMessageReceive", "b64_packet": "AQ4AUAAAAHUAAAABAAASNFZ4AQMSNFZ4AgP//wAACAAAAQAACgEDAgoCAwIACAAAAAAAAAAAAAAAAAAKAB6AAP///////wAAAAAACAADAAA=", "round": 94, "prunable": true}
{"dependent_labels": [], "class": "TrafficInjection", "fingerprint": ["TrafficInjection", {"interface": {"hw_addr": "12:34:56:78:01:03", "ips": ["10.1.3.2"], "name": "eth1"}, "packet": "EjRWeAMDEjRWeAEDCABFAABI7s8AAEABcd4KAQMCCgMDAgAADjdQaW5nUGluZ1BpbmdQaW5nUGluZ1BpbmdQaW5nUGluZ1BpbmdQaW5nUGluZ1Bpbmc="}, null], "timed_out": false, "label": "e183", "dp_event": {"interface": {"hw_addr": "12:34:56:78:01:03", "ips": ["10.1.3.2"], "name": "eth1"}, "packet": "EjRWeAMDEjRWeAEDCABFAABI7s8AAEABcd4KAQMCCgMDAgAADjdQaW5nUGluZ1BpbmdQaW5nUGluZ1BpbmdQaW5nUGluZ1BpbmdQaW5nUGluZ1Bpbmc="}, "time": [1390800583, 118333], "replay_time": [1390804152, 594958], "host_id": null, "round": 94, "prunable": true}
{"timeout_disallowed": false, "fingerprint": ["DataplanePermit", {"dl_dst": "12:34:56:78:03:03", "nw_src": "10.1.3.2", "dl_src": "12:34:56:78:01:03", "nw_dst": "10.3.3.2"}, 1, "12:34:56:78:01:03"], "timed_out": false, "label": "i185", "passive": false, "dependent_labels": [], "time": [1390800583, 247600], "replay_time": [1390804152, 596796], "class": "DataplanePermit", "round": 95, "prunable": true}
{"timeout_disallowed": false, "fingerprint": ["DataplanePermit", {"dl_dst": "12:34:56:78:02:03", "nw_src": "10.1.3.2", "dl_src": "12:34:56:78:01:03", "nw_dst": "10.2.3.2"}, 1, 2], "timed_out": true, "label": "i186", "passive": false, "dependent_labels": [], "time": [1390800583, 249754], "replay_time": [1390804153, 209322], "class": "DataplanePermit", "round": 95, "prunable": true}
{"pass_through_sends": false, "timeout_disallowed": false, "time": [1390800583, 251294], "controller_id": "c1", "fingerprint": ["ControlMessageSend", {"data": {"dl_dst": "12:34:56:78:03:03", "nw_src": "10.1.3.2", "dl_src": "12:34:56:78:01:03", "nw_dst": "10.3.3.2"}, "class": "ofp_packet_in", "in_port": 3}, 1, ["c", "1"]], "timed_out": false, "dependent_labels": [], "ignore_whitelisted_packets": false, "dpid": 1, "replay_time": [1390804153, 210399], "label": "i187", "class": "ControlMessageSend", "b64_packet": "AQoAaAAAAAcAAAABAGgAAwAAEjRWeAMDEjRWeAEDCABFAABI7s8AAEABcd4KAQMCCgMDAgAADjdQaW5nUGluZ1BpbmdQaW5nUGluZ1BpbmdQaW5nUGluZ1BpbmdQaW5nUGluZ1Bpbmc=", "round": 95, "prunable": true}
{"timeout_disallowed": false, "fingerprint": ["DataplanePermit", {"dl_dst": "12:34:56:78:01:03", "nw_src": "10.3.3.2", "dl_src": "12:34:56:78:03:03", "nw_dst": "10.1.3.2"}, 3, "12:34:56:78:03:03"], "timed_out": true, "label": "i190", "passive": false, "dependent_labels": [], "time": [1390800583, 380247], "replay_time": [1390804153, 920793], "class": "DataplanePermit", "round": 96, "prunable": true}
{"timeout_disallowed": false, "fingerprint": ["DataplanePermit", {"dl_dst": "12:34:56:78:02:03", "nw_src": "10.1.3.2", "dl_src": "12:34:56:78:01:03", "nw_dst": "10.2.3.2"}, 2, 3], "timed_out": true, "label": "i191", "passive": false, "dependent_labels": [], "time": [1390800583, 381992], "replay_time": [1390804154, 477180], "class": "DataplanePermit", "round": 96, "prunable": true}
{"pass_through_sends": false, "timeout_disallowed": false, "time": [1390800583, 383239], "controller_id": "c1", "fingerprint": ["ControlMessageReceive", {"hard_timeout": 30, "actions": ["output(2)"], "priority": 32768, "idle_timeout": 10, "command": "add", "out_port": 65535, "flags": 0, "class": "ofp_flow_mod", "match": "dl_src:12:34:56:78:01:03,dl_dst:12:34:56:78:03:03,dl_vlan:65535,dl_vlan_pcp:0,dl_type:2048,nw_tos:0,nw_proto:1,nw_src:10.1.3.2/32,nw_dst:10.3.3.2/32,tp_src:0,tp_dst:0,in_port:None"}, 1, ["c", "1"]], "timed_out": true, "dependent_labels": [], "ignore_whitelisted_packets": false, "dpid": 1, "replay_time": [1390804155, 33484], "label": "i192", "class": "ControlMessageReceive", "b64_packet": "AQ4AUAAAAH0AAAABAAASNFZ4AQMSNFZ4AwP//wAACAAAAQAACgEDAgoDAwIAAAAAAAAAAAAAAAAAAAAKAB6AAAAAAAH//wAAAAAACAACAAA=", "round": 96, "prunable": true}
{"pass_through_sends": false, "timeout_disallowed": false, "time": [1390800583, 384876], "controller_id": "c1", "fingerprint": ["ControlMessageReceive", {"hard_timeout": 30, "actions": ["output(2)"], "priority": 32768, "idle_timeout": 10, "command": "add", "out_port": 65535, "flags": 0, "class": "ofp_flow_mod", "match": "dl_src:12:34:56:78:01:03,dl_dst:12:34:56:78:03:03,dl_vlan:65535,dl_vlan_pcp:0,dl_type:2048,nw_tos:0,nw_proto:1,nw_src:10.1.3.2/32,nw_dst:10.3.3.2/32,tp_src:0,tp_dst:0,in_port:None"}, 3, ["c", "1"]], "timed_out": true, "dependent_labels": [], "ignore_whitelisted_packets": false, "dpid": 3, "replay_time": [1390804155, 589943], "label": "i193", "class": "ControlMessageReceive", "b64_packet": "AQ4AUAAAAHsAAAABAAASNFZ4AQMSNFZ4AwP//wAACAAAAQAACgEDAgoDAwIAAAAAAAAAAAAAAAAAAAAKAB6AAP///////wAAAAAACAACAAA=", "round": 96, "prunable": true}
{"pass_through_sends": false, "timeout_disallowed": false, "time": [1390800583, 386163], "controller_id": "c1", "fingerprint": ["ControlMessageReceive", {"hard_timeout": 30, "actions": ["output(1)"], "priority": 32768, "idle_timeout": 10, "command": "add", "out_port": 65535, "flags": 0, "class": "ofp_flow_mod", "match": "dl_src:12:34:56:78:01:03,dl_dst:12:34:56:78:03:03,dl_vlan:65535,dl_vlan_pcp:0,dl_type:2048,nw_tos:0,nw_proto:1,nw_src:10.1.3.2/32,nw_dst:10.3.3.2/32,tp_src:0,tp_dst:0,in_port:None"}, 2, ["c", "1"]], "timed_out": true, "dependent_labels": [], "ignore_whitelisted_packets": false, "dpid": 2, "replay_time": [1390804156, 146257], "label": "i194", "class": "ControlMessageReceive", "b64_packet": "AQ4AUAAAAHkAAAABAAASNFZ4AQMSNFZ4AwP//wAACAAAAQAACgEDAgoDAwIAAAAAAAAAAAAAAAAAAAAKAB6AAP///////wAAAAAACAABAAA=", "round": 96, "prunable": true}
{"pass_through_sends": false, "timeout_disallowed": false, "time": [1390800583, 387347], "controller_id": "c1", "fingerprint": ["ControlMessageReceive", {"in_port": 65535, "data": {"class": "lldp"}, "class": "ofp_packet_out", "actions": ["output(3)"]}, 1, ["c", "1"]], "timed_out": false, "dependent_labels": [], "ignore_whitelisted_packets": false, "dpid": 1, "replay_time": [1390804156, 147816], "label": "i195", "class": "ControlMessageReceive", "b64_packet": "AQ0AQQAAADX///////8ACAAAAAgAAwAAASMgAAABAAAAAAEDiMwCBwdkcGlkOjEEAgIzBgIAeAwGZHBpZDoxAAA=", "round": 96, "prunable": true}
{"pass_through_sends": false, "timeout_disallowed": false, "time": [1390800583, 388209], "controller_id": "c1", "fingerprint": ["ControlMessageSend", {"data": {"dl_dst": "12:34:56:78:01:03", "nw_src": "10.3.3.2", "dl_src": "12:34:56:78:03:03", "nw_dst": "10.1.3.2"}, "class": "ofp_packet_in", "in_port": 3}, 3, ["c", "1"]], "timed_out": true, "dependent_labels": [], "ignore_whitelisted_packets": false, "dpid": 3, "replay_time": [1390804156, 702651], "label": "i196", "class": "ControlMessageSend", "b64_packet": "AQoAaAAAAAYAAAABAGgAAwAAEjRWeAEDEjRWeAMDCABFAABI7tEAAEABcdwKAwMCCgEDAggABjdQaW5nUGluZ1BpbmdQaW5nUGluZ1BpbmdQaW5nUGluZ1BpbmdQaW5nUGluZ1Bpbmc=", "round": 96, "prunable": true}
{"class": "InvariantViolation", "fingerprint": ["InvariantViolation"], "persistent": true, "timed_out": false, "dependent_labels": [], "time": [1390800583, 419557], "violations": ["(300003, ['-> Port: 300003', '-> Port: 100001', '-> Port: 200002', '-> Port: 300001', '-> Port: 100001'], (dl_src:12:34:56:78:01:03,dl_dst:12:34:56:78:03:03,dl_vlan:65535,dl_vlan_pcp:0,dl_type:2048,nw_tos:0,nw_proto:1,nw_src:10.1.3.2/32,nw_dst:10.3.3.2/32,tp_src:0,tp_dst:0) - ([]))", "(200003, ['-> Port: 200003', '-> Port: 300001', '-> Port: 100001', '-> Port: 200002', '-> Port: 300001'], (dl_src:12:34:56:78:01:03,dl_dst:12:34:56:78:03:03,dl_vlan:65535,dl_vlan_pcp:0,dl_type:2048,nw_tos:0,nw_proto:1,nw_src:10.1.3.2/32,nw_dst:10.3.3.2/32,tp_src:0,tp_dst:0) - ([]))"], "label": "e198", "round": 96, "prunable": true}
{"wait_time": 1.0, "dependent_labels": [], "fingerprint": ["WaitTime"], "time": [1390800583, 419557], "class": "WaitTime", "prunable": true, "timed_out": false, "round": -1, "label": "e206"}
