xss =  -ea -javaagent:/home/mininet/apache-cassandra-1.2.4/bin/../lib/jamm-0.2.5.jar -XX:+UseThreadPriorities -XX:ThreadPriorityPolicy=42 -Xms1996M -Xmx1996M -Xmn100M -XX:+HeapDumpOnOutOfMemoryError -Xss256k
 INFO 16:27:08,694 Logging initialized
 INFO 16:27:08,707 JVM vendor/version: OpenJDK 64-Bit Server VM/1.7.0_51
 WARN 16:27:08,707 OpenJDK is not recommended. Please upgrade to the newest Oracle Java release
 INFO 16:27:08,707 Heap size: 2082471936/2082471936
 INFO 16:27:08,708 Classpath: /home/mininet/apache-cassandra-1.2.4/bin/../conf:/home/mininet/apache-cassandra-1.2.4/bin/../build/classes/main:/home/mininet/apache-cassandra-1.2.4/bin/../build/classes/thrift:/home/mininet/apache-cassandra-1.2.4/bin/../lib/antlr-3.2.jar:/home/mininet/apache-cassandra-1.2.4/bin/../lib/apache-cassandra-1.2.4.jar:/home/mininet/apache-cassandra-1.2.4/bin/../lib/apache-cassandra-clientutil-1.2.4.jar:/home/mininet/apache-cassandra-1.2.4/bin/../lib/apache-cassandra-thrift-1.2.4.jar:/home/mininet/apache-cassandra-1.2.4/bin/../lib/avro-1.4.0-fixes.jar:/home/mininet/apache-cassandra-1.2.4/bin/../lib/avro-1.4.0-sources-fixes.jar:/home/mininet/apache-cassandra-1.2.4/bin/../lib/commons-cli-1.1.jar:/home/mininet/apache-cassandra-1.2.4/bin/../lib/commons-codec-1.2.jar:/home/mininet/apache-cassandra-1.2.4/bin/../lib/commons-lang-2.6.jar:/home/mininet/apache-cassandra-1.2.4/bin/../lib/compress-lzf-0.8.4.jar:/home/mininet/apache-cassandra-1.2.4/bin/../lib/concurrentlinkedhashmap-lru-1.3.jar:/home/mininet/apache-cassandra-1.2.4/bin/../lib/guava-13.0.1.jar:/home/mininet/apache-cassandra-1.2.4/bin/../lib/high-scale-lib-1.1.2.jar:/home/mininet/apache-cassandra-1.2.4/bin/../lib/jackson-core-asl-1.9.2.jar:/home/mininet/apache-cassandra-1.2.4/bin/../lib/jackson-mapper-asl-1.9.2.jar:/home/mininet/apache-cassandra-1.2.4/bin/../lib/jamm-0.2.5.jar:/home/mininet/apache-cassandra-1.2.4/bin/../lib/jbcrypt-0.3m.jar:/home/mininet/apache-cassandra-1.2.4/bin/../lib/jline-1.0.jar:/home/mininet/apache-cassandra-1.2.4/bin/../lib/json-simple-1.1.jar:/home/mininet/apache-cassandra-1.2.4/bin/../lib/libthrift-0.7.0.jar:/home/mininet/apache-cassandra-1.2.4/bin/../lib/log4j-1.2.16.jar:/home/mininet/apache-cassandra-1.2.4/bin/../lib/lz4-1.1.0.jar:/home/mininet/apache-cassandra-1.2.4/bin/../lib/metrics-core-2.0.3.jar:/home/mininet/apache-cassandra-1.2.4/bin/../lib/netty-3.5.9.Final.jar:/home/mininet/apache-cassandra-1.2.4/bin/../lib/servlet-api-2.5-20081211.jar:/home/mininet/apache-cassandra-1.2.4/bin/../lib/slf4j-api-1.7.2.jar:/home/mininet/apache-cassandra-1.2.4/bin/../lib/slf4j-log4j12-1.7.2.jar:/home/mininet/apache-cassandra-1.2.4/bin/../lib/snakeyaml-1.6.jar:/home/mininet/apache-cassandra-1.2.4/bin/../lib/snappy-java-1.0.4.1.jar:/home/mininet/apache-cassandra-1.2.4/bin/../lib/snaptree-0.1.jar:/home/mininet/apache-cassandra-1.2.4/bin/../lib/jamm-0.2.5.jar
 INFO 16:27:08,710 JNA not found. Native methods will be disabled.
 INFO 16:27:08,719 Loading settings from file:/home/mininet/apache-cassandra-1.2.4/conf/cassandra.yaml
 INFO 16:27:09,167 Data files directories: [/var/lib/cassandra/data]
 INFO 16:27:09,167 Commit log directory: /var/lib/cassandra/commitlog
 INFO 16:27:09,167 DiskAccessMode 'auto' determined to be mmap, indexAccessMode is mmap
 INFO 16:27:09,168 disk_failure_policy is stop
 INFO 16:27:09,175 Global memtable threshold is enabled at 662MB
 INFO 16:27:09,290 Not using multi-threaded compaction
 INFO 16:27:09,992 Initializing key cache with capacity of 99 MBs.
 INFO 16:27:10,037 Scheduling key cache save to each 14400 seconds (going to save all keys).
 INFO 16:27:10,038 Initializing row cache with capacity of 0 MBs and provider org.apache.cassandra.cache.SerializingCacheProvider
 INFO 16:27:10,059 Scheduling row cache save to each 0 seconds (going to save all keys).
 INFO 16:27:10,509 Couldn't detect any schema definitions in local storage.
 INFO 16:27:10,509 To create keyspaces and column families, see 'help create keyspace' in the CLI, or set up a schema using the thrift system_* calls.
 INFO 16:27:10,605 No commitlog files found; skipping replay
 INFO 16:27:11,072 Cassandra version: 1.2.4
 INFO 16:27:11,076 Thrift API version: 19.35.0
 INFO 16:27:11,076 CQL supported versions: 2.0.0,3.0.1 (default: 3.0.1)
 INFO 16:27:11,126 Loading persisted ring state
 INFO 16:27:11,129 Starting up server gossip
 WARN 16:27:11,134 No host ID found, created ff026ad1-6fe2-44c5-9b55-ea37c4e38d39 (Note: This should happen exactly once per node).
 INFO 16:27:11,148 Enqueuing flush of Memtable-local@1070552419(361/361 serialized/live bytes, 15 ops)
 INFO 16:27:11,157 Writing Memtable-local@1070552419(361/361 serialized/live bytes, 15 ops)
 INFO 16:27:11,216 Completed flushing /var/lib/cassandra/data/system/local/system-local-ib-1-Data.db (351 bytes) for commitlog position ReplayPosition(segmentId=1402529230484, position=50656)
 INFO 16:27:11,424 Starting Messaging Service on port 7000
 INFO 16:27:11,551 Enqueuing flush of Memtable-local@880453696(86/86 serialized/live bytes, 4 ops)
 INFO 16:27:11,554 Writing Memtable-local@880453696(86/86 serialized/live bytes, 4 ops)
 INFO 16:27:11,573 Completed flushing /var/lib/cassandra/data/system/local/system-local-ib-2-Data.db (122 bytes) for commitlog position ReplayPosition(segmentId=1402529230484, position=50933)
 INFO 16:27:11,578 JOINING: waiting for ring information
 INFO 16:27:12,575 Node /192.168.56.11 is now part of the cluster
 INFO 16:27:12,577 InetAddress /192.168.56.11 is now UP
 INFO 16:27:12,599 Enqueuing flush of Memtable-peers@1599979394(51/51 serialized/live bytes, 2 ops)
 INFO 16:27:12,600 Writing Memtable-peers@1599979394(51/51 serialized/live bytes, 2 ops)
 INFO 16:27:12,617 Completed flushing /var/lib/cassandra/data/system/peers/system-peers-ib-1-Data.db (109 bytes) for commitlog position ReplayPosition(segmentId=1402529230484, position=51107)
 INFO 16:27:12,642 Enqueuing flush of Memtable-schema_keyspaces@191197583(389/389 serialized/live bytes, 11 ops)
 INFO 16:27:12,642 Writing Memtable-schema_keyspaces@191197583(389/389 serialized/live bytes, 11 ops)
 INFO 16:27:12,661 Completed flushing /var/lib/cassandra/data/system/schema_keyspaces/system-schema_keyspaces-ib-1-Data.db (264 bytes) for commitlog position ReplayPosition(segmentId=1402529230484, position=53730)
 INFO 16:27:12,662 Enqueuing flush of Memtable-schema_columnfamilies@203568414(23066/23066 serialized/live bytes, 379 ops)
 INFO 16:27:12,663 Writing Memtable-schema_columnfamilies@203568414(23066/23066 serialized/live bytes, 379 ops)
 INFO 16:27:12,689 Completed flushing /var/lib/cassandra/data/system/schema_columnfamilies/system-schema_columnfamilies-ib-1-Data.db (4844 bytes) for commitlog position ReplayPosition(segmentId=1402529230484, position=53730)
 INFO 16:27:12,690 Enqueuing flush of Memtable-schema_columns@1183600113(22154/22154 serialized/live bytes, 337 ops)
 INFO 16:27:12,691 Writing Memtable-schema_columns@1183600113(22154/22154 serialized/live bytes, 337 ops)
 INFO 16:27:12,719 Completed flushing /var/lib/cassandra/data/system/schema_columns/system-schema_columns-ib-1-Data.db (3898 bytes) for commitlog position ReplayPosition(segmentId=1402529230484, position=53730)
 INFO 16:27:13,581 JOINING: schema complete, ready to bootstrap
 INFO 16:27:13,582 JOINING: getting bootstrap token
 INFO 16:27:13,588 Enqueuing flush of Memtable-local@1250614665(73/73 serialized/live bytes, 4 ops)
 INFO 16:27:13,589 Writing Memtable-local@1250614665(73/73 serialized/live bytes, 4 ops)
 INFO 16:27:13,614 Completed flushing /var/lib/cassandra/data/system/local/system-local-ib-3-Data.db (137 bytes) for commitlog position ReplayPosition(segmentId=1402529230484, position=54028)
 INFO 16:27:13,631 JOINING: sleeping 30000 ms for pending range setup
 INFO 16:27:43,632 JOINING: Starting to bootstrap...
 INFO 16:27:43,724 Finished streaming session fcf8d3e0-f1bf-11e3-ad78-c1b7d013ecd2 from /192.168.56.11
 INFO 16:27:43,726 Bootstrap completed! for the tokens [0]
 INFO 16:27:43,729 Enqueuing flush of Memtable-local@1383024495(43/43 serialized/live bytes, 2 ops)
 INFO 16:27:43,729 Writing Memtable-local@1383024495(43/43 serialized/live bytes, 2 ops)
 INFO 16:27:43,754 Completed flushing /var/lib/cassandra/data/system/local/system-local-ib-4-Data.db (74 bytes) for commitlog position ReplayPosition(segmentId=1402529230484, position=54161)
 INFO 16:27:43,764 Enqueuing flush of Memtable-local@1948488022(32/32 serialized/live bytes, 2 ops)
 INFO 16:27:43,767 Writing Memtable-local@1948488022(32/32 serialized/live bytes, 2 ops)
 INFO 16:27:43,770 Compacting [SSTableReader(path='/var/lib/cassandra/data/system/local/system-local-ib-2-Data.db'), SSTableReader(path='/var/lib/cassandra/data/system/local/system-local-ib-4-Data.db'), SSTableReader(path='/var/lib/cassandra/data/system/local/system-local-ib-3-Data.db'), SSTableReader(path='/var/lib/cassandra/data/system/local/system-local-ib-1-Data.db')]
 INFO 16:27:43,783 Completed flushing /var/lib/cassandra/data/system/local/system-local-ib-5-Data.db (90 bytes) for commitlog position ReplayPosition(segmentId=1402529230484, position=54317)
 INFO 16:27:43,797 Node /192.168.56.12 state jump to normal
 INFO 16:27:43,799 Startup completed! Now serving reads.
