xss =  -ea -javaagent:/home/mininet/apache-cassandra-1.2.4/bin/../lib/jamm-0.2.5.jar -XX:+UseThreadPriorities -XX:ThreadPriorityPolicy=42 -Xms1996M -Xmx1996M -Xmn100M -XX:+HeapDumpOnOutOfMemoryError -Xss256k
 INFO 16:07:30,877 Logging initialized
 INFO 16:07:30,892 JVM vendor/version: OpenJDK 64-Bit Server VM/1.7.0_51
 WARN 16:07:30,893 OpenJDK is not recommended. Please upgrade to the newest Oracle Java release
 INFO 16:07:30,893 Heap size: 2082471936/2082471936
 INFO 16:07:30,893 Classpath: /home/mininet/apache-cassandra-1.2.4/bin/../conf:/home/mininet/apache-cassandra-1.2.4/bin/../build/classes/main:/home/mininet/apache-cassandra-1.2.4/bin/../build/classes/thrift:/home/mininet/apache-cassandra-1.2.4/bin/../lib/antlr-3.2.jar:/home/mininet/apache-cassandra-1.2.4/bin/../lib/apache-cassandra-1.2.4.jar:/home/mininet/apache-cassandra-1.2.4/bin/../lib/apache-cassandra-clientutil-1.2.4.jar:/home/mininet/apache-cassandra-1.2.4/bin/../lib/apache-cassandra-thrift-1.2.4.jar:/home/mininet/apache-cassandra-1.2.4/bin/../lib/avro-1.4.0-fixes.jar:/home/mininet/apache-cassandra-1.2.4/bin/../lib/avro-1.4.0-sources-fixes.jar:/home/mininet/apache-cassandra-1.2.4/bin/../lib/commons-cli-1.1.jar:/home/mininet/apache-cassandra-1.2.4/bin/../lib/commons-codec-1.2.jar:/home/mininet/apache-cassandra-1.2.4/bin/../lib/commons-lang-2.6.jar:/home/mininet/apache-cassandra-1.2.4/bin/../lib/compress-lzf-0.8.4.jar:/home/mininet/apache-cassandra-1.2.4/bin/../lib/concurrentlinkedhashmap-lru-1.3.jar:/home/mininet/apache-cassandra-1.2.4/bin/../lib/guava-13.0.1.jar:/home/mininet/apache-cassandra-1.2.4/bin/../lib/high-scale-lib-1.1.2.jar:/home/mininet/apache-cassandra-1.2.4/bin/../lib/jackson-core-asl-1.9.2.jar:/home/mininet/apache-cassandra-1.2.4/bin/../lib/jackson-mapper-asl-1.9.2.jar:/home/mininet/apache-cassandra-1.2.4/bin/../lib/jamm-0.2.5.jar:/home/mininet/apache-cassandra-1.2.4/bin/../lib/jbcrypt-0.3m.jar:/home/mininet/apache-cassandra-1.2.4/bin/../lib/jline-1.0.jar:/home/mininet/apache-cassandra-1.2.4/bin/../lib/json-simple-1.1.jar:/home/mininet/apache-cassandra-1.2.4/bin/../lib/libthrift-0.7.0.jar:/home/mininet/apache-cassandra-1.2.4/bin/../lib/log4j-1.2.16.jar:/home/mininet/apache-cassandra-1.2.4/bin/../lib/lz4-1.1.0.jar:/home/mininet/apache-cassandra-1.2.4/bin/../lib/metrics-core-2.0.3.jar:/home/mininet/apache-cassandra-1.2.4/bin/../lib/netty-3.5.9.Final.jar:/home/mininet/apache-cassandra-1.2.4/bin/../lib/servlet-api-2.5-20081211.jar:/home/mininet/apache-cassandra-1.2.4/bin/../lib/slf4j-api-1.7.2.jar:/home/mininet/apache-cassandra-1.2.4/bin/../lib/slf4j-log4j12-1.7.2.jar:/home/mininet/apache-cassandra-1.2.4/bin/../lib/snakeyaml-1.6.jar:/home/mininet/apache-cassandra-1.2.4/bin/../lib/snappy-java-1.0.4.1.jar:/home/mininet/apache-cassandra-1.2.4/bin/../lib/snaptree-0.1.jar:/home/mininet/apache-cassandra-1.2.4/bin/../lib/jamm-0.2.5.jar
 INFO 16:07:30,896 JNA not found. Native methods will be disabled.
 INFO 16:07:30,908 Loading settings from file:/home/mininet/apache-cassandra-1.2.4/conf/cassandra.yaml
 INFO 16:07:31,676 Data files directories: [/var/lib/cassandra/data]
 INFO 16:07:31,677 Commit log directory: /var/lib/cassandra/commitlog
 INFO 16:07:31,678 DiskAccessMode 'auto' determined to be mmap, indexAccessMode is mmap
 INFO 16:07:31,678 disk_failure_policy is stop
 INFO 16:07:31,694 Global memtable threshold is enabled at 662MB
 INFO 16:07:31,833 Not using multi-threaded compaction
 INFO 16:07:32,267 Initializing key cache with capacity of 99 MBs.
 INFO 16:07:32,275 Scheduling key cache save to each 14400 seconds (going to save all keys).
 INFO 16:07:32,276 Initializing row cache with capacity of 0 MBs and provider org.apache.cassandra.cache.SerializingCacheProvider
 INFO 16:07:32,283 Scheduling row cache save to each 0 seconds (going to save all keys).
 INFO 16:07:32,655 Couldn't detect any schema definitions in local storage.
 INFO 16:07:32,656 To create keyspaces and column families, see 'help create keyspace' in the CLI, or set up a schema using the thrift system_* calls.
 INFO 16:07:32,724 No commitlog files found; skipping replay
 INFO 16:07:33,272 Cassandra version: 1.2.4
 INFO 16:07:33,273 Thrift API version: 19.35.0
 INFO 16:07:33,274 CQL supported versions: 2.0.0,3.0.1 (default: 3.0.1)
 INFO 16:07:33,324 Loading persisted ring state
 INFO 16:07:33,330 Starting up server gossip
 WARN 16:07:33,336 No host ID found, created 1ae596d8-c603-48a2-bc5c-c891fcf6857b (Note: This should happen exactly once per node).
 INFO 16:07:33,357 Enqueuing flush of Memtable-local@1156511567(361/361 serialized/live bytes, 15 ops)
 INFO 16:07:33,369 Writing Memtable-local@1156511567(361/361 serialized/live bytes, 15 ops)
 INFO 16:07:33,412 Completed flushing /var/lib/cassandra/data/system/local/system-local-ib-1-Data.db (350 bytes) for commitlog position ReplayPosition(segmentId=1402528052629, position=50656)
 INFO 16:07:33,491 Starting Messaging Service on port 7000
 INFO 16:07:33,537 Enqueuing flush of Memtable-local@1622940842(86/86 serialized/live bytes, 4 ops)
 INFO 16:07:33,538 Writing Memtable-local@1622940842(86/86 serialized/live bytes, 4 ops)
 INFO 16:07:33,559 Completed flushing /var/lib/cassandra/data/system/local/system-local-ib-2-Data.db (122 bytes) for commitlog position ReplayPosition(segmentId=1402528052629, position=50933)
 INFO 16:07:33,560 JOINING: waiting for ring information
 INFO 16:07:34,943 Node /192.168.56.11 is now part of the cluster
 INFO 16:07:34,945 InetAddress /192.168.56.11 is now UP
 INFO 16:07:34,970 Enqueuing flush of Memtable-peers@285401532(182/182 serialized/live bytes, 10 ops)
 INFO 16:07:34,971 Writing Memtable-peers@285401532(182/182 serialized/live bytes, 10 ops)
 INFO 16:07:34,988 Completed flushing /var/lib/cassandra/data/system/peers/system-peers-ib-1-Data.db (231 bytes) for commitlog position ReplayPosition(segmentId=1402528052629, position=51638)
 INFO 16:07:35,015 Enqueuing flush of Memtable-schema_keyspaces@656328142(389/389 serialized/live bytes, 11 ops)
 INFO 16:07:35,015 Writing Memtable-schema_keyspaces@656328142(389/389 serialized/live bytes, 11 ops)
 INFO 16:07:35,036 Completed flushing /var/lib/cassandra/data/system/schema_keyspaces/system-schema_keyspaces-ib-1-Data.db (264 bytes) for commitlog position ReplayPosition(segmentId=1402528052629, position=53730)
 INFO 16:07:35,038 Enqueuing flush of Memtable-schema_columnfamilies@105660303(23066/23066 serialized/live bytes, 379 ops)
 INFO 16:07:35,039 Writing Memtable-schema_columnfamilies@105660303(23066/23066 serialized/live bytes, 379 ops)
 INFO 16:07:35,065 Completed flushing /var/lib/cassandra/data/system/schema_columnfamilies/system-schema_columnfamilies-ib-1-Data.db (4867 bytes) for commitlog position ReplayPosition(segmentId=1402528052629, position=53730)
 INFO 16:07:35,066 Enqueuing flush of Memtable-schema_columns@1575056281(22154/22154 serialized/live bytes, 337 ops)
 INFO 16:07:35,067 Writing Memtable-schema_columns@1575056281(22154/22154 serialized/live bytes, 337 ops)
 INFO 16:07:35,095 Completed flushing /var/lib/cassandra/data/system/schema_columns/system-schema_columns-ib-1-Data.db (3945 bytes) for commitlog position ReplayPosition(segmentId=1402528052629, position=53730)
 INFO 16:07:35,561 JOINING: schema complete, ready to bootstrap
 INFO 16:07:35,562 JOINING: getting bootstrap token
 INFO 16:07:35,567 Enqueuing flush of Memtable-local@1909453433(73/73 serialized/live bytes, 4 ops)
 INFO 16:07:35,568 Writing Memtable-local@1909453433(73/73 serialized/live bytes, 4 ops)
 INFO 16:07:35,587 Completed flushing /var/lib/cassandra/data/system/local/system-local-ib-3-Data.db (136 bytes) for commitlog position ReplayPosition(segmentId=1402528052629, position=54028)
 INFO 16:07:35,604 JOINING: sleeping 30000 ms for pending range setup
 INFO 16:08:05,609 JOINING: Starting to bootstrap...
 INFO 16:08:05,699 Finished streaming session 3ed07a50-f1bd-11e3-b8d1-c1b7d013ecd2 from /192.168.56.11
 INFO 16:08:05,702 Bootstrap completed! for the tokens [0]
 INFO 16:08:05,709 Enqueuing flush of Memtable-local@129692337(43/43 serialized/live bytes, 2 ops)
 INFO 16:08:05,710 Writing Memtable-local@129692337(43/43 serialized/live bytes, 2 ops)
 INFO 16:08:05,732 Completed flushing /var/lib/cassandra/data/system/local/system-local-ib-4-Data.db (75 bytes) for commitlog position ReplayPosition(segmentId=1402528052629, position=54161)
 INFO 16:08:05,742 Enqueuing flush of Memtable-local@1078778116(32/32 serialized/live bytes, 2 ops)
 INFO 16:08:05,745 Writing Memtable-local@1078778116(32/32 serialized/live bytes, 2 ops)
 INFO 16:08:05,753 Compacting [SSTableReader(path='/var/lib/cassandra/data/system/local/system-local-ib-2-Data.db'), SSTableReader(path='/var/lib/cassandra/data/system/local/system-local-ib-1-Data.db'), SSTableReader(path='/var/lib/cassandra/data/system/local/system-local-ib-3-Data.db'), SSTableReader(path='/var/lib/cassandra/data/system/local/system-local-ib-4-Data.db')]
 INFO 16:08:05,766 Completed flushing /var/lib/cassandra/data/system/local/system-local-ib-5-Data.db (90 bytes) for commitlog position ReplayPosition(segmentId=1402528052629, position=54317)
 INFO 16:08:05,800 Node /192.168.56.12 state jump to normal
 INFO 16:08:05,806 Startup completed! Now serving reads.
