xss =  -ea -javaagent:/home/mininet/apache-cassandra-1.2.4/bin/../lib/jamm-0.2.5.jar -XX:+UseThreadPriorities -XX:ThreadPriorityPolicy=42 -Xms1996M -Xmx1996M -Xmn100M -XX:+HeapDumpOnOutOfMemoryError -Xss256k
 INFO 16:20:35,726 Logging initialized
 INFO 16:20:35,744 JVM vendor/version: OpenJDK 64-Bit Server VM/1.7.0_51
 WARN 16:20:35,744 OpenJDK is not recommended. Please upgrade to the newest Oracle Java release
 INFO 16:20:35,745 Heap size: 2082471936/2082471936
 INFO 16:20:35,745 Classpath: /home/mininet/apache-cassandra-1.2.4/bin/../conf:/home/mininet/apache-cassandra-1.2.4/bin/../build/classes/main:/home/mininet/apache-cassandra-1.2.4/bin/../build/classes/thrift:/home/mininet/apache-cassandra-1.2.4/bin/../lib/antlr-3.2.jar:/home/mininet/apache-cassandra-1.2.4/bin/../lib/apache-cassandra-1.2.4.jar:/home/mininet/apache-cassandra-1.2.4/bin/../lib/apache-cassandra-clientutil-1.2.4.jar:/home/mininet/apache-cassandra-1.2.4/bin/../lib/apache-cassandra-thrift-1.2.4.jar:/home/mininet/apache-cassandra-1.2.4/bin/../lib/avro-1.4.0-fixes.jar:/home/mininet/apache-cassandra-1.2.4/bin/../lib/avro-1.4.0-sources-fixes.jar:/home/mininet/apache-cassandra-1.2.4/bin/../lib/commons-cli-1.1.jar:/home/mininet/apache-cassandra-1.2.4/bin/../lib/commons-codec-1.2.jar:/home/mininet/apache-cassandra-1.2.4/bin/../lib/commons-lang-2.6.jar:/home/mininet/apache-cassandra-1.2.4/bin/../lib/compress-lzf-0.8.4.jar:/home/mininet/apache-cassandra-1.2.4/bin/../lib/concurrentlinkedhashmap-lru-1.3.jar:/home/mininet/apache-cassandra-1.2.4/bin/../lib/guava-13.0.1.jar:/home/mininet/apache-cassandra-1.2.4/bin/../lib/high-scale-lib-1.1.2.jar:/home/mininet/apache-cassandra-1.2.4/bin/../lib/jackson-core-asl-1.9.2.jar:/home/mininet/apache-cassandra-1.2.4/bin/../lib/jackson-mapper-asl-1.9.2.jar:/home/mininet/apache-cassandra-1.2.4/bin/../lib/jamm-0.2.5.jar:/home/mininet/apache-cassandra-1.2.4/bin/../lib/jbcrypt-0.3m.jar:/home/mininet/apache-cassandra-1.2.4/bin/../lib/jline-1.0.jar:/home/mininet/apache-cassandra-1.2.4/bin/../lib/json-simple-1.1.jar:/home/mininet/apache-cassandra-1.2.4/bin/../lib/libthrift-0.7.0.jar:/home/mininet/apache-cassandra-1.2.4/bin/../lib/log4j-1.2.16.jar:/home/mininet/apache-cassandra-1.2.4/bin/../lib/lz4-1.1.0.jar:/home/mininet/apache-cassandra-1.2.4/bin/../lib/metrics-core-2.0.3.jar:/home/mininet/apache-cassandra-1.2.4/bin/../lib/netty-3.5.9.Final.jar:/home/mininet/apache-cassandra-1.2.4/bin/../lib/servlet-api-2.5-20081211.jar:/home/mininet/apache-cassandra-1.2.4/bin/../lib/slf4j-api-1.7.2.jar:/home/mininet/apache-cassandra-1.2.4/bin/../lib/slf4j-log4j12-1.7.2.jar:/home/mininet/apache-cassandra-1.2.4/bin/../lib/snakeyaml-1.6.jar:/home/mininet/apache-cassandra-1.2.4/bin/../lib/snappy-java-1.0.4.1.jar:/home/mininet/apache-cassandra-1.2.4/bin/../lib/snaptree-0.1.jar:/home/mininet/apache-cassandra-1.2.4/bin/../lib/jamm-0.2.5.jar
 INFO 16:20:35,748 JNA not found. Native methods will be disabled.
 INFO 16:20:35,757 Loading settings from file:/home/mininet/apache-cassandra-1.2.4/conf/cassandra.yaml
 INFO 16:20:36,206 Data files directories: [/var/lib/cassandra/data]
 INFO 16:20:36,207 Commit log directory: /var/lib/cassandra/commitlog
 INFO 16:20:36,207 DiskAccessMode 'auto' determined to be mmap, indexAccessMode is mmap
 INFO 16:20:36,207 disk_failure_policy is stop
 INFO 16:20:36,216 Global memtable threshold is enabled at 662MB
 INFO 16:20:36,389 Not using multi-threaded compaction
 INFO 16:20:37,118 Initializing key cache with capacity of 99 MBs.
 INFO 16:20:37,126 Scheduling key cache save to each 14400 seconds (going to save all keys).
 INFO 16:20:37,127 Initializing row cache with capacity of 0 MBs and provider org.apache.cassandra.cache.SerializingCacheProvider
 INFO 16:20:37,136 Scheduling row cache save to each 0 seconds (going to save all keys).
 INFO 16:20:37,512 Couldn't detect any schema definitions in local storage.
 INFO 16:20:37,513 To create keyspaces and column families, see 'help create keyspace' in the CLI, or set up a schema using the thrift system_* calls.
 INFO 16:20:37,596 No commitlog files found; skipping replay
 INFO 16:20:37,959 Cassandra version: 1.2.4
 INFO 16:20:37,960 Thrift API version: 19.35.0
 INFO 16:20:37,964 CQL supported versions: 2.0.0,3.0.1 (default: 3.0.1)
 INFO 16:20:37,997 Loading persisted ring state
 INFO 16:20:38,000 Starting up server gossip
 WARN 16:20:38,005 No host ID found, created ae55939d-30ba-489d-aae8-846296599c99 (Note: This should happen exactly once per node).
 INFO 16:20:38,021 Enqueuing flush of Memtable-local@1156511567(361/361 serialized/live bytes, 15 ops)
 INFO 16:20:38,030 Writing Memtable-local@1156511567(361/361 serialized/live bytes, 15 ops)
 INFO 16:20:38,074 Completed flushing /var/lib/cassandra/data/system/local/system-local-ib-1-Data.db (358 bytes) for commitlog position ReplayPosition(segmentId=1402528837492, position=50656)
 INFO 16:20:38,174 Starting Messaging Service on port 7000
 INFO 16:20:38,253 Enqueuing flush of Memtable-local@1622940842(86/86 serialized/live bytes, 4 ops)
 INFO 16:20:38,257 Writing Memtable-local@1622940842(86/86 serialized/live bytes, 4 ops)
 INFO 16:20:38,278 Completed flushing /var/lib/cassandra/data/system/local/system-local-ib-2-Data.db (122 bytes) for commitlog position ReplayPosition(segmentId=1402528837492, position=50933)
 INFO 16:20:38,282 JOINING: waiting for ring information
 INFO 16:20:39,245 Node /192.168.56.11 is now part of the cluster
 INFO 16:20:39,249 InetAddress /192.168.56.11 is now UP
 INFO 16:20:39,276 Enqueuing flush of Memtable-peers@63447224(182/182 serialized/live bytes, 10 ops)
 INFO 16:20:39,277 Writing Memtable-peers@63447224(182/182 serialized/live bytes, 10 ops)
 INFO 16:20:39,295 Completed flushing /var/lib/cassandra/data/system/peers/system-peers-ib-1-Data.db (231 bytes) for commitlog position ReplayPosition(segmentId=1402528837492, position=51638)
 INFO 16:20:39,378 Enqueuing flush of Memtable-schema_keyspaces@191197583(389/389 serialized/live bytes, 11 ops)
 INFO 16:20:39,380 Writing Memtable-schema_keyspaces@191197583(389/389 serialized/live bytes, 11 ops)
 INFO 16:20:39,403 Completed flushing /var/lib/cassandra/data/system/schema_keyspaces/system-schema_keyspaces-ib-1-Data.db (260 bytes) for commitlog position ReplayPosition(segmentId=1402528837492, position=53730)
 INFO 16:20:39,405 Enqueuing flush of Memtable-schema_columnfamilies@203568414(23066/23066 serialized/live bytes, 379 ops)
 INFO 16:20:39,407 Writing Memtable-schema_columnfamilies@203568414(23066/23066 serialized/live bytes, 379 ops)
 INFO 16:20:39,435 Completed flushing /var/lib/cassandra/data/system/schema_columnfamilies/system-schema_columnfamilies-ib-1-Data.db (4844 bytes) for commitlog position ReplayPosition(segmentId=1402528837492, position=53730)
 INFO 16:20:39,437 Enqueuing flush of Memtable-schema_columns@1183600113(22154/22154 serialized/live bytes, 337 ops)
 INFO 16:20:39,438 Writing Memtable-schema_columns@1183600113(22154/22154 serialized/live bytes, 337 ops)
 INFO 16:20:39,468 Completed flushing /var/lib/cassandra/data/system/schema_columns/system-schema_columns-ib-1-Data.db (3894 bytes) for commitlog position ReplayPosition(segmentId=1402528837492, position=53730)
 INFO 16:20:40,285 JOINING: schema complete, ready to bootstrap
 INFO 16:20:40,286 JOINING: getting bootstrap token
 INFO 16:20:40,291 Enqueuing flush of Memtable-local@1658221466(73/73 serialized/live bytes, 4 ops)
 INFO 16:20:40,293 Writing Memtable-local@1658221466(73/73 serialized/live bytes, 4 ops)
 INFO 16:20:40,317 Completed flushing /var/lib/cassandra/data/system/local/system-local-ib-3-Data.db (136 bytes) for commitlog position ReplayPosition(segmentId=1402528837492, position=54169)
 INFO 16:20:40,341 JOINING: sleeping 30000 ms for pending range setup
 INFO 16:21:10,342 JOINING: Starting to bootstrap...
 INFO 16:21:10,433 Finished streaming session 128dd760-f1bf-11e3-b1be-c1b7d013ecd2 from /192.168.56.11
 INFO 16:21:10,435 Bootstrap completed! for the tokens [0]
 INFO 16:21:10,438 Enqueuing flush of Memtable-local@2110247509(43/43 serialized/live bytes, 2 ops)
 INFO 16:21:10,439 Writing Memtable-local@2110247509(43/43 serialized/live bytes, 2 ops)
 INFO 16:21:10,457 Completed flushing /var/lib/cassandra/data/system/local/system-local-ib-4-Data.db (75 bytes) for commitlog position ReplayPosition(segmentId=1402528837492, position=54302)
 INFO 16:21:10,467 Enqueuing flush of Memtable-local@1400126543(32/32 serialized/live bytes, 2 ops)
 INFO 16:21:10,469 Writing Memtable-local@1400126543(32/32 serialized/live bytes, 2 ops)
 INFO 16:21:10,477 Compacting [SSTableReader(path='/var/lib/cassandra/data/system/local/system-local-ib-2-Data.db'), SSTableReader(path='/var/lib/cassandra/data/system/local/system-local-ib-1-Data.db'), SSTableReader(path='/var/lib/cassandra/data/system/local/system-local-ib-4-Data.db'), SSTableReader(path='/var/lib/cassandra/data/system/local/system-local-ib-3-Data.db')]
 INFO 16:21:10,492 Completed flushing /var/lib/cassandra/data/system/local/system-local-ib-5-Data.db (90 bytes) for commitlog position ReplayPosition(segmentId=1402528837492, position=54458)
 INFO 16:21:10,506 Node /192.168.56.12 state jump to normal
 INFO 16:21:10,507 Startup completed! Now serving reads.
 INFO 16:21:10,589 Compacted 4 sstables to [/var/lib/cassandra/data/system/local/system-local-ib-6,].  691 bytes to 413 (~59% of original) in 102ms = 0.003861MB/s.  4 total rows, 1 unique.  Row merge counts were {1:0, 2:0, 3:0, 4:1, }
