xss =  -ea -javaagent:/home/mininet/apache-cassandra-1.2.4/bin/../lib/jamm-0.2.5.jar -XX:+UseThreadPriorities -XX:ThreadPriorityPolicy=42 -Xms1996M -Xmx1996M -Xmn100M -XX:+HeapDumpOnOutOfMemoryError -Xss256k
 INFO 15:54:23,566 Logging initialized
 INFO 15:54:23,577 JVM vendor/version: OpenJDK 64-Bit Server VM/1.7.0_51
 WARN 15:54:23,578 OpenJDK is not recommended. Please upgrade to the newest Oracle Java release
 INFO 15:54:23,578 Heap size: 2082471936/2082471936
 INFO 15:54:23,578 Classpath: /home/mininet/apache-cassandra-1.2.4/bin/../conf:/home/mininet/apache-cassandra-1.2.4/bin/../build/classes/main:/home/mininet/apache-cassandra-1.2.4/bin/../build/classes/thrift:/home/mininet/apache-cassandra-1.2.4/bin/../lib/antlr-3.2.jar:/home/mininet/apache-cassandra-1.2.4/bin/../lib/apache-cassandra-1.2.4.jar:/home/mininet/apache-cassandra-1.2.4/bin/../lib/apache-cassandra-clientutil-1.2.4.jar:/home/mininet/apache-cassandra-1.2.4/bin/../lib/apache-cassandra-thrift-1.2.4.jar:/home/mininet/apache-cassandra-1.2.4/bin/../lib/avro-1.4.0-fixes.jar:/home/mininet/apache-cassandra-1.2.4/bin/../lib/avro-1.4.0-sources-fixes.jar:/home/mininet/apache-cassandra-1.2.4/bin/../lib/commons-cli-1.1.jar:/home/mininet/apache-cassandra-1.2.4/bin/../lib/commons-codec-1.2.jar:/home/mininet/apache-cassandra-1.2.4/bin/../lib/commons-lang-2.6.jar:/home/mininet/apache-cassandra-1.2.4/bin/../lib/compress-lzf-0.8.4.jar:/home/mininet/apache-cassandra-1.2.4/bin/../lib/concurrentlinkedhashmap-lru-1.3.jar:/home/mininet/apache-cassandra-1.2.4/bin/../lib/guava-13.0.1.jar:/home/mininet/apache-cassandra-1.2.4/bin/../lib/high-scale-lib-1.1.2.jar:/home/mininet/apache-cassandra-1.2.4/bin/../lib/jackson-core-asl-1.9.2.jar:/home/mininet/apache-cassandra-1.2.4/bin/../lib/jackson-mapper-asl-1.9.2.jar:/home/mininet/apache-cassandra-1.2.4/bin/../lib/jamm-0.2.5.jar:/home/mininet/apache-cassandra-1.2.4/bin/../lib/jbcrypt-0.3m.jar:/home/mininet/apache-cassandra-1.2.4/bin/../lib/jline-1.0.jar:/home/mininet/apache-cassandra-1.2.4/bin/../lib/json-simple-1.1.jar:/home/mininet/apache-cassandra-1.2.4/bin/../lib/libthrift-0.7.0.jar:/home/mininet/apache-cassandra-1.2.4/bin/../lib/log4j-1.2.16.jar:/home/mininet/apache-cassandra-1.2.4/bin/../lib/lz4-1.1.0.jar:/home/mininet/apache-cassandra-1.2.4/bin/../lib/metrics-core-2.0.3.jar:/home/mininet/apache-cassandra-1.2.4/bin/../lib/netty-3.5.9.Final.jar:/home/mininet/apache-cassandra-1.2.4/bin/../lib/servlet-api-2.5-20081211.jar:/home/mininet/apache-cassandra-1.2.4/bin/../lib/slf4j-api-1.7.2.jar:/home/mininet/apache-cassandra-1.2.4/bin/../lib/slf4j-log4j12-1.7.2.jar:/home/mininet/apache-cassandra-1.2.4/bin/../lib/snakeyaml-1.6.jar:/home/mininet/apache-cassandra-1.2.4/bin/../lib/snappy-java-1.0.4.1.jar:/home/mininet/apache-cassandra-1.2.4/bin/../lib/snaptree-0.1.jar:/home/mininet/apache-cassandra-1.2.4/bin/../lib/jamm-0.2.5.jar
 INFO 15:54:23,581 JNA not found. Native methods will be disabled.
 INFO 15:54:23,590 Loading settings from file:/home/mininet/apache-cassandra-1.2.4/conf/cassandra.yaml
 INFO 15:54:24,145 Data files directories: [/var/lib/cassandra/data]
 INFO 15:54:24,147 Commit log directory: /var/lib/cassandra/commitlog
 INFO 15:54:24,147 DiskAccessMode 'auto' determined to be mmap, indexAccessMode is mmap
 INFO 15:54:24,147 disk_failure_policy is stop
 INFO 15:54:24,157 Global memtable threshold is enabled at 662MB
 INFO 15:54:24,278 Not using multi-threaded compaction
 INFO 15:54:24,995 Initializing key cache with capacity of 99 MBs.
 INFO 15:54:25,002 Scheduling key cache save to each 14400 seconds (going to save all keys).
 INFO 15:54:25,003 Initializing row cache with capacity of 0 MBs and provider org.apache.cassandra.cache.SerializingCacheProvider
 INFO 15:54:25,013 Scheduling row cache save to each 0 seconds (going to save all keys).
 INFO 15:54:25,396 Couldn't detect any schema definitions in local storage.
 INFO 15:54:25,397 To create keyspaces and column families, see 'help create keyspace' in the CLI, or set up a schema using the thrift system_* calls.
 INFO 15:54:25,471 No commitlog files found; skipping replay
 INFO 15:54:25,828 Cassandra version: 1.2.4
 INFO 15:54:25,829 Thrift API version: 19.35.0
 INFO 15:54:25,832 CQL supported versions: 2.0.0,3.0.1 (default: 3.0.1)
 INFO 15:54:25,862 Loading persisted ring state
 INFO 15:54:25,866 Starting up server gossip
 WARN 15:54:25,870 No host ID found, created d04fa31b-eefa-424b-b6cf-3f2f13039dab (Note: This should happen exactly once per node).
 INFO 15:54:25,881 Enqueuing flush of Memtable-local@1156511567(361/361 serialized/live bytes, 15 ops)
 INFO 15:54:25,889 Writing Memtable-local@1156511567(361/361 serialized/live bytes, 15 ops)
 INFO 15:54:25,932 Completed flushing /var/lib/cassandra/data/system/local/system-local-ib-1-Data.db (352 bytes) for commitlog position ReplayPosition(segmentId=1402527265370, position=50656)
 INFO 15:54:26,024 Starting Messaging Service on port 7000
 INFO 15:54:26,074 Enqueuing flush of Memtable-local@1622940842(86/86 serialized/live bytes, 4 ops)
 INFO 15:54:26,076 Writing Memtable-local@1622940842(86/86 serialized/live bytes, 4 ops)
 INFO 15:54:26,097 Completed flushing /var/lib/cassandra/data/system/local/system-local-ib-2-Data.db (122 bytes) for commitlog position ReplayPosition(segmentId=1402527265370, position=50933)
 INFO 15:54:26,099 JOINING: waiting for ring information
 INFO 15:54:28,051 Node /192.168.56.11 is now part of the cluster
 INFO 15:54:28,053 InetAddress /192.168.56.11 is now UP
 INFO 15:54:28,071 Enqueuing flush of Memtable-peers@541060826(182/182 serialized/live bytes, 10 ops)
 INFO 15:54:28,071 Writing Memtable-peers@541060826(182/182 serialized/live bytes, 10 ops)
 INFO 15:54:28,086 Completed flushing /var/lib/cassandra/data/system/peers/system-peers-ib-1-Data.db (227 bytes) for commitlog position ReplayPosition(segmentId=1402527265370, position=51638)
 INFO 15:54:28,159 Enqueuing flush of Memtable-schema_keyspaces@1431071602(389/389 serialized/live bytes, 11 ops)
 INFO 15:54:28,160 Writing Memtable-schema_keyspaces@1431071602(389/389 serialized/live bytes, 11 ops)
 INFO 15:54:28,172 Completed flushing /var/lib/cassandra/data/system/schema_keyspaces/system-schema_keyspaces-ib-1-Data.db (260 bytes) for commitlog position ReplayPosition(segmentId=1402527265370, position=53730)
 INFO 15:54:28,172 Enqueuing flush of Memtable-schema_columnfamilies@2011220099(23066/23066 serialized/live bytes, 379 ops)
 INFO 15:54:28,173 Writing Memtable-schema_columnfamilies@2011220099(23066/23066 serialized/live bytes, 379 ops)
 INFO 15:54:28,194 Completed flushing /var/lib/cassandra/data/system/schema_columnfamilies/system-schema_columnfamilies-ib-1-Data.db (4844 bytes) for commitlog position ReplayPosition(segmentId=1402527265370, position=53730)
 INFO 15:54:28,195 Enqueuing flush of Memtable-schema_columns@2087481845(22154/22154 serialized/live bytes, 337 ops)
 INFO 15:54:28,196 Writing Memtable-schema_columns@2087481845(22154/22154 serialized/live bytes, 337 ops)
 INFO 15:54:28,223 Completed flushing /var/lib/cassandra/data/system/schema_columns/system-schema_columns-ib-1-Data.db (3894 bytes) for commitlog position ReplayPosition(segmentId=1402527265370, position=53730)
 INFO 15:54:29,100 JOINING: schema complete, ready to bootstrap
 INFO 15:54:29,101 JOINING: getting bootstrap token
 INFO 15:54:29,107 Enqueuing flush of Memtable-local@984357737(73/73 serialized/live bytes, 4 ops)
 INFO 15:54:29,108 Writing Memtable-local@984357737(73/73 serialized/live bytes, 4 ops)
 INFO 15:54:29,132 Completed flushing /var/lib/cassandra/data/system/local/system-local-ib-3-Data.db (136 bytes) for commitlog position ReplayPosition(segmentId=1402527265370, position=54028)
 INFO 15:54:29,153 JOINING: sleeping 30000 ms for pending range setup
 INFO 15:54:59,153 JOINING: Starting to bootstrap...
 INFO 15:54:59,232 Finished streaming session 6a0cd0d0-f1bb-11e3-8a68-c1b7d013ecd2 from /192.168.56.11
 INFO 15:54:59,234 Bootstrap completed! for the tokens [0]
 INFO 15:54:59,235 Enqueuing flush of Memtable-local@43206254(43/43 serialized/live bytes, 2 ops)
 INFO 15:54:59,236 Writing Memtable-local@43206254(43/43 serialized/live bytes, 2 ops)
 INFO 15:54:59,259 Completed flushing /var/lib/cassandra/data/system/local/system-local-ib-4-Data.db (75 bytes) for commitlog position ReplayPosition(segmentId=1402527265370, position=54161)
 INFO 15:54:59,270 Enqueuing flush of Memtable-local@1804152596(32/32 serialized/live bytes, 2 ops)
 INFO 15:54:59,273 Writing Memtable-local@1804152596(32/32 serialized/live bytes, 2 ops)
 INFO 15:54:59,275 Compacting [SSTableReader(path='/var/lib/cassandra/data/system/local/system-local-ib-3-Data.db'), SSTableReader(path='/var/lib/cassandra/data/system/local/system-local-ib-2-Data.db'), SSTableReader(path='/var/lib/cassandra/data/system/local/system-local-ib-1-Data.db'), SSTableReader(path='/var/lib/cassandra/data/system/local/system-local-ib-4-Data.db')]
 INFO 15:54:59,289 Completed flushing /var/lib/cassandra/data/system/local/system-local-ib-5-Data.db (90 bytes) for commitlog position ReplayPosition(segmentId=1402527265370, position=54317)
 INFO 15:54:59,304 Node /192.168.56.12 state jump to normal
 INFO 15:54:59,305 Startup completed! Now serving reads.
 INFO 15:54:59,355 Compacted 4 sstables to [/var/lib/cassandra/data/system/local/system-local-ib-6,].  685 bytes to 409 (~59% of original) in 77ms = 0.005066MB/s.  4 total rows, 1 unique.  Row merge counts were {1:0, 2:0, 3:0, 4:1, }
