xss =  -ea -javaagent:/home/mininet/apache-cassandra-1.2.4/bin/../lib/jamm-0.2.5.jar -XX:+UseThreadPriorities -XX:ThreadPriorityPolicy=42 -Xms1996M -Xmx1996M -Xmn100M -XX:+HeapDumpOnOutOfMemoryError -Xss256k
 INFO 16:14:05,175 Logging initialized
 INFO 16:14:05,188 JVM vendor/version: OpenJDK 64-Bit Server VM/1.7.0_51
 WARN 16:14:05,188 OpenJDK is not recommended. Please upgrade to the newest Oracle Java release
 INFO 16:14:05,188 Heap size: 2082471936/2082471936
 INFO 16:14:05,188 Classpath: /home/mininet/apache-cassandra-1.2.4/bin/../conf:/home/mininet/apache-cassandra-1.2.4/bin/../build/classes/main:/home/mininet/apache-cassandra-1.2.4/bin/../build/classes/thrift:/home/mininet/apache-cassandra-1.2.4/bin/../lib/antlr-3.2.jar:/home/mininet/apache-cassandra-1.2.4/bin/../lib/apache-cassandra-1.2.4.jar:/home/mininet/apache-cassandra-1.2.4/bin/../lib/apache-cassandra-clientutil-1.2.4.jar:/home/mininet/apache-cassandra-1.2.4/bin/../lib/apache-cassandra-thrift-1.2.4.jar:/home/mininet/apache-cassandra-1.2.4/bin/../lib/avro-1.4.0-fixes.jar:/home/mininet/apache-cassandra-1.2.4/bin/../lib/avro-1.4.0-sources-fixes.jar:/home/mininet/apache-cassandra-1.2.4/bin/../lib/commons-cli-1.1.jar:/home/mininet/apache-cassandra-1.2.4/bin/../lib/commons-codec-1.2.jar:/home/mininet/apache-cassandra-1.2.4/bin/../lib/commons-lang-2.6.jar:/home/mininet/apache-cassandra-1.2.4/bin/../lib/compress-lzf-0.8.4.jar:/home/mininet/apache-cassandra-1.2.4/bin/../lib/concurrentlinkedhashmap-lru-1.3.jar:/home/mininet/apache-cassandra-1.2.4/bin/../lib/guava-13.0.1.jar:/home/mininet/apache-cassandra-1.2.4/bin/../lib/high-scale-lib-1.1.2.jar:/home/mininet/apache-cassandra-1.2.4/bin/../lib/jackson-core-asl-1.9.2.jar:/home/mininet/apache-cassandra-1.2.4/bin/../lib/jackson-mapper-asl-1.9.2.jar:/home/mininet/apache-cassandra-1.2.4/bin/../lib/jamm-0.2.5.jar:/home/mininet/apache-cassandra-1.2.4/bin/../lib/jbcrypt-0.3m.jar:/home/mininet/apache-cassandra-1.2.4/bin/../lib/jline-1.0.jar:/home/mininet/apache-cassandra-1.2.4/bin/../lib/json-simple-1.1.jar:/home/mininet/apache-cassandra-1.2.4/bin/../lib/libthrift-0.7.0.jar:/home/mininet/apache-cassandra-1.2.4/bin/../lib/log4j-1.2.16.jar:/home/mininet/apache-cassandra-1.2.4/bin/../lib/lz4-1.1.0.jar:/home/mininet/apache-cassandra-1.2.4/bin/../lib/metrics-core-2.0.3.jar:/home/mininet/apache-cassandra-1.2.4/bin/../lib/netty-3.5.9.Final.jar:/home/mininet/apache-cassandra-1.2.4/bin/../lib/servlet-api-2.5-20081211.jar:/home/mininet/apache-cassandra-1.2.4/bin/../lib/slf4j-api-1.7.2.jar:/home/mininet/apache-cassandra-1.2.4/bin/../lib/slf4j-log4j12-1.7.2.jar:/home/mininet/apache-cassandra-1.2.4/bin/../lib/snakeyaml-1.6.jar:/home/mininet/apache-cassandra-1.2.4/bin/../lib/snappy-java-1.0.4.1.jar:/home/mininet/apache-cassandra-1.2.4/bin/../lib/snaptree-0.1.jar:/home/mininet/apache-cassandra-1.2.4/bin/../lib/jamm-0.2.5.jar
 INFO 16:14:05,190 JNA not found. Native methods will be disabled.
 INFO 16:14:05,200 Loading settings from file:/home/mininet/apache-cassandra-1.2.4/conf/cassandra.yaml
 INFO 16:14:05,628 Data files directories: [/var/lib/cassandra/data]
 INFO 16:14:05,629 Commit log directory: /var/lib/cassandra/commitlog
 INFO 16:14:05,629 DiskAccessMode 'auto' determined to be mmap, indexAccessMode is mmap
 INFO 16:14:05,629 disk_failure_policy is stop
 INFO 16:14:05,638 Global memtable threshold is enabled at 662MB
 INFO 16:14:05,749 Not using multi-threaded compaction
 INFO 16:14:06,411 Initializing key cache with capacity of 99 MBs.
 INFO 16:14:06,423 Scheduling key cache save to each 14400 seconds (going to save all keys).
 INFO 16:14:06,424 Initializing row cache with capacity of 0 MBs and provider org.apache.cassandra.cache.SerializingCacheProvider
 INFO 16:14:06,435 Scheduling row cache save to each 0 seconds (going to save all keys).
 INFO 16:14:06,844 Couldn't detect any schema definitions in local storage.
 INFO 16:14:06,845 To create keyspaces and column families, see 'help create keyspace' in the CLI, or set up a schema using the thrift system_* calls.
 INFO 16:14:06,919 No commitlog files found; skipping replay
 INFO 16:14:07,277 Cassandra version: 1.2.4
 INFO 16:14:07,280 Thrift API version: 19.35.0
 INFO 16:14:07,281 CQL supported versions: 2.0.0,3.0.1 (default: 3.0.1)
 INFO 16:14:07,309 Loading persisted ring state
 INFO 16:14:07,311 Starting up server gossip
 WARN 16:14:07,315 No host ID found, created b3a8b3e3-8734-4407-8107-dd4e6a4841e7 (Note: This should happen exactly once per node).
 INFO 16:14:07,326 Enqueuing flush of Memtable-local@1070552419(361/361 serialized/live bytes, 15 ops)
 INFO 16:14:07,338 Writing Memtable-local@1070552419(361/361 serialized/live bytes, 15 ops)
 INFO 16:14:07,376 Completed flushing /var/lib/cassandra/data/system/local/system-local-ib-1-Data.db (350 bytes) for commitlog position ReplayPosition(segmentId=1402528446820, position=50656)
 INFO 16:14:07,450 Starting Messaging Service on port 7000
 INFO 16:14:07,503 Enqueuing flush of Memtable-local@880453696(86/86 serialized/live bytes, 4 ops)
 INFO 16:14:07,503 Writing Memtable-local@880453696(86/86 serialized/live bytes, 4 ops)
 INFO 16:14:07,517 Completed flushing /var/lib/cassandra/data/system/local/system-local-ib-2-Data.db (122 bytes) for commitlog position ReplayPosition(segmentId=1402528446820, position=50933)
 INFO 16:14:07,519 JOINING: waiting for ring information
 INFO 16:14:08,704 Node /192.168.56.11 is now part of the cluster
 INFO 16:14:08,709 InetAddress /192.168.56.11 is now UP
 INFO 16:14:08,736 Enqueuing flush of Memtable-peers@1599979394(51/51 serialized/live bytes, 2 ops)
 INFO 16:14:08,737 Writing Memtable-peers@1599979394(51/51 serialized/live bytes, 2 ops)
 INFO 16:14:08,756 Completed flushing /var/lib/cassandra/data/system/peers/system-peers-ib-1-Data.db (109 bytes) for commitlog position ReplayPosition(segmentId=1402528446820, position=51107)
 INFO 16:14:08,786 Enqueuing flush of Memtable-schema_keyspaces@1033568538(389/389 serialized/live bytes, 11 ops)
 INFO 16:14:08,787 Writing Memtable-schema_keyspaces@1033568538(389/389 serialized/live bytes, 11 ops)
 INFO 16:14:08,802 Completed flushing /var/lib/cassandra/data/system/schema_keyspaces/system-schema_keyspaces-ib-1-Data.db (267 bytes) for commitlog position ReplayPosition(segmentId=1402528446820, position=53730)
 INFO 16:14:08,806 Enqueuing flush of Memtable-schema_columnfamilies@1431071602(23066/23066 serialized/live bytes, 379 ops)
 INFO 16:14:08,807 Writing Memtable-schema_columnfamilies@1431071602(23066/23066 serialized/live bytes, 379 ops)
 INFO 16:14:08,835 Completed flushing /var/lib/cassandra/data/system/schema_columnfamilies/system-schema_columnfamilies-ib-1-Data.db (4846 bytes) for commitlog position ReplayPosition(segmentId=1402528446820, position=53730)
 INFO 16:14:08,836 Enqueuing flush of Memtable-schema_columns@2011220099(22154/22154 serialized/live bytes, 337 ops)
 INFO 16:14:08,839 Writing Memtable-schema_columns@2011220099(22154/22154 serialized/live bytes, 337 ops)
 INFO 16:14:08,867 Completed flushing /var/lib/cassandra/data/system/schema_columns/system-schema_columns-ib-1-Data.db (3898 bytes) for commitlog position ReplayPosition(segmentId=1402528446820, position=53730)
 INFO 16:14:09,520 JOINING: schema complete, ready to bootstrap
 INFO 16:14:09,520 JOINING: getting bootstrap token
 INFO 16:14:09,526 Enqueuing flush of Memtable-local@1250614665(73/73 serialized/live bytes, 4 ops)
 INFO 16:14:09,527 Writing Memtable-local@1250614665(73/73 serialized/live bytes, 4 ops)
 INFO 16:14:09,546 Completed flushing /var/lib/cassandra/data/system/local/system-local-ib-3-Data.db (138 bytes) for commitlog position ReplayPosition(segmentId=1402528446820, position=54028)
 INFO 16:14:09,560 JOINING: sleeping 30000 ms for pending range setup
 INFO 16:14:39,562 JOINING: Starting to bootstrap...
 INFO 16:14:39,627 Finished streaming session 29a18ba0-f1be-11e3-aff5-c1b7d013ecd2 from /192.168.56.11
 INFO 16:14:39,628 Bootstrap completed! for the tokens [0]
 INFO 16:14:39,630 Enqueuing flush of Memtable-local@988937677(43/43 serialized/live bytes, 2 ops)
 INFO 16:14:39,631 Writing Memtable-local@988937677(43/43 serialized/live bytes, 2 ops)
 INFO 16:14:39,648 Completed flushing /var/lib/cassandra/data/system/local/system-local-ib-4-Data.db (75 bytes) for commitlog position ReplayPosition(segmentId=1402528446820, position=54161)
 INFO 16:14:39,656 Enqueuing flush of Memtable-local@1633087920(32/32 serialized/live bytes, 2 ops)
 INFO 16:14:39,657 Writing Memtable-local@1633087920(32/32 serialized/live bytes, 2 ops)
 INFO 16:14:39,663 Compacting [SSTableReader(path='/var/lib/cassandra/data/system/local/system-local-ib-3-Data.db'), SSTableReader(path='/var/lib/cassandra/data/system/local/system-local-ib-4-Data.db'), SSTableReader(path='/var/lib/cassandra/data/system/local/system-local-ib-2-Data.db'), SSTableReader(path='/var/lib/cassandra/data/system/local/system-local-ib-1-Data.db')]
 INFO 16:14:39,676 Completed flushing /var/lib/cassandra/data/system/local/system-local-ib-5-Data.db (90 bytes) for commitlog position ReplayPosition(segmentId=1402528446820, position=54317)
 INFO 16:14:39,692 Node /192.168.56.12 state jump to normal
 INFO 16:14:39,693 Startup completed! Now serving reads.
 INFO 16:14:39,736 Compacted 4 sstables to [/var/lib/cassandra/data/system/local/system-local-ib-6,].  685 bytes to 410 (~59% of original) in 71ms = 0.005507MB/s.  4 total rows, 1 unique.  Row merge counts were {1:0, 2:0, 3:0, 4:1, }
