xss =  -ea -javaagent:/home/mininet/apache-cassandra-1.2.4/bin/../lib/jamm-0.2.5.jar -XX:+UseThreadPriorities -XX:ThreadPriorityPolicy=42 -Xms1996M -Xmx1996M -Xmn100M -XX:+HeapDumpOnOutOfMemoryError -Xss256k
 INFO 15:47:52,178 Logging initialized
 INFO 15:47:52,190 JVM vendor/version: OpenJDK 64-Bit Server VM/1.7.0_51
 WARN 15:47:52,191 OpenJDK is not recommended. Please upgrade to the newest Oracle Java release
 INFO 15:47:52,191 Heap size: 2082471936/2082471936
 INFO 15:47:52,191 Classpath: /home/mininet/apache-cassandra-1.2.4/bin/../conf:/home/mininet/apache-cassandra-1.2.4/bin/../build/classes/main:/home/mininet/apache-cassandra-1.2.4/bin/../build/classes/thrift:/home/mininet/apache-cassandra-1.2.4/bin/../lib/antlr-3.2.jar:/home/mininet/apache-cassandra-1.2.4/bin/../lib/apache-cassandra-1.2.4.jar:/home/mininet/apache-cassandra-1.2.4/bin/../lib/apache-cassandra-clientutil-1.2.4.jar:/home/mininet/apache-cassandra-1.2.4/bin/../lib/apache-cassandra-thrift-1.2.4.jar:/home/mininet/apache-cassandra-1.2.4/bin/../lib/avro-1.4.0-fixes.jar:/home/mininet/apache-cassandra-1.2.4/bin/../lib/avro-1.4.0-sources-fixes.jar:/home/mininet/apache-cassandra-1.2.4/bin/../lib/commons-cli-1.1.jar:/home/mininet/apache-cassandra-1.2.4/bin/../lib/commons-codec-1.2.jar:/home/mininet/apache-cassandra-1.2.4/bin/../lib/commons-lang-2.6.jar:/home/mininet/apache-cassandra-1.2.4/bin/../lib/compress-lzf-0.8.4.jar:/home/mininet/apache-cassandra-1.2.4/bin/../lib/concurrentlinkedhashmap-lru-1.3.jar:/home/mininet/apache-cassandra-1.2.4/bin/../lib/guava-13.0.1.jar:/home/mininet/apache-cassandra-1.2.4/bin/../lib/high-scale-lib-1.1.2.jar:/home/mininet/apache-cassandra-1.2.4/bin/../lib/jackson-core-asl-1.9.2.jar:/home/mininet/apache-cassandra-1.2.4/bin/../lib/jackson-mapper-asl-1.9.2.jar:/home/mininet/apache-cassandra-1.2.4/bin/../lib/jamm-0.2.5.jar:/home/mininet/apache-cassandra-1.2.4/bin/../lib/jbcrypt-0.3m.jar:/home/mininet/apache-cassandra-1.2.4/bin/../lib/jline-1.0.jar:/home/mininet/apache-cassandra-1.2.4/bin/../lib/json-simple-1.1.jar:/home/mininet/apache-cassandra-1.2.4/bin/../lib/libthrift-0.7.0.jar:/home/mininet/apache-cassandra-1.2.4/bin/../lib/log4j-1.2.16.jar:/home/mininet/apache-cassandra-1.2.4/bin/../lib/lz4-1.1.0.jar:/home/mininet/apache-cassandra-1.2.4/bin/../lib/metrics-core-2.0.3.jar:/home/mininet/apache-cassandra-1.2.4/bin/../lib/netty-3.5.9.Final.jar:/home/mininet/apache-cassandra-1.2.4/bin/../lib/servlet-api-2.5-20081211.jar:/home/mininet/apache-cassandra-1.2.4/bin/../lib/slf4j-api-1.7.2.jar:/home/mininet/apache-cassandra-1.2.4/bin/../lib/slf4j-log4j12-1.7.2.jar:/home/mininet/apache-cassandra-1.2.4/bin/../lib/snakeyaml-1.6.jar:/home/mininet/apache-cassandra-1.2.4/bin/../lib/snappy-java-1.0.4.1.jar:/home/mininet/apache-cassandra-1.2.4/bin/../lib/snaptree-0.1.jar:/home/mininet/apache-cassandra-1.2.4/bin/../lib/jamm-0.2.5.jar
 INFO 15:47:52,193 JNA not found. Native methods will be disabled.
 INFO 15:47:52,202 Loading settings from file:/home/mininet/apache-cassandra-1.2.4/conf/cassandra.yaml
 INFO 15:47:52,640 Data files directories: [/var/lib/cassandra/data]
 INFO 15:47:52,641 Commit log directory: /var/lib/cassandra/commitlog
 INFO 15:47:52,641 DiskAccessMode 'auto' determined to be mmap, indexAccessMode is mmap
 INFO 15:47:52,641 disk_failure_policy is stop
 INFO 15:47:52,649 Global memtable threshold is enabled at 662MB
 INFO 15:47:52,760 Not using multi-threaded compaction
 INFO 15:47:53,306 Initializing key cache with capacity of 99 MBs.
 INFO 15:47:53,320 Scheduling key cache save to each 14400 seconds (going to save all keys).
 INFO 15:47:53,325 Initializing row cache with capacity of 0 MBs and provider org.apache.cassandra.cache.SerializingCacheProvider
 INFO 15:47:53,335 Scheduling row cache save to each 0 seconds (going to save all keys).
 INFO 15:47:53,875 Couldn't detect any schema definitions in local storage.
 INFO 15:47:53,876 To create keyspaces and column families, see 'help create keyspace' in the CLI, or set up a schema using the thrift system_* calls.
 INFO 15:47:53,959 No commitlog files found; skipping replay
 INFO 15:47:54,332 Cassandra version: 1.2.4
 INFO 15:47:54,333 Thrift API version: 19.35.0
 INFO 15:47:54,336 CQL supported versions: 2.0.0,3.0.1 (default: 3.0.1)
 INFO 15:47:54,367 Loading persisted ring state
 INFO 15:47:54,370 Starting up server gossip
 WARN 15:47:54,374 No host ID found, created 0300f12f-8dec-4a86-9c05-af5ae6467dbf (Note: This should happen exactly once per node).
 INFO 15:47:54,385 Enqueuing flush of Memtable-local@1070552419(361/361 serialized/live bytes, 15 ops)
 INFO 15:47:54,393 Writing Memtable-local@1070552419(361/361 serialized/live bytes, 15 ops)
 INFO 15:47:54,442 Completed flushing /var/lib/cassandra/data/system/local/system-local-ib-1-Data.db (350 bytes) for commitlog position ReplayPosition(segmentId=1402526873857, position=50656)
 INFO 15:47:54,521 Starting Messaging Service on port 7000
 INFO 15:47:54,565 Enqueuing flush of Memtable-local@880453696(86/86 serialized/live bytes, 4 ops)
 INFO 15:47:54,566 Writing Memtable-local@880453696(86/86 serialized/live bytes, 4 ops)
 INFO 15:47:54,580 Completed flushing /var/lib/cassandra/data/system/local/system-local-ib-2-Data.db (122 bytes) for commitlog position ReplayPosition(segmentId=1402526873857, position=50933)
 INFO 15:47:54,582 JOINING: waiting for ring information
 INFO 15:47:55,951 Node /192.168.56.11 is now part of the cluster
 INFO 15:47:55,953 InetAddress /192.168.56.11 is now UP
 INFO 15:47:55,979 Enqueuing flush of Memtable-peers@1599979394(51/51 serialized/live bytes, 2 ops)
 INFO 15:47:55,982 Writing Memtable-peers@1599979394(51/51 serialized/live bytes, 2 ops)
 INFO 15:47:56,007 Completed flushing /var/lib/cassandra/data/system/peers/system-peers-ib-1-Data.db (109 bytes) for commitlog position ReplayPosition(segmentId=1402526873857, position=51107)
 INFO 15:47:56,037 Enqueuing flush of Memtable-schema_keyspaces@1033568538(389/389 serialized/live bytes, 11 ops)
 INFO 15:47:56,038 Writing Memtable-schema_keyspaces@1033568538(389/389 serialized/live bytes, 11 ops)
 INFO 15:47:56,055 Completed flushing /var/lib/cassandra/data/system/schema_keyspaces/system-schema_keyspaces-ib-1-Data.db (264 bytes) for commitlog position ReplayPosition(segmentId=1402526873857, position=53730)
 INFO 15:47:56,056 Enqueuing flush of Memtable-schema_columnfamilies@1431071602(23066/23066 serialized/live bytes, 379 ops)
 INFO 15:47:56,057 Writing Memtable-schema_columnfamilies@1431071602(23066/23066 serialized/live bytes, 379 ops)
 INFO 15:47:56,084 Completed flushing /var/lib/cassandra/data/system/schema_columnfamilies/system-schema_columnfamilies-ib-1-Data.db (4847 bytes) for commitlog position ReplayPosition(segmentId=1402526873857, position=53730)
 INFO 15:47:56,085 Enqueuing flush of Memtable-schema_columns@1183600113(22154/22154 serialized/live bytes, 337 ops)
 INFO 15:47:56,086 Writing Memtable-schema_columns@1183600113(22154/22154 serialized/live bytes, 337 ops)
 INFO 15:47:56,113 Completed flushing /var/lib/cassandra/data/system/schema_columns/system-schema_columns-ib-1-Data.db (3898 bytes) for commitlog position ReplayPosition(segmentId=1402526873857, position=53730)
 INFO 15:47:56,584 JOINING: schema complete, ready to bootstrap
 INFO 15:47:56,586 JOINING: getting bootstrap token
 INFO 15:47:56,591 Enqueuing flush of Memtable-local@1250614665(73/73 serialized/live bytes, 4 ops)
 INFO 15:47:56,591 Writing Memtable-local@1250614665(73/73 serialized/live bytes, 4 ops)
 INFO 15:47:56,611 Completed flushing /var/lib/cassandra/data/system/local/system-local-ib-3-Data.db (136 bytes) for commitlog position ReplayPosition(segmentId=1402526873857, position=54028)
 INFO 15:47:56,627 JOINING: sleeping 30000 ms for pending range setup
 INFO 15:48:26,628 JOINING: Starting to bootstrap...
 INFO 15:48:26,738 Finished streaming session 8015cbd0-f1ba-11e3-9c66-c1b7d013ecd2 from /192.168.56.11
 INFO 15:48:26,740 Bootstrap completed! for the tokens [0]
 INFO 15:48:26,742 Enqueuing flush of Memtable-local@988937677(43/43 serialized/live bytes, 2 ops)
 INFO 15:48:26,742 Writing Memtable-local@988937677(43/43 serialized/live bytes, 2 ops)
 INFO 15:48:26,758 Completed flushing /var/lib/cassandra/data/system/local/system-local-ib-4-Data.db (75 bytes) for commitlog position ReplayPosition(segmentId=1402526873857, position=54161)
 INFO 15:48:26,767 Enqueuing flush of Memtable-local@1819314049(32/32 serialized/live bytes, 2 ops)
 INFO 15:48:26,769 Writing Memtable-local@1819314049(32/32 serialized/live bytes, 2 ops)
 INFO 15:48:26,771 Compacting [SSTableReader(path='/var/lib/cassandra/data/system/local/system-local-ib-3-Data.db'), SSTableReader(path='/var/lib/cassandra/data/system/local/system-local-ib-4-Data.db'), SSTableReader(path='/var/lib/cassandra/data/system/local/system-local-ib-2-Data.db'), SSTableReader(path='/var/lib/cassandra/data/system/local/system-local-ib-1-Data.db')]
 INFO 15:48:26,788 Completed flushing /var/lib/cassandra/data/system/local/system-local-ib-5-Data.db (90 bytes) for commitlog position ReplayPosition(segmentId=1402526873857, position=54317)
 INFO 15:48:26,800 Node /192.168.56.12 state jump to normal
 INFO 15:48:26,801 Startup completed! Now serving reads.
 INFO 15:48:26,847 Compacted 4 sstables to [/var/lib/cassandra/data/system/local/system-local-ib-6,].  683 bytes to 408 (~59% of original) in 71ms = 0.005480MB/s.  4 total rows, 1 unique.  Row merge counts were {1:0, 2:0, 3:0, 4:1, }
