xss =  -ea -javaagent:/home/mininet/apache-cassandra-1.2.4/bin/../lib/jamm-0.2.5.jar -XX:+UseThreadPriorities -XX:ThreadPriorityPolicy=42 -Xms1996M -Xmx1996M -Xmn100M -XX:+HeapDumpOnOutOfMemoryError -Xss256k
 INFO 16:01:00,477 Logging initialized
 INFO 16:01:00,489 JVM vendor/version: OpenJDK 64-Bit Server VM/1.7.0_51
 WARN 16:01:00,490 OpenJDK is not recommended. Please upgrade to the newest Oracle Java release
 INFO 16:01:00,491 Heap size: 2082471936/2082471936
 INFO 16:01:00,492 Classpath: /home/mininet/apache-cassandra-1.2.4/bin/../conf:/home/mininet/apache-cassandra-1.2.4/bin/../build/classes/main:/home/mininet/apache-cassandra-1.2.4/bin/../build/classes/thrift:/home/mininet/apache-cassandra-1.2.4/bin/../lib/antlr-3.2.jar:/home/mininet/apache-cassandra-1.2.4/bin/../lib/apache-cassandra-1.2.4.jar:/home/mininet/apache-cassandra-1.2.4/bin/../lib/apache-cassandra-clientutil-1.2.4.jar:/home/mininet/apache-cassandra-1.2.4/bin/../lib/apache-cassandra-thrift-1.2.4.jar:/home/mininet/apache-cassandra-1.2.4/bin/../lib/avro-1.4.0-fixes.jar:/home/mininet/apache-cassandra-1.2.4/bin/../lib/avro-1.4.0-sources-fixes.jar:/home/mininet/apache-cassandra-1.2.4/bin/../lib/commons-cli-1.1.jar:/home/mininet/apache-cassandra-1.2.4/bin/../lib/commons-codec-1.2.jar:/home/mininet/apache-cassandra-1.2.4/bin/../lib/commons-lang-2.6.jar:/home/mininet/apache-cassandra-1.2.4/bin/../lib/compress-lzf-0.8.4.jar:/home/mininet/apache-cassandra-1.2.4/bin/../lib/concurrentlinkedhashmap-lru-1.3.jar:/home/mininet/apache-cassandra-1.2.4/bin/../lib/guava-13.0.1.jar:/home/mininet/apache-cassandra-1.2.4/bin/../lib/high-scale-lib-1.1.2.jar:/home/mininet/apache-cassandra-1.2.4/bin/../lib/jackson-core-asl-1.9.2.jar:/home/mininet/apache-cassandra-1.2.4/bin/../lib/jackson-mapper-asl-1.9.2.jar:/home/mininet/apache-cassandra-1.2.4/bin/../lib/jamm-0.2.5.jar:/home/mininet/apache-cassandra-1.2.4/bin/../lib/jbcrypt-0.3m.jar:/home/mininet/apache-cassandra-1.2.4/bin/../lib/jline-1.0.jar:/home/mininet/apache-cassandra-1.2.4/bin/../lib/json-simple-1.1.jar:/home/mininet/apache-cassandra-1.2.4/bin/../lib/libthrift-0.7.0.jar:/home/mininet/apache-cassandra-1.2.4/bin/../lib/log4j-1.2.16.jar:/home/mininet/apache-cassandra-1.2.4/bin/../lib/lz4-1.1.0.jar:/home/mininet/apache-cassandra-1.2.4/bin/../lib/metrics-core-2.0.3.jar:/home/mininet/apache-cassandra-1.2.4/bin/../lib/netty-3.5.9.Final.jar:/home/mininet/apache-cassandra-1.2.4/bin/../lib/servlet-api-2.5-20081211.jar:/home/mininet/apache-cassandra-1.2.4/bin/../lib/slf4j-api-1.7.2.jar:/home/mininet/apache-cassandra-1.2.4/bin/../lib/slf4j-log4j12-1.7.2.jar:/home/mininet/apache-cassandra-1.2.4/bin/../lib/snakeyaml-1.6.jar:/home/mininet/apache-cassandra-1.2.4/bin/../lib/snappy-java-1.0.4.1.jar:/home/mininet/apache-cassandra-1.2.4/bin/../lib/snaptree-0.1.jar:/home/mininet/apache-cassandra-1.2.4/bin/../lib/jamm-0.2.5.jar
 INFO 16:01:00,497 JNA not found. Native methods will be disabled.
 INFO 16:01:00,513 Loading settings from file:/home/mininet/apache-cassandra-1.2.4/conf/cassandra.yaml
 INFO 16:01:01,033 Data files directories: [/var/lib/cassandra/data]
 INFO 16:01:01,034 Commit log directory: /var/lib/cassandra/commitlog
 INFO 16:01:01,035 DiskAccessMode 'auto' determined to be mmap, indexAccessMode is mmap
 INFO 16:01:01,035 disk_failure_policy is stop
 INFO 16:01:01,045 Global memtable threshold is enabled at 662MB
 INFO 16:01:01,160 Not using multi-threaded compaction
 INFO 16:01:01,866 Initializing key cache with capacity of 99 MBs.
 INFO 16:01:01,873 Scheduling key cache save to each 14400 seconds (going to save all keys).
 INFO 16:01:01,874 Initializing row cache with capacity of 0 MBs and provider org.apache.cassandra.cache.SerializingCacheProvider
 INFO 16:01:01,884 Scheduling row cache save to each 0 seconds (going to save all keys).
 INFO 16:01:02,267 Couldn't detect any schema definitions in local storage.
 INFO 16:01:02,267 To create keyspaces and column families, see 'help create keyspace' in the CLI, or set up a schema using the thrift system_* calls.
 INFO 16:01:02,349 No commitlog files found; skipping replay
 INFO 16:01:02,712 Cassandra version: 1.2.4
 INFO 16:01:02,713 Thrift API version: 19.35.0
 INFO 16:01:02,716 CQL supported versions: 2.0.0,3.0.1 (default: 3.0.1)
 INFO 16:01:02,748 Loading persisted ring state
 INFO 16:01:02,750 Starting up server gossip
 WARN 16:01:02,754 No host ID found, created f6cf53cb-1c9b-4620-a5b3-0e43b57a4658 (Note: This should happen exactly once per node).
 INFO 16:01:02,765 Enqueuing flush of Memtable-local@1156511567(361/361 serialized/live bytes, 15 ops)
 INFO 16:01:02,773 Writing Memtable-local@1156511567(361/361 serialized/live bytes, 15 ops)
 INFO 16:01:02,813 Completed flushing /var/lib/cassandra/data/system/local/system-local-ib-1-Data.db (349 bytes) for commitlog position ReplayPosition(segmentId=1402527662248, position=50656)
 INFO 16:01:02,901 Starting Messaging Service on port 7000
 INFO 16:01:02,946 Enqueuing flush of Memtable-local@1622940842(86/86 serialized/live bytes, 4 ops)
 INFO 16:01:02,947 Writing Memtable-local@1622940842(86/86 serialized/live bytes, 4 ops)
 INFO 16:01:02,970 Completed flushing /var/lib/cassandra/data/system/local/system-local-ib-2-Data.db (122 bytes) for commitlog position ReplayPosition(segmentId=1402527662248, position=50933)
 INFO 16:01:02,973 JOINING: waiting for ring information
 INFO 16:01:04,518 Node /192.168.56.11 is now part of the cluster
 INFO 16:01:04,519 InetAddress /192.168.56.11 is now UP
 INFO 16:01:04,542 Enqueuing flush of Memtable-peers@285401532(182/182 serialized/live bytes, 10 ops)
 INFO 16:01:04,542 Writing Memtable-peers@285401532(182/182 serialized/live bytes, 10 ops)
 INFO 16:01:04,556 Completed flushing /var/lib/cassandra/data/system/peers/system-peers-ib-1-Data.db (233 bytes) for commitlog position ReplayPosition(segmentId=1402527662248, position=51638)
 INFO 16:01:04,594 Enqueuing flush of Memtable-schema_keyspaces@656328142(389/389 serialized/live bytes, 11 ops)
 INFO 16:01:04,595 Writing Memtable-schema_keyspaces@656328142(389/389 serialized/live bytes, 11 ops)
 INFO 16:01:04,608 Completed flushing /var/lib/cassandra/data/system/schema_keyspaces/system-schema_keyspaces-ib-1-Data.db (261 bytes) for commitlog position ReplayPosition(segmentId=1402527662248, position=53730)
 INFO 16:01:04,610 Enqueuing flush of Memtable-schema_columnfamilies@105660303(23066/23066 serialized/live bytes, 379 ops)
 INFO 16:01:04,611 Writing Memtable-schema_columnfamilies@105660303(23066/23066 serialized/live bytes, 379 ops)
 INFO 16:01:04,635 Completed flushing /var/lib/cassandra/data/system/schema_columnfamilies/system-schema_columnfamilies-ib-1-Data.db (4846 bytes) for commitlog position ReplayPosition(segmentId=1402527662248, position=53730)
 INFO 16:01:04,636 Enqueuing flush of Memtable-schema_columns@1575056281(22154/22154 serialized/live bytes, 337 ops)
 INFO 16:01:04,637 Writing Memtable-schema_columns@1575056281(22154/22154 serialized/live bytes, 337 ops)
 INFO 16:01:04,661 Completed flushing /var/lib/cassandra/data/system/schema_columns/system-schema_columns-ib-1-Data.db (3896 bytes) for commitlog position ReplayPosition(segmentId=1402527662248, position=53730)
 INFO 16:01:04,974 JOINING: schema complete, ready to bootstrap
 INFO 16:01:04,976 JOINING: getting bootstrap token
 INFO 16:01:04,983 Enqueuing flush of Memtable-local@1909453433(73/73 serialized/live bytes, 4 ops)
 INFO 16:01:04,986 Writing Memtable-local@1909453433(73/73 serialized/live bytes, 4 ops)
 INFO 16:01:05,009 Completed flushing /var/lib/cassandra/data/system/local/system-local-ib-3-Data.db (136 bytes) for commitlog position ReplayPosition(segmentId=1402527662248, position=54028)
 INFO 16:01:05,045 JOINING: sleeping 30000 ms for pending range setup
 INFO 16:01:35,049 JOINING: Starting to bootstrap...
 INFO 16:01:35,118 Finished streaming session 56065c90-f1bc-11e3-ab4d-c1b7d013ecd2 from /192.168.56.11
 INFO 16:01:35,119 Bootstrap completed! for the tokens [0]
 INFO 16:01:35,121 Enqueuing flush of Memtable-local@129692337(43/43 serialized/live bytes, 2 ops)
 INFO 16:01:35,122 Writing Memtable-local@129692337(43/43 serialized/live bytes, 2 ops)
 INFO 16:01:35,139 Completed flushing /var/lib/cassandra/data/system/local/system-local-ib-4-Data.db (74 bytes) for commitlog position ReplayPosition(segmentId=1402527662248, position=54161)
 INFO 16:01:35,149 Enqueuing flush of Memtable-local@320179133(32/32 serialized/live bytes, 2 ops)
 INFO 16:01:35,153 Writing Memtable-local@320179133(32/32 serialized/live bytes, 2 ops)
 INFO 16:01:35,154 Compacting [SSTableReader(path='/var/lib/cassandra/data/system/local/system-local-ib-2-Data.db'), SSTableReader(path='/var/lib/cassandra/data/system/local/system-local-ib-1-Data.db'), SSTableReader(path='/var/lib/cassandra/data/system/local/system-local-ib-3-Data.db'), SSTableReader(path='/var/lib/cassandra/data/system/local/system-local-ib-4-Data.db')]
 INFO 16:01:35,168 Completed flushing /var/lib/cassandra/data/system/local/system-local-ib-5-Data.db (90 bytes) for commitlog position ReplayPosition(segmentId=1402527662248, position=54317)
 INFO 16:01:35,182 Node /192.168.56.12 state jump to normal
 INFO 16:01:35,184 Startup completed! Now serving reads.
 INFO 16:01:35,244 Compacted 4 sstables to [/var/lib/cassandra/data/system/local/system-local-ib-6,].  681 bytes to 407 (~59% of original) in 80ms = 0.004852MB/s.  4 total rows, 1 unique.  Row merge counts were {1:0, 2:0, 3:0, 4:1, }
