xss =  -ea -javaagent:/home/mininet/apache-cassandra-1.2.4/bin/../lib/jamm-0.2.5.jar -XX:+UseThreadPriorities -XX:ThreadPriorityPolicy=42 -Xms1996M -Xmx1996M -Xmn100M -XX:+HeapDumpOnOutOfMemoryError -Xss256k
 INFO 15:40:28,165 Logging initialized
 INFO 15:40:28,178 JVM vendor/version: OpenJDK 64-Bit Server VM/1.7.0_51
 WARN 15:40:28,178 OpenJDK is not recommended. Please upgrade to the newest Oracle Java release
 INFO 15:40:28,178 Heap size: 2082471936/2082471936
 INFO 15:40:28,178 Classpath: /home/mininet/apache-cassandra-1.2.4/bin/../conf:/home/mininet/apache-cassandra-1.2.4/bin/../build/classes/main:/home/mininet/apache-cassandra-1.2.4/bin/../build/classes/thrift:/home/mininet/apache-cassandra-1.2.4/bin/../lib/antlr-3.2.jar:/home/mininet/apache-cassandra-1.2.4/bin/../lib/apache-cassandra-1.2.4.jar:/home/mininet/apache-cassandra-1.2.4/bin/../lib/apache-cassandra-clientutil-1.2.4.jar:/home/mininet/apache-cassandra-1.2.4/bin/../lib/apache-cassandra-thrift-1.2.4.jar:/home/mininet/apache-cassandra-1.2.4/bin/../lib/avro-1.4.0-fixes.jar:/home/mininet/apache-cassandra-1.2.4/bin/../lib/avro-1.4.0-sources-fixes.jar:/home/mininet/apache-cassandra-1.2.4/bin/../lib/commons-cli-1.1.jar:/home/mininet/apache-cassandra-1.2.4/bin/../lib/commons-codec-1.2.jar:/home/mininet/apache-cassandra-1.2.4/bin/../lib/commons-lang-2.6.jar:/home/mininet/apache-cassandra-1.2.4/bin/../lib/compress-lzf-0.8.4.jar:/home/mininet/apache-cassandra-1.2.4/bin/../lib/concurrentlinkedhashmap-lru-1.3.jar:/home/mininet/apache-cassandra-1.2.4/bin/../lib/guava-13.0.1.jar:/home/mininet/apache-cassandra-1.2.4/bin/../lib/high-scale-lib-1.1.2.jar:/home/mininet/apache-cassandra-1.2.4/bin/../lib/jackson-core-asl-1.9.2.jar:/home/mininet/apache-cassandra-1.2.4/bin/../lib/jackson-mapper-asl-1.9.2.jar:/home/mininet/apache-cassandra-1.2.4/bin/../lib/jamm-0.2.5.jar:/home/mininet/apache-cassandra-1.2.4/bin/../lib/jbcrypt-0.3m.jar:/home/mininet/apache-cassandra-1.2.4/bin/../lib/jline-1.0.jar:/home/mininet/apache-cassandra-1.2.4/bin/../lib/json-simple-1.1.jar:/home/mininet/apache-cassandra-1.2.4/bin/../lib/libthrift-0.7.0.jar:/home/mininet/apache-cassandra-1.2.4/bin/../lib/log4j-1.2.16.jar:/home/mininet/apache-cassandra-1.2.4/bin/../lib/lz4-1.1.0.jar:/home/mininet/apache-cassandra-1.2.4/bin/../lib/metrics-core-2.0.3.jar:/home/mininet/apache-cassandra-1.2.4/bin/../lib/netty-3.5.9.Final.jar:/home/mininet/apache-cassandra-1.2.4/bin/../lib/servlet-api-2.5-20081211.jar:/home/mininet/apache-cassandra-1.2.4/bin/../lib/slf4j-api-1.7.2.jar:/home/mininet/apache-cassandra-1.2.4/bin/../lib/slf4j-log4j12-1.7.2.jar:/home/mininet/apache-cassandra-1.2.4/bin/../lib/snakeyaml-1.6.jar:/home/mininet/apache-cassandra-1.2.4/bin/../lib/snappy-java-1.0.4.1.jar:/home/mininet/apache-cassandra-1.2.4/bin/../lib/snaptree-0.1.jar:/home/mininet/apache-cassandra-1.2.4/bin/../lib/jamm-0.2.5.jar
 INFO 15:40:28,180 JNA not found. Native methods will be disabled.
 INFO 15:40:28,189 Loading settings from file:/home/mininet/apache-cassandra-1.2.4/conf/cassandra.yaml
 INFO 15:40:28,848 Data files directories: [/var/lib/cassandra/data]
 INFO 15:40:28,849 Commit log directory: /var/lib/cassandra/commitlog
 INFO 15:40:28,849 DiskAccessMode 'auto' determined to be mmap, indexAccessMode is mmap
 INFO 15:40:28,849 disk_failure_policy is stop
 INFO 15:40:28,857 Global memtable threshold is enabled at 662MB
 INFO 15:40:28,967 Not using multi-threaded compaction
 INFO 15:40:29,411 Initializing key cache with capacity of 99 MBs.
 INFO 15:40:29,418 Scheduling key cache save to each 14400 seconds (going to save all keys).
 INFO 15:40:29,419 Initializing row cache with capacity of 0 MBs and provider org.apache.cassandra.cache.SerializingCacheProvider
 INFO 15:40:29,428 Scheduling row cache save to each 0 seconds (going to save all keys).
 INFO 15:40:29,802 Couldn't detect any schema definitions in local storage.
 INFO 15:40:29,803 To create keyspaces and column families, see 'help create keyspace' in the CLI, or set up a schema using the thrift system_* calls.
 INFO 15:40:29,879 No commitlog files found; skipping replay
 INFO 15:40:30,299 Cassandra version: 1.2.4
 INFO 15:40:30,303 Thrift API version: 19.35.0
 INFO 15:40:30,304 CQL supported versions: 2.0.0,3.0.1 (default: 3.0.1)
 INFO 15:40:30,367 Loading persisted ring state
 INFO 15:40:30,370 Starting up server gossip
 WARN 15:40:30,378 No host ID found, created ed3cf21d-4db5-4f2e-8a03-399cc7b61434 (Note: This should happen exactly once per node).
 INFO 15:40:30,400 Enqueuing flush of Memtable-local@1156511567(361/361 serialized/live bytes, 15 ops)
 INFO 15:40:30,417 Writing Memtable-local@1156511567(361/361 serialized/live bytes, 15 ops)
 INFO 15:40:30,483 Completed flushing /var/lib/cassandra/data/system/local/system-local-ib-1-Data.db (352 bytes) for commitlog position ReplayPosition(segmentId=1402526429779, position=50656)
 INFO 15:40:30,606 Starting Messaging Service on port 7000
 INFO 15:40:30,687 Enqueuing flush of Memtable-local@1622940842(86/86 serialized/live bytes, 4 ops)
 INFO 15:40:30,687 Writing Memtable-local@1622940842(86/86 serialized/live bytes, 4 ops)
 INFO 15:40:30,703 Completed flushing /var/lib/cassandra/data/system/local/system-local-ib-2-Data.db (122 bytes) for commitlog position ReplayPosition(segmentId=1402526429779, position=50933)
 INFO 15:40:30,704 JOINING: waiting for ring information
 INFO 15:40:32,086 Node /192.168.56.11 is now part of the cluster
 INFO 15:40:32,087 InetAddress /192.168.56.11 is now UP
 INFO 15:40:32,129 Enqueuing flush of Memtable-peers@285401532(182/182 serialized/live bytes, 10 ops)
 INFO 15:40:32,130 Writing Memtable-peers@285401532(182/182 serialized/live bytes, 10 ops)
 INFO 15:40:32,146 Completed flushing /var/lib/cassandra/data/system/peers/system-peers-ib-1-Data.db (227 bytes) for commitlog position ReplayPosition(segmentId=1402526429779, position=51638)
 INFO 15:40:32,180 Enqueuing flush of Memtable-schema_keyspaces@656328142(389/389 serialized/live bytes, 11 ops)
 INFO 15:40:32,181 Writing Memtable-schema_keyspaces@656328142(389/389 serialized/live bytes, 11 ops)
 INFO 15:40:32,199 Completed flushing /var/lib/cassandra/data/system/schema_keyspaces/system-schema_keyspaces-ib-1-Data.db (265 bytes) for commitlog position ReplayPosition(segmentId=1402526429779, position=53730)
 INFO 15:40:32,206 Enqueuing flush of Memtable-schema_columnfamilies@105660303(23066/23066 serialized/live bytes, 379 ops)
 INFO 15:40:32,208 Writing Memtable-schema_columnfamilies@105660303(23066/23066 serialized/live bytes, 379 ops)
 INFO 15:40:32,236 Completed flushing /var/lib/cassandra/data/system/schema_columnfamilies/system-schema_columnfamilies-ib-1-Data.db (4859 bytes) for commitlog position ReplayPosition(segmentId=1402526429779, position=53730)
 INFO 15:40:32,237 Enqueuing flush of Memtable-schema_columns@1575056281(22154/22154 serialized/live bytes, 337 ops)
 INFO 15:40:32,242 Writing Memtable-schema_columns@1575056281(22154/22154 serialized/live bytes, 337 ops)
 INFO 15:40:32,275 Completed flushing /var/lib/cassandra/data/system/schema_columns/system-schema_columns-ib-1-Data.db (3914 bytes) for commitlog position ReplayPosition(segmentId=1402526429779, position=53730)
 INFO 15:40:32,705 JOINING: schema complete, ready to bootstrap
 INFO 15:40:32,706 JOINING: getting bootstrap token
 INFO 15:40:32,709 Enqueuing flush of Memtable-local@1909453433(73/73 serialized/live bytes, 4 ops)
 INFO 15:40:32,710 Writing Memtable-local@1909453433(73/73 serialized/live bytes, 4 ops)
 INFO 15:40:32,728 Completed flushing /var/lib/cassandra/data/system/local/system-local-ib-3-Data.db (136 bytes) for commitlog position ReplayPosition(segmentId=1402526429779, position=54028)
 INFO 15:40:32,743 JOINING: sleeping 30000 ms for pending range setup
 INFO 15:41:02,743 JOINING: Starting to bootstrap...
 INFO 15:41:02,813 Finished streaming session 7782a020-f1b9-11e3-90a9-c1b7d013ecd2 from /192.168.56.11
 INFO 15:41:02,817 Bootstrap completed! for the tokens [0]
 INFO 15:41:02,818 Enqueuing flush of Memtable-local@129692337(43/43 serialized/live bytes, 2 ops)
 INFO 15:41:02,819 Writing Memtable-local@129692337(43/43 serialized/live bytes, 2 ops)
 INFO 15:41:02,843 Completed flushing /var/lib/cassandra/data/system/local/system-local-ib-4-Data.db (75 bytes) for commitlog position ReplayPosition(segmentId=1402526429779, position=54161)
 INFO 15:41:02,856 Enqueuing flush of Memtable-local@1325626251(32/32 serialized/live bytes, 2 ops)
 INFO 15:41:02,858 Writing Memtable-local@1325626251(32/32 serialized/live bytes, 2 ops)
 INFO 15:41:02,859 Compacting [SSTableReader(path='/var/lib/cassandra/data/system/local/system-local-ib-2-Data.db'), SSTableReader(path='/var/lib/cassandra/data/system/local/system-local-ib-1-Data.db'), SSTableReader(path='/var/lib/cassandra/data/system/local/system-local-ib-3-Data.db'), SSTableReader(path='/var/lib/cassandra/data/system/local/system-local-ib-4-Data.db')]
 INFO 15:41:02,880 Completed flushing /var/lib/cassandra/data/system/local/system-local-ib-5-Data.db (90 bytes) for commitlog position ReplayPosition(segmentId=1402526429779, position=54317)
 INFO 15:41:02,890 Node /192.168.56.12 state jump to normal
 INFO 15:41:02,893 Startup completed! Now serving reads.
