xss =  -ea -javaagent:/home/mininet/apache-cassandra-1.2.4/bin/../lib/jamm-0.2.5.jar -XX:+UseThreadPriorities -XX:ThreadPriorityPolicy=42 -Xms1001M -Xmx1001M -Xmn100M -XX:+HeapDumpOnOutOfMemoryError -Xss228k
 INFO 15:46:36,559 Logging initialized
 INFO 15:46:36,571 JVM vendor/version: OpenJDK 64-Bit Server VM/1.7.0_51
 WARN 15:46:36,572 OpenJDK is not recommended. Please upgrade to the newest Oracle Java release
 INFO 15:46:36,572 Heap size: 1039138816/1040187392
 INFO 15:46:36,572 Classpath: /home/mininet/apache-cassandra-1.2.4/bin/../conf:/home/mininet/apache-cassandra-1.2.4/bin/../build/classes/main:/home/mininet/apache-cassandra-1.2.4/bin/../build/classes/thrift:/home/mininet/apache-cassandra-1.2.4/bin/../lib/antlr-3.2.jar:/home/mininet/apache-cassandra-1.2.4/bin/../lib/apache-cassandra-1.2.4.jar:/home/mininet/apache-cassandra-1.2.4/bin/../lib/apache-cassandra-clientutil-1.2.4.jar:/home/mininet/apache-cassandra-1.2.4/bin/../lib/apache-cassandra-thrift-1.2.4.jar:/home/mininet/apache-cassandra-1.2.4/bin/../lib/avro-1.4.0-fixes.jar:/home/mininet/apache-cassandra-1.2.4/bin/../lib/avro-1.4.0-sources-fixes.jar:/home/mininet/apache-cassandra-1.2.4/bin/../lib/commons-cli-1.1.jar:/home/mininet/apache-cassandra-1.2.4/bin/../lib/commons-codec-1.2.jar:/home/mininet/apache-cassandra-1.2.4/bin/../lib/commons-lang-2.6.jar:/home/mininet/apache-cassandra-1.2.4/bin/../lib/compress-lzf-0.8.4.jar:/home/mininet/apache-cassandra-1.2.4/bin/../lib/concurrentlinkedhashmap-lru-1.3.jar:/home/mininet/apache-cassandra-1.2.4/bin/../lib/guava-13.0.1.jar:/home/mininet/apache-cassandra-1.2.4/bin/../lib/high-scale-lib-1.1.2.jar:/home/mininet/apache-cassandra-1.2.4/bin/../lib/jackson-core-asl-1.9.2.jar:/home/mininet/apache-cassandra-1.2.4/bin/../lib/jackson-mapper-asl-1.9.2.jar:/home/mininet/apache-cassandra-1.2.4/bin/../lib/jamm-0.2.5.jar:/home/mininet/apache-cassandra-1.2.4/bin/../lib/jbcrypt-0.3m.jar:/home/mininet/apache-cassandra-1.2.4/bin/../lib/jline-1.0.jar:/home/mininet/apache-cassandra-1.2.4/bin/../lib/json-simple-1.1.jar:/home/mininet/apache-cassandra-1.2.4/bin/../lib/libthrift-0.7.0.jar:/home/mininet/apache-cassandra-1.2.4/bin/../lib/log4j-1.2.16.jar:/home/mininet/apache-cassandra-1.2.4/bin/../lib/lz4-1.1.0.jar:/home/mininet/apache-cassandra-1.2.4/bin/../lib/metrics-core-2.0.3.jar:/home/mininet/apache-cassandra-1.2.4/bin/../lib/netty-3.5.9.Final.jar:/home/mininet/apache-cassandra-1.2.4/bin/../lib/servlet-api-2.5-20081211.jar:/home/mininet/apache-cassandra-1.2.4/bin/../lib/slf4j-api-1.7.2.jar:/home/mininet/apache-cassandra-1.2.4/bin/../lib/slf4j-log4j12-1.7.2.jar:/home/mininet/apache-cassandra-1.2.4/bin/../lib/snakeyaml-1.6.jar:/home/mininet/apache-cassandra-1.2.4/bin/../lib/snappy-java-1.0.4.1.jar:/home/mininet/apache-cassandra-1.2.4/bin/../lib/snaptree-0.1.jar:/home/mininet/apache-cassandra-1.2.4/bin/../lib/jamm-0.2.5.jar
 INFO 15:46:36,574 JNA not found. Native methods will be disabled.
 INFO 15:46:36,585 Loading settings from file:/home/mininet/apache-cassandra-1.2.4/conf/cassandra.yaml
 INFO 15:46:37,236 Data files directories: [/var/lib/cassandra/data]
 INFO 15:46:37,236 Commit log directory: /var/lib/cassandra/commitlog
 INFO 15:46:37,237 DiskAccessMode 'auto' determined to be mmap, indexAccessMode is mmap
 INFO 15:46:37,237 disk_failure_policy is stop
 INFO 15:46:37,245 Global memtable threshold is enabled at 330MB
 INFO 15:46:37,376 Not using multi-threaded compaction
 INFO 15:46:37,826 Initializing key cache with capacity of 49 MBs.
 INFO 15:46:37,846 Scheduling key cache save to each 14400 seconds (going to save all keys).
 INFO 15:46:37,847 Initializing row cache with capacity of 0 MBs and provider org.apache.cassandra.cache.SerializingCacheProvider
 INFO 15:46:37,855 Scheduling row cache save to each 0 seconds (going to save all keys).
 INFO 15:46:38,238 Couldn't detect any schema definitions in local storage.
 INFO 15:46:38,238 To create keyspaces and column families, see 'help create keyspace' in the CLI, or set up a schema using the thrift system_* calls.
 INFO 15:46:38,325 No commitlog files found; skipping replay
 INFO 15:46:38,929 Cassandra version: 1.2.4
 INFO 15:46:38,931 Thrift API version: 19.35.0
 INFO 15:46:38,931 CQL supported versions: 2.0.0,3.0.1 (default: 3.0.1)
 INFO 15:46:38,967 Loading persisted ring state
 INFO 15:46:38,970 Starting up server gossip
 WARN 15:46:38,974 No host ID found, created ac9edad6-f550-49ac-bf37-58aebb0c4d5d (Note: This should happen exactly once per node).
 INFO 15:46:38,990 Enqueuing flush of Memtable-local@1156511567(361/361 serialized/live bytes, 15 ops)
 INFO 15:46:38,997 Writing Memtable-local@1156511567(361/361 serialized/live bytes, 15 ops)
 INFO 15:46:39,050 Completed flushing /var/lib/cassandra/data/system/local/system-local-ib-1-Data.db (354 bytes) for commitlog position ReplayPosition(segmentId=1391211998208, position=50656)
 INFO 15:46:39,126 Starting Messaging Service on port 7000
 INFO 15:46:39,170 Enqueuing flush of Memtable-local@1622940842(86/86 serialized/live bytes, 4 ops)
 INFO 15:46:39,170 Writing Memtable-local@1622940842(86/86 serialized/live bytes, 4 ops)
 INFO 15:46:39,188 Completed flushing /var/lib/cassandra/data/system/local/system-local-ib-2-Data.db (122 bytes) for commitlog position ReplayPosition(segmentId=1391211998208, position=50933)
 INFO 15:46:39,189 JOINING: waiting for ring information
 INFO 15:46:40,423 Node /192.168.56.11 is now part of the cluster
 INFO 15:46:40,429 InetAddress /192.168.56.11 is now UP
 INFO 15:46:40,488 Enqueuing flush of Memtable-peers@1205604856(182/182 serialized/live bytes, 10 ops)
 INFO 15:46:40,490 Writing Memtable-peers@1205604856(182/182 serialized/live bytes, 10 ops)
 INFO 15:46:40,515 Completed flushing /var/lib/cassandra/data/system/peers/system-peers-ib-1-Data.db (232 bytes) for commitlog position ReplayPosition(segmentId=1391211998208, position=51638)
 INFO 15:46:40,548 Enqueuing flush of Memtable-schema_keyspaces@822241569(389/389 serialized/live bytes, 11 ops)
 INFO 15:46:40,548 Writing Memtable-schema_keyspaces@822241569(389/389 serialized/live bytes, 11 ops)
 INFO 15:46:40,570 Completed flushing /var/lib/cassandra/data/system/schema_keyspaces/system-schema_keyspaces-ib-1-Data.db (263 bytes) for commitlog position ReplayPosition(segmentId=1391211998208, position=53730)
 INFO 15:46:40,572 Enqueuing flush of Memtable-schema_columnfamilies@432884427(23066/23066 serialized/live bytes, 379 ops)
 INFO 15:46:40,573 Writing Memtable-schema_columnfamilies@432884427(23066/23066 serialized/live bytes, 379 ops)
 INFO 15:46:40,604 Completed flushing /var/lib/cassandra/data/system/schema_columnfamilies/system-schema_columnfamilies-ib-1-Data.db (4851 bytes) for commitlog position ReplayPosition(segmentId=1391211998208, position=53730)
 INFO 15:46:40,606 Enqueuing flush of Memtable-schema_columns@626077030(22154/22154 serialized/live bytes, 337 ops)
 INFO 15:46:40,608 Writing Memtable-schema_columns@626077030(22154/22154 serialized/live bytes, 337 ops)
 INFO 15:46:40,639 Completed flushing /var/lib/cassandra/data/system/schema_columns/system-schema_columns-ib-1-Data.db (3901 bytes) for commitlog position ReplayPosition(segmentId=1391211998208, position=53730)
 INFO 15:46:41,191 JOINING: schema complete, ready to bootstrap
 INFO 15:46:41,192 JOINING: getting bootstrap token
 INFO 15:46:41,198 Enqueuing flush of Memtable-local@1658221466(73/73 serialized/live bytes, 4 ops)
 INFO 15:46:41,199 Writing Memtable-local@1658221466(73/73 serialized/live bytes, 4 ops)
 INFO 15:46:41,227 Completed flushing /var/lib/cassandra/data/system/local/system-local-ib-3-Data.db (136 bytes) for commitlog position ReplayPosition(segmentId=1391211998208, position=54028)
 INFO 15:46:41,248 JOINING: sleeping 30000 ms for pending range setup
 INFO 15:47:11,248 JOINING: Starting to bootstrap...
 INFO 15:47:11,388 Finished streaming session 00cf7cd0-8ad2-11e3-86fb-c1b7d013ecd2 from /192.168.56.11
 INFO 15:47:11,390 Bootstrap completed! for the tokens [0]
 INFO 15:47:11,392 Enqueuing flush of Memtable-local@1699593206(43/43 serialized/live bytes, 2 ops)
 INFO 15:47:11,392 Writing Memtable-local@1699593206(43/43 serialized/live bytes, 2 ops)
 INFO 15:47:11,417 Completed flushing /var/lib/cassandra/data/system/local/system-local-ib-4-Data.db (75 bytes) for commitlog position ReplayPosition(segmentId=1391211998208, position=54161)
 INFO 15:47:11,427 Enqueuing flush of Memtable-local@1937755020(32/32 serialized/live bytes, 2 ops)
 INFO 15:47:11,427 Writing Memtable-local@1937755020(32/32 serialized/live bytes, 2 ops)
 INFO 15:47:11,430 Compacting [SSTableReader(path='/var/lib/cassandra/data/system/local/system-local-ib-2-Data.db'), SSTableReader(path='/var/lib/cassandra/data/system/local/system-local-ib-1-Data.db'), SSTableReader(path='/var/lib/cassandra/data/system/local/system-local-ib-4-Data.db'), SSTableReader(path='/var/lib/cassandra/data/system/local/system-local-ib-3-Data.db')]
 INFO 15:47:11,444 Completed flushing /var/lib/cassandra/data/system/local/system-local-ib-5-Data.db (90 bytes) for commitlog position ReplayPosition(segmentId=1391211998208, position=54317)
 INFO 15:47:11,456 Node /192.168.56.12 state jump to normal
 INFO 15:47:11,461 Startup completed! Now serving reads.
 INFO 15:47:11,527 Compacted 4 sstables to [/var/lib/cassandra/data/system/local/system-local-ib-6,].  687 bytes to 411 (~59% of original) in 95ms = 0.004126MB/s.  4 total rows, 1 unique.  Row merge counts were {1:0, 2:0, 3:0, 4:1, }
