xss =  -ea -javaagent:/home/mininet/apache-cassandra-1.2.4/bin/../lib/jamm-0.2.5.jar -XX:+UseThreadPriorities -XX:ThreadPriorityPolicy=42 -Xms1001M -Xmx1001M -Xmn100M -XX:+HeapDumpOnOutOfMemoryError -Xss228k
 INFO 16:14:45,872 Logging initialized
 INFO 16:14:45,884 JVM vendor/version: OpenJDK 64-Bit Server VM/1.7.0_51
 WARN 16:14:45,884 OpenJDK is not recommended. Please upgrade to the newest Oracle Java release
 INFO 16:14:45,885 Heap size: 1039138816/1040187392
 INFO 16:14:45,885 Classpath: /home/mininet/apache-cassandra-1.2.4/bin/../conf:/home/mininet/apache-cassandra-1.2.4/bin/../build/classes/main:/home/mininet/apache-cassandra-1.2.4/bin/../build/classes/thrift:/home/mininet/apache-cassandra-1.2.4/bin/../lib/antlr-3.2.jar:/home/mininet/apache-cassandra-1.2.4/bin/../lib/apache-cassandra-1.2.4.jar:/home/mininet/apache-cassandra-1.2.4/bin/../lib/apache-cassandra-clientutil-1.2.4.jar:/home/mininet/apache-cassandra-1.2.4/bin/../lib/apache-cassandra-thrift-1.2.4.jar:/home/mininet/apache-cassandra-1.2.4/bin/../lib/avro-1.4.0-fixes.jar:/home/mininet/apache-cassandra-1.2.4/bin/../lib/avro-1.4.0-sources-fixes.jar:/home/mininet/apache-cassandra-1.2.4/bin/../lib/commons-cli-1.1.jar:/home/mininet/apache-cassandra-1.2.4/bin/../lib/commons-codec-1.2.jar:/home/mininet/apache-cassandra-1.2.4/bin/../lib/commons-lang-2.6.jar:/home/mininet/apache-cassandra-1.2.4/bin/../lib/compress-lzf-0.8.4.jar:/home/mininet/apache-cassandra-1.2.4/bin/../lib/concurrentlinkedhashmap-lru-1.3.jar:/home/mininet/apache-cassandra-1.2.4/bin/../lib/guava-13.0.1.jar:/home/mininet/apache-cassandra-1.2.4/bin/../lib/high-scale-lib-1.1.2.jar:/home/mininet/apache-cassandra-1.2.4/bin/../lib/jackson-core-asl-1.9.2.jar:/home/mininet/apache-cassandra-1.2.4/bin/../lib/jackson-mapper-asl-1.9.2.jar:/home/mininet/apache-cassandra-1.2.4/bin/../lib/jamm-0.2.5.jar:/home/mininet/apache-cassandra-1.2.4/bin/../lib/jbcrypt-0.3m.jar:/home/mininet/apache-cassandra-1.2.4/bin/../lib/jline-1.0.jar:/home/mininet/apache-cassandra-1.2.4/bin/../lib/json-simple-1.1.jar:/home/mininet/apache-cassandra-1.2.4/bin/../lib/libthrift-0.7.0.jar:/home/mininet/apache-cassandra-1.2.4/bin/../lib/log4j-1.2.16.jar:/home/mininet/apache-cassandra-1.2.4/bin/../lib/lz4-1.1.0.jar:/home/mininet/apache-cassandra-1.2.4/bin/../lib/metrics-core-2.0.3.jar:/home/mininet/apache-cassandra-1.2.4/bin/../lib/netty-3.5.9.Final.jar:/home/mininet/apache-cassandra-1.2.4/bin/../lib/servlet-api-2.5-20081211.jar:/home/mininet/apache-cassandra-1.2.4/bin/../lib/slf4j-api-1.7.2.jar:/home/mininet/apache-cassandra-1.2.4/bin/../lib/slf4j-log4j12-1.7.2.jar:/home/mininet/apache-cassandra-1.2.4/bin/../lib/snakeyaml-1.6.jar:/home/mininet/apache-cassandra-1.2.4/bin/../lib/snappy-java-1.0.4.1.jar:/home/mininet/apache-cassandra-1.2.4/bin/../lib/snaptree-0.1.jar:/home/mininet/apache-cassandra-1.2.4/bin/../lib/jamm-0.2.5.jar
 INFO 16:14:45,887 JNA not found. Native methods will be disabled.
 INFO 16:14:45,896 Loading settings from file:/home/mininet/apache-cassandra-1.2.4/conf/cassandra.yaml
 INFO 16:14:46,372 Data files directories: [/var/lib/cassandra/data]
 INFO 16:14:46,373 Commit log directory: /var/lib/cassandra/commitlog
 INFO 16:14:46,373 DiskAccessMode 'auto' determined to be mmap, indexAccessMode is mmap
 INFO 16:14:46,374 disk_failure_policy is stop
 INFO 16:14:46,382 Global memtable threshold is enabled at 330MB
 INFO 16:14:46,524 Not using multi-threaded compaction
 INFO 16:14:47,200 Initializing key cache with capacity of 49 MBs.
 INFO 16:14:47,209 Scheduling key cache save to each 14400 seconds (going to save all keys).
 INFO 16:14:47,209 Initializing row cache with capacity of 0 MBs and provider org.apache.cassandra.cache.SerializingCacheProvider
 INFO 16:14:47,218 Scheduling row cache save to each 0 seconds (going to save all keys).
 INFO 16:14:47,603 Couldn't detect any schema definitions in local storage.
 INFO 16:14:47,604 To create keyspaces and column families, see 'help create keyspace' in the CLI, or set up a schema using the thrift system_* calls.
 INFO 16:14:47,677 No commitlog files found; skipping replay
 INFO 16:14:48,047 Cassandra version: 1.2.4
 INFO 16:14:48,059 Thrift API version: 19.35.0
 INFO 16:14:48,064 CQL supported versions: 2.0.0,3.0.1 (default: 3.0.1)
 INFO 16:14:48,097 Loading persisted ring state
 INFO 16:14:48,100 Starting up server gossip
 WARN 16:14:48,104 No host ID found, created 551ced11-0034-4921-a15c-a7b9cd5b9c2c (Note: This should happen exactly once per node).
 INFO 16:14:48,115 Enqueuing flush of Memtable-local@1156511567(361/361 serialized/live bytes, 15 ops)
 INFO 16:14:48,125 Writing Memtable-local@1156511567(361/361 serialized/live bytes, 15 ops)
 INFO 16:14:48,189 Completed flushing /var/lib/cassandra/data/system/local/system-local-ib-1-Data.db (350 bytes) for commitlog position ReplayPosition(segmentId=1391213687581, position=50656)
 INFO 16:14:48,346 Starting Messaging Service on port 7000
 INFO 16:14:48,427 Enqueuing flush of Memtable-local@1622940842(86/86 serialized/live bytes, 4 ops)
 INFO 16:14:48,432 Writing Memtable-local@1622940842(86/86 serialized/live bytes, 4 ops)
 INFO 16:14:48,454 Completed flushing /var/lib/cassandra/data/system/local/system-local-ib-2-Data.db (122 bytes) for commitlog position ReplayPosition(segmentId=1391213687581, position=50933)
 INFO 16:14:48,456 JOINING: waiting for ring information
 INFO 16:14:49,719 Node /192.168.56.11 is now part of the cluster
 INFO 16:14:49,721 InetAddress /192.168.56.11 is now UP
 INFO 16:14:49,745 Enqueuing flush of Memtable-peers@63447224(182/182 serialized/live bytes, 10 ops)
 INFO 16:14:49,745 Writing Memtable-peers@63447224(182/182 serialized/live bytes, 10 ops)
 INFO 16:14:49,767 Completed flushing /var/lib/cassandra/data/system/peers/system-peers-ib-1-Data.db (234 bytes) for commitlog position ReplayPosition(segmentId=1391213687581, position=51638)
 INFO 16:14:49,799 Enqueuing flush of Memtable-schema_keyspaces@822241569(389/389 serialized/live bytes, 11 ops)
 INFO 16:14:49,800 Writing Memtable-schema_keyspaces@822241569(389/389 serialized/live bytes, 11 ops)
 INFO 16:14:49,819 Completed flushing /var/lib/cassandra/data/system/schema_keyspaces/system-schema_keyspaces-ib-1-Data.db (264 bytes) for commitlog position ReplayPosition(segmentId=1391213687581, position=53730)
 INFO 16:14:49,821 Enqueuing flush of Memtable-schema_columnfamilies@432884427(23066/23066 serialized/live bytes, 379 ops)
 INFO 16:14:49,822 Writing Memtable-schema_columnfamilies@432884427(23066/23066 serialized/live bytes, 379 ops)
 INFO 16:14:49,853 Completed flushing /var/lib/cassandra/data/system/schema_columnfamilies/system-schema_columnfamilies-ib-1-Data.db (4847 bytes) for commitlog position ReplayPosition(segmentId=1391213687581, position=53730)
 INFO 16:14:49,856 Enqueuing flush of Memtable-schema_columns@626077030(22154/22154 serialized/live bytes, 337 ops)
 INFO 16:14:49,857 Writing Memtable-schema_columns@626077030(22154/22154 serialized/live bytes, 337 ops)
 INFO 16:14:49,887 Completed flushing /var/lib/cassandra/data/system/schema_columns/system-schema_columns-ib-1-Data.db (3901 bytes) for commitlog position ReplayPosition(segmentId=1391213687581, position=53730)
 INFO 16:14:50,457 JOINING: schema complete, ready to bootstrap
 INFO 16:14:50,458 JOINING: getting bootstrap token
 INFO 16:14:50,464 Enqueuing flush of Memtable-local@1658221466(73/73 serialized/live bytes, 4 ops)
 INFO 16:14:50,465 Writing Memtable-local@1658221466(73/73 serialized/live bytes, 4 ops)
 INFO 16:14:50,492 Completed flushing /var/lib/cassandra/data/system/local/system-local-ib-3-Data.db (137 bytes) for commitlog position ReplayPosition(segmentId=1391213687581, position=54028)
 INFO 16:14:50,511 JOINING: sleeping 30000 ms for pending range setup
 INFO 16:15:20,514 JOINING: Starting to bootstrap...
 INFO 16:15:20,614 Finished streaming session efb34fe0-8ad5-11e3-92d9-c1b7d013ecd2 from /192.168.56.11
 INFO 16:15:20,620 Bootstrap completed! for the tokens [0]
 INFO 16:15:20,623 Enqueuing flush of Memtable-local@1699593206(43/43 serialized/live bytes, 2 ops)
 INFO 16:15:20,624 Writing Memtable-local@1699593206(43/43 serialized/live bytes, 2 ops)
 INFO 16:15:20,653 Completed flushing /var/lib/cassandra/data/system/local/system-local-ib-4-Data.db (75 bytes) for commitlog position ReplayPosition(segmentId=1391213687581, position=54161)
 INFO 16:15:20,668 Enqueuing flush of Memtable-local@1560325680(32/32 serialized/live bytes, 2 ops)
 INFO 16:15:20,670 Writing Memtable-local@1560325680(32/32 serialized/live bytes, 2 ops)
 INFO 16:15:20,670 Compacting [SSTableReader(path='/var/lib/cassandra/data/system/local/system-local-ib-2-Data.db'), SSTableReader(path='/var/lib/cassandra/data/system/local/system-local-ib-1-Data.db'), SSTableReader(path='/var/lib/cassandra/data/system/local/system-local-ib-4-Data.db'), SSTableReader(path='/var/lib/cassandra/data/system/local/system-local-ib-3-Data.db')]
 INFO 16:15:20,703 Completed flushing /var/lib/cassandra/data/system/local/system-local-ib-5-Data.db (90 bytes) for commitlog position ReplayPosition(segmentId=1391213687581, position=54317)
 INFO 16:15:20,728 Node /192.168.56.12 state jump to normal
 INFO 16:15:20,730 Startup completed! Now serving reads.
 INFO 16:15:20,822 Compacted 4 sstables to [/var/lib/cassandra/data/system/local/system-local-ib-6,].  684 bytes to 409 (~59% of original) in 143ms = 0.002728MB/s.  4 total rows, 1 unique.  Row merge counts were {1:0, 2:0, 3:0, 4:1, }
