xss =  -ea -javaagent:/home/mininet/apache-cassandra-1.2.4/bin/../lib/jamm-0.2.5.jar -XX:+UseThreadPriorities -XX:ThreadPriorityPolicy=42 -Xms1001M -Xmx1001M -Xmn100M -XX:+HeapDumpOnOutOfMemoryError -Xss228k
 INFO 16:34:17,726 Logging initialized
 INFO 16:34:17,738 JVM vendor/version: OpenJDK 64-Bit Server VM/1.7.0_51
 WARN 16:34:17,739 OpenJDK is not recommended. Please upgrade to the newest Oracle Java release
 INFO 16:34:17,739 Heap size: 1039138816/1040187392
 INFO 16:34:17,739 Classpath: /home/mininet/apache-cassandra-1.2.4/bin/../conf:/home/mininet/apache-cassandra-1.2.4/bin/../build/classes/main:/home/mininet/apache-cassandra-1.2.4/bin/../build/classes/thrift:/home/mininet/apache-cassandra-1.2.4/bin/../lib/antlr-3.2.jar:/home/mininet/apache-cassandra-1.2.4/bin/../lib/apache-cassandra-1.2.4.jar:/home/mininet/apache-cassandra-1.2.4/bin/../lib/apache-cassandra-clientutil-1.2.4.jar:/home/mininet/apache-cassandra-1.2.4/bin/../lib/apache-cassandra-thrift-1.2.4.jar:/home/mininet/apache-cassandra-1.2.4/bin/../lib/avro-1.4.0-fixes.jar:/home/mininet/apache-cassandra-1.2.4/bin/../lib/avro-1.4.0-sources-fixes.jar:/home/mininet/apache-cassandra-1.2.4/bin/../lib/commons-cli-1.1.jar:/home/mininet/apache-cassandra-1.2.4/bin/../lib/commons-codec-1.2.jar:/home/mininet/apache-cassandra-1.2.4/bin/../lib/commons-lang-2.6.jar:/home/mininet/apache-cassandra-1.2.4/bin/../lib/compress-lzf-0.8.4.jar:/home/mininet/apache-cassandra-1.2.4/bin/../lib/concurrentlinkedhashmap-lru-1.3.jar:/home/mininet/apache-cassandra-1.2.4/bin/../lib/guava-13.0.1.jar:/home/mininet/apache-cassandra-1.2.4/bin/../lib/high-scale-lib-1.1.2.jar:/home/mininet/apache-cassandra-1.2.4/bin/../lib/jackson-core-asl-1.9.2.jar:/home/mininet/apache-cassandra-1.2.4/bin/../lib/jackson-mapper-asl-1.9.2.jar:/home/mininet/apache-cassandra-1.2.4/bin/../lib/jamm-0.2.5.jar:/home/mininet/apache-cassandra-1.2.4/bin/../lib/jbcrypt-0.3m.jar:/home/mininet/apache-cassandra-1.2.4/bin/../lib/jline-1.0.jar:/home/mininet/apache-cassandra-1.2.4/bin/../lib/json-simple-1.1.jar:/home/mininet/apache-cassandra-1.2.4/bin/../lib/libthrift-0.7.0.jar:/home/mininet/apache-cassandra-1.2.4/bin/../lib/log4j-1.2.16.jar:/home/mininet/apache-cassandra-1.2.4/bin/../lib/lz4-1.1.0.jar:/home/mininet/apache-cassandra-1.2.4/bin/../lib/metrics-core-2.0.3.jar:/home/mininet/apache-cassandra-1.2.4/bin/../lib/netty-3.5.9.Final.jar:/home/mininet/apache-cassandra-1.2.4/bin/../lib/servlet-api-2.5-20081211.jar:/home/mininet/apache-cassandra-1.2.4/bin/../lib/slf4j-api-1.7.2.jar:/home/mininet/apache-cassandra-1.2.4/bin/../lib/slf4j-log4j12-1.7.2.jar:/home/mininet/apache-cassandra-1.2.4/bin/../lib/snakeyaml-1.6.jar:/home/mininet/apache-cassandra-1.2.4/bin/../lib/snappy-java-1.0.4.1.jar:/home/mininet/apache-cassandra-1.2.4/bin/../lib/snaptree-0.1.jar:/home/mininet/apache-cassandra-1.2.4/bin/../lib/jamm-0.2.5.jar
 INFO 16:34:17,741 JNA not found. Native methods will be disabled.
 INFO 16:34:17,751 Loading settings from file:/home/mininet/apache-cassandra-1.2.4/conf/cassandra.yaml
 INFO 16:34:18,420 Data files directories: [/var/lib/cassandra/data]
 INFO 16:34:18,420 Commit log directory: /var/lib/cassandra/commitlog
 INFO 16:34:18,421 DiskAccessMode 'auto' determined to be mmap, indexAccessMode is mmap
 INFO 16:34:18,421 disk_failure_policy is stop
 INFO 16:34:18,430 Global memtable threshold is enabled at 330MB
 INFO 16:34:18,540 Not using multi-threaded compaction
 INFO 16:34:19,042 Initializing key cache with capacity of 49 MBs.
 INFO 16:34:19,056 Scheduling key cache save to each 14400 seconds (going to save all keys).
 INFO 16:34:19,057 Initializing row cache with capacity of 0 MBs and provider org.apache.cassandra.cache.SerializingCacheProvider
 INFO 16:34:19,065 Scheduling row cache save to each 0 seconds (going to save all keys).
 INFO 16:34:19,447 Couldn't detect any schema definitions in local storage.
 INFO 16:34:19,449 To create keyspaces and column families, see 'help create keyspace' in the CLI, or set up a schema using the thrift system_* calls.
 INFO 16:34:19,525 No commitlog files found; skipping replay
 INFO 16:34:20,055 Cassandra version: 1.2.4
 INFO 16:34:20,057 Thrift API version: 19.35.0
 INFO 16:34:20,063 CQL supported versions: 2.0.0,3.0.1 (default: 3.0.1)
 INFO 16:34:20,122 Loading persisted ring state
 INFO 16:34:20,130 Starting up server gossip
 WARN 16:34:20,140 No host ID found, created 9538a739-b4b3-4b5c-88f2-e4932c080e22 (Note: This should happen exactly once per node).
 INFO 16:34:20,160 Enqueuing flush of Memtable-local@1156511567(361/361 serialized/live bytes, 15 ops)
 INFO 16:34:20,173 Writing Memtable-local@1156511567(361/361 serialized/live bytes, 15 ops)
 INFO 16:34:20,222 Completed flushing /var/lib/cassandra/data/system/local/system-local-ib-1-Data.db (350 bytes) for commitlog position ReplayPosition(segmentId=1391214859423, position=50656)
 INFO 16:34:20,303 Starting Messaging Service on port 7000
 INFO 16:34:20,395 Enqueuing flush of Memtable-local@1622940842(86/86 serialized/live bytes, 4 ops)
 INFO 16:34:20,396 Writing Memtable-local@1622940842(86/86 serialized/live bytes, 4 ops)
 INFO 16:34:20,408 Completed flushing /var/lib/cassandra/data/system/local/system-local-ib-2-Data.db (122 bytes) for commitlog position ReplayPosition(segmentId=1391214859423, position=50933)
 INFO 16:34:20,409 JOINING: waiting for ring information
 INFO 16:34:21,617 Node /192.168.56.11 is now part of the cluster
 INFO 16:34:21,632 InetAddress /192.168.56.11 is now UP
 INFO 16:34:21,679 Enqueuing flush of Memtable-peers@1205604856(182/182 serialized/live bytes, 10 ops)
 INFO 16:34:21,684 Writing Memtable-peers@1205604856(182/182 serialized/live bytes, 10 ops)
 INFO 16:34:21,703 Completed flushing /var/lib/cassandra/data/system/peers/system-peers-ib-1-Data.db (233 bytes) for commitlog position ReplayPosition(segmentId=1391214859423, position=51638)
 INFO 16:34:21,734 Enqueuing flush of Memtable-schema_keyspaces@822241569(389/389 serialized/live bytes, 11 ops)
 INFO 16:34:21,740 Writing Memtable-schema_keyspaces@822241569(389/389 serialized/live bytes, 11 ops)
 INFO 16:34:21,758 Completed flushing /var/lib/cassandra/data/system/schema_keyspaces/system-schema_keyspaces-ib-1-Data.db (264 bytes) for commitlog position ReplayPosition(segmentId=1391214859423, position=53730)
 INFO 16:34:21,762 Enqueuing flush of Memtable-schema_columnfamilies@432884427(23066/23066 serialized/live bytes, 379 ops)
 INFO 16:34:21,762 Writing Memtable-schema_columnfamilies@432884427(23066/23066 serialized/live bytes, 379 ops)
 INFO 16:34:21,801 Completed flushing /var/lib/cassandra/data/system/schema_columnfamilies/system-schema_columnfamilies-ib-1-Data.db (4847 bytes) for commitlog position ReplayPosition(segmentId=1391214859423, position=53730)
 INFO 16:34:21,802 Enqueuing flush of Memtable-schema_columns@626077030(22154/22154 serialized/live bytes, 337 ops)
 INFO 16:34:21,802 Writing Memtable-schema_columns@626077030(22154/22154 serialized/live bytes, 337 ops)
 INFO 16:34:21,844 Completed flushing /var/lib/cassandra/data/system/schema_columns/system-schema_columns-ib-1-Data.db (3898 bytes) for commitlog position ReplayPosition(segmentId=1391214859423, position=53730)
 INFO 16:34:22,410 JOINING: schema complete, ready to bootstrap
 INFO 16:34:22,411 JOINING: getting bootstrap token
 INFO 16:34:22,417 Enqueuing flush of Memtable-local@1658221466(73/73 serialized/live bytes, 4 ops)
 INFO 16:34:22,418 Writing Memtable-local@1658221466(73/73 serialized/live bytes, 4 ops)
 INFO 16:34:22,454 Completed flushing /var/lib/cassandra/data/system/local/system-local-ib-3-Data.db (136 bytes) for commitlog position ReplayPosition(segmentId=1391214859423, position=54028)
 INFO 16:34:22,475 JOINING: sleeping 30000 ms for pending range setup
 INFO 16:34:52,477 JOINING: Starting to bootstrap...
 INFO 16:34:52,589 Finished streaming session aa3cd7d0-8ad8-11e3-8dee-c1b7d013ecd2 from /192.168.56.11
 INFO 16:34:52,590 Bootstrap completed! for the tokens [0]
 INFO 16:34:52,592 Enqueuing flush of Memtable-local@1699593206(43/43 serialized/live bytes, 2 ops)
 INFO 16:34:52,593 Writing Memtable-local@1699593206(43/43 serialized/live bytes, 2 ops)
 INFO 16:34:52,615 Completed flushing /var/lib/cassandra/data/system/local/system-local-ib-4-Data.db (75 bytes) for commitlog position ReplayPosition(segmentId=1391214859423, position=54161)
 INFO 16:34:52,625 Enqueuing flush of Memtable-local@2108865544(32/32 serialized/live bytes, 2 ops)
 INFO 16:34:52,628 Writing Memtable-local@2108865544(32/32 serialized/live bytes, 2 ops)
 INFO 16:34:52,630 Compacting [SSTableReader(path='/var/lib/cassandra/data/system/local/system-local-ib-2-Data.db'), SSTableReader(path='/var/lib/cassandra/data/system/local/system-local-ib-1-Data.db'), SSTableReader(path='/var/lib/cassandra/data/system/local/system-local-ib-4-Data.db'), SSTableReader(path='/var/lib/cassandra/data/system/local/system-local-ib-3-Data.db')]
 INFO 16:34:52,646 Completed flushing /var/lib/cassandra/data/system/local/system-local-ib-5-Data.db (91 bytes) for commitlog position ReplayPosition(segmentId=1391214859423, position=54317)
 INFO 16:34:52,658 Node /192.168.56.12 state jump to normal
 INFO 16:34:52,661 Startup completed! Now serving reads.
 INFO 16:34:52,698 Compacted 4 sstables to [/var/lib/cassandra/data/system/local/system-local-ib-6,].  683 bytes to 409 (~59% of original) in 66ms = 0.005910MB/s.  4 total rows, 1 unique.  Row merge counts were {1:0, 2:0, 3:0, 4:1, }
