xss =  -ea -javaagent:/home/mininet/apache-cassandra-1.2.4/bin/../lib/jamm-0.2.5.jar -XX:+UseThreadPriorities -XX:ThreadPriorityPolicy=42 -Xms1001M -Xmx1001M -Xmn100M -XX:+HeapDumpOnOutOfMemoryError -Xss228k
 INFO 15:35:47,520 Logging initialized
 INFO 15:35:47,533 JVM vendor/version: OpenJDK 64-Bit Server VM/1.7.0_51
 WARN 15:35:47,533 OpenJDK is not recommended. Please upgrade to the newest Oracle Java release
 INFO 15:35:47,534 Heap size: 1039138816/1040187392
 INFO 15:35:47,534 Classpath: /home/mininet/apache-cassandra-1.2.4/bin/../conf:/home/mininet/apache-cassandra-1.2.4/bin/../build/classes/main:/home/mininet/apache-cassandra-1.2.4/bin/../build/classes/thrift:/home/mininet/apache-cassandra-1.2.4/bin/../lib/antlr-3.2.jar:/home/mininet/apache-cassandra-1.2.4/bin/../lib/apache-cassandra-1.2.4.jar:/home/mininet/apache-cassandra-1.2.4/bin/../lib/apache-cassandra-clientutil-1.2.4.jar:/home/mininet/apache-cassandra-1.2.4/bin/../lib/apache-cassandra-thrift-1.2.4.jar:/home/mininet/apache-cassandra-1.2.4/bin/../lib/avro-1.4.0-fixes.jar:/home/mininet/apache-cassandra-1.2.4/bin/../lib/avro-1.4.0-sources-fixes.jar:/home/mininet/apache-cassandra-1.2.4/bin/../lib/commons-cli-1.1.jar:/home/mininet/apache-cassandra-1.2.4/bin/../lib/commons-codec-1.2.jar:/home/mininet/apache-cassandra-1.2.4/bin/../lib/commons-lang-2.6.jar:/home/mininet/apache-cassandra-1.2.4/bin/../lib/compress-lzf-0.8.4.jar:/home/mininet/apache-cassandra-1.2.4/bin/../lib/concurrentlinkedhashmap-lru-1.3.jar:/home/mininet/apache-cassandra-1.2.4/bin/../lib/guava-13.0.1.jar:/home/mininet/apache-cassandra-1.2.4/bin/../lib/high-scale-lib-1.1.2.jar:/home/mininet/apache-cassandra-1.2.4/bin/../lib/jackson-core-asl-1.9.2.jar:/home/mininet/apache-cassandra-1.2.4/bin/../lib/jackson-mapper-asl-1.9.2.jar:/home/mininet/apache-cassandra-1.2.4/bin/../lib/jamm-0.2.5.jar:/home/mininet/apache-cassandra-1.2.4/bin/../lib/jbcrypt-0.3m.jar:/home/mininet/apache-cassandra-1.2.4/bin/../lib/jline-1.0.jar:/home/mininet/apache-cassandra-1.2.4/bin/../lib/json-simple-1.1.jar:/home/mininet/apache-cassandra-1.2.4/bin/../lib/libthrift-0.7.0.jar:/home/mininet/apache-cassandra-1.2.4/bin/../lib/log4j-1.2.16.jar:/home/mininet/apache-cassandra-1.2.4/bin/../lib/lz4-1.1.0.jar:/home/mininet/apache-cassandra-1.2.4/bin/../lib/metrics-core-2.0.3.jar:/home/mininet/apache-cassandra-1.2.4/bin/../lib/netty-3.5.9.Final.jar:/home/mininet/apache-cassandra-1.2.4/bin/../lib/servlet-api-2.5-20081211.jar:/home/mininet/apache-cassandra-1.2.4/bin/../lib/slf4j-api-1.7.2.jar:/home/mininet/apache-cassandra-1.2.4/bin/../lib/slf4j-log4j12-1.7.2.jar:/home/mininet/apache-cassandra-1.2.4/bin/../lib/snakeyaml-1.6.jar:/home/mininet/apache-cassandra-1.2.4/bin/../lib/snappy-java-1.0.4.1.jar:/home/mininet/apache-cassandra-1.2.4/bin/../lib/snaptree-0.1.jar:/home/mininet/apache-cassandra-1.2.4/bin/../lib/jamm-0.2.5.jar
 INFO 15:35:47,536 JNA not found. Native methods will be disabled.
 INFO 15:35:47,546 Loading settings from file:/home/mininet/apache-cassandra-1.2.4/conf/cassandra.yaml
 INFO 15:35:48,250 Data files directories: [/var/lib/cassandra/data]
 INFO 15:35:48,250 Commit log directory: /var/lib/cassandra/commitlog
 INFO 15:35:48,251 DiskAccessMode 'auto' determined to be mmap, indexAccessMode is mmap
 INFO 15:35:48,251 disk_failure_policy is stop
 INFO 15:35:48,260 Global memtable threshold is enabled at 330MB
 INFO 15:35:48,372 Not using multi-threaded compaction
 INFO 15:35:48,828 Initializing key cache with capacity of 49 MBs.
 INFO 15:35:48,835 Scheduling key cache save to each 14400 seconds (going to save all keys).
 INFO 15:35:48,836 Initializing row cache with capacity of 0 MBs and provider org.apache.cassandra.cache.SerializingCacheProvider
 INFO 15:35:48,845 Scheduling row cache save to each 0 seconds (going to save all keys).
 INFO 15:35:49,224 Couldn't detect any schema definitions in local storage.
 INFO 15:35:49,225 To create keyspaces and column families, see 'help create keyspace' in the CLI, or set up a schema using the thrift system_* calls.
 INFO 15:35:49,301 No commitlog files found; skipping replay
 INFO 15:35:49,884 Cassandra version: 1.2.4
 INFO 15:35:49,885 Thrift API version: 19.35.0
 INFO 15:35:49,892 CQL supported versions: 2.0.0,3.0.1 (default: 3.0.1)
 INFO 15:35:49,947 Loading persisted ring state
 INFO 15:35:49,949 Starting up server gossip
 WARN 15:35:49,954 No host ID found, created 73364123-f5b2-4f8b-b396-04c999b40210 (Note: This should happen exactly once per node).
 INFO 15:35:49,965 Enqueuing flush of Memtable-local@1156511567(361/361 serialized/live bytes, 15 ops)
 INFO 15:35:49,974 Writing Memtable-local@1156511567(361/361 serialized/live bytes, 15 ops)
 INFO 15:35:50,023 Completed flushing /var/lib/cassandra/data/system/local/system-local-ib-1-Data.db (350 bytes) for commitlog position ReplayPosition(segmentId=1391211349199, position=50656)
 INFO 15:35:50,100 Starting Messaging Service on port 7000
 INFO 15:35:50,153 Enqueuing flush of Memtable-local@1622940842(86/86 serialized/live bytes, 4 ops)
 INFO 15:35:50,153 Writing Memtable-local@1622940842(86/86 serialized/live bytes, 4 ops)
 INFO 15:35:50,173 Completed flushing /var/lib/cassandra/data/system/local/system-local-ib-2-Data.db (122 bytes) for commitlog position ReplayPosition(segmentId=1391211349199, position=50933)
 INFO 15:35:50,175 JOINING: waiting for ring information
 INFO 15:35:51,352 Node /192.168.56.11 is now part of the cluster
 INFO 15:35:51,360 InetAddress /192.168.56.11 is now UP
 INFO 15:35:51,404 Enqueuing flush of Memtable-peers@63447224(182/182 serialized/live bytes, 10 ops)
 INFO 15:35:51,407 Writing Memtable-peers@63447224(182/182 serialized/live bytes, 10 ops)
 INFO 15:35:51,434 Completed flushing /var/lib/cassandra/data/system/peers/system-peers-ib-1-Data.db (233 bytes) for commitlog position ReplayPosition(segmentId=1391211349199, position=51638)
 INFO 15:35:51,466 Enqueuing flush of Memtable-schema_keyspaces@822241569(389/389 serialized/live bytes, 11 ops)
 INFO 15:35:51,467 Writing Memtable-schema_keyspaces@822241569(389/389 serialized/live bytes, 11 ops)
 INFO 15:35:51,487 Completed flushing /var/lib/cassandra/data/system/schema_keyspaces/system-schema_keyspaces-ib-1-Data.db (260 bytes) for commitlog position ReplayPosition(segmentId=1391211349199, position=53730)
 INFO 15:35:51,488 Enqueuing flush of Memtable-schema_columnfamilies@432884427(23066/23066 serialized/live bytes, 379 ops)
 INFO 15:35:51,491 Writing Memtable-schema_columnfamilies@432884427(23066/23066 serialized/live bytes, 379 ops)
 INFO 15:35:51,532 Completed flushing /var/lib/cassandra/data/system/schema_columnfamilies/system-schema_columnfamilies-ib-1-Data.db (4849 bytes) for commitlog position ReplayPosition(segmentId=1391211349199, position=53730)
 INFO 15:35:51,536 Enqueuing flush of Memtable-schema_columns@626077030(22154/22154 serialized/live bytes, 337 ops)
 INFO 15:35:51,539 Writing Memtable-schema_columns@626077030(22154/22154 serialized/live bytes, 337 ops)
 INFO 15:35:51,570 Completed flushing /var/lib/cassandra/data/system/schema_columns/system-schema_columns-ib-1-Data.db (3896 bytes) for commitlog position ReplayPosition(segmentId=1391211349199, position=53730)
 INFO 15:35:52,178 JOINING: schema complete, ready to bootstrap
 INFO 15:35:52,179 JOINING: getting bootstrap token
 INFO 15:35:52,184 Enqueuing flush of Memtable-local@1658221466(73/73 serialized/live bytes, 4 ops)
 INFO 15:35:52,184 Writing Memtable-local@1658221466(73/73 serialized/live bytes, 4 ops)
 INFO 15:35:52,202 Completed flushing /var/lib/cassandra/data/system/local/system-local-ib-3-Data.db (136 bytes) for commitlog position ReplayPosition(segmentId=1391211349199, position=54028)
 INFO 15:35:52,219 JOINING: sleeping 30000 ms for pending range setup
 INFO 15:36:22,220 JOINING: Starting to bootstrap...
 INFO 15:36:22,303 Finished streaming session 7df5d3a0-8ad0-11e3-8914-c1b7d013ecd2 from /192.168.56.11
 INFO 15:36:22,304 Bootstrap completed! for the tokens [0]
 INFO 15:36:22,306 Enqueuing flush of Memtable-local@1699593206(43/43 serialized/live bytes, 2 ops)
 INFO 15:36:22,306 Writing Memtable-local@1699593206(43/43 serialized/live bytes, 2 ops)
 INFO 15:36:22,346 Completed flushing /var/lib/cassandra/data/system/local/system-local-ib-4-Data.db (75 bytes) for commitlog position ReplayPosition(segmentId=1391211349199, position=54161)
 INFO 15:36:22,354 Enqueuing flush of Memtable-local@260808008(32/32 serialized/live bytes, 2 ops)
 INFO 15:36:22,356 Writing Memtable-local@260808008(32/32 serialized/live bytes, 2 ops)
 INFO 15:36:22,361 Compacting [SSTableReader(path='/var/lib/cassandra/data/system/local/system-local-ib-2-Data.db'), SSTableReader(path='/var/lib/cassandra/data/system/local/system-local-ib-1-Data.db'), SSTableReader(path='/var/lib/cassandra/data/system/local/system-local-ib-4-Data.db'), SSTableReader(path='/var/lib/cassandra/data/system/local/system-local-ib-3-Data.db')]
 INFO 15:36:22,385 Completed flushing /var/lib/cassandra/data/system/local/system-local-ib-5-Data.db (92 bytes) for commitlog position ReplayPosition(segmentId=1391211349199, position=54317)
 INFO 15:36:22,397 Node /192.168.56.12 state jump to normal
 INFO 15:36:22,400 Startup completed! Now serving reads.
 INFO 15:36:22,414 Compacted 4 sstables to [/var/lib/cassandra/data/system/local/system-local-ib-6,].  683 bytes to 409 (~59% of original) in 52ms = 0.007501MB/s.  4 total rows, 1 unique.  Row merge counts were {1:0, 2:0, 3:0, 4:1, }
