{
  "_iteration": 75,
  "_runtime_stats_path": "experiments/trigger_memory_leak3_mcs/intermcs_38_/runtime_stats.json",
  "ambiguous_counts": {},
  "ambiguous_events": {},
  "buffered_message_receipts": {
    "10": [
      "PendingReceive(dpid=1, controller_id='c1', fingerprint=OFFingerprint{'class': 'ofp_hello'})",
      "PendingReceive(dpid=2, controller_id='c1', fingerprint=OFFingerprint{'class': 'ofp_hello'})"
    ],
    "11": [
      "PendingReceive(dpid=1, controller_id='c1', fingerprint=OFFingerprint{'class': 'ofp_hello'})",
      "PendingReceive(dpid=2, controller_id='c1', fingerprint=OFFingerprint{'class': 'ofp_hello'})"
    ],
    "12": [
      "PendingReceive(dpid=1, controller_id='c1', fingerprint=OFFingerprint{'class': 'ofp_hello'})",
      "PendingReceive(dpid=2, controller_id='c1', fingerprint=OFFingerprint{'class': 'ofp_hello'})"
    ],
    "13": [
      "PendingReceive(dpid=1, controller_id='c1', fingerprint=OFFingerprint{'class': 'ofp_hello'})",
      "PendingReceive(dpid=2, controller_id='c1', fingerprint=OFFingerprint{'class': 'ofp_hello'})"
    ],
    "14": [
      "PendingReceive(dpid=1, controller_id='c1', fingerprint=OFFingerprint{'class': 'ofp_hello'})",
      "PendingReceive(dpid=2, controller_id='c1', fingerprint=OFFingerprint{'class': 'ofp_hello'})"
    ],
    "15": [
      "PendingReceive(dpid=1, controller_id='c1', fingerprint=OFFingerprint{'class': 'ofp_hello'})",
      "PendingReceive(dpid=2, controller_id='c1', fingerprint=OFFingerprint{'class': 'ofp_hello'})"
    ],
    "16": [
      "PendingReceive(dpid=1, controller_id='c1', fingerprint=OFFingerprint{'class': 'ofp_hello'})",
      "PendingReceive(dpid=2, controller_id='c1', fingerprint=OFFingerprint{'class': 'ofp_hello'})"
    ],
    "17": [
      "PendingReceive(dpid=1, controller_id='c1', fingerprint=OFFingerprint{'class': 'ofp_hello'})",
      "PendingReceive(dpid=2, controller_id='c1', fingerprint=OFFingerprint{'class': 'ofp_hello'})"
    ],
    "18": [
      "PendingReceive(dpid=1, controller_id='c1', fingerprint=OFFingerprint{'class': 'ofp_hello'})",
      "PendingReceive(dpid=2, controller_id='c1', fingerprint=OFFingerprint{'class': 'ofp_hello'})"
    ],
    "19": [
      "PendingReceive(dpid=1, controller_id='c1', fingerprint=OFFingerprint{'class': 'ofp_hello'})",
      "PendingReceive(dpid=2, controller_id='c1', fingerprint=OFFingerprint{'class': 'ofp_hello'})"
    ],
    "2": [],
    "20": [
      "PendingReceive(dpid=1, controller_id='c1', fingerprint=OFFingerprint{'class': 'ofp_hello'})",
      "PendingReceive(dpid=2, controller_id='c1', fingerprint=OFFingerprint{'class': 'ofp_hello'})"
    ],
    "21": [],
    "22": [
      "PendingReceive(dpid=1, controller_id='c1', fingerprint=OFFingerprint{'class': 'ofp_hello'})",
      "PendingReceive(dpid=2, controller_id='c1', fingerprint=OFFingerprint{'class': 'ofp_hello'})"
    ],
    "23": [],
    "24": [
      "PendingReceive(dpid=1, controller_id='c1', fingerprint=OFFingerprint{'class': 'ofp_hello'})",
      "PendingReceive(dpid=2, controller_id='c1', fingerprint=OFFingerprint{'class': 'ofp_hello'})"
    ],
    "25": [
      "PendingReceive(dpid=1, controller_id='c1', fingerprint=OFFingerprint{'class': 'ofp_hello'})",
      "PendingReceive(dpid=2, controller_id='c1', fingerprint=OFFingerprint{'class': 'ofp_hello'})"
    ],
    "26": [
      "PendingReceive(dpid=1, controller_id='c1', fingerprint=OFFingerprint{'class': 'ofp_hello'})",
      "PendingReceive(dpid=2, controller_id='c1', fingerprint=OFFingerprint{'class': 'ofp_hello'})"
    ],
    "27": [
      "PendingReceive(dpid=1, controller_id='c1', fingerprint=OFFingerprint{'class': 'ofp_hello'})",
      "PendingReceive(dpid=2, controller_id='c1', fingerprint=OFFingerprint{'class': 'ofp_hello'})"
    ],
    "28": [
      "PendingReceive(dpid=1, controller_id='c1', fingerprint=OFFingerprint{'class': 'ofp_hello'})",
      "PendingReceive(dpid=2, controller_id='c1', fingerprint=OFFingerprint{'class': 'ofp_hello'})"
    ],
    "29": [
      "PendingReceive(dpid=1, controller_id='c1', fingerprint=OFFingerprint{'class': 'ofp_hello'})",
      "PendingReceive(dpid=2, controller_id='c1', fingerprint=OFFingerprint{'class': 'ofp_hello'})"
    ],
    "3": [
      "PendingReceive(dpid=1, controller_id='c1', fingerprint=OFFingerprint{'class': 'ofp_hello'})",
      "PendingReceive(dpid=2, controller_id='c1', fingerprint=OFFingerprint{'class': 'ofp_hello'})"
    ],
    "30": [
      "PendingReceive(dpid=1, controller_id='c1', fingerprint=OFFingerprint{'class': 'ofp_hello'})",
      "PendingReceive(dpid=2, controller_id='c1', fingerprint=OFFingerprint{'class': 'ofp_hello'})"
    ],
    "31": [
      "PendingReceive(dpid=1, controller_id='c1', fingerprint=OFFingerprint{'class': 'ofp_hello'})",
      "PendingReceive(dpid=2, controller_id='c1', fingerprint=OFFingerprint{'class': 'ofp_hello'})"
    ],
    "32": [
      "PendingReceive(dpid=1, controller_id='c1', fingerprint=OFFingerprint{'class': 'ofp_hello'})",
      "PendingReceive(dpid=2, controller_id='c1', fingerprint=OFFingerprint{'class': 'ofp_hello'})"
    ],
    "33": [
      "PendingReceive(dpid=1, controller_id='c1', fingerprint=OFFingerprint{'class': 'ofp_hello'})",
      "PendingReceive(dpid=2, controller_id='c1', fingerprint=OFFingerprint{'class': 'ofp_hello'})"
    ],
    "34": [
      "PendingReceive(dpid=1, controller_id='c1', fingerprint=OFFingerprint{'class': 'ofp_hello'})",
      "PendingReceive(dpid=2, controller_id='c1', fingerprint=OFFingerprint{'class': 'ofp_hello'})"
    ],
    "35": [],
    "36": [
      "PendingReceive(dpid=1, controller_id='c1', fingerprint=OFFingerprint{'class': 'ofp_hello'})",
      "PendingReceive(dpid=2, controller_id='c1', fingerprint=OFFingerprint{'class': 'ofp_hello'})"
    ],
    "37": [
      "PendingReceive(dpid=1, controller_id='c1', fingerprint=OFFingerprint{'class': 'ofp_hello'})",
      "PendingReceive(dpid=2, controller_id='c1', fingerprint=OFFingerprint{'class': 'ofp_hello'})"
    ],
    "38": [
      "PendingReceive(dpid=1, controller_id='c1', fingerprint=OFFingerprint{'class': 'ofp_hello'})",
      "PendingReceive(dpid=2, controller_id='c1', fingerprint=OFFingerprint{'class': 'ofp_hello'})"
    ],
    "39": [
      "PendingReceive(dpid=1, controller_id='c1', fingerprint=OFFingerprint{'class': 'ofp_hello'})",
      "PendingReceive(dpid=2, controller_id='c1', fingerprint=OFFingerprint{'class': 'ofp_hello'})"
    ],
    "4": [
      "PendingReceive(dpid=1, controller_id='c1', fingerprint=OFFingerprint{'class': 'ofp_hello'})",
      "PendingReceive(dpid=2, controller_id='c1', fingerprint=OFFingerprint{'class': 'ofp_hello'})"
    ],
    "40": [
      "PendingReceive(dpid=1, controller_id='c1', fingerprint=OFFingerprint{'class': 'ofp_hello'})",
      "PendingReceive(dpid=2, controller_id='c1', fingerprint=OFFingerprint{'class': 'ofp_hello'})"
    ],
    "41": [
      "PendingReceive(dpid=1, controller_id='c1', fingerprint=OFFingerprint{'class': 'ofp_hello'})",
      "PendingReceive(dpid=2, controller_id='c1', fingerprint=OFFingerprint{'class': 'ofp_hello'})"
    ],
    "42": [
      "PendingReceive(dpid=1, controller_id='c1', fingerprint=OFFingerprint{'class': 'ofp_hello'})",
      "PendingReceive(dpid=2, controller_id='c1', fingerprint=OFFingerprint{'class': 'ofp_hello'})"
    ],
    "43": [
      "PendingReceive(dpid=1, controller_id='c1', fingerprint=OFFingerprint{'class': 'ofp_hello'})",
      "PendingReceive(dpid=2, controller_id='c1', fingerprint=OFFingerprint{'class': 'ofp_hello'})"
    ],
    "44": [
      "PendingReceive(dpid=1, controller_id='c1', fingerprint=OFFingerprint{'class': 'ofp_hello'})",
      "PendingReceive(dpid=2, controller_id='c1', fingerprint=OFFingerprint{'class': 'ofp_hello'})"
    ],
    "45": [
      "PendingReceive(dpid=1, controller_id='c1', fingerprint=OFFingerprint{'class': 'ofp_hello'})",
      "PendingReceive(dpid=2, controller_id='c1', fingerprint=OFFingerprint{'class': 'ofp_hello'})"
    ],
    "46": [
      "PendingReceive(dpid=1, controller_id='c1', fingerprint=OFFingerprint{'class': 'ofp_hello'})",
      "PendingReceive(dpid=2, controller_id='c1', fingerprint=OFFingerprint{'class': 'ofp_hello'})"
    ],
    "47": [
      "PendingReceive(dpid=1, controller_id='c1', fingerprint=OFFingerprint{'class': 'ofp_hello'})",
      "PendingReceive(dpid=2, controller_id='c1', fingerprint=OFFingerprint{'class': 'ofp_hello'})"
    ],
    "48": [
      "PendingReceive(dpid=1, controller_id='c1', fingerprint=OFFingerprint{'class': 'ofp_hello'})",
      "PendingReceive(dpid=2, controller_id='c1', fingerprint=OFFingerprint{'class': 'ofp_hello'})"
    ],
    "49": [
      "PendingReceive(dpid=1, controller_id='c1', fingerprint=OFFingerprint{'class': 'ofp_hello'})",
      "PendingReceive(dpid=2, controller_id='c1', fingerprint=OFFingerprint{'class': 'ofp_hello'})"
    ],
    "5": [
      "PendingReceive(dpid=1, controller_id='c1', fingerprint=OFFingerprint{'class': 'ofp_hello'})",
      "PendingReceive(dpid=2, controller_id='c1', fingerprint=OFFingerprint{'class': 'ofp_hello'})"
    ],
    "50": [
      "PendingReceive(dpid=1, controller_id='c1', fingerprint=OFFingerprint{'class': 'ofp_hello'})",
      "PendingReceive(dpid=2, controller_id='c1', fingerprint=OFFingerprint{'class': 'ofp_hello'})"
    ],
    "51": [
      "PendingReceive(dpid=1, controller_id='c1', fingerprint=OFFingerprint{'class': 'ofp_hello'})",
      "PendingReceive(dpid=2, controller_id='c1', fingerprint=OFFingerprint{'class': 'ofp_hello'})"
    ],
    "52": [
      "PendingReceive(dpid=1, controller_id='c1', fingerprint=OFFingerprint{'class': 'ofp_hello'})",
      "PendingReceive(dpid=2, controller_id='c1', fingerprint=OFFingerprint{'class': 'ofp_hello'})"
    ],
    "53": [
      "PendingReceive(dpid=1, controller_id='c1', fingerprint=OFFingerprint{'class': 'ofp_hello'})",
      "PendingReceive(dpid=2, controller_id='c1', fingerprint=OFFingerprint{'class': 'ofp_hello'})"
    ],
    "54": [
      "PendingReceive(dpid=1, controller_id='c1', fingerprint=OFFingerprint{'class': 'ofp_hello'})",
      "PendingReceive(dpid=2, controller_id='c1', fingerprint=OFFingerprint{'class': 'ofp_hello'})"
    ],
    "55": [
      "PendingReceive(dpid=1, controller_id='c1', fingerprint=OFFingerprint{'class': 'ofp_hello'})",
      "PendingReceive(dpid=2, controller_id='c1', fingerprint=OFFingerprint{'class': 'ofp_hello'})"
    ],
    "56": [
      "PendingReceive(dpid=1, controller_id='c1', fingerprint=OFFingerprint{'class': 'ofp_hello'})",
      "PendingReceive(dpid=2, controller_id='c1', fingerprint=OFFingerprint{'class': 'ofp_hello'})"
    ],
    "57": [
      "PendingReceive(dpid=1, controller_id='c1', fingerprint=OFFingerprint{'class': 'ofp_hello'})",
      "PendingReceive(dpid=2, controller_id='c1', fingerprint=OFFingerprint{'class': 'ofp_hello'})"
    ],
    "58": [
      "PendingReceive(dpid=1, controller_id='c1', fingerprint=OFFingerprint{'class': 'ofp_hello'})",
      "PendingReceive(dpid=2, controller_id='c1', fingerprint=OFFingerprint{'class': 'ofp_hello'})"
    ],
    "59": [
      "PendingReceive(dpid=1, controller_id='c1', fingerprint=OFFingerprint{'class': 'ofp_hello'})",
      "PendingReceive(dpid=2, controller_id='c1', fingerprint=OFFingerprint{'class': 'ofp_hello'})"
    ],
    "6": [
      "PendingReceive(dpid=1, controller_id='c1', fingerprint=OFFingerprint{'class': 'ofp_hello'})",
      "PendingReceive(dpid=2, controller_id='c1', fingerprint=OFFingerprint{'class': 'ofp_hello'})"
    ],
    "60": [
      "PendingReceive(dpid=1, controller_id='c1', fingerprint=OFFingerprint{'class': 'ofp_hello'})",
      "PendingReceive(dpid=2, controller_id='c1', fingerprint=OFFingerprint{'class': 'ofp_hello'})"
    ],
    "61": [
      "PendingReceive(dpid=1, controller_id='c1', fingerprint=OFFingerprint{'class': 'ofp_hello'})",
      "PendingReceive(dpid=2, controller_id='c1', fingerprint=OFFingerprint{'class': 'ofp_hello'})"
    ],
    "62": [],
    "63": [],
    "64": [],
    "65": [
      "PendingReceive(dpid=1, controller_id='c1', fingerprint=OFFingerprint{'class': 'ofp_hello'})"
    ],
    "66": [
      "PendingReceive(dpid=1, controller_id='c1', fingerprint=OFFingerprint{'class': 'ofp_hello'})"
    ],
    "67": [
      "PendingReceive(dpid=1, controller_id='c1', fingerprint=OFFingerprint{'class': 'ofp_hello'})"
    ],
    "68": [
      "PendingReceive(dpid=2, controller_id='c1', fingerprint=OFFingerprint{'class': 'ofp_hello'})"
    ],
    "69": [
      "PendingReceive(dpid=2, controller_id='c1', fingerprint=OFFingerprint{'class': 'ofp_hello'})"
    ],
    "7": [
      "PendingReceive(dpid=1, controller_id='c1', fingerprint=OFFingerprint{'class': 'ofp_hello'})",
      "PendingReceive(dpid=2, controller_id='c1', fingerprint=OFFingerprint{'class': 'ofp_hello'})"
    ],
    "70": [
      "PendingReceive(dpid=1, controller_id='c1', fingerprint=OFFingerprint{'class': 'ofp_hello'})"
    ],
    "71": [
      "PendingReceive(dpid=1, controller_id='c1', fingerprint=OFFingerprint{'class': 'ofp_hello'})"
    ],
    "72": [
      "PendingReceive(dpid=2, controller_id='c1', fingerprint=OFFingerprint{'class': 'ofp_hello'})"
    ],
    "73": [
      "PendingReceive(dpid=1, controller_id='c1', fingerprint=OFFingerprint{'class': 'ofp_hello'})"
    ],
    "74": [
      "PendingReceive(dpid=1, controller_id='c1', fingerprint=OFFingerprint{'class': 'ofp_hello'})"
    ],
    "75": [
      "PendingReceive(dpid=1, controller_id='c1', fingerprint=OFFingerprint{'class': 'ofp_hello'})"
    ],
    "76": [
      "PendingReceive(dpid=1, controller_id='c1', fingerprint=OFFingerprint{'class': 'ofp_hello'})"
    ],
    "8": [
      "PendingReceive(dpid=1, controller_id='c1', fingerprint=OFFingerprint{'class': 'ofp_hello'})",
      "PendingReceive(dpid=2, controller_id='c1', fingerprint=OFFingerprint{'class': 'ofp_hello'})"
    ],
    "9": [
      "PendingReceive(dpid=1, controller_id='c1', fingerprint=OFFingerprint{'class': 'ofp_hello'})",
      "PendingReceive(dpid=2, controller_id='c1', fingerprint=OFFingerprint{'class': 'ofp_hello'})"
    ]
  },
  "config": "SimulationConfig(controller_configs=[ControllerConfig(start_cmd='./pox.py --verbose openflow.discovery topology host_tracker sts.util.socket_mux.pox_monkeypatcher openflow.of_01 --address=__address__ --port=__port__ --max_connections=15', label='c1', address='127.0.0.1', cwd='pox')],\n                 topology_class=MeshTopology,\n                 topology_params=\"num_switches=2\",\n                 patch_panel_class=BufferedPatchPanel,\n                 multiplex_sockets=True,\n                 kill_controllers_on_exit=True)",
  "early_internal_events": {
    "10": [],
    "11": [],
    "12": [],
    "13": [],
    "14": [],
    "15": [],
    "16": [],
    "17": [],
    "18": [],
    "19": [],
    "2": [],
    "20": [],
    "21": [],
    "22": [],
    "23": [],
    "24": [],
    "25": [],
    "26": [],
    "27": [],
    "28": [],
    "29": [],
    "3": [],
    "30": [],
    "31": [],
    "32": [],
    "33": [],
    "34": [],
    "35": [],
    "36": [],
    "37": [],
    "38": [],
    "39": [],
    "4": [],
    "40": [],
    "41": [],
    "42": [],
    "43": [],
    "44": [],
    "45": [],
    "46": [],
    "47": [],
    "48": [],
    "49": [],
    "5": [],
    "50": [],
    "51": [],
    "52": [],
    "53": [],
    "54": [],
    "55": [],
    "56": [],
    "57": [],
    "58": [],
    "59": [],
    "6": [],
    "60": [],
    "61": [],
    "62": [],
    "63": [],
    "64": [],
    "65": [],
    "66": [],
    "67": [],
    "68": [],
    "69": [],
    "7": [],
    "70": [],
    "71": [],
    "72": [],
    "73": [],
    "74": [],
    "75": [],
    "76": [],
    "8": [],
    "9": []
  },
  "initial_verification_runs_needed": 0,
  "iteration_size": {
    "0": 719,
    "1": 719,
    "2": 719,
    "3": 719,
    "4": 546,
    "5": 546,
    "6": 546,
    "7": 546,
    "8": 501,
    "9": 479,
    "10": 466,
    "11": 461,
    "12": 461,
    "13": 458,
    "14": 457,
    "15": 457,
    "16": 457,
    "17": 457,
    "18": 436,
    "19": 426,
    "20": 421,
    "21": 421,
    "22": 417,
    "23": 417,
    "24": 417,
    "25": 417,
    "26": 397,
    "27": 386,
    "28": 386,
    "29": 379,
    "30": 379,
    "31": 376,
    "32": 376,
    "33": 375,
    "34": 375,
    "35": 375,
    "36": 375,
    "37": 283,
    "38": 283,
    "39": 283,
    "40": 283,
    "41": 283,
    "42": 273,
    "43": 273,
    "44": 265,
    "45": 265,
    "46": 262,
    "47": 261,
    "48": 252,
    "49": 252,
    "50": 243,
    "51": 241,
    "52": 241,
    "53": 240,
    "54": 240,
    "55": 221,
    "56": 210,
    "57": 205,
    "58": 203,
    "59": 203,
    "60": 199,
    "61": 199,
    "62": 109,
    "63": 109,
    "64": 67,
    "65": 48,
    "66": 48,
    "67": 48,
    "68": 48,
    "69": 40,
    "70": 38,
    "71": 38,
    "72": 37,
    "73": 37,
    "74": 33
  },
  "matched_events": {
    "10": {
      "CheckInvariants": 5,
      "ConnectToControllers": 1,
      "ControlChannelBlock": 89,
      "ControlChannelUnblock": 87,
      "ControlMessageReceive": 1133,
      "ControlMessageSend": 427,
      "DataplanePermit": 218,
      "HostMigration": 117,
      "LinkFailure": 11,
      "LinkRecovery": 11,
      "SwitchFailure": 13,
      "SwitchRecovery": 26,
      "TrafficInjection": 119,
      "WaitTime": 1
    },
    "11": {
      "CheckInvariants": 4,
      "ConnectToControllers": 1,
      "ControlChannelBlock": 85,
      "ControlChannelUnblock": 83,
      "ControlMessageReceive": 1133,
      "ControlMessageSend": 422,
      "DataplanePermit": 218,
      "HostMigration": 116,
      "LinkFailure": 10,
      "LinkRecovery": 10,
      "SwitchFailure": 13,
      "SwitchRecovery": 26,
      "TrafficInjection": 118,
      "WaitTime": 1
    },
    "12": {
      "CheckInvariants": 4,
      "ConnectToControllers": 1,
      "ControlChannelBlock": 84,
      "ControlChannelUnblock": 82,
      "ControlMessageReceive": 1133,
      "ControlMessageSend": 418,
      "DataplanePermit": 218,
      "HostMigration": 115,
      "LinkFailure": 10,
      "LinkRecovery": 10,
      "SwitchFailure": 13,
      "SwitchRecovery": 26,
      "TrafficInjection": 116,
      "WaitTime": 1
    },
    "13": {
      "CheckInvariants": 4,
      "ConnectToControllers": 1,
      "ControlChannelBlock": 84,
      "ControlChannelUnblock": 82,
      "ControlMessageReceive": 1127,
      "ControlMessageSend": 414,
      "DataplanePermit": 218,
      "HostMigration": 114,
      "LinkFailure": 10,
      "LinkRecovery": 10,
      "SwitchFailure": 12,
      "SwitchRecovery": 25,
      "TrafficInjection": 116,
      "WaitTime": 1
    },
    "14": {
      "CheckInvariants": 4,
      "ConnectToControllers": 1,
      "ControlChannelBlock": 84,
      "ControlChannelUnblock": 82,
      "ControlMessageReceive": 1133,
      "ControlMessageSend": 416,
      "DataplanePermit": 218,
      "HostMigration": 114,
      "LinkFailure": 10,
      "LinkRecovery": 10,
      "SwitchFailure": 13,
      "SwitchRecovery": 26,
      "TrafficInjection": 114,
      "WaitTime": 1
    },
    "15": {
      "CheckInvariants": 4,
      "ConnectToControllers": 1,
      "ControlChannelBlock": 84,
      "ControlChannelUnblock": 82,
      "ControlMessageReceive": 1133,
      "ControlMessageSend": 415,
      "DataplanePermit": 218,
      "HostMigration": 113,
      "LinkFailure": 10,
      "LinkRecovery": 10,
      "SwitchFailure": 13,
      "SwitchRecovery": 26,
      "TrafficInjection": 114,
      "WaitTime": 1
    },
    "16": {
      "CheckInvariants": 4,
      "ConnectToControllers": 1,
      "ControlChannelBlock": 93,
      "ControlChannelUnblock": 91,
      "ControlMessageReceive": 1127,
      "ControlMessageSend": 449,
      "DataplanePermit": 218,
      "HostMigration": 124,
      "LinkFailure": 13,
      "LinkRecovery": 13,
      "SwitchFailure": 12,
      "SwitchRecovery": 25,
      "TrafficInjection": 126,
      "WaitTime": 1
    },
    "17": {
      "CheckInvariants": 5,
      "ConnectToControllers": 1,
      "ControlChannelBlock": 96,
      "ControlChannelUnblock": 95,
      "ControlMessageReceive": 1121,
      "ControlMessageSend": 441,
      "DataplanePermit": 218,
      "HostMigration": 123,
      "LinkFailure": 12,
      "LinkRecovery": 12,
      "SwitchFailure": 11,
      "SwitchRecovery": 24,
      "TrafficInjection": 124,
      "WaitTime": 1
    },
    "18": {
      "CheckInvariants": 5,
      "ConnectToControllers": 1,
      "ControlChannelBlock": 100,
      "ControlChannelUnblock": 99,
      "ControlMessageReceive": 1121,
      "ControlMessageSend": 461,
      "DataplanePermit": 218,
      "HostMigration": 130,
      "LinkFailure": 12,
      "LinkRecovery": 12,
      "SwitchFailure": 11,
      "SwitchRecovery": 24,
      "TrafficInjection": 130,
      "WaitTime": 1
    },
    "19": {
      "CheckInvariants": 5,
      "ConnectToControllers": 1,
      "ControlChannelBlock": 99,
      "ControlChannelUnblock": 97,
      "ControlMessageReceive": 1133,
      "ControlMessageSend": 464,
      "DataplanePermit": 218,
      "HostMigration": 128,
      "LinkFailure": 13,
      "LinkRecovery": 13,
      "SwitchFailure": 13,
      "SwitchRecovery": 26,
      "TrafficInjection": 130,
      "WaitTime": 1
    },
    "2": {
      "CheckInvariants": 3,
      "ConnectToControllers": 1,
      "ControlChannelBlock": 64,
      "ControlChannelUnblock": 63,
      "ControlMessageReceive": 1109,
      "ControlMessageSend": 350,
      "DataplanePermit": 218,
      "HostMigration": 93,
      "LinkFailure": 11,
      "LinkRecovery": 11,
      "SwitchFailure": 6,
      "SwitchRecovery": 6,
      "TrafficInjection": 94
    },
    "20": {
      "CheckInvariants": 5,
      "ConnectToControllers": 1,
      "ControlChannelBlock": 97,
      "ControlChannelUnblock": 95,
      "ControlMessageReceive": 1133,
      "ControlMessageSend": 453,
      "DataplanePermit": 218,
      "HostMigration": 125,
      "LinkFailure": 13,
      "LinkRecovery": 13,
      "SwitchFailure": 13,
      "SwitchRecovery": 26,
      "TrafficInjection": 127,
      "WaitTime": 1
    },
    "21": {
      "CheckInvariants": 5,
      "ConnectToControllers": 1,
      "ControlChannelBlock": 96,
      "ControlChannelUnblock": 95,
      "ControlMessageReceive": 1061,
      "ControlMessageSend": 79,
      "DataplanePermit": 218,
      "HostMigration": 124,
      "LinkFailure": 13,
      "LinkRecovery": 13,
      "SwitchFailure": 12,
      "SwitchRecovery": 25,
      "TrafficInjection": 126,
      "WaitTime": 1
    },
    "22": {
      "CheckInvariants": 5,
      "ConnectToControllers": 1,
      "ControlChannelBlock": 96,
      "ControlChannelUnblock": 95,
      "ControlMessageReceive": 1127,
      "ControlMessageSend": 445,
      "DataplanePermit": 218,
      "HostMigration": 124,
      "LinkFailure": 12,
      "LinkRecovery": 12,
      "SwitchFailure": 12,
      "SwitchRecovery": 25,
      "TrafficInjection": 125,
      "WaitTime": 1
    },
    "23": {
      "CheckInvariants": 5,
      "ConnectToControllers": 1,
      "ControlChannelBlock": 96,
      "ControlChannelUnblock": 95,
      "ControlMessageReceive": 1061,
      "ControlMessageSend": 102,
      "DataplanePermit": 218,
      "HostMigration": 123,
      "LinkFailure": 13,
      "LinkRecovery": 13,
      "SwitchFailure": 11,
      "SwitchRecovery": 24,
      "TrafficInjection": 125,
      "WaitTime": 1
    },
    "24": {
      "CheckInvariants": 5,
      "ConnectToControllers": 1,
      "ControlChannelBlock": 96,
      "ControlChannelUnblock": 95,
      "ControlMessageReceive": 1121,
      "ControlMessageSend": 441,
      "DataplanePermit": 218,
      "HostMigration": 123,
      "LinkFailure": 12,
      "LinkRecovery": 12,
      "SwitchFailure": 11,
      "SwitchRecovery": 24,
      "TrafficInjection": 125,
      "WaitTime": 1
    },
    "25": {
      "CheckInvariants": 5,
      "ConnectToControllers": 1,
      "ControlChannelBlock": 96,
      "ControlChannelUnblock": 95,
      "ControlMessageReceive": 1121,
      "ControlMessageSend": 443,
      "DataplanePermit": 218,
      "HostMigration": 123,
      "LinkFailure": 13,
      "LinkRecovery": 13,
      "SwitchFailure": 11,
      "SwitchRecovery": 24,
      "TrafficInjection": 124,
      "WaitTime": 1
    },
    "26": {
      "CheckInvariants": 4,
      "ConnectToControllers": 1,
      "ControlChannelBlock": 96,
      "ControlChannelUnblock": 94,
      "ControlMessageReceive": 1127,
      "ControlMessageSend": 470,
      "DataplanePermit": 218,
      "HostMigration": 131,
      "LinkFailure": 13,
      "LinkRecovery": 13,
      "SwitchFailure": 12,
      "SwitchRecovery": 25,
      "TrafficInjection": 133,
      "WaitTime": 1
    },
    "27": {
      "CheckInvariants": 5,
      "ConnectToControllers": 1,
      "ControlChannelBlock": 100,
      "ControlChannelUnblock": 98,
      "ControlMessageReceive": 1133,
      "ControlMessageSend": 464,
      "DataplanePermit": 218,
      "HostMigration": 128,
      "LinkFailure": 13,
      "LinkRecovery": 13,
      "SwitchFailure": 13,
      "SwitchRecovery": 26,
      "TrafficInjection": 129,
      "WaitTime": 1
    },
    "28": {
      "CheckInvariants": 5,
      "ConnectToControllers": 1,
      "ControlChannelBlock": 97,
      "ControlChannelUnblock": 95,
      "ControlMessageReceive": 1133,
      "ControlMessageSend": 454,
      "DataplanePermit": 218,
      "HostMigration": 125,
      "LinkFailure": 13,
      "LinkRecovery": 13,
      "SwitchFailure": 13,
      "SwitchRecovery": 26,
      "TrafficInjection": 127,
      "WaitTime": 1
    },
    "29": {
      "CheckInvariants": 5,
      "ConnectToControllers": 1,
      "ControlChannelBlock": 96,
      "ControlChannelUnblock": 94,
      "ControlMessageReceive": 1127,
      "ControlMessageSend": 449,
      "DataplanePermit": 218,
      "HostMigration": 124,
      "LinkFailure": 13,
      "LinkRecovery": 13,
      "SwitchFailure": 12,
      "SwitchRecovery": 25,
      "TrafficInjection": 126,
      "WaitTime": 1
    },
    "3": {
      "CheckInvariants": 3,
      "ConnectToControllers": 1,
      "ControlChannelBlock": 67,
      "ControlChannelUnblock": 66,
      "ControlMessageReceive": 1109,
      "ControlMessageSend": 332,
      "DataplanePermit": 218,
      "HostMigration": 90,
      "LinkFailure": 9,
      "LinkRecovery": 9,
      "SwitchFailure": 9,
      "SwitchRecovery": 22,
      "TrafficInjection": 92,
      "WaitTime": 1
    },
    "30": {
      "CheckInvariants": 4,
      "ConnectToControllers": 1,
      "ControlChannelBlock": 94,
      "ControlChannelUnblock": 92,
      "ControlMessageReceive": 1133,
      "ControlMessageSend": 454,
      "DataplanePermit": 218,
      "HostMigration": 125,
      "LinkFailure": 13,
      "LinkRecovery": 13,
      "SwitchFailure": 13,
      "SwitchRecovery": 26,
      "TrafficInjection": 127,
      "WaitTime": 1
    },
    "31": {
      "CheckInvariants": 4,
      "ConnectToControllers": 1,
      "ControlChannelBlock": 94,
      "ControlChannelUnblock": 92,
      "ControlMessageReceive": 1127,
      "ControlMessageSend": 450,
      "DataplanePermit": 218,
      "HostMigration": 125,
      "LinkFailure": 13,
      "LinkRecovery": 13,
      "SwitchFailure": 12,
      "SwitchRecovery": 25,
      "TrafficInjection": 126,
      "WaitTime": 1
    },
    "32": {
      "CheckInvariants": 4,
      "ConnectToControllers": 1,
      "ControlChannelBlock": 93,
      "ControlChannelUnblock": 91,
      "ControlMessageReceive": 1133,
      "ControlMessageSend": 452,
      "DataplanePermit": 218,
      "HostMigration": 124,
      "LinkFailure": 13,
      "LinkRecovery": 13,
      "SwitchFailure": 13,
      "SwitchRecovery": 26,
      "TrafficInjection": 127,
      "WaitTime": 1
    },
    "33": {
      "CheckInvariants": 4,
      "ConnectToControllers": 1,
      "ControlChannelBlock": 93,
      "ControlChannelUnblock": 91,
      "ControlMessageReceive": 1127,
      "ControlMessageSend": 449,
      "DataplanePermit": 218,
      "HostMigration": 124,
      "LinkFailure": 13,
      "LinkRecovery": 13,
      "SwitchFailure": 12,
      "SwitchRecovery": 25,
      "TrafficInjection": 127,
      "WaitTime": 1
    },
    "34": {
      "CheckInvariants": 4,
      "ConnectToControllers": 1,
      "ControlChannelBlock": 93,
      "ControlChannelUnblock": 91,
      "ControlMessageReceive": 1133,
      "ControlMessageSend": 452,
      "DataplanePermit": 218,
      "HostMigration": 124,
      "LinkFailure": 13,
      "LinkRecovery": 13,
      "SwitchFailure": 13,
      "SwitchRecovery": 26,
      "TrafficInjection": 126,
      "WaitTime": 1
    },
    "35": {
      "CheckInvariants": 4,
      "ConnectToControllers": 1,
      "ControlChannelBlock": 102,
      "ControlChannelUnblock": 100,
      "ControlMessageReceive": 1139,
      "ControlMessageSend": 502,
      "DataplanePermit": 218,
      "HostMigration": 136,
      "LinkFailure": 15,
      "LinkRecovery": 15,
      "SwitchFailure": 11,
      "SwitchRecovery": 11,
      "TrafficInjection": 139
    },
    "36": {
      "CheckInvariants": 5,
      "ConnectToControllers": 1,
      "ControlChannelBlock": 93,
      "ControlChannelUnblock": 92,
      "ControlMessageReceive": 1115,
      "ControlMessageSend": 501,
      "DataplanePermit": 218,
      "HostMigration": 140,
      "LinkFailure": 16,
      "LinkRecovery": 16,
      "SwitchFailure": 10,
      "SwitchRecovery": 23,
      "TrafficInjection": 141,
      "WaitTime": 1
    },
    "37": {
      "CheckInvariants": 5,
      "ConnectToControllers": 1,
      "ControlChannelBlock": 114,
      "ControlChannelUnblock": 112,
      "ControlMessageReceive": 1127,
      "ControlMessageSend": 575,
      "DataplanePermit": 218,
      "HostMigration": 161,
      "LinkFailure": 18,
      "LinkRecovery": 18,
      "SwitchFailure": 12,
      "SwitchRecovery": 25,
      "TrafficInjection": 163,
      "WaitTime": 1
    },
    "38": {
      "CheckInvariants": 6,
      "ConnectToControllers": 1,
      "ControlChannelBlock": 110,
      "ControlChannelUnblock": 109,
      "ControlMessageReceive": 1133,
      "ControlMessageSend": 578,
      "DataplanePermit": 218,
      "HostMigration": 162,
      "LinkFailure": 18,
      "LinkRecovery": 18,
      "SwitchFailure": 13,
      "SwitchRecovery": 26,
      "TrafficInjection": 164,
      "WaitTime": 1
    },
    "39": {
      "CheckInvariants": 6,
      "ConnectToControllers": 1,
      "ControlChannelBlock": 103,
      "ControlChannelUnblock": 102,
      "ControlMessageReceive": 1127,
      "ControlMessageSend": 534,
      "DataplanePermit": 218,
      "HostMigration": 150,
      "LinkFailure": 17,
      "LinkRecovery": 17,
      "SwitchFailure": 12,
      "SwitchRecovery": 25,
      "TrafficInjection": 151,
      "WaitTime": 1
    },
    "4": {
      "CheckInvariants": 4,
      "ConnectToControllers": 1,
      "ControlChannelBlock": 95,
      "ControlChannelUnblock": 94,
      "ControlMessageReceive": 1121,
      "ControlMessageSend": 498,
      "DataplanePermit": 218,
      "HostMigration": 138,
      "LinkFailure": 16,
      "LinkRecovery": 16,
      "SwitchFailure": 11,
      "SwitchRecovery": 24,
      "TrafficInjection": 142,
      "WaitTime": 1
    },
    "40": {
      "CheckInvariants": 5,
      "ConnectToControllers": 1,
      "ControlChannelBlock": 100,
      "ControlChannelUnblock": 99,
      "ControlMessageReceive": 1121,
      "ControlMessageSend": 542,
      "DataplanePermit": 218,
      "HostMigration": 152,
      "LinkFailure": 17,
      "LinkRecovery": 17,
      "SwitchFailure": 11,
      "SwitchRecovery": 24,
      "TrafficInjection": 154,
      "WaitTime": 1
    },
    "41": {
      "CheckInvariants": 5,
      "ConnectToControllers": 1,
      "ControlChannelBlock": 105,
      "ControlChannelUnblock": 104,
      "ControlMessageReceive": 1127,
      "ControlMessageSend": 558,
      "DataplanePermit": 218,
      "HostMigration": 157,
      "LinkFailure": 18,
      "LinkRecovery": 18,
      "SwitchFailure": 12,
      "SwitchRecovery": 25,
      "TrafficInjection": 159,
      "WaitTime": 1
    },
    "42": {
      "CheckInvariants": 6,
      "ConnectToControllers": 1,
      "ControlChannelBlock": 105,
      "ControlChannelUnblock": 104,
      "ControlMessageReceive": 1127,
      "ControlMessageSend": 560,
      "DataplanePermit": 218,
      "HostMigration": 157,
      "LinkFailure": 17,
      "LinkRecovery": 17,
      "SwitchFailure": 12,
      "SwitchRecovery": 25,
      "TrafficInjection": 159,
      "WaitTime": 1
    },
    "43": {
      "CheckInvariants": 6,
      "ConnectToControllers": 1,
      "ControlChannelBlock": 109,
      "ControlChannelUnblock": 108,
      "ControlMessageReceive": 1133,
      "ControlMessageSend": 566,
      "DataplanePermit": 218,
      "HostMigration": 159,
      "LinkFailure": 17,
      "LinkRecovery": 17,
      "SwitchFailure": 13,
      "SwitchRecovery": 26,
      "TrafficInjection": 161,
      "WaitTime": 1
    },
    "44": {
      "CheckInvariants": 6,
      "ConnectToControllers": 1,
      "ControlChannelBlock": 108,
      "ControlChannelUnblock": 107,
      "ControlMessageReceive": 1127,
      "ControlMessageSend": 561,
      "DataplanePermit": 218,
      "HostMigration": 158,
      "LinkFailure": 17,
      "LinkRecovery": 17,
      "SwitchFailure": 12,
      "SwitchRecovery": 25,
      "TrafficInjection": 160,
      "WaitTime": 1
    },
    "45": {
      "CheckInvariants": 6,
      "ConnectToControllers": 1,
      "ControlChannelBlock": 106,
      "ControlChannelUnblock": 105,
      "ControlMessageReceive": 1133,
      "ControlMessageSend": 564,
      "DataplanePermit": 218,
      "HostMigration": 158,
      "LinkFailure": 17,
      "LinkRecovery": 17,
      "SwitchFailure": 13,
      "SwitchRecovery": 26,
      "TrafficInjection": 160,
      "WaitTime": 1
    },
    "46": {
      "CheckInvariants": 6,
      "ConnectToControllers": 1,
      "ControlChannelBlock": 106,
      "ControlChannelUnblock": 105,
      "ControlMessageReceive": 1127,
      "ControlMessageSend": 560,
      "DataplanePermit": 218,
      "HostMigration": 157,
      "LinkFailure": 17,
      "LinkRecovery": 17,
      "SwitchFailure": 12,
      "SwitchRecovery": 25,
      "TrafficInjection": 160,
      "WaitTime": 1
    },
    "47": {
      "CheckInvariants": 6,
      "ConnectToControllers": 1,
      "ControlChannelBlock": 105,
      "ControlChannelUnblock": 104,
      "ControlMessageReceive": 1133,
      "ControlMessageSend": 564,
      "DataplanePermit": 218,
      "HostMigration": 158,
      "LinkFailure": 17,
      "LinkRecovery": 17,
      "SwitchFailure": 13,
      "SwitchRecovery": 26,
      "TrafficInjection": 159,
      "WaitTime": 1
    },
    "48": {
      "CheckInvariants": 6,
      "ConnectToControllers": 1,
      "ControlChannelBlock": 105,
      "ControlChannelUnblock": 104,
      "ControlMessageReceive": 1133,
      "ControlMessageSend": 563,
      "DataplanePermit": 218,
      "HostMigration": 157,
      "LinkFailure": 17,
      "LinkRecovery": 17,
      "SwitchFailure": 13,
      "SwitchRecovery": 26,
      "TrafficInjection": 159,
      "WaitTime": 1
    },
    "49": {
      "CheckInvariants": 6,
      "ConnectToControllers": 1,
      "ControlChannelBlock": 109,
      "ControlChannelUnblock": 108,
      "ControlMessageReceive": 1133,
      "ControlMessageSend": 565,
      "DataplanePermit": 218,
      "HostMigration": 158,
      "LinkFailure": 18,
      "LinkRecovery": 18,
      "SwitchFailure": 13,
      "SwitchRecovery": 26,
      "TrafficInjection": 161,
      "WaitTime": 1
    },
    "5": {
      "CheckInvariants": 5,
      "ConnectToControllers": 1,
      "ControlChannelBlock": 103,
      "ControlChannelUnblock": 101,
      "ControlMessageReceive": 1133,
      "ControlMessageSend": 487,
      "DataplanePermit": 218,
      "HostMigration": 135,
      "LinkFailure": 13,
      "LinkRecovery": 13,
      "SwitchFailure": 13,
      "SwitchRecovery": 26,
      "TrafficInjection": 136,
      "WaitTime": 1
    },
    "50": {
      "CheckInvariants": 5,
      "ConnectToControllers": 1,
      "ControlChannelBlock": 109,
      "ControlChannelUnblock": 108,
      "ControlMessageReceive": 1127,
      "ControlMessageSend": 559,
      "DataplanePermit": 218,
      "HostMigration": 157,
      "LinkFailure": 18,
      "LinkRecovery": 18,
      "SwitchFailure": 12,
      "SwitchRecovery": 25,
      "TrafficInjection": 160,
      "WaitTime": 1
    },
    "51": {
      "CheckInvariants": 6,
      "ConnectToControllers": 1,
      "ControlChannelBlock": 105,
      "ControlChannelUnblock": 104,
      "ControlMessageReceive": 1133,
      "ControlMessageSend": 564,
      "DataplanePermit": 218,
      "HostMigration": 158,
      "LinkFailure": 18,
      "LinkRecovery": 18,
      "SwitchFailure": 13,
      "SwitchRecovery": 26,
      "TrafficInjection": 160,
      "WaitTime": 1
    },
    "52": {
      "CheckInvariants": 6,
      "ConnectToControllers": 1,
      "ControlChannelBlock": 105,
      "ControlChannelUnblock": 104,
      "ControlMessageReceive": 1133,
      "ControlMessageSend": 561,
      "DataplanePermit": 218,
      "HostMigration": 157,
      "LinkFailure": 18,
      "LinkRecovery": 18,
      "SwitchFailure": 13,
      "SwitchRecovery": 26,
      "TrafficInjection": 159,
      "WaitTime": 1
    },
    "53": {
      "CheckInvariants": 6,
      "ConnectToControllers": 1,
      "ControlChannelBlock": 105,
      "ControlChannelUnblock": 104,
      "ControlMessageReceive": 1127,
      "ControlMessageSend": 558,
      "DataplanePermit": 218,
      "HostMigration": 157,
      "LinkFailure": 18,
      "LinkRecovery": 18,
      "SwitchFailure": 12,
      "SwitchRecovery": 25,
      "TrafficInjection": 159,
      "WaitTime": 1
    },
    "54": {
      "CheckInvariants": 5,
      "ConnectToControllers": 1,
      "ControlChannelBlock": 105,
      "ControlChannelUnblock": 104,
      "ControlMessageReceive": 1133,
      "ControlMessageSend": 561,
      "DataplanePermit": 218,
      "HostMigration": 157,
      "LinkFailure": 18,
      "LinkRecovery": 18,
      "SwitchFailure": 13,
      "SwitchRecovery": 26,
      "TrafficInjection": 159,
      "WaitTime": 1
    },
    "55": {
      "CheckInvariants": 6,
      "ConnectToControllers": 1,
      "ControlChannelBlock": 105,
      "ControlChannelUnblock": 104,
      "ControlMessageReceive": 1127,
      "ControlMessageSend": 556,
      "DataplanePermit": 218,
      "HostMigration": 157,
      "LinkFailure": 17,
      "LinkRecovery": 17,
      "SwitchFailure": 12,
      "SwitchRecovery": 25,
      "TrafficInjection": 159,
      "WaitTime": 1
    },
    "56": {
      "CheckInvariants": 6,
      "ConnectToControllers": 1,
      "ControlChannelBlock": 108,
      "ControlChannelUnblock": 107,
      "ControlMessageReceive": 1133,
      "ControlMessageSend": 554,
      "DataplanePermit": 218,
      "HostMigration": 155,
      "LinkFailure": 18,
      "LinkRecovery": 18,
      "SwitchFailure": 13,
      "SwitchRecovery": 26,
      "TrafficInjection": 156,
      "WaitTime": 1
    },
    "57": {
      "CheckInvariants": 6,
      "ConnectToControllers": 1,
      "ControlChannelBlock": 106,
      "ControlChannelUnblock": 105,
      "ControlMessageReceive": 1133,
      "ControlMessageSend": 544,
      "DataplanePermit": 218,
      "HostMigration": 153,
      "LinkFailure": 17,
      "LinkRecovery": 17,
      "SwitchFailure": 13,
      "SwitchRecovery": 26,
      "TrafficInjection": 153,
      "WaitTime": 1
    },
    "58": {
      "CheckInvariants": 6,
      "ConnectToControllers": 1,
      "ControlChannelBlock": 105,
      "ControlChannelUnblock": 104,
      "ControlMessageReceive": 1133,
      "ControlMessageSend": 539,
      "DataplanePermit": 218,
      "HostMigration": 151,
      "LinkFailure": 17,
      "LinkRecovery": 17,
      "SwitchFailure": 13,
      "SwitchRecovery": 26,
      "TrafficInjection": 152,
      "WaitTime": 1
    },
    "59": {
      "CheckInvariants": 6,
      "ConnectToControllers": 1,
      "ControlChannelBlock": 105,
      "ControlChannelUnblock": 104,
      "ControlMessageReceive": 1133,
      "ControlMessageSend": 537,
      "DataplanePermit": 218,
      "HostMigration": 150,
      "LinkFailure": 17,
      "LinkRecovery": 17,
      "SwitchFailure": 13,
      "SwitchRecovery": 26,
      "TrafficInjection": 151,
      "WaitTime": 1
    },
    "6": {
      "CheckInvariants": 4,
      "ConnectToControllers": 1,
      "ControlChannelBlock": 86,
      "ControlChannelUnblock": 85,
      "ControlMessageReceive": 1115,
      "ControlMessageSend": 405,
      "DataplanePermit": 218,
      "HostMigration": 112,
      "LinkFailure": 12,
      "LinkRecovery": 12,
      "SwitchFailure": 10,
      "SwitchRecovery": 23,
      "TrafficInjection": 114,
      "WaitTime": 1
    },
    "60": {
      "CheckInvariants": 6,
      "ConnectToControllers": 1,
      "ControlChannelBlock": 105,
      "ControlChannelUnblock": 104,
      "ControlMessageReceive": 1127,
      "ControlMessageSend": 534,
      "DataplanePermit": 218,
      "HostMigration": 150,
      "LinkFailure": 17,
      "LinkRecovery": 17,
      "SwitchFailure": 12,
      "SwitchRecovery": 25,
      "TrafficInjection": 151,
      "WaitTime": 1
    },
    "61": {
      "CheckInvariants": 6,
      "ConnectToControllers": 1,
      "ControlChannelBlock": 103,
      "ControlChannelUnblock": 102,
      "ControlMessageReceive": 1133,
      "ControlMessageSend": 537,
      "DataplanePermit": 218,
      "HostMigration": 150,
      "LinkFailure": 17,
      "LinkRecovery": 17,
      "SwitchFailure": 13,
      "SwitchRecovery": 26,
      "TrafficInjection": 151,
      "WaitTime": 1
    },
    "62": {
      "CheckInvariants": 5,
      "ConnectToControllers": 1,
      "ControlChannelBlock": 120,
      "ControlChannelUnblock": 118,
      "ControlMessageReceive": 1139,
      "ControlMessageSend": 578,
      "DataplanePermit": 218,
      "HostMigration": 159,
      "LinkFailure": 19,
      "LinkRecovery": 19,
      "SwitchFailure": 11,
      "SwitchRecovery": 11,
      "TrafficInjection": 161
    },
    "63": {
      "CheckInvariants": 5,
      "ConnectToControllers": 1,
      "ControlChannelBlock": 113,
      "ControlChannelUnblock": 111,
      "ControlMessageReceive": 1145,
      "ControlMessageSend": 576,
      "DataplanePermit": 218,
      "HostMigration": 160,
      "LinkFailure": 16,
      "LinkRecovery": 16,
      "SwitchFailure": 15,
      "SwitchRecovery": 28,
      "TrafficInjection": 164,
      "WaitTime": 1
    },
    "64": {
      "CheckInvariants": 4,
      "ConnectToControllers": 1,
      "ControlChannelBlock": 108,
      "ControlChannelUnblock": 106,
      "ControlMessageReceive": 1145,
      "ControlMessageSend": 542,
      "DataplanePermit": 218,
      "HostMigration": 149,
      "LinkFailure": 16,
      "LinkRecovery": 16,
      "SwitchFailure": 12,
      "SwitchRecovery": 12,
      "TrafficInjection": 152
    },
    "65": {
      "CheckInvariants": 5,
      "ConnectToControllers": 1,
      "ControlChannelBlock": 107,
      "ControlChannelUnblock": 105,
      "ControlMessageReceive": 1139,
      "ControlMessageSend": 533,
      "DataplanePermit": 218,
      "HostMigration": 147,
      "LinkFailure": 15,
      "LinkRecovery": 15,
      "SwitchFailure": 14,
      "SwitchRecovery": 27,
      "TrafficInjection": 151,
      "WaitTime": 1
    },
    "66": {
      "CheckInvariants": 4,
      "ConnectToControllers": 1,
      "ControlChannelBlock": 105,
      "ControlChannelUnblock": 103,
      "ControlMessageReceive": 1139,
      "ControlMessageSend": 517,
      "DataplanePermit": 218,
      "HostMigration": 142,
      "LinkFailure": 15,
      "LinkRecovery": 15,
      "SwitchFailure": 13,
      "SwitchRecovery": 26,
      "TrafficInjection": 145
    },
    "67": {
      "CheckInvariants": 4,
      "ConnectToControllers": 1,
      "ControlChannelBlock": 105,
      "ControlChannelUnblock": 103,
      "ControlMessageReceive": 1139,
      "ControlMessageSend": 506,
      "DataplanePermit": 218,
      "HostMigration": 138,
      "LinkFailure": 15,
      "LinkRecovery": 15,
      "SwitchFailure": 12,
      "SwitchRecovery": 12,
      "TrafficInjection": 142
    },
    "68": {
      "CheckInvariants": 4,
      "ConnectToControllers": 1,
      "ControlChannelBlock": 102,
      "ControlChannelUnblock": 100,
      "ControlMessageReceive": 1139,
      "ControlMessageSend": 511,
      "DataplanePermit": 218,
      "HostMigration": 140,
      "LinkFailure": 15,
      "LinkRecovery": 15,
      "SwitchFailure": 12,
      "SwitchRecovery": 25,
      "TrafficInjection": 142
    },
    "69": {
      "CheckInvariants": 4,
      "ConnectToControllers": 1,
      "ControlChannelBlock": 105,
      "ControlChannelUnblock": 103,
      "ControlMessageReceive": 1139,
      "ControlMessageSend": 513,
      "DataplanePermit": 218,
      "HostMigration": 141,
      "LinkFailure": 15,
      "LinkRecovery": 15,
      "SwitchFailure": 12,
      "SwitchRecovery": 25,
      "TrafficInjection": 143
    },
    "7": {
      "CheckInvariants": 4,
      "ConnectToControllers": 1,
      "ControlChannelBlock": 84,
      "ControlChannelUnblock": 82,
      "ControlMessageReceive": 1127,
      "ControlMessageSend": 412,
      "DataplanePermit": 218,
      "HostMigration": 113,
      "LinkFailure": 10,
      "LinkRecovery": 10,
      "SwitchFailure": 12,
      "SwitchRecovery": 25,
      "TrafficInjection": 114,
      "WaitTime": 1
    },
    "70": {
      "CheckInvariants": 4,
      "ConnectToControllers": 1,
      "ControlChannelBlock": 102,
      "ControlChannelUnblock": 100,
      "ControlMessageReceive": 1139,
      "ControlMessageSend": 514,
      "DataplanePermit": 218,
      "HostMigration": 141,
      "LinkFailure": 15,
      "LinkRecovery": 15,
      "SwitchFailure": 13,
      "SwitchRecovery": 26,
      "TrafficInjection": 144
    },
    "71": {
      "CheckInvariants": 4,
      "ConnectToControllers": 1,
      "ControlChannelBlock": 102,
      "ControlChannelUnblock": 100,
      "ControlMessageReceive": 1139,
      "ControlMessageSend": 511,
      "DataplanePermit": 218,
      "HostMigration": 140,
      "LinkFailure": 15,
      "LinkRecovery": 15,
      "SwitchFailure": 13,
      "SwitchRecovery": 26,
      "TrafficInjection": 143
    },
    "72": {
      "CheckInvariants": 4,
      "ConnectToControllers": 1,
      "ControlChannelBlock": 102,
      "ControlChannelUnblock": 100,
      "ControlMessageReceive": 1139,
      "ControlMessageSend": 511,
      "DataplanePermit": 218,
      "HostMigration": 140,
      "LinkFailure": 15,
      "LinkRecovery": 15,
      "SwitchFailure": 12,
      "SwitchRecovery": 25,
      "TrafficInjection": 143
    },
    "73": {
      "CheckInvariants": 4,
      "ConnectToControllers": 1,
      "ControlChannelBlock": 102,
      "ControlChannelUnblock": 100,
      "ControlMessageReceive": 1139,
      "ControlMessageSend": 511,
      "DataplanePermit": 218,
      "HostMigration": 140,
      "LinkFailure": 15,
      "LinkRecovery": 15,
      "SwitchFailure": 13,
      "SwitchRecovery": 26,
      "TrafficInjection": 142
    },
    "74": {
      "CheckInvariants": 4,
      "ConnectToControllers": 1,
      "ControlChannelBlock": 105,
      "ControlChannelUnblock": 103,
      "ControlMessageReceive": 1139,
      "ControlMessageSend": 512,
      "DataplanePermit": 218,
      "HostMigration": 140,
      "LinkFailure": 15,
      "LinkRecovery": 15,
      "SwitchFailure": 12,
      "SwitchRecovery": 12,
      "TrafficInjection": 144
    },
    "75": {
      "CheckInvariants": 4,
      "ConnectToControllers": 1,
      "ControlChannelBlock": 105,
      "ControlChannelUnblock": 103,
      "ControlMessageReceive": 1139,
      "ControlMessageSend": 509,
      "DataplanePermit": 218,
      "HostMigration": 140,
      "LinkFailure": 15,
      "LinkRecovery": 15,
      "SwitchFailure": 13,
      "SwitchRecovery": 26,
      "TrafficInjection": 143
    },
    "76": {
      "CheckInvariants": 4,
      "ConnectToControllers": 1,
      "ControlChannelBlock": 105,
      "ControlChannelUnblock": 103,
      "ControlMessageReceive": 1139,
      "ControlMessageSend": 507,
      "DataplanePermit": 218,
      "HostMigration": 139,
      "LinkFailure": 15,
      "LinkRecovery": 15,
      "SwitchFailure": 13,
      "SwitchRecovery": 26,
      "TrafficInjection": 142
    },
    "8": {
      "CheckInvariants": 4,
      "ConnectToControllers": 1,
      "ControlChannelBlock": 95,
      "ControlChannelUnblock": 93,
      "ControlMessageReceive": 1127,
      "ControlMessageSend": 445,
      "DataplanePermit": 218,
      "HostMigration": 125,
      "LinkFailure": 10,
      "LinkRecovery": 10,
      "SwitchFailure": 12,
      "SwitchRecovery": 25,
      "TrafficInjection": 125,
      "WaitTime": 1
    },
    "9": {
      "CheckInvariants": 5,
      "ConnectToControllers": 1,
      "ControlChannelBlock": 92,
      "ControlChannelUnblock": 90,
      "ControlMessageReceive": 1133,
      "ControlMessageSend": 451,
      "DataplanePermit": 218,
      "HostMigration": 123,
      "LinkFailure": 13,
      "LinkRecovery": 13,
      "SwitchFailure": 13,
      "SwitchRecovery": 26,
      "TrafficInjection": 125,
      "WaitTime": 1
    }
  },
  "new_internal_events": {
    "10": [],
    "11": [],
    "12": [],
    "13": [],
    "14": [],
    "15": [],
    "16": [],
    "17": [],
    "18": [],
    "19": [],
    "2": [],
    "20": [],
    "21": [],
    "22": [],
    "23": [],
    "24": [],
    "25": [],
    "26": [],
    "27": [],
    "28": [],
    "29": [],
    "3": [],
    "30": [],
    "31": [],
    "32": [],
    "33": [],
    "34": [],
    "35": [],
    "36": [],
    "37": [],
    "38": [],
    "39": [],
    "4": [],
    "40": [],
    "41": [],
    "42": [],
    "43": [],
    "44": [],
    "45": [],
    "46": [],
    "47": [],
    "48": [],
    "49": [],
    "5": [],
    "50": [],
    "51": [],
    "52": [],
    "53": [],
    "54": [],
    "55": [],
    "56": [],
    "57": [],
    "58": [],
    "59": [],
    "6": [],
    "60": [],
    "61": [],
    "62": [],
    "63": [],
    "64": [],
    "65": [],
    "66": [],
    "67": [],
    "68": [],
    "69": [],
    "7": [],
    "70": [],
    "71": [],
    "72": [],
    "73": [],
    "74": [],
    "75": [],
    "76": [],
    "8": [],
    "9": []
  },
  "original_duration_seconds": 91.72263312339783,
  "peeker": false,
  "prune_duration_seconds": 0,
  "prune_start_epoch": 1391063196.7723,
  "replay_duration_seconds": 108.55117392539978,
  "replay_end_epoch": 1391063196.772049,
  "replay_start_epoch": 1391063088.220875,
  "subsequence_id": 0,
  "timed_out_events": {
    "10": {
      "ControlMessageReceive": 12,
      "ControlMessageSend": 228
    },
    "11": {
      "ControlMessageReceive": 12,
      "ControlMessageSend": 233
    },
    "12": {
      "ControlMessageReceive": 12,
      "ControlMessageSend": 237
    },
    "13": {
      "ControlMessageReceive": 18,
      "ControlMessageSend": 241
    },
    "14": {
      "ControlMessageReceive": 12,
      "ControlMessageSend": 239
    },
    "15": {
      "ControlMessageReceive": 12,
      "ControlMessageSend": 240
    },
    "16": {
      "ControlMessageReceive": 18,
      "ControlMessageSend": 206
    },
    "17": {
      "ControlMessageReceive": 24,
      "ControlMessageSend": 214
    },
    "18": {
      "ControlMessageReceive": 24,
      "ControlMessageSend": 194
    },
    "19": {
      "ControlMessageReceive": 12,
      "ControlMessageSend": 191
    },
    "2": {
      "ControlMessageReceive": 36,
      "ControlMessageSend": 305
    },
    "20": {
      "ControlMessageReceive": 12,
      "ControlMessageSend": 202
    },
    "21": {
      "ControlMessageReceive": 84,
      "ControlMessageSend": 576
    },
    "22": {
      "ControlMessageReceive": 18,
      "ControlMessageSend": 210
    },
    "23": {
      "ControlMessageReceive": 84,
      "ControlMessageSend": 553
    },
    "24": {
      "ControlMessageReceive": 24,
      "ControlMessageSend": 214
    },
    "25": {
      "ControlMessageReceive": 24,
      "ControlMessageSend": 212
    },
    "26": {
      "ControlMessageReceive": 18,
      "ControlMessageSend": 185
    },
    "27": {
      "ControlMessageReceive": 12,
      "ControlMessageSend": 191
    },
    "28": {
      "ControlMessageReceive": 12,
      "ControlMessageSend": 201
    },
    "29": {
      "ControlMessageReceive": 18,
      "ControlMessageSend": 206
    },
    "3": {
      "ControlMessageReceive": 36,
      "ControlMessageSend": 323
    },
    "30": {
      "ControlMessageReceive": 12,
      "ControlMessageSend": 201
    },
    "31": {
      "ControlMessageReceive": 18,
      "ControlMessageSend": 205
    },
    "32": {
      "ControlMessageReceive": 12,
      "ControlMessageSend": 203
    },
    "33": {
      "ControlMessageReceive": 18,
      "ControlMessageSend": 206
    },
    "34": {
      "ControlMessageReceive": 12,
      "ControlMessageSend": 203
    },
    "35": {
      "ControlMessageReceive": 6,
      "ControlMessageSend": 153
    },
    "36": {
      "ControlMessageReceive": 30,
      "ControlMessageSend": 154
    },
    "37": {
      "ControlMessageReceive": 18,
      "ControlMessageSend": 80
    },
    "38": {
      "ControlMessageReceive": 12,
      "ControlMessageSend": 77
    },
    "39": {
      "ControlMessageReceive": 18,
      "ControlMessageSend": 121
    },
    "4": {
      "ControlMessageReceive": 24,
      "ControlMessageSend": 157
    },
    "40": {
      "ControlMessageReceive": 24,
      "ControlMessageSend": 113
    },
    "41": {
      "ControlMessageReceive": 18,
      "ControlMessageSend": 97
    },
    "42": {
      "ControlMessageReceive": 18,
      "ControlMessageSend": 95
    },
    "43": {
      "ControlMessageReceive": 12,
      "ControlMessageSend": 89
    },
    "44": {
      "ControlMessageReceive": 18,
      "ControlMessageSend": 94
    },
    "45": {
      "ControlMessageReceive": 12,
      "ControlMessageSend": 91
    },
    "46": {
      "ControlMessageReceive": 18,
      "ControlMessageSend": 95
    },
    "47": {
      "ControlMessageReceive": 12,
      "ControlMessageSend": 91
    },
    "48": {
      "ControlMessageReceive": 12,
      "ControlMessageSend": 92
    },
    "49": {
      "ControlMessageReceive": 12,
      "ControlMessageSend": 90
    },
    "5": {
      "ControlMessageReceive": 12,
      "ControlMessageSend": 168
    },
    "50": {
      "ControlMessageReceive": 18,
      "ControlMessageSend": 96
    },
    "51": {
      "ControlMessageReceive": 12,
      "ControlMessageSend": 91
    },
    "52": {
      "ControlMessageReceive": 12,
      "ControlMessageSend": 94
    },
    "53": {
      "ControlMessageReceive": 18,
      "ControlMessageSend": 97
    },
    "54": {
      "ControlMessageReceive": 12,
      "ControlMessageSend": 94
    },
    "55": {
      "ControlMessageReceive": 18,
      "ControlMessageSend": 99
    },
    "56": {
      "ControlMessageReceive": 12,
      "ControlMessageSend": 101
    },
    "57": {
      "ControlMessageReceive": 12,
      "ControlMessageSend": 111
    },
    "58": {
      "ControlMessageReceive": 12,
      "ControlMessageSend": 116
    },
    "59": {
      "ControlMessageReceive": 12,
      "ControlMessageSend": 118
    },
    "6": {
      "ControlMessageReceive": 30,
      "ControlMessageSend": 250
    },
    "60": {
      "ControlMessageReceive": 18,
      "ControlMessageSend": 121
    },
    "61": {
      "ControlMessageReceive": 12,
      "ControlMessageSend": 118
    },
    "62": {
      "ControlMessageReceive": 6,
      "ControlMessageSend": 77
    },
    "63": {
      "ControlMessageSend": 79
    },
    "64": {
      "ControlMessageSend": 113
    },
    "65": {
      "ControlMessageReceive": 6,
      "ControlMessageSend": 122
    },
    "66": {
      "ControlMessageReceive": 6,
      "ControlMessageSend": 138
    },
    "67": {
      "ControlMessageReceive": 6,
      "ControlMessageSend": 149
    },
    "68": {
      "ControlMessageReceive": 6,
      "ControlMessageSend": 144
    },
    "69": {
      "ControlMessageReceive": 6,
      "ControlMessageSend": 142
    },
    "7": {
      "ControlMessageReceive": 18,
      "ControlMessageSend": 243
    },
    "70": {
      "ControlMessageReceive": 6,
      "ControlMessageSend": 141
    },
    "71": {
      "ControlMessageReceive": 6,
      "ControlMessageSend": 144
    },
    "72": {
      "ControlMessageReceive": 6,
      "ControlMessageSend": 144
    },
    "73": {
      "ControlMessageReceive": 6,
      "ControlMessageSend": 144
    },
    "74": {
      "ControlMessageReceive": 6,
      "ControlMessageSend": 143
    },
    "75": {
      "ControlMessageReceive": 6,
      "ControlMessageSend": 146
    },
    "76": {
      "ControlMessageReceive": 6,
      "ControlMessageSend": 148
    },
    "8": {
      "ControlMessageReceive": 18,
      "ControlMessageSend": 210
    },
    "9": {
      "ControlMessageReceive": 12,
      "ControlMessageSend": 204
    }
  },
  "total_events": 2739,
  "total_inputs": 719,
  "total_inputs_replayed": 41643,
  "total_replays": 76,
  "violation_found_in_run": {
    "0": 38
  }
}