{"name": null, "timeout_disallowed": false, "fingerprint": ["ControllerStateChange", "%s going up...", "c1"], "controller_id": "c1", "value": ["('POX 0.0.0',)"], "timed_out": false, "dependent_labels": [], "time": [1371419017, 617745], "label": "i1", "class": "ControllerStateChange", "round": -1, "prunable": true}
{"name": null, "timeout_disallowed": false, "fingerprint": ["ControllerStateChange", "Running on %s", "c1"], "controller_id": "c1", "value": ["('CPython (2.7.3/Apr 12 2012 11:28:34)',)"], "timed_out": false, "dependent_labels": [], "time": [1371419017, 619560], "label": "i2", "class": "ControllerStateChange", "round": -1, "prunable": true}
{"name": null, "timeout_disallowed": false, "fingerprint": ["ControllerStateChange", "%s is up.", "c1"], "controller_id": "c1", "value": ["('POX 0.0.0',)"], "timed_out": false, "dependent_labels": [], "time": [1371419017, 620822], "label": "i3", "class": "ControllerStateChange", "round": -1, "prunable": true}
{"name": null, "timeout_disallowed": false, "fingerprint": ["ControllerStateChange", "Listening for connections on ('127.0.0.1', 6633)", "c1"], "controller_id": "c1", "value": ["()"], "timed_out": false, "dependent_labels": [], "time": [1371419017, 624039], "label": "i4", "class": "ControllerStateChange", "round": -1, "prunable": true}
{"dependent_labels": [], "fingerprint": ["ConnectToControllers"], "time": [1371419017, 626037], "timeout_disallowed": false, "prunable": true, "class": "ConnectToControllers", "timed_out": false, "round": -1, "label": "i5"}
{"fingerprint": ["ControlMessageReceive", {"class": "ofp_hello"}, 1, ["c", "1"]], "timeout_disallowed": false, "time": [1371419017, 628117], "controller_id": "c1", "timed_out": false, "dependent_labels": [], "dpid": 1, "label": "i6", "class": "ControlMessageReceive", "round": -1, "prunable": true}
{"fingerprint": ["ControlMessageSend", {"class": "ofp_hello"}, 1, ["c", "1"]], "timeout_disallowed": false, "time": [1371419017, 628517], "controller_id": "c1", "timed_out": false, "dependent_labels": [], "dpid": 1, "label": "i7", "class": "ControlMessageSend", "round": -1, "prunable": true}
{"fingerprint": ["ControlMessageReceive", {"class": "ofp_hello"}, 2, ["c", "1"]], "timeout_disallowed": false, "time": [1371419017, 630841], "controller_id": "c1", "timed_out": false, "dependent_labels": [], "dpid": 2, "label": "i8", "class": "ControlMessageReceive", "round": -1, "prunable": true}
{"fingerprint": ["ControlMessageReceive", {"class": "ofp_features_request"}, 1, ["c", "1"]], "timeout_disallowed": false, "time": [1371419017, 631278], "controller_id": "c1", "timed_out": false, "dependent_labels": [], "dpid": 1, "label": "i9", "class": "ControlMessageReceive", "round": -1, "prunable": true}
{"fingerprint": ["ControlMessageSend", {"class": "ofp_hello"}, 2, ["c", "1"]], "timeout_disallowed": false, "time": [1371419017, 631582], "controller_id": "c1", "timed_out": false, "dependent_labels": [], "dpid": 2, "label": "i10", "class": "ControlMessageSend", "round": -1, "prunable": true}
{"fingerprint": ["ControlMessageSend", {"datapath_id": 1, "class": "ofp_features_reply"}, 1, ["c", "1"]], "timeout_disallowed": false, "time": [1371419017, 631948], "controller_id": "c1", "timed_out": false, "dependent_labels": [], "dpid": 1, "label": "i11", "class": "ControlMessageSend", "round": -1, "prunable": true}
{"fingerprint": ["ControlMessageReceive", {"class": "ofp_features_request"}, 2, ["c", "1"]], "timeout_disallowed": false, "time": [1371419017, 634261], "controller_id": "c1", "timed_out": false, "dependent_labels": [], "dpid": 2, "label": "i12", "class": "ControlMessageReceive", "round": -1, "prunable": true}
{"fingerprint": ["ControlMessageReceive", {"class": "ofp_set_config"}, 1, ["c", "1"]], "timeout_disallowed": false, "time": [1371419017, 635034], "controller_id": "c1", "timed_out": false, "dependent_labels": [], "dpid": 1, "label": "i13", "class": "ControlMessageReceive", "round": -1, "prunable": true}
{"fingerprint": ["ControlMessageReceive", {"class": "ofp_barrier_request"}, 1, ["c", "1"]], "timeout_disallowed": false, "time": [1371419017, 636002], "controller_id": "c1", "timed_out": false, "dependent_labels": [], "dpid": 1, "label": "i14", "class": "ControlMessageReceive", "round": -1, "prunable": true}
{"fingerprint": ["ControlMessageReceive", {"hard_timeout": 0, "actions": [], "priority": 32768, "idle_timeout": 0, "command": "delete", "out_port": 65535, "flags": 0, "class": "ofp_flow_mod", "match": "x^L"}, 1, ["c", "1"]], "timeout_disallowed": false, "time": [1371419017, 636519], "controller_id": "c1", "timed_out": false, "dependent_labels": [], "dpid": 1, "label": "i15", "class": "ControlMessageReceive", "round": -1, "prunable": true}
{"fingerprint": ["ControlMessageSend", {"datapath_id": 2, "class": "ofp_features_reply"}, 2, ["c", "1"]], "timeout_disallowed": false, "time": [1371419017, 637129], "controller_id": "c1", "timed_out": false, "dependent_labels": [], "dpid": 2, "label": "i16", "class": "ControlMessageSend", "round": -1, "prunable": true}
{"fingerprint": ["ControlMessageSend", {"class": "ofp_barrier_reply"}, 1, ["c", "1"]], "timeout_disallowed": false, "time": [1371419017, 637468], "controller_id": "c1", "timed_out": false, "dependent_labels": [], "dpid": 1, "label": "i17", "class": "ControlMessageSend", "round": -1, "prunable": true}
{"name": null, "timeout_disallowed": false, "fingerprint": ["ControllerStateChange", "of_01 %s Connected to %s", "c1"], "controller_id": "c1", "value": ["('[Con 1/1]', '00-00-00-00-00-01')"], "timed_out": false, "dependent_labels": [], "time": [1371419017, 641372], "label": "i18", "class": "ControllerStateChange", "round": -1, "prunable": true}
{"name": null, "timeout_disallowed": false, "fingerprint": ["ControllerStateChange", "Connect %s", "c1"], "controller_id": "c1", "value": ["(<pox.openflow.of_01.Connection object at 0x10afe50>,)"], "timed_out": false, "dependent_labels": [], "time": [1371419017, 643598], "label": "i19", "class": "ControllerStateChange", "round": -1, "prunable": true}
{"name": null, "timeout_disallowed": false, "fingerprint": ["ControllerStateChange", "Installing flow for %s", "c1"], "controller_id": "c1", "value": ["('00-00-00-00-00-01',)"], "timed_out": false, "dependent_labels": [], "time": [1371419017, 645607], "label": "i20", "class": "ControllerStateChange", "round": -1, "prunable": true}
{"fingerprint": ["ControlMessageReceive", {"hard_timeout": 0, "actions": ["output(65533)"], "priority": 32768, "idle_timeout": 0, "command": "add", "out_port": 65535, "flags": 0, "class": "ofp_flow_mod", "match": "dl_dst:01:23:20:00:00:01,dl_type:35020"}, 1, ["c", "1"]], "timeout_disallowed": false, "time": [1371419017, 646122], "controller_id": "c1", "timed_out": false, "dependent_labels": [], "dpid": 1, "label": "i21", "class": "ControlMessageReceive", "round": -1, "prunable": true}
{"fingerprint": ["ControlMessageReceive", {"hard_timeout": 0, "actions": [], "priority": 32768, "idle_timeout": 0, "command": "delete", "out_port": 65535, "flags": 0, "class": "ofp_flow_mod", "match": "x^L"}, 2, ["c", "1"]], "timeout_disallowed": false, "time": [1371419017, 646849], "controller_id": "c1", "timed_out": false, "dependent_labels": [], "dpid": 2, "label": "i22", "class": "ControlMessageReceive", "round": -1, "prunable": true}
{"fingerprint": ["ControlMessageReceive", {"class": "ofp_set_config"}, 2, ["c", "1"]], "timeout_disallowed": false, "time": [1371419017, 647413], "controller_id": "c1", "timed_out": false, "dependent_labels": [], "dpid": 2, "label": "i23", "class": "ControlMessageReceive", "round": -1, "prunable": true}
{"fingerprint": ["ControlMessageReceive", {"class": "ofp_barrier_request"}, 2, ["c", "1"]], "timeout_disallowed": false, "time": [1371419017, 647757], "controller_id": "c1", "timed_out": false, "dependent_labels": [], "dpid": 2, "label": "i24", "class": "ControlMessageReceive", "round": -1, "prunable": true}
{"fingerprint": ["ControlMessageSend", {"class": "ofp_barrier_reply"}, 2, ["c", "1"]], "timeout_disallowed": false, "time": [1371419017, 648049], "controller_id": "c1", "timed_out": false, "dependent_labels": [], "dpid": 2, "label": "i25", "class": "ControlMessageSend", "round": -1, "prunable": true}
{"name": null, "timeout_disallowed": false, "fingerprint": ["ControllerStateChange", "of_01 %s Connected to %s", "c1"], "controller_id": "c1", "value": ["('[Con 2/2]', '00-00-00-00-00-02')"], "timed_out": false, "dependent_labels": [], "time": [1371419017, 653011], "label": "i26", "class": "ControllerStateChange", "round": -1, "prunable": true}
{"name": null, "timeout_disallowed": false, "fingerprint": ["ControllerStateChange", "Connect %s", "c1"], "controller_id": "c1", "value": ["(<pox.openflow.of_01.Connection object at 0x10afe90>,)"], "timed_out": false, "dependent_labels": [], "time": [1371419017, 655243], "label": "i27", "class": "ControllerStateChange", "round": -1, "prunable": true}
{"name": null, "timeout_disallowed": false, "fingerprint": ["ControllerStateChange", "Installing flow for %s", "c1"], "controller_id": "c1", "value": ["('00-00-00-00-00-02',)"], "timed_out": false, "dependent_labels": [], "time": [1371419017, 657227], "label": "i28", "class": "ControllerStateChange", "round": -1, "prunable": true}
{"fingerprint": ["ControlMessageReceive", {"hard_timeout": 0, "actions": ["output(65533)"], "priority": 32768, "idle_timeout": 0, "command": "add", "out_port": 65535, "flags": 0, "class": "ofp_flow_mod", "match": "dl_dst:01:23:20:00:00:01,dl_type:35020"}, 2, ["c", "1"]], "timeout_disallowed": false, "time": [1371419017, 657742], "controller_id": "c1", "timed_out": false, "dependent_labels": [], "dpid": 2, "label": "i29", "class": "ControlMessageReceive", "round": -1, "prunable": true}
{"timeout_disallowed": false, "fingerprint": ["DataplanePermit", {"class": "arp"}, "host:[IPAddr('123.123.2.2')]", "12:34:56:78:02:02"], "timed_out": true, "label": "i31", "passive": false, "dependent_labels": [], "time": [1371419018, 206922], "class": "DataplanePermit", "round": -1, "prunable": true}
{"fingerprint": ["ControlMessageSend", {"data": {"class": "arp"}, "class": "ofp_packet_in", "in_port": 2}, 2, ["c", "1"]], "timeout_disallowed": false, "time": [1371419018, 812479], "controller_id": "c1", "timed_out": true, "dependent_labels": [], "dpid": 2, "label": "i32", "class": "ControlMessageSend", "round": -1, "prunable": true}
{"name": null, "timeout_disallowed": false, "fingerprint": ["ControllerStateChange", "Learned %s at %s.%i", "c1"], "controller_id": "c1", "value": ["(EthAddr('12:34:56:78:02:02'), 00-00-00-00-00-02, 2)"], "timed_out": true, "dependent_labels": [], "time": [1371419019, 416516], "label": "i33", "class": "ControllerStateChange", "round": -1, "prunable": true}
{"name": null, "timeout_disallowed": false, "fingerprint": ["ControllerStateChange", "Flood multicast from %s", "c1"], "controller_id": "c1", "value": ["(EthAddr('12:34:56:78:02:02'),)"], "timed_out": true, "dependent_labels": [], "time": [1371419020, 66529], "label": "i34", "class": "ControllerStateChange", "round": -1, "prunable": true}
{"fingerprint": ["ControlMessageReceive", {"in_port": 2, "data": [], "class": "ofp_packet_out", "actions": ["output(65531)"]}, 2, ["c", "1"]], "timeout_disallowed": false, "time": [1371419020, 669839], "controller_id": "c1", "timed_out": true, "dependent_labels": [], "dpid": 2, "label": "i35", "class": "ControlMessageReceive", "round": -1, "prunable": true}
{"timeout_disallowed": false, "fingerprint": ["DataplanePermit", {"class": "arp"}, 2, 1], "timed_out": true, "label": "i36", "passive": false, "dependent_labels": [], "time": [1371419021, 320519], "class": "DataplanePermit", "round": -1, "prunable": true}
{"fingerprint": ["ControlMessageSend", {"data": {"class": "arp"}, "class": "ofp_packet_in", "in_port": 1}, 1, ["c", "1"]], "timeout_disallowed": false, "time": [1371419021, 924693], "controller_id": "c1", "timed_out": true, "dependent_labels": [], "dpid": 1, "label": "i37", "class": "ControlMessageSend", "round": -1, "prunable": true}
{"name": null, "timeout_disallowed": false, "fingerprint": ["ControllerStateChange", "%s moved from %s.%i to %s.%i?", "c1"], "controller_id": "c1", "value": ["(EthAddr('12:34:56:78:02:02'), '00-00-00-00-00-02', 2, '00-00-00-00-00-01', 1)"], "timed_out": true, "dependent_labels": [], "time": [1371419022, 574940], "label": "i38", "class": "ControllerStateChange", "round": -1, "prunable": true}
{"name": null, "timeout_disallowed": false, "fingerprint": ["ControllerStateChange", "Learned %s at %s.%i", "c1"], "controller_id": "c1", "value": ["(EthAddr('12:34:56:78:02:02'), 00-00-00-00-00-01, 1)"], "timed_out": true, "dependent_labels": [], "time": [1371419023, 178044], "label": "i39", "class": "ControllerStateChange", "round": -1, "prunable": true}
{"name": null, "timeout_disallowed": false, "fingerprint": ["ControllerStateChange", "Flood multicast from %s", "c1"], "controller_id": "c1", "value": ["(EthAddr('12:34:56:78:02:02'),)"], "timed_out": true, "dependent_labels": [], "time": [1371419023, 827930], "label": "i40", "class": "ControllerStateChange", "round": -1, "prunable": true}
{"fingerprint": ["ControlMessageReceive", {"in_port": 1, "data": [], "class": "ofp_packet_out", "actions": ["output(65531)"]}, 1, ["c", "1"]], "timeout_disallowed": false, "time": [1371419024, 432490], "controller_id": "c1", "timed_out": true, "dependent_labels": [], "dpid": 1, "label": "i41", "class": "ControlMessageReceive", "round": -1, "prunable": true}
{"timeout_disallowed": false, "fingerprint": ["DataplanePermit", {"class": "arp"}, 1, 2], "timed_out": true, "label": "i42", "passive": false, "dependent_labels": [], "time": [1371419025, 81526], "class": "DataplanePermit", "round": -1, "prunable": true}
{"fingerprint": ["ControlMessageReceive", {"in_port": 65535, "data": {"class": "lldp"}, "class": "ofp_packet_out", "actions": ["output(1)"]}, 1, ["c", "1"]], "timeout_disallowed": false, "time": [1371419025, 82218], "controller_id": "c1", "timed_out": false, "dependent_labels": [], "dpid": 1, "label": "i43", "class": "ControlMessageReceive", "round": -1, "prunable": true}
{"dp_event": {"interface": {"hw_addr": "12:34:56:78:01:02", "ips": ["123.123.1.2"], "name": "eth1"}, "packet": "EjRWeAICEjRWeAECCAYAAQgABgQAAhI0VngBAnt7AQISNFZ4AgJ7ewIC"}, "prunable": true, "dependent_labels": [], "class": "TrafficInjection", "time": [1371419025, 83018], "fingerprint": ["TrafficInjection", {"interface": {"hw_addr": "12:34:56:78:01:02", "ips": ["123.123.1.2"], "name": "eth1"}, "packet": "EjRWeAICEjRWeAECCAYAAQgABgQAAhI0VngBAnt7AQISNFZ4AgJ7ewIC"}], "timed_out": false, "round": -1, "label": "e46"}
{"timeout_disallowed": false, "fingerprint": ["DataplanePermit", {"class": "arp"}, "host:[IPAddr('123.123.1.2')]", "12:34:56:78:01:02"], "timed_out": false, "label": "i47", "passive": false, "dependent_labels": [], "time": [1371419025, 83951], "class": "DataplanePermit", "round": -1, "prunable": true}
{"fingerprint": ["ControlMessageSend", {"data": {"class": "arp"}, "class": "ofp_packet_in", "in_port": 2}, 1, ["c", "1"]], "timeout_disallowed": false, "time": [1371419025, 84328], "controller_id": "c1", "timed_out": false, "dependent_labels": [], "dpid": 1, "label": "i48", "class": "ControlMessageSend", "round": -1, "prunable": true}
{"name": null, "timeout_disallowed": false, "fingerprint": ["ControllerStateChange", "Learned %s at %s.%i", "c1"], "controller_id": "c1", "value": ["(EthAddr('12:34:56:78:01:02'), 00-00-00-00-00-01, 2)"], "timed_out": false, "dependent_labels": [], "time": [1371419025, 87141], "label": "i49", "class": "ControllerStateChange", "round": -1, "prunable": true}
{"name": null, "timeout_disallowed": false, "fingerprint": ["ControllerStateChange", "Installing path for %s -> %s %04x (%i hops)", "c1"], "controller_id": "c1", "value": ["(EthAddr('12:34:56:78:01:02'), EthAddr('12:34:56:78:02:02'), 2054, 1)"], "timed_out": true, "dependent_labels": [], "time": [1371419025, 693688], "label": "i50", "class": "ControllerStateChange", "round": -1, "prunable": true}
{"name": null, "timeout_disallowed": false, "fingerprint": ["ControllerStateChange", "%s unknown -- flooding", "c1"], "controller_id": "c1", "value": ["(EthAddr('12:34:56:78:02:02'),)"], "timed_out": false, "dependent_labels": [], "new_internal_event": true, "time": [1371419025, 694044], "label": "i213", "class": "ControllerStateChange", "round": -1, "prunable": true}
{"fingerprint": ["ControlMessageReceive", {"hard_timeout": 30, "actions": ["output(1)"], "priority": 32768, "idle_timeout": 10, "command": "add", "out_port": 65535, "flags": 0, "class": "ofp_flow_mod", "match": "dl_src:12:34:56:78:01:02,dl_dst:12:34:56:78:02:02,dl_vlan:65535,dl_vlan_pcp:0,dl_type:2054,nw_proto:2,nw_src:123.123.1.2/32,nw_dst:123.123.2.2/32"}, 1, ["c", "1"]], "timeout_disallowed": false, "time": [1371419026, 276519], "controller_id": "c1", "timed_out": true, "dependent_labels": [], "dpid": 1, "label": "i51", "class": "ControlMessageReceive", "round": -1, "prunable": true}
{"timeout_disallowed": false, "fingerprint": ["DataplanePermit", {"class": "arp"}, 1, 1], "timed_out": true, "label": "i52", "passive": false, "dependent_labels": [], "time": [1371419026, 880239], "class": "DataplanePermit", "round": -1, "prunable": true}
{"fingerprint": ["ControlMessageSend", {"data": {"class": "arp"}, "class": "ofp_packet_in", "in_port": 1}, 2, ["c", "1"]], "timeout_disallowed": false, "time": [1371419027, 483697], "controller_id": "c1", "timed_out": true, "dependent_labels": [], "dpid": 2, "label": "i53", "class": "ControlMessageSend", "round": -1, "prunable": true}
{"name": null, "timeout_disallowed": false, "fingerprint": ["ControllerStateChange", "%s moved from %s.%i to %s.%i?", "c1"], "controller_id": "c1", "value": ["(EthAddr('12:34:56:78:01:02'), '00-00-00-00-00-01', 2, '00-00-00-00-00-02', 1)"], "timed_out": true, "dependent_labels": [], "time": [1371419028, 135805], "label": "i54", "class": "ControllerStateChange", "round": -1, "prunable": true}
{"name": null, "timeout_disallowed": false, "fingerprint": ["ControllerStateChange", "Learned %s at %s.%i", "c1"], "controller_id": "c1", "value": ["(EthAddr('12:34:56:78:01:02'), 00-00-00-00-00-02, 1)"], "timed_out": true, "dependent_labels": [], "time": [1371419028, 740282], "label": "i55", "class": "ControllerStateChange", "round": -1, "prunable": true}
{"name": null, "timeout_disallowed": false, "fingerprint": ["ControllerStateChange", "Can't get from %s to %s", "c1"], "controller_id": "c1", "value": ["(EthAddr('12:34:56:78:01:02'), EthAddr('12:34:56:78:02:02'))"], "timed_out": true, "dependent_labels": [], "time": [1371419029, 390807], "label": "i56", "class": "ControllerStateChange", "round": -1, "prunable": true}
{"new_ingress_port_no": 3, "class": "HostMigration", "fingerprint": ["HostMigration", 1, 2, 1, 3, "host:[IPAddr('123.123.1.2')]"], "timed_out": false, "label": "e57", "dependent_labels": [], "new_ingress_dpid": 1, "time": [1371419029, 391521], "old_ingress_port_no": 2, "host_id": "host:[IPAddr('123.123.1.2')]", "old_ingress_dpid": 1, "round": -1, "prunable": true}
{"dp_event": {"interface": {"hw_addr": "12:34:56:78:01:02", "ips": ["123.123.1.2"], "name": "eth1"}, "packet": "EjRWeAECEjRWeAECCABFAABI6n4AAEABlzx7ewECe3sBAggABjdQaW5nUGluZ1BpbmdQaW5nUGluZ1BpbmdQaW5nUGluZ1BpbmdQaW5nUGluZ1Bpbmc="}, "prunable": true, "dependent_labels": [], "class": "TrafficInjection", "time": [1371419029, 392114], "fingerprint": ["TrafficInjection", {"interface": {"hw_addr": "12:34:56:78:01:02", "ips": ["123.123.1.2"], "name": "eth1"}, "packet": "EjRWeAECEjRWeAECCABFAABI6n4AAEABlzx7ewECe3sBAggABjdQaW5nUGluZ1BpbmdQaW5nUGluZ1BpbmdQaW5nUGluZ1BpbmdQaW5nUGluZ1Bpbmc="}], "timed_out": false, "round": -1, "label": "e58"}
{"timeout_disallowed": false, "fingerprint": ["DataplanePermit", {"dl_dst": "12:34:56:78:01:02", "nw_src": "123.123.1.2", "dl_src": "12:34:56:78:01:02", "nw_dst": "123.123.1.2"}, "host:[IPAddr('123.123.1.2')]", "12:34:56:78:01:02"], "timed_out": false, "label": "i59", "passive": false, "dependent_labels": [], "time": [1371419029, 393252], "class": "DataplanePermit", "round": -1, "prunable": true}
{"fingerprint": ["ControlMessageSend", {"reason": 1, "class": "ofp_port_status", "desc": [2, "00:00:00:00:01:02"]}, 1, ["c", "1"]], "timeout_disallowed": false, "time": [1371419029, 393728], "controller_id": "c1", "timed_out": false, "dependent_labels": [], "dpid": 1, "label": "i60", "class": "ControlMessageSend", "round": -1, "prunable": true}
{"fingerprint": ["ControlMessageSend", {"data": {"dl_dst": "12:34:56:78:01:02", "nw_src": "123.123.1.2", "dl_src": "12:34:56:78:01:02", "nw_dst": "123.123.1.2"}, "class": "ofp_packet_in", "in_port": 3}, 1, ["c", "1"]], "timeout_disallowed": false, "time": [1371419029, 394186], "controller_id": "c1", "timed_out": false, "dependent_labels": [], "dpid": 1, "label": "i61", "class": "ControlMessageSend", "round": -1, "prunable": true}
{"fingerprint": ["ControlMessageSend", {"reason": 0, "class": "ofp_port_status", "desc": [3, "00:00:00:00:01:02"]}, 1, ["c", "1"]], "timeout_disallowed": false, "time": [1371419029, 394742], "controller_id": "c1", "timed_out": false, "dependent_labels": [], "dpid": 1, "label": "i62", "class": "ControlMessageSend", "round": -1, "prunable": true}
{"name": null, "timeout_disallowed": false, "fingerprint": ["ControllerStateChange", "%s moved from %s.%i to %s.%i?", "c1"], "controller_id": "c1", "value": ["(EthAddr('12:34:56:78:01:02'), '00-00-00-00-00-02', 1, '00-00-00-00-00-01', 3)"], "timed_out": false, "dependent_labels": [], "time": [1371419029, 398593], "label": "i63", "class": "ControllerStateChange", "round": -1, "prunable": true}
{"name": null, "timeout_disallowed": false, "fingerprint": ["ControllerStateChange", "Learned %s at %s.%i", "c1"], "controller_id": "c1", "value": ["(EthAddr('12:34:56:78:01:02'), 00-00-00-00-00-01, 3)"], "timed_out": false, "dependent_labels": [], "time": [1371419029, 401149], "label": "i64", "class": "ControllerStateChange", "round": -1, "prunable": true}
{"name": null, "timeout_disallowed": false, "fingerprint": ["ControllerStateChange", "Installing path for %s -> %s %04x (%i hops)", "c1"], "controller_id": "c1", "value": ["(EthAddr('12:34:56:78:01:02'), EthAddr('12:34:56:78:01:02'), 2048, 1)"], "timed_out": false, "dependent_labels": [], "time": [1371419029, 402573], "label": "i65", "class": "ControllerStateChange", "round": -1, "prunable": true}
{"fingerprint": ["ControlMessageReceive", {"hard_timeout": 30, "actions": ["output(3)"], "priority": 32768, "idle_timeout": 10, "command": "add", "out_port": 65535, "flags": 0, "class": "ofp_flow_mod", "match": "dl_src:12:34:56:78:01:02,dl_dst:12:34:56:78:01:02,dl_vlan:65535,dl_vlan_pcp:0,dl_type:2048,nw_tos:0,nw_proto:1,nw_src:123.123.1.2/32,nw_dst:123.123.1.2/32,tp_src:8,tp_dst:0"}, 1, ["c", "1"]], "timeout_disallowed": false, "time": [1371419029, 403238], "controller_id": "c1", "timed_out": false, "dependent_labels": [], "dpid": 1, "label": "i66", "class": "ControlMessageReceive", "round": -1, "prunable": true}
{"fingerprint": ["ControlMessageSend", {"reason": 1, "class": "ofp_port_status", "desc": [2, "00:00:00:00:02:02"]}, 2, ["c", "1"]], "timeout_disallowed": false, "time": [1371419029, 931512], "controller_id": "c1", "timed_out": true, "dependent_labels": [], "dpid": 2, "label": "i72", "class": "ControlMessageSend", "round": -1, "prunable": true}
{"fingerprint": ["ControlMessageSend", {"reason": 0, "class": "ofp_port_status", "desc": [3, "00:00:00:00:02:02"]}, 2, ["c", "1"]], "timeout_disallowed": false, "time": [1371419030, 538332], "controller_id": "c1", "timed_out": true, "dependent_labels": [], "dpid": 2, "label": "i73", "class": "ControlMessageSend", "round": -1, "prunable": true}
{"legacy_invariant_check": false, "class": "CheckInvariants", "fingerprint": "N/A", "timed_out": false, "label": "e74", "dependent_labels": [], "invariant_name": "check_for_loops_or_connectivity", "invariant_check_name": "check_for_loops_or_connectivity", "time": [1371419030, 542099], "invariant_check": null, "round": -1, "prunable": true}
{"dp_event": {"interface": {"hw_addr": "12:34:56:78:01:02", "ips": ["123.123.1.2"], "name": "eth1"}, "packet": "EjRWeAICEjRWeAECCABFAAAcISkAAEABX757ewECe3sCAgAAISlwb25n"}, "prunable": true, "dependent_labels": [], "class": "TrafficInjection", "time": [1371419030, 542550], "fingerprint": ["TrafficInjection", {"interface": {"hw_addr": "12:34:56:78:01:02", "ips": ["123.123.1.2"], "name": "eth1"}, "packet": "EjRWeAICEjRWeAECCABFAAAcISkAAEABX757ewECe3sCAgAAISlwb25n"}], "timed_out": false, "round": -1, "label": "e75"}
{"timeout_disallowed": false, "fingerprint": ["DataplanePermit", {"dl_dst": "12:34:56:78:02:02", "nw_src": "123.123.1.2", "dl_src": "12:34:56:78:01:02", "nw_dst": "123.123.2.2"}, "host:[IPAddr('123.123.1.2')]", "12:34:56:78:01:02"], "timed_out": false, "label": "i76", "passive": false, "dependent_labels": [], "time": [1371419030, 543546], "class": "DataplanePermit", "round": -1, "prunable": true}
{"fingerprint": ["ControlMessageSend", {"data": {"dl_dst": "12:34:56:78:02:02", "nw_src": "123.123.1.2", "dl_src": "12:34:56:78:01:02", "nw_dst": "123.123.2.2"}, "class": "ofp_packet_in", "in_port": 3}, 1, ["c", "1"]], "timeout_disallowed": false, "time": [1371419030, 544081], "controller_id": "c1", "timed_out": false, "dependent_labels": [], "dpid": 1, "label": "i77", "class": "ControlMessageSend", "round": -1, "prunable": true}
{"name": null, "timeout_disallowed": false, "fingerprint": ["ControllerStateChange", "Installing path for %s -> %s %04x (%i hops)", "c1"], "controller_id": "c1", "value": ["(EthAddr('12:34:56:78:01:02'), EthAddr('12:34:56:78:02:02'), 2048, 1)"], "timed_out": true, "dependent_labels": [], "time": [1371419031, 151748], "label": "i78", "class": "ControllerStateChange", "round": -1, "prunable": true}
{"name": null, "timeout_disallowed": false, "fingerprint": ["ControllerStateChange", "%s unknown -- flooding", "c1"], "controller_id": "c1", "value": ["(EthAddr('12:34:56:78:02:02'),)"], "timed_out": false, "dependent_labels": [], "new_internal_event": true, "time": [1371419031, 152249], "label": "i214", "class": "ControllerStateChange", "round": -1, "prunable": true}
{"fingerprint": ["ControlMessageReceive", {"hard_timeout": 30, "actions": ["output(1)"], "priority": 32768, "idle_timeout": 10, "command": "add", "out_port": 65535, "flags": 0, "class": "ofp_flow_mod", "match": "dl_src:12:34:56:78:01:02,dl_dst:12:34:56:78:02:02,dl_vlan:65535,dl_vlan_pcp:0,dl_type:2048,nw_tos:0,nw_proto:1,nw_src:123.123.1.2/32,nw_dst:123.123.2.2/32,tp_src:0,tp_dst:0"}, 1, ["c", "1"]], "timeout_disallowed": false, "time": [1371419031, 774870], "controller_id": "c1", "timed_out": true, "dependent_labels": [], "dpid": 1, "label": "i79", "class": "ControlMessageReceive", "round": -1, "prunable": true}
{"timeout_disallowed": false, "fingerprint": ["DataplanePermit", {"dl_dst": "12:34:56:78:02:02", "nw_src": "123.123.1.2", "dl_src": "12:34:56:78:01:02", "nw_dst": "123.123.2.2"}, 1, 1], "timed_out": true, "label": "i80", "passive": false, "dependent_labels": [], "time": [1371419032, 378359], "class": "DataplanePermit", "round": -1, "prunable": true}
{"fingerprint": ["ControlMessageSend", {"data": {"dl_dst": "12:34:56:78:02:02", "nw_src": "123.123.1.2", "dl_src": "12:34:56:78:01:02", "nw_dst": "123.123.2.2"}, "class": "ofp_packet_in", "in_port": 1}, 2, ["c", "1"]], "timeout_disallowed": false, "time": [1371419033, 29442], "controller_id": "c1", "timed_out": true, "dependent_labels": [], "dpid": 2, "label": "i81", "class": "ControlMessageSend", "round": -1, "prunable": true}
{"name": null, "timeout_disallowed": false, "fingerprint": ["ControllerStateChange", "%s moved from %s.%i to %s.%i?", "c1"], "controller_id": "c1", "value": ["(EthAddr('12:34:56:78:01:02'), '00-00-00-00-00-01', 3, '00-00-00-00-00-02', 1)"], "timed_out": true, "dependent_labels": [], "time": [1371419033, 633314], "label": "i82", "class": "ControllerStateChange", "round": -1, "prunable": true}
{"name": null, "timeout_disallowed": false, "fingerprint": ["ControllerStateChange", "Learned %s at %s.%i", "c1"], "controller_id": "c1", "value": ["(EthAddr('12:34:56:78:01:02'), 00-00-00-00-00-02, 1)"], "timed_out": true, "dependent_labels": [], "time": [1371419034, 284155], "label": "i83", "class": "ControllerStateChange", "round": -1, "prunable": true}
{"name": null, "timeout_disallowed": false, "fingerprint": ["ControllerStateChange", "Can't get from %s to %s", "c1"], "controller_id": "c1", "value": ["(EthAddr('12:34:56:78:01:02'), EthAddr('12:34:56:78:02:02'))"], "timed_out": true, "dependent_labels": [], "time": [1371419034, 886869], "label": "i84", "class": "ControllerStateChange", "round": -1, "prunable": true}
{"name": null, "timeout_disallowed": false, "fingerprint": ["ControllerStateChange", "Dest unreachable (%s -> %s)", "c1"], "controller_id": "c1", "value": ["(EthAddr('12:34:56:78:01:02'), EthAddr('12:34:56:78:02:02'))"], "timed_out": true, "dependent_labels": [], "time": [1371419035, 537930], "label": "i85", "class": "ControllerStateChange", "round": -1, "prunable": true}
{"fingerprint": ["ControlMessageReceive", {"in_port": 65535, "data": {"dl_dst": "12:34:56:78:01:02", "nw_src": "123.123.2.2", "dl_src": "00:00:00:00:00:02", "nw_dst": "123.123.1.2"}, "class": "ofp_packet_out", "actions": ["output(1)"]}, 2, ["c", "1"]], "timeout_disallowed": false, "time": [1371419036, 142498], "controller_id": "c1", "timed_out": true, "dependent_labels": [], "dpid": 2, "label": "i86", "class": "ControlMessageReceive", "round": -1, "prunable": true}
{"timeout_disallowed": false, "fingerprint": ["DataplanePermit", {"dl_dst": "12:34:56:78:01:02", "nw_src": "123.123.2.2", "dl_src": "00:00:00:00:00:02", "nw_dst": "123.123.1.2"}, 2, 1], "timed_out": true, "label": "i87", "passive": false, "dependent_labels": [], "time": [1371419036, 792764], "class": "DataplanePermit", "round": -1, "prunable": true}
{"fingerprint": ["ControlMessageSend", {"data": {"dl_dst": "12:34:56:78:01:02", "nw_src": "123.123.2.2", "dl_src": "00:00:00:00:00:02", "nw_dst": "123.123.1.2"}, "class": "ofp_packet_in", "in_port": 1}, 1, ["c", "1"]], "timeout_disallowed": false, "time": [1371419037, 397185], "controller_id": "c1", "timed_out": true, "dependent_labels": [], "dpid": 1, "label": "i88", "class": "ControlMessageSend", "round": -1, "prunable": true}
{"name": null, "timeout_disallowed": false, "fingerprint": ["ControllerStateChange", "Learned %s at %s.%i", "c1"], "controller_id": "c1", "value": ["(EthAddr('00:00:00:00:00:02'), 00-00-00-00-00-01, 1)"], "timed_out": true, "dependent_labels": [], "time": [1371419038, 48028], "label": "i89", "class": "ControllerStateChange", "round": -1, "prunable": true}
{"name": null, "timeout_disallowed": false, "fingerprint": ["ControllerStateChange", "Can't get from %s to %s", "c1"], "controller_id": "c1", "value": ["(EthAddr('00:00:00:00:00:02'), EthAddr('12:34:56:78:01:02'))"], "timed_out": true, "dependent_labels": [], "time": [1371419038, 652063], "label": "i90", "class": "ControllerStateChange", "round": -1, "prunable": true}
{"name": null, "timeout_disallowed": false, "fingerprint": ["ControllerStateChange", "Dest unreachable (%s -> %s)", "c1"], "controller_id": "c1", "value": ["(EthAddr('00:00:00:00:00:02'), EthAddr('12:34:56:78:01:02'))"], "timed_out": true, "dependent_labels": [], "time": [1371419039, 302876], "label": "i91", "class": "ControllerStateChange", "round": -1, "prunable": true}
{"fingerprint": ["ControlMessageReceive", {"in_port": 65535, "data": {"dl_dst": "00:00:00:00:00:02", "nw_src": "123.123.1.2", "dl_src": "00:00:00:00:00:01", "nw_dst": "123.123.2.2"}, "class": "ofp_packet_out", "actions": ["output(1)"]}, 1, ["c", "1"]], "timeout_disallowed": false, "time": [1371419039, 906705], "controller_id": "c1", "timed_out": true, "dependent_labels": [], "dpid": 1, "label": "i92", "class": "ControlMessageReceive", "round": -1, "prunable": true}
{"new_ingress_port_no": 4, "class": "HostMigration", "fingerprint": ["HostMigration", 2, 2, 1, 4, "host:[IPAddr('123.123.2.2')]"], "timed_out": false, "label": "e93", "dependent_labels": [], "new_ingress_dpid": 1, "time": [1371419039, 907446], "old_ingress_port_no": 2, "host_id": "host:[IPAddr('123.123.2.2')]", "old_ingress_dpid": 2, "round": -1, "prunable": true}
{"dp_event": {"interface": {"hw_addr": "12:34:56:78:02:02", "ips": ["123.123.2.2"], "name": "eth2"}, "packet": "EjRWeAICEjRWeAICCABFAABI6o0AAEABlS17ewICe3sCAggABjdQaW5nUGluZ1BpbmdQaW5nUGluZ1BpbmdQaW5nUGluZ1BpbmdQaW5nUGluZ1Bpbmc="}, "prunable": true, "dependent_labels": [], "class": "TrafficInjection", "time": [1371419039, 908131], "fingerprint": ["TrafficInjection", {"interface": {"hw_addr": "12:34:56:78:02:02", "ips": ["123.123.2.2"], "name": "eth2"}, "packet": "EjRWeAICEjRWeAICCABFAABI6o0AAEABlS17ewICe3sCAggABjdQaW5nUGluZ1BpbmdQaW5nUGluZ1BpbmdQaW5nUGluZ1BpbmdQaW5nUGluZ1Bpbmc="}], "timed_out": false, "round": -1, "label": "e94"}
{"class": "DataplaneDrop", "fingerprint": ["DataplaneDrop", {"dl_dst": "00:00:00:00:00:02", "nw_src": "123.123.1.2", "dl_src": "00:00:00:00:00:01", "nw_dst": "123.123.2.2"}, 1, 1], "timed_out": true, "label": "e95", "passive": false, "dependent_labels": [], "time": [1371419039, 908544], "round": -1, "prunable": true}
{"timeout_disallowed": false, "fingerprint": ["DataplanePermit", {"dl_dst": "12:34:56:78:02:02", "nw_src": "123.123.2.2", "dl_src": "12:34:56:78:02:02", "nw_dst": "123.123.2.2"}, "host:[IPAddr('123.123.2.2')]", "12:34:56:78:02:02"], "timed_out": false, "label": "i96", "passive": false, "dependent_labels": [], "time": [1371419039, 909459], "class": "DataplanePermit", "round": -1, "prunable": true}
{"fingerprint": ["ControlMessageSend", {"reason": 1, "class": "ofp_port_status", "desc": [3, "00:00:00:00:02:02"]}, 2, ["c", "1"]], "timeout_disallowed": false, "time": [1371419040, 557197], "controller_id": "c1", "timed_out": true, "dependent_labels": [], "dpid": 2, "label": "i97", "class": "ControlMessageSend", "round": -1, "prunable": true}
{"fingerprint": ["ControlMessageSend", {"data": {"dl_dst": "12:34:56:78:02:02", "nw_src": "123.123.2.2", "dl_src": "12:34:56:78:02:02", "nw_dst": "123.123.2.2"}, "class": "ofp_packet_in", "in_port": 4}, 1, ["c", "1"]], "timeout_disallowed": false, "time": [1371419040, 557754], "controller_id": "c1", "timed_out": false, "dependent_labels": [], "dpid": 1, "label": "i98", "class": "ControlMessageSend", "round": -1, "prunable": true}
{"fingerprint": ["ControlMessageSend", {"reason": 0, "class": "ofp_port_status", "desc": [4, "00:00:00:00:02:02"]}, 1, ["c", "1"]], "timeout_disallowed": false, "time": [1371419040, 558272], "controller_id": "c1", "timed_out": false, "dependent_labels": [], "dpid": 1, "label": "i99", "class": "ControlMessageSend", "round": -1, "prunable": true}
{"name": null, "timeout_disallowed": false, "fingerprint": ["ControllerStateChange", "%s moved from %s.%i to %s.%i?", "c1"], "controller_id": "c1", "value": ["(EthAddr('12:34:56:78:02:02'), '00-00-00-00-00-01', 1, '00-00-00-00-00-01', 4)"], "timed_out": true, "dependent_labels": [], "time": [1371419041, 170606], "label": "i100", "class": "ControllerStateChange", "round": -1, "prunable": true}
{"name": null, "timeout_disallowed": false, "fingerprint": ["ControllerStateChange", "Learned %s at %s.%i", "c1"], "controller_id": "c1", "value": ["(EthAddr('12:34:56:78:02:02'), 00-00-00-00-00-01, 4)"], "timed_out": false, "dependent_labels": [], "time": [1371419041, 170968], "label": "i101", "class": "ControllerStateChange", "round": -1, "prunable": true}
{"name": null, "timeout_disallowed": false, "fingerprint": ["ControllerStateChange", "Installing path for %s -> %s %04x (%i hops)", "c1"], "controller_id": "c1", "value": ["(EthAddr('12:34:56:78:02:02'), EthAddr('12:34:56:78:02:02'), 2048, 1)"], "timed_out": false, "dependent_labels": [], "time": [1371419041, 171225], "label": "i102", "class": "ControllerStateChange", "round": -1, "prunable": true}
{"fingerprint": ["ControlMessageReceive", {"hard_timeout": 30, "actions": ["output(4)"], "priority": 32768, "idle_timeout": 10, "command": "add", "out_port": 65535, "flags": 0, "class": "ofp_flow_mod", "match": "dl_src:12:34:56:78:02:02,dl_dst:12:34:56:78:02:02,dl_vlan:65535,dl_vlan_pcp:0,dl_type:2048,nw_tos:0,nw_proto:1,nw_src:123.123.2.2/32,nw_dst:123.123.2.2/32,tp_src:8,tp_dst:0"}, 1, ["c", "1"]], "timeout_disallowed": false, "time": [1371419041, 171975], "controller_id": "c1", "timed_out": false, "dependent_labels": [], "dpid": 1, "label": "i103", "class": "ControlMessageReceive", "round": -1, "prunable": true}
{"dp_event": {"interface": {"hw_addr": "12:34:56:78:02:02", "ips": ["123.123.2.2"], "name": "eth2"}, "packet": "////////EjRWeAICCAYAAQgABgQAARI0VngCAnt7AgIAAAAAAAB7ewEC"}, "prunable": true, "dependent_labels": [], "class": "TrafficInjection", "time": [1371419041, 172812], "fingerprint": ["TrafficInjection", {"interface": {"hw_addr": "12:34:56:78:02:02", "ips": ["123.123.2.2"], "name": "eth2"}, "packet": "////////EjRWeAICCAYAAQgABgQAARI0VngCAnt7AgIAAAAAAAB7ewEC"}], "timed_out": false, "round": -1, "label": "e104"}
{"class": "DataplaneDrop", "fingerprint": ["DataplaneDrop", {"class": "arp"}, "host:[IPAddr('123.123.2.2')]", "12:34:56:78:02:02"], "timed_out": false, "label": "e105", "passive": false, "dependent_labels": [], "time": [1371419041, 173262], "round": -1, "prunable": true}
{"new_ingress_port_no": 5, "class": "HostMigration", "fingerprint": ["HostMigration", 1, 3, 1, 5, "host:[IPAddr('123.123.1.2')]"], "timed_out": false, "label": "e106", "dependent_labels": [], "new_ingress_dpid": 1, "time": [1371419041, 173708], "old_ingress_port_no": 3, "host_id": "host:[IPAddr('123.123.1.2')]", "old_ingress_dpid": 1, "round": -1, "prunable": true}
{"dp_event": {"interface": {"hw_addr": "12:34:56:78:01:02", "ips": ["123.123.1.2"], "name": "eth1"}, "packet": "EjRWeAECEjRWeAECCABFAABI6o8AAEABlyt7ewECe3sBAggABjdQaW5nUGluZ1BpbmdQaW5nUGluZ1BpbmdQaW5nUGluZ1BpbmdQaW5nUGluZ1Bpbmc="}, "prunable": true, "dependent_labels": [], "class": "TrafficInjection", "time": [1371419041, 174197], "fingerprint": ["TrafficInjection", {"interface": {"hw_addr": "12:34:56:78:01:02", "ips": ["123.123.1.2"], "name": "eth1"}, "packet": "EjRWeAECEjRWeAECCABFAABI6o8AAEABlyt7ewECe3sBAggABjdQaW5nUGluZ1BpbmdQaW5nUGluZ1BpbmdQaW5nUGluZ1BpbmdQaW5nUGluZ1Bpbmc="}], "timed_out": false, "round": -1, "label": "e107"}
{"timeout_disallowed": false, "fingerprint": ["DataplanePermit", {"dl_dst": "12:34:56:78:01:02", "nw_src": "123.123.1.2", "dl_src": "12:34:56:78:01:02", "nw_dst": "123.123.1.2"}, "host:[IPAddr('123.123.1.2')]", "12:34:56:78:01:02"], "timed_out": false, "label": "i108", "passive": false, "dependent_labels": [], "time": [1371419041, 175208], "class": "DataplanePermit", "round": -1, "prunable": true}
{"fingerprint": ["ControlMessageSend", {"reason": 0, "class": "ofp_port_status", "desc": [5, "00:00:00:00:01:02"]}, 1, ["c", "1"]], "timeout_disallowed": false, "time": [1371419041, 175647], "controller_id": "c1", "timed_out": false, "dependent_labels": [], "dpid": 1, "label": "i109", "class": "ControlMessageSend", "round": -1, "prunable": true}
{"fingerprint": ["ControlMessageSend", {"reason": 1, "class": "ofp_port_status", "desc": [3, "00:00:00:00:01:02"]}, 1, ["c", "1"]], "timeout_disallowed": false, "time": [1371419041, 176035], "controller_id": "c1", "timed_out": false, "dependent_labels": [], "dpid": 1, "label": "i110", "class": "ControlMessageSend", "round": -1, "prunable": true}
{"class": "DataplaneDrop", "fingerprint": ["DataplaneDrop", {"dl_dst": "12:34:56:78:01:02", "nw_src": "123.123.1.2", "dl_src": "12:34:56:78:01:02", "nw_dst": "123.123.1.2"}, 1, 3], "timed_out": false, "label": "e111", "passive": false, "dependent_labels": [], "time": [1371419041, 176333], "round": -1, "prunable": true}
{"legacy_invariant_check": false, "class": "CheckInvariants", "fingerprint": "N/A", "timed_out": false, "label": "e112", "dependent_labels": [], "invariant_name": "check_for_loops_or_connectivity", "invariant_check_name": "check_for_loops_or_connectivity", "time": [1371419041, 182186], "invariant_check": null, "round": -1, "prunable": true}
{"dp_event": {"interface": {"hw_addr": "12:34:56:78:01:02", "ips": ["123.123.1.2"], "name": "eth1"}, "packet": "EjRWeAICEjRWeAECCAYAAQgABgQAAhI0VngBAnt7AQISNFZ4AgJ7ewIC"}, "prunable": true, "dependent_labels": [], "class": "TrafficInjection", "time": [1371419041, 182603], "fingerprint": ["TrafficInjection", {"interface": {"hw_addr": "12:34:56:78:01:02", "ips": ["123.123.1.2"], "name": "eth1"}, "packet": "EjRWeAICEjRWeAECCAYAAQgABgQAAhI0VngBAnt7AQISNFZ4AgJ7ewIC"}], "timed_out": false, "round": -1, "label": "e113"}
{"class": "DataplaneDrop", "fingerprint": ["DataplaneDrop", {"class": "arp"}, "host:[IPAddr('123.123.1.2')]", "12:34:56:78:01:02"], "timed_out": false, "label": "e114", "passive": false, "dependent_labels": [], "time": [1371419041, 182981], "round": -1, "prunable": true}
{"new_ingress_port_no": 6, "class": "HostMigration", "fingerprint": ["HostMigration", 1, 4, 1, 6, "host:[IPAddr('123.123.2.2')]"], "timed_out": false, "label": "e115", "dependent_labels": [], "new_ingress_dpid": 1, "time": [1371419041, 183371], "old_ingress_port_no": 4, "host_id": "host:[IPAddr('123.123.2.2')]", "old_ingress_dpid": 1, "round": -1, "prunable": true}
{"dp_event": {"interface": {"hw_addr": "12:34:56:78:02:02", "ips": ["123.123.2.2"], "name": "eth2"}, "packet": "EjRWeAICEjRWeAICCABFAABI6pAAAEABlSp7ewICe3sCAggABjdQaW5nUGluZ1BpbmdQaW5nUGluZ1BpbmdQaW5nUGluZ1BpbmdQaW5nUGluZ1Bpbmc="}, "prunable": true, "dependent_labels": [], "class": "TrafficInjection", "time": [1371419041, 183865], "fingerprint": ["TrafficInjection", {"interface": {"hw_addr": "12:34:56:78:02:02", "ips": ["123.123.2.2"], "name": "eth2"}, "packet": "EjRWeAICEjRWeAICCABFAABI6pAAAEABlSp7ewICe3sCAggABjdQaW5nUGluZ1BpbmdQaW5nUGluZ1BpbmdQaW5nUGluZ1BpbmdQaW5nUGluZ1Bpbmc="}], "timed_out": false, "round": -1, "label": "e116"}
{"class": "DataplaneDrop", "fingerprint": ["DataplaneDrop", {"dl_dst": "12:34:56:78:02:02", "nw_src": "123.123.2.2", "dl_src": "12:34:56:78:02:02", "nw_dst": "123.123.2.2"}, "host:[IPAddr('123.123.2.2')]", "12:34:56:78:02:02"], "timed_out": false, "label": "e117", "passive": false, "dependent_labels": [], "time": [1371419041, 184311], "round": -1, "prunable": true}
{"fingerprint": ["ControlMessageSend", {"reason": 0, "class": "ofp_port_status", "desc": [6, "00:00:00:00:02:02"]}, 1, ["c", "1"]], "timeout_disallowed": false, "time": [1371419041, 184725], "controller_id": "c1", "timed_out": false, "dependent_labels": [], "dpid": 1, "label": "i118", "class": "ControlMessageSend", "round": -1, "prunable": true}
{"fingerprint": ["ControlMessageSend", {"reason": 1, "class": "ofp_port_status", "desc": [4, "00:00:00:00:02:02"]}, 1, ["c", "1"]], "timeout_disallowed": false, "time": [1371419041, 185090], "controller_id": "c1", "timed_out": false, "dependent_labels": [], "dpid": 1, "label": "i119", "class": "ControlMessageSend", "round": -1, "prunable": true}
{"new_ingress_port_no": 7, "class": "HostMigration", "fingerprint": ["HostMigration", 1, 6, 1, 7, "host:[IPAddr('123.123.2.2')]"], "timed_out": false, "label": "e120", "dependent_labels": [], "new_ingress_dpid": 1, "time": [1371419041, 185558], "old_ingress_port_no": 6, "host_id": "host:[IPAddr('123.123.2.2')]", "old_ingress_dpid": 1, "round": -1, "prunable": true}
{"dp_event": {"interface": {"hw_addr": "12:34:56:78:02:02", "ips": ["123.123.2.2"], "name": "eth2"}, "packet": "EjRWeAICEjRWeAICCABFAABI6pEAAEABlSl7ewICe3sCAgAADjdQaW5nUGluZ1BpbmdQaW5nUGluZ1BpbmdQaW5nUGluZ1BpbmdQaW5nUGluZ1Bpbmc="}, "prunable": true, "dependent_labels": [], "class": "TrafficInjection", "time": [1371419041, 186002], "fingerprint": ["TrafficInjection", {"interface": {"hw_addr": "12:34:56:78:02:02", "ips": ["123.123.2.2"], "name": "eth2"}, "packet": "EjRWeAICEjRWeAICCABFAABI6pEAAEABlSl7ewICe3sCAgAADjdQaW5nUGluZ1BpbmdQaW5nUGluZ1BpbmdQaW5nUGluZ1BpbmdQaW5nUGluZ1Bpbmc="}], "timed_out": false, "round": -1, "label": "e121"}
{"dp_event": {"interface": {"hw_addr": "12:34:56:78:02:02", "ips": ["123.123.2.2"], "name": "eth2"}, "packet": "EjRWeAECEjRWeAICCABFAAAcISgAAEABX797ewICe3sBAggAGS9waW5n"}, "prunable": true, "dependent_labels": [], "class": "TrafficInjection", "time": [1371419041, 186663], "fingerprint": ["TrafficInjection", {"interface": {"hw_addr": "12:34:56:78:02:02", "ips": ["123.123.2.2"], "name": "eth2"}, "packet": "EjRWeAECEjRWeAICCABFAAAcISgAAEABX797ewICe3sBAggAGS9waW5n"}], "timed_out": false, "round": -1, "label": "e122"}
{"timeout_disallowed": false, "fingerprint": ["DataplanePermit", {"dl_dst": "12:34:56:78:02:02", "nw_src": "123.123.2.2", "dl_src": "12:34:56:78:02:02", "nw_dst": "123.123.2.2"}, "host:[IPAddr('123.123.2.2')]", "12:34:56:78:02:02"], "timed_out": false, "label": "i123", "passive": false, "dependent_labels": [], "time": [1371419041, 187653], "class": "DataplanePermit", "round": -1, "prunable": true}
{"timeout_disallowed": false, "fingerprint": ["DataplanePermit", {"dl_dst": "12:34:56:78:01:02", "nw_src": "123.123.2.2", "dl_src": "12:34:56:78:02:02", "nw_dst": "123.123.1.2"}, "host:[IPAddr('123.123.2.2')]", "12:34:56:78:02:02"], "timed_out": false, "label": "i124", "passive": false, "dependent_labels": [], "time": [1371419041, 188569], "class": "DataplanePermit", "round": -1, "prunable": true}
{"fingerprint": ["ControlMessageSend", {"data": {"dl_dst": "12:34:56:78:02:02", "nw_src": "123.123.2.2", "dl_src": "12:34:56:78:02:02", "nw_dst": "123.123.2.2"}, "class": "ofp_packet_in", "in_port": 7}, 1, ["c", "1"]], "timeout_disallowed": false, "time": [1371419041, 189089], "controller_id": "c1", "timed_out": false, "dependent_labels": [], "dpid": 1, "label": "i125", "class": "ControlMessageSend", "round": -1, "prunable": true}
{"fingerprint": ["ControlMessageSend", {"reason": 0, "class": "ofp_port_status", "desc": [7, "00:00:00:00:02:02"]}, 1, ["c", "1"]], "timeout_disallowed": false, "time": [1371419041, 189626], "controller_id": "c1", "timed_out": false, "dependent_labels": [], "dpid": 1, "label": "i126", "class": "ControlMessageSend", "round": -1, "prunable": true}
{"fingerprint": ["ControlMessageSend", {"reason": 1, "class": "ofp_port_status", "desc": [6, "00:00:00:00:02:02"]}, 1, ["c", "1"]], "timeout_disallowed": false, "time": [1371419041, 190014], "controller_id": "c1", "timed_out": false, "dependent_labels": [], "dpid": 1, "label": "i127", "class": "ControlMessageSend", "round": -1, "prunable": true}
{"fingerprint": ["ControlMessageSend", {"data": {"dl_dst": "12:34:56:78:01:02", "nw_src": "123.123.2.2", "dl_src": "12:34:56:78:02:02", "nw_dst": "123.123.1.2"}, "class": "ofp_packet_in", "in_port": 7}, 1, ["c", "1"]], "timeout_disallowed": false, "time": [1371419041, 190470], "controller_id": "c1", "timed_out": false, "dependent_labels": [], "dpid": 1, "label": "i128", "class": "ControlMessageSend", "round": -1, "prunable": true}
{"name": null, "timeout_disallowed": false, "fingerprint": ["ControllerStateChange", "%s moved from %s.%i to %s.%i?", "c1"], "controller_id": "c1", "value": ["(EthAddr('12:34:56:78:02:02'), '00-00-00-00-00-01', 4, '00-00-00-00-00-01', 7)"], "timed_out": false, "dependent_labels": [], "time": [1371419041, 199569], "label": "i129", "class": "ControllerStateChange", "round": -1, "prunable": true}
{"name": null, "timeout_disallowed": false, "fingerprint": ["ControllerStateChange", "Learned %s at %s.%i", "c1"], "controller_id": "c1", "value": ["(EthAddr('12:34:56:78:02:02'), 00-00-00-00-00-01, 7)"], "timed_out": false, "dependent_labels": [], "time": [1371419041, 202240], "label": "i130", "class": "ControllerStateChange", "round": -1, "prunable": true}
{"name": null, "timeout_disallowed": false, "fingerprint": ["ControllerStateChange", "Installing path for %s -> %s %04x (%i hops)", "c1"], "controller_id": "c1", "value": ["(EthAddr('12:34:56:78:02:02'), EthAddr('12:34:56:78:02:02'), 2048, 1)"], "timed_out": false, "dependent_labels": [], "time": [1371419041, 203622], "label": "i131", "class": "ControllerStateChange", "round": -1, "prunable": true}
{"name": null, "timeout_disallowed": false, "fingerprint": ["ControllerStateChange", "Can't get from %s to %s", "c1"], "controller_id": "c1", "value": ["(EthAddr('12:34:56:78:02:02'), EthAddr('12:34:56:78:01:02'))"], "timed_out": true, "dependent_labels": [], "time": [1371419041, 815252], "label": "i132", "class": "ControllerStateChange", "round": -1, "prunable": true}
{"name": null, "timeout_disallowed": false, "fingerprint": ["ControllerStateChange", "Installing path for %s -> %s %04x (%i hops)", "c1"], "controller_id": "c1", "value": ["(EthAddr('12:34:56:78:02:02'), EthAddr('12:34:56:78:01:02'), 2048, 1)"], "timed_out": false, "dependent_labels": [], "new_internal_event": true, "time": [1371419041, 815551], "label": "i215", "class": "ControllerStateChange", "round": -1, "prunable": true}
{"name": null, "timeout_disallowed": false, "fingerprint": ["ControllerStateChange", "Dest unreachable (%s -> %s)", "c1"], "controller_id": "c1", "value": ["(EthAddr('12:34:56:78:02:02'), EthAddr('12:34:56:78:01:02'))"], "timed_out": true, "dependent_labels": [], "time": [1371419042, 417151], "label": "i133", "class": "ControllerStateChange", "round": -1, "prunable": true}
{"fingerprint": ["ControlMessageReceive", {"hard_timeout": 30, "actions": ["output(7)"], "priority": 32768, "idle_timeout": 10, "command": "add", "out_port": 65535, "flags": 0, "class": "ofp_flow_mod", "match": "dl_src:12:34:56:78:02:02,dl_dst:12:34:56:78:02:02,dl_vlan:65535,dl_vlan_pcp:0,dl_type:2048,nw_tos:0,nw_proto:1,nw_src:123.123.2.2/32,nw_dst:123.123.2.2/32,tp_src:0,tp_dst:0"}, 1, ["c", "1"]], "timeout_disallowed": false, "time": [1371419042, 418463], "controller_id": "c1", "timed_out": false, "dependent_labels": [], "dpid": 1, "label": "i134", "class": "ControlMessageReceive", "round": -1, "prunable": true}
{"fingerprint": ["ControlMessageReceive", {"in_port": 65535, "data": {"dl_dst": "12:34:56:78:02:02", "nw_src": "123.123.1.2", "dl_src": "00:00:00:00:00:01", "nw_dst": "123.123.2.2"}, "class": "ofp_packet_out", "actions": ["output(7)"]}, 1, ["c", "1"]], "timeout_disallowed": false, "time": [1371419043, 22424], "controller_id": "c1", "timed_out": true, "dependent_labels": [], "dpid": 1, "label": "i135", "class": "ControlMessageReceive", "round": -1, "prunable": true}
{"class": "DataplaneDrop", "fingerprint": ["DataplaneDrop", {"dl_dst": "12:34:56:78:02:02", "nw_src": "123.123.1.2", "dl_src": "00:00:00:00:00:01", "nw_dst": "123.123.2.2"}, 1, 7], "timed_out": true, "label": "e136", "passive": false, "dependent_labels": [], "time": [1371419043, 22920], "round": -1, "prunable": true}
{"legacy_invariant_check": false, "class": "CheckInvariants", "fingerprint": "N/A", "timed_out": false, "label": "e137", "dependent_labels": [], "invariant_name": "check_for_loops_or_connectivity", "invariant_check_name": "check_for_loops_or_connectivity", "time": [1371419043, 32046], "invariant_check": null, "round": -1, "prunable": true}
{"dp_event": {"interface": {"hw_addr": "12:34:56:78:01:02", "ips": ["123.123.1.2"], "name": "eth1"}, "packet": "EjRWeAICEjRWeAECCABFAAAcISkAAEABX757ewECe3sCAgAAISlwb25n"}, "prunable": true, "dependent_labels": [], "class": "TrafficInjection", "time": [1371419043, 32533], "fingerprint": ["TrafficInjection", {"interface": {"hw_addr": "12:34:56:78:01:02", "ips": ["123.123.1.2"], "name": "eth1"}, "packet": "EjRWeAICEjRWeAECCABFAAAcISkAAEABX757ewECe3sCAgAAISlwb25n"}], "timed_out": false, "round": -1, "label": "e138"}
{"timeout_disallowed": false, "fingerprint": ["DataplanePermit", {"dl_dst": "12:34:56:78:02:02", "nw_src": "123.123.1.2", "dl_src": "12:34:56:78:01:02", "nw_dst": "123.123.2.2"}, "host:[IPAddr('123.123.1.2')]", "12:34:56:78:01:02"], "timed_out": false, "label": "i139", "passive": false, "dependent_labels": [], "time": [1371419043, 33683], "class": "DataplanePermit", "round": -1, "prunable": true}
{"timeout_disallowed": false, "fingerprint": ["DataplanePermit", {"dl_dst": "12:34:56:78:02:02", "nw_src": "123.123.1.2", "dl_src": "12:34:56:78:01:02", "nw_dst": "123.123.2.2"}, 1, 1], "timed_out": true, "label": "i140", "passive": false, "dependent_labels": [], "time": [1371419043, 551108], "class": "DataplanePermit", "round": -1, "prunable": true}
{"fingerprint": ["ControlMessageSend", {"data": {"dl_dst": "12:34:56:78:02:02", "nw_src": "123.123.1.2", "dl_src": "12:34:56:78:01:02", "nw_dst": "123.123.2.2"}, "class": "ofp_packet_in", "in_port": 1}, 2, ["c", "1"]], "timeout_disallowed": false, "time": [1371419044, 154582], "controller_id": "c1", "timed_out": true, "dependent_labels": [], "dpid": 2, "label": "i141", "class": "ControlMessageSend", "round": -1, "prunable": true}
{"name": null, "timeout_disallowed": false, "fingerprint": ["ControllerStateChange", "Can't get from %s to %s", "c1"], "controller_id": "c1", "value": ["(EthAddr('12:34:56:78:01:02'), EthAddr('12:34:56:78:02:02'))"], "timed_out": true, "dependent_labels": [], "time": [1371419044, 758217], "label": "i142", "class": "ControllerStateChange", "round": -1, "prunable": true}
{"name": null, "timeout_disallowed": false, "fingerprint": ["ControllerStateChange", "Dest unreachable (%s -> %s)", "c1"], "controller_id": "c1", "value": ["(EthAddr('12:34:56:78:01:02'), EthAddr('12:34:56:78:02:02'))"], "timed_out": true, "dependent_labels": [], "time": [1371419045, 356863], "label": "i143", "class": "ControllerStateChange", "round": -1, "prunable": true}
{"fingerprint": ["ControlMessageReceive", {"in_port": 65535, "data": {"dl_dst": "12:34:56:78:01:02", "nw_src": "123.123.2.2", "dl_src": "00:00:00:00:00:02", "nw_dst": "123.123.1.2"}, "class": "ofp_packet_out", "actions": ["output(1)"]}, 2, ["c", "1"]], "timeout_disallowed": false, "time": [1371419045, 962151], "controller_id": "c1", "timed_out": true, "dependent_labels": [], "dpid": 2, "label": "i144", "class": "ControlMessageReceive", "round": -1, "prunable": true}
{"timeout_disallowed": false, "fingerprint": ["DataplanePermit", {"dl_dst": "12:34:56:78:01:02", "nw_src": "123.123.2.2", "dl_src": "00:00:00:00:00:02", "nw_dst": "123.123.1.2"}, 2, 1], "timed_out": true, "label": "i145", "passive": false, "dependent_labels": [], "time": [1371419046, 466557], "class": "DataplanePermit", "round": -1, "prunable": true}
{"fingerprint": ["ControlMessageReceive", {"in_port": 65535, "data": {"class": "lldp"}, "class": "ofp_packet_out", "actions": ["output(1)"]}, 2, ["c", "1"]], "timeout_disallowed": false, "time": [1371419046, 467283], "controller_id": "c1", "timed_out": false, "dependent_labels": [], "dpid": 2, "label": "i146", "class": "ControlMessageReceive", "round": -1, "prunable": true}
{"fingerprint": ["ControlMessageSend", {"data": {"dl_dst": "12:34:56:78:01:02", "nw_src": "123.123.2.2", "dl_src": "00:00:00:00:00:02", "nw_dst": "123.123.1.2"}, "class": "ofp_packet_in", "in_port": 1}, 1, ["c", "1"]], "timeout_disallowed": false, "time": [1371419047, 71046], "controller_id": "c1", "timed_out": true, "dependent_labels": [], "dpid": 1, "label": "i147", "class": "ControlMessageSend", "round": -1, "prunable": true}
{"name": null, "timeout_disallowed": false, "fingerprint": ["ControllerStateChange", "Can't get from %s to %s", "c1"], "controller_id": "c1", "value": ["(EthAddr('00:00:00:00:00:02'), EthAddr('12:34:56:78:01:02'))"], "timed_out": true, "dependent_labels": [], "time": [1371419047, 671789], "label": "i148", "class": "ControllerStateChange", "round": -1, "prunable": true}
{"name": null, "timeout_disallowed": false, "fingerprint": ["ControllerStateChange", "Dest unreachable (%s -> %s)", "c1"], "controller_id": "c1", "value": ["(EthAddr('00:00:00:00:00:02'), EthAddr('12:34:56:78:01:02'))"], "timed_out": true, "dependent_labels": [], "time": [1371419048, 271178], "label": "i149", "class": "ControllerStateChange", "round": -1, "prunable": true}
{"timeout_disallowed": false, "fingerprint": ["DataplanePermit", {"class": "lldp"}, 2, 1], "timed_out": false, "label": "i150", "passive": false, "dependent_labels": [], "time": [1371419048, 271990], "class": "DataplanePermit", "round": -1, "prunable": true}
{"fingerprint": ["ControlMessageReceive", {"in_port": 65535, "data": {"dl_dst": "00:00:00:00:00:02", "nw_src": "123.123.1.2", "dl_src": "00:00:00:00:00:01", "nw_dst": "123.123.2.2"}, "class": "ofp_packet_out", "actions": ["output(1)"]}, 1, ["c", "1"]], "timeout_disallowed": false, "time": [1371419048, 878350], "controller_id": "c1", "timed_out": true, "dependent_labels": [], "dpid": 1, "label": "i151", "class": "ControlMessageReceive", "round": -1, "prunable": true}
{"fingerprint": ["ControlMessageSend", {"data": {"class": "lldp"}, "class": "ofp_packet_in", "in_port": 1}, 1, ["c", "1"]], "timeout_disallowed": false, "time": [1371419048, 879035], "controller_id": "c1", "timed_out": false, "dependent_labels": [], "dpid": 1, "label": "i152", "class": "ControlMessageSend", "round": -1, "prunable": true}
{"name": null, "timeout_disallowed": false, "fingerprint": ["ControllerStateChange", "link detected: %s.%i -> %s.%i", "c1"], "controller_id": "c1", "value": ["('00-00-00-00-00-02', 1, '00-00-00-00-00-01', 1)"], "timed_out": false, "dependent_labels": [], "time": [1371419048, 883317], "label": "i153", "class": "ControllerStateChange", "round": -1, "prunable": true}
{"name": null, "timeout_disallowed": false, "fingerprint": ["ControllerStateChange", "Unlearned %s", "c1"], "controller_id": "c1", "value": ["(EthAddr('00:00:00:00:00:02'),)"], "timed_out": true, "dependent_labels": [], "time": [1371419049, 487717], "label": "i154", "class": "ControllerStateChange", "round": -1, "prunable": true}
{"name": null, "timeout_disallowed": false, "fingerprint": ["ControllerStateChange", "Unlearned %s", "c1"], "controller_id": "c1", "value": ["(EthAddr('12:34:56:78:01:02'),)"], "timed_out": true, "dependent_labels": [], "time": [1371419049, 982975], "label": "i155", "class": "ControllerStateChange", "round": -1, "prunable": true}
{"class": "DataplaneDrop", "fingerprint": ["DataplaneDrop", {"dl_dst": "00:00:00:00:00:02", "nw_src": "123.123.1.2", "dl_src": "00:00:00:00:00:01", "nw_dst": "123.123.2.2"}, 1, 1], "timed_out": true, "label": "e156", "passive": false, "dependent_labels": [], "time": [1371419049, 983228], "round": -1, "prunable": true}
{"fingerprint": ["ControlMessageReceive", {"hard_timeout": 0, "actions": [], "priority": 32768, "idle_timeout": 0, "command": "delete", "out_port": 65535, "flags": 0, "class": "ofp_flow_mod", "match": "x^L"}, 2, ["c", "1"]], "timeout_disallowed": false, "time": [1371419049, 983889], "controller_id": "c1", "timed_out": false, "dependent_labels": [], "dpid": 2, "label": "i157", "class": "ControlMessageReceive", "round": -1, "prunable": true}
{"fingerprint": ["ControlMessageReceive", {"hard_timeout": 0, "actions": [], "priority": 32768, "idle_timeout": 0, "command": "delete", "out_port": 65535, "flags": 0, "class": "ofp_flow_mod", "match": "x^L"}, 1, ["c", "1"]], "timeout_disallowed": false, "time": [1371419049, 984592], "controller_id": "c1", "timed_out": false, "dependent_labels": [], "dpid": 1, "label": "i158", "class": "ControlMessageReceive", "round": -1, "prunable": true}
{"fingerprint": ["ControlMessageReceive", {"in_port": 1, "data": [], "class": "ofp_packet_out", "actions": []}, 1, ["c", "1"]], "timeout_disallowed": false, "time": [1371419049, 985163], "controller_id": "c1", "timed_out": false, "dependent_labels": [], "dpid": 1, "label": "i159", "class": "ControlMessageReceive", "round": -1, "prunable": true}
{"dp_event": {"interface": {"hw_addr": "12:34:56:78:02:02", "ips": ["123.123.2.2"], "name": "eth2"}, "packet": "////////EjRWeAICCAYAAQgABgQAARI0VngCAnt7AgIAAAAAAAB7ewEC"}, "prunable": true, "dependent_labels": [], "class": "TrafficInjection", "time": [1371419049, 985807], "fingerprint": ["TrafficInjection", {"interface": {"hw_addr": "12:34:56:78:02:02", "ips": ["123.123.2.2"], "name": "eth2"}, "packet": "////////EjRWeAICCAYAAQgABgQAARI0VngCAnt7AgIAAAAAAAB7ewEC"}], "timed_out": false, "round": -1, "label": "e160"}
{"class": "DataplaneDrop", "fingerprint": ["DataplaneDrop", {"class": "arp"}, "host:[IPAddr('123.123.2.2')]", "12:34:56:78:02:02"], "timed_out": false, "label": "e161", "passive": false, "dependent_labels": [], "time": [1371419049, 986255], "round": -1, "prunable": true}
{"fingerprint": ["ControlMessageReceive", {"in_port": 65535, "data": {"class": "lldp"}, "class": "ofp_packet_out", "actions": ["output(1)"]}, 1, ["c", "1"]], "timeout_disallowed": false, "time": [1371419049, 986769], "controller_id": "c1", "timed_out": false, "dependent_labels": [], "dpid": 1, "label": "i162", "class": "ControlMessageReceive", "round": -1, "prunable": true}
{"timeout_disallowed": false, "fingerprint": ["DataplanePermit", {"class": "lldp"}, 1, 1], "timed_out": false, "label": "i163", "passive": false, "dependent_labels": [], "time": [1371419049, 987581], "class": "DataplanePermit", "round": -1, "prunable": true}
{"fingerprint": ["ControlMessageSend", {"data": {"class": "lldp"}, "class": "ofp_packet_in", "in_port": 1}, 2, ["c", "1"]], "timeout_disallowed": false, "time": [1371419049, 987929], "controller_id": "c1", "timed_out": false, "dependent_labels": [], "dpid": 2, "label": "i164", "class": "ControlMessageSend", "round": -1, "prunable": true}
{"name": null, "timeout_disallowed": false, "fingerprint": ["ControllerStateChange", "link detected: %s.%i -> %s.%i", "c1"], "controller_id": "c1", "value": ["('00-00-00-00-00-01', 1, '00-00-00-00-00-02', 1)"], "timed_out": false, "dependent_labels": [], "time": [1371419049, 991967], "label": "i165", "class": "ControllerStateChange", "round": -1, "prunable": true}
{"fingerprint": ["ControlMessageReceive", {"in_port": 1, "data": [], "class": "ofp_packet_out", "actions": []}, 2, ["c", "1"]], "timeout_disallowed": false, "time": [1371419049, 992305], "controller_id": "c1", "timed_out": false, "dependent_labels": [], "dpid": 2, "label": "i166", "class": "ControlMessageReceive", "round": -1, "prunable": true}
{"fingerprint": ["ControlMessageReceive", {"hard_timeout": 0, "actions": [], "priority": 32768, "idle_timeout": 0, "command": "delete", "out_port": 65535, "flags": 0, "class": "ofp_flow_mod", "match": "x^L"}, 2, ["c", "1"]], "timeout_disallowed": false, "time": [1371419049, 992816], "controller_id": "c1", "timed_out": false, "dependent_labels": [], "dpid": 2, "label": "i167", "class": "ControlMessageReceive", "round": -1, "prunable": true}
{"fingerprint": ["ControlMessageReceive", {"hard_timeout": 0, "actions": [], "priority": 32768, "idle_timeout": 0, "command": "delete", "out_port": 65535, "flags": 0, "class": "ofp_flow_mod", "match": "x^L"}, 1, ["c", "1"]], "timeout_disallowed": false, "time": [1371419049, 993479], "controller_id": "c1", "timed_out": false, "dependent_labels": [], "dpid": 1, "label": "i168", "class": "ControlMessageReceive", "round": -1, "prunable": true}
{"legacy_invariant_check": false, "class": "CheckInvariants", "fingerprint": "N/A", "timed_out": false, "label": "e169", "dependent_labels": [], "invariant_name": "check_for_loops_or_connectivity", "invariant_check_name": "check_for_loops_or_connectivity", "time": [1371419050, 2379], "invariant_check": null, "round": -1, "prunable": true}
{"dp_event": {"interface": {"hw_addr": "12:34:56:78:01:02", "ips": ["123.123.1.2"], "name": "eth1"}, "packet": "EjRWeAICEjRWeAECCAYAAQgABgQAAhI0VngBAnt7AQISNFZ4AgJ7ewIC"}, "prunable": true, "dependent_labels": [], "class": "TrafficInjection", "time": [1371419050, 2802], "fingerprint": ["TrafficInjection", {"interface": {"hw_addr": "12:34:56:78:01:02", "ips": ["123.123.1.2"], "name": "eth1"}, "packet": "EjRWeAICEjRWeAECCAYAAQgABgQAAhI0VngBAnt7AQISNFZ4AgJ7ewIC"}], "timed_out": false, "round": -1, "label": "e170"}
{"timeout_disallowed": false, "fingerprint": ["DataplanePermit", {"class": "arp"}, "host:[IPAddr('123.123.1.2')]", "12:34:56:78:01:02"], "timed_out": false, "label": "i171", "passive": false, "dependent_labels": [], "time": [1371419050, 3644], "class": "DataplanePermit", "round": -1, "prunable": true}
{"timeout_disallowed": false, "fingerprint": ["DataplanePermit", {"class": "arp"}, 1, 1], "timed_out": true, "label": "i172", "passive": false, "dependent_labels": [], "time": [1371419050, 610331], "class": "DataplanePermit", "round": -1, "prunable": true}
{"fingerprint": ["ControlMessageSend", {"data": {"class": "arp"}, "class": "ofp_packet_in", "in_port": 1}, 2, ["c", "1"]], "timeout_disallowed": false, "time": [1371419051, 212483], "controller_id": "c1", "timed_out": true, "dependent_labels": [], "dpid": 2, "label": "i173", "class": "ControlMessageSend", "round": -1, "prunable": true}
{"new_ingress_port_no": 4, "class": "HostMigration", "fingerprint": ["HostMigration", 1, 7, 2, 4, "host:[IPAddr('123.123.2.2')]"], "timed_out": false, "label": "e174", "dependent_labels": [], "new_ingress_dpid": 2, "time": [1371419051, 213184], "old_ingress_port_no": 7, "host_id": "host:[IPAddr('123.123.2.2')]", "old_ingress_dpid": 1, "round": -1, "prunable": true}
{"dp_event": {"interface": {"hw_addr": "12:34:56:78:02:02", "ips": ["123.123.2.2"], "name": "eth2"}, "packet": "EjRWeAICEjRWeAICCABFAABI6qMAAEABlRd7ewICe3sCAgAADjdQaW5nUGluZ1BpbmdQaW5nUGluZ1BpbmdQaW5nUGluZ1BpbmdQaW5nUGluZ1Bpbmc="}, "prunable": true, "dependent_labels": [], "class": "TrafficInjection", "time": [1371419051, 213720], "fingerprint": ["TrafficInjection", {"interface": {"hw_addr": "12:34:56:78:02:02", "ips": ["123.123.2.2"], "name": "eth2"}, "packet": "EjRWeAICEjRWeAICCABFAABI6qMAAEABlRd7ewICe3sCAgAADjdQaW5nUGluZ1BpbmdQaW5nUGluZ1BpbmdQaW5nUGluZ1BpbmdQaW5nUGluZ1Bpbmc="}], "timed_out": false, "round": -1, "label": "e175"}
{"name": null, "timeout_disallowed": false, "fingerprint": ["ControllerStateChange", "Learned %s at %s.%i", "c1"], "controller_id": "c1", "value": ["(EthAddr('12:34:56:78:01:02'), 00-00-00-00-00-02, 1)"], "timed_out": true, "dependent_labels": [], "time": [1371419051, 817643], "label": "i176", "class": "ControllerStateChange", "round": -1, "prunable": true}
{"name": null, "timeout_disallowed": false, "fingerprint": ["ControllerStateChange", "Installing path for %s -> %s %04x (%i hops)", "c1"], "controller_id": "c1", "value": ["(EthAddr('12:34:56:78:01:02'), EthAddr('12:34:56:78:02:02'), 2054, 2)"], "timed_out": true, "dependent_labels": [], "time": [1371419052, 418193], "label": "i177", "class": "ControllerStateChange", "round": -1, "prunable": true}
{"timeout_disallowed": false, "fingerprint": ["DataplanePermit", {"dl_dst": "12:34:56:78:02:02", "nw_src": "123.123.2.2", "dl_src": "12:34:56:78:02:02", "nw_dst": "123.123.2.2"}, "host:[IPAddr('123.123.2.2')]", "12:34:56:78:02:02"], "timed_out": false, "label": "i178", "passive": false, "dependent_labels": [], "time": [1371419052, 419058], "class": "DataplanePermit", "round": -1, "prunable": true}
{"fingerprint": ["ControlMessageReceive", {"hard_timeout": 30, "actions": ["output(1)"], "priority": 32768, "idle_timeout": 10, "command": "add", "out_port": 65535, "flags": 0, "class": "ofp_flow_mod", "match": "dl_src:12:34:56:78:01:02,dl_dst:12:34:56:78:02:02,dl_vlan:65535,dl_vlan_pcp:0,dl_type:2054,nw_proto:2,nw_src:123.123.1.2/32,nw_dst:123.123.2.2/32"}, 2, ["c", "1"]], "timeout_disallowed": false, "time": [1371419053, 17389], "controller_id": "c1", "timed_out": true, "dependent_labels": [], "dpid": 2, "label": "i179", "class": "ControlMessageReceive", "round": -1, "prunable": true}
{"fingerprint": ["ControlMessageReceive", {"hard_timeout": 30, "actions": ["output(7)"], "priority": 32768, "idle_timeout": 10, "command": "add", "out_port": 65535, "flags": 0, "class": "ofp_flow_mod", "match": "dl_src:12:34:56:78:01:02,dl_dst:12:34:56:78:02:02,dl_vlan:65535,dl_vlan_pcp:0,dl_type:2054,nw_proto:2,nw_src:123.123.1.2/32,nw_dst:123.123.2.2/32"}, 1, ["c", "1"]], "timeout_disallowed": false, "time": [1371419053, 622899], "controller_id": "c1", "timed_out": true, "dependent_labels": [], "dpid": 1, "label": "i180", "class": "ControlMessageReceive", "round": -1, "prunable": true}
{"fingerprint": ["ControlMessageSend", {"reason": 0, "class": "ofp_port_status", "desc": [4, "00:00:00:00:02:02"]}, 2, ["c", "1"]], "timeout_disallowed": false, "time": [1371419053, 623606], "controller_id": "c1", "timed_out": false, "dependent_labels": [], "dpid": 2, "label": "i181", "class": "ControlMessageSend", "round": -1, "prunable": true}
{"fingerprint": ["ControlMessageSend", {"reason": 1, "class": "ofp_port_status", "desc": [7, "00:00:00:00:02:02"]}, 1, ["c", "1"]], "timeout_disallowed": false, "time": [1371419053, 623985], "controller_id": "c1", "timed_out": false, "dependent_labels": [], "dpid": 1, "label": "i182", "class": "ControlMessageSend", "round": -1, "prunable": true}
{"fingerprint": ["ControlMessageSend", {"data": {"dl_dst": "12:34:56:78:02:02", "nw_src": "123.123.2.2", "dl_src": "12:34:56:78:02:02", "nw_dst": "123.123.2.2"}, "class": "ofp_packet_in", "in_port": 4}, 2, ["c", "1"]], "timeout_disallowed": false, "time": [1371419053, 624416], "controller_id": "c1", "timed_out": false, "dependent_labels": [], "dpid": 2, "label": "i183", "class": "ControlMessageSend", "round": -1, "prunable": true}
{"name": null, "timeout_disallowed": false, "fingerprint": ["ControllerStateChange", "%s moved from %s.%i to %s.%i?", "c1"], "controller_id": "c1", "value": ["(EthAddr('12:34:56:78:02:02'), '00-00-00-00-00-01', 7, '00-00-00-00-00-02', 4)"], "timed_out": false, "dependent_labels": [], "time": [1371419053, 629383], "label": "i184", "class": "ControllerStateChange", "round": -1, "prunable": true}
{"name": null, "timeout_disallowed": false, "fingerprint": ["ControllerStateChange", "Learned %s at %s.%i", "c1"], "controller_id": "c1", "value": ["(EthAddr('12:34:56:78:02:02'), 00-00-00-00-00-02, 4)"], "timed_out": false, "dependent_labels": [], "time": [1371419053, 631992], "label": "i185", "class": "ControllerStateChange", "round": -1, "prunable": true}
{"name": null, "timeout_disallowed": false, "fingerprint": ["ControllerStateChange", "Installing path for %s -> %s %04x (%i hops)", "c1"], "controller_id": "c1", "value": ["(EthAddr('12:34:56:78:02:02'), EthAddr('12:34:56:78:02:02'), 2048, 1)"], "timed_out": false, "dependent_labels": [], "time": [1371419053, 633440], "label": "i186", "class": "ControllerStateChange", "round": -1, "prunable": true}
{"fingerprint": ["ControlMessageReceive", {"hard_timeout": 30, "actions": ["output(4)"], "priority": 32768, "idle_timeout": 10, "command": "add", "out_port": 65535, "flags": 0, "class": "ofp_flow_mod", "match": "dl_src:12:34:56:78:02:02,dl_dst:12:34:56:78:02:02,dl_vlan:65535,dl_vlan_pcp:0,dl_type:2048,nw_tos:0,nw_proto:1,nw_src:123.123.2.2/32,nw_dst:123.123.2.2/32,tp_src:0,tp_dst:0"}, 2, ["c", "1"]], "timeout_disallowed": false, "time": [1371419053, 634140], "controller_id": "c1", "timed_out": false, "dependent_labels": [], "dpid": 2, "label": "i187", "class": "ControlMessageReceive", "round": -1, "prunable": true}
{"dp_event": {"interface": {"hw_addr": "12:34:56:78:02:02", "ips": ["123.123.2.2"], "name": "eth2"}, "packet": "EjRWeAECEjRWeAICCABFAAAcISgAAEABX797ewICe3sBAggAGS9waW5n"}, "prunable": true, "dependent_labels": [], "class": "TrafficInjection", "time": [1371419053, 634939], "fingerprint": ["TrafficInjection", {"interface": {"hw_addr": "12:34:56:78:02:02", "ips": ["123.123.2.2"], "name": "eth2"}, "packet": "EjRWeAECEjRWeAICCABFAAAcISgAAEABX797ewICe3sBAggAGS9waW5n"}], "timed_out": false, "round": -1, "label": "e188"}
{"timeout_disallowed": false, "fingerprint": ["DataplanePermit", {"dl_dst": "12:34:56:78:01:02", "nw_src": "123.123.2.2", "dl_src": "12:34:56:78:02:02", "nw_dst": "123.123.1.2"}, "host:[IPAddr('123.123.2.2')]", "12:34:56:78:02:02"], "timed_out": false, "label": "i189", "passive": false, "dependent_labels": [], "time": [1371419053, 635894], "class": "DataplanePermit", "round": -1, "prunable": true}
{"fingerprint": ["ControlMessageSend", {"data": {"dl_dst": "12:34:56:78:01:02", "nw_src": "123.123.2.2", "dl_src": "12:34:56:78:02:02", "nw_dst": "123.123.1.2"}, "class": "ofp_packet_in", "in_port": 4}, 2, ["c", "1"]], "timeout_disallowed": false, "time": [1371419053, 636406], "controller_id": "c1", "timed_out": false, "dependent_labels": [], "dpid": 2, "label": "i190", "class": "ControlMessageSend", "round": -1, "prunable": true}
{"name": null, "timeout_disallowed": false, "fingerprint": ["ControllerStateChange", "Installing path for %s -> %s %04x (%i hops)", "c1"], "controller_id": "c1", "value": ["(EthAddr('12:34:56:78:02:02'), EthAddr('12:34:56:78:01:02'), 2048, 1)"], "timed_out": false, "dependent_labels": [], "time": [1371419053, 643788], "label": "i191", "class": "ControllerStateChange", "round": -1, "prunable": true}
{"fingerprint": ["ControlMessageReceive", {"hard_timeout": 30, "actions": ["output(1)"], "priority": 32768, "idle_timeout": 10, "command": "add", "out_port": 65535, "flags": 0, "class": "ofp_flow_mod", "match": "dl_src:12:34:56:78:02:02,dl_dst:12:34:56:78:01:02,dl_vlan:65535,dl_vlan_pcp:0,dl_type:2048,nw_tos:0,nw_proto:1,nw_src:123.123.2.2/32,nw_dst:123.123.1.2/32,tp_src:8,tp_dst:0"}, 2, ["c", "1"]], "timeout_disallowed": false, "time": [1371419053, 644387], "controller_id": "c1", "timed_out": false, "dependent_labels": [], "dpid": 2, "label": "i192", "class": "ControlMessageReceive", "round": -1, "prunable": true}
{"timeout_disallowed": false, "fingerprint": ["DataplanePermit", {"dl_dst": "12:34:56:78:01:02", "nw_src": "123.123.2.2", "dl_src": "12:34:56:78:02:02", "nw_dst": "123.123.1.2"}, 2, 1], "timed_out": false, "label": "i193", "passive": false, "dependent_labels": [], "time": [1371419053, 645460], "class": "DataplanePermit", "round": -1, "prunable": true}
{"fingerprint": ["ControlMessageSend", {"data": {"dl_dst": "12:34:56:78:01:02", "nw_src": "123.123.2.2", "dl_src": "12:34:56:78:02:02", "nw_dst": "123.123.1.2"}, "class": "ofp_packet_in", "in_port": 1}, 1, ["c", "1"]], "timeout_disallowed": false, "time": [1371419053, 645908], "controller_id": "c1", "timed_out": false, "dependent_labels": [], "dpid": 1, "label": "i194", "class": "ControlMessageSend", "round": -1, "prunable": true}
{"new_ingress_port_no": 8, "class": "HostMigration", "fingerprint": ["HostMigration", 1, 5, 1, 8, "host:[IPAddr('123.123.1.2')]"], "timed_out": false, "label": "e195", "dependent_labels": [], "new_ingress_dpid": 1, "time": [1371419053, 646524], "old_ingress_port_no": 5, "host_id": "host:[IPAddr('123.123.1.2')]", "old_ingress_dpid": 1, "round": -1, "prunable": true}
{"dp_event": {"interface": {"hw_addr": "12:34:56:78:01:02", "ips": ["123.123.1.2"], "name": "eth1"}, "packet": "EjRWeAECEjRWeAECCABFAABI6qcAAEABlxN7ewECe3sBAgAADjdQaW5nUGluZ1BpbmdQaW5nUGluZ1BpbmdQaW5nUGluZ1BpbmdQaW5nUGluZ1Bpbmc="}, "prunable": true, "dependent_labels": [], "class": "TrafficInjection", "time": [1371419053, 646970], "fingerprint": ["TrafficInjection", {"interface": {"hw_addr": "12:34:56:78:01:02", "ips": ["123.123.1.2"], "name": "eth1"}, "packet": "EjRWeAECEjRWeAECCABFAABI6qcAAEABlxN7ewECe3sBAgAADjdQaW5nUGluZ1BpbmdQaW5nUGluZ1BpbmdQaW5nUGluZ1BpbmdQaW5nUGluZ1Bpbmc="}], "timed_out": false, "round": -1, "label": "e196"}
{"name": null, "timeout_disallowed": false, "fingerprint": ["ControllerStateChange", "Packet from %s arrived at %s.%i without flow", "c1"], "controller_id": "c1", "value": ["(EthAddr('12:34:56:78:02:02'), '00-00-00-00-00-01', 1)"], "timed_out": false, "dependent_labels": [], "time": [1371419053, 654288], "label": "i197", "class": "ControllerStateChange", "round": -1, "prunable": true}
{"name": null, "timeout_disallowed": false, "fingerprint": ["ControllerStateChange", "Installing path for %s -> %s %04x (%i hops)", "c1"], "controller_id": "c1", "value": ["(EthAddr('12:34:56:78:02:02'), EthAddr('12:34:56:78:01:02'), 2048, 2)"], "timed_out": false, "dependent_labels": [], "time": [1371419053, 655661], "label": "i198", "class": "ControllerStateChange", "round": -1, "prunable": true}
{"timeout_disallowed": false, "fingerprint": ["DataplanePermit", {"dl_dst": "12:34:56:78:01:02", "nw_src": "123.123.1.2", "dl_src": "12:34:56:78:01:02", "nw_dst": "123.123.1.2"}, "host:[IPAddr('123.123.1.2')]", "12:34:56:78:01:02"], "timed_out": false, "label": "i199", "passive": false, "dependent_labels": [], "time": [1371419053, 656517], "class": "DataplanePermit", "round": -1, "prunable": true}
{"fingerprint": ["ControlMessageReceive", {"hard_timeout": 30, "actions": ["output(1)"], "priority": 32768, "idle_timeout": 10, "command": "add", "out_port": 65535, "flags": 0, "class": "ofp_flow_mod", "match": "dl_src:12:34:56:78:02:02,dl_dst:12:34:56:78:01:02,dl_vlan:65535,dl_vlan_pcp:0,dl_type:2048,nw_tos:0,nw_proto:1,nw_src:123.123.2.2/32,nw_dst:123.123.1.2/32,tp_src:8,tp_dst:0"}, 1, ["c", "1"]], "timeout_disallowed": false, "time": [1371419054, 208412], "controller_id": "c1", "timed_out": true, "dependent_labels": [], "dpid": 1, "label": "i200", "class": "ControlMessageReceive", "round": -1, "prunable": true}
{"fingerprint": ["ControlMessageReceive", {"hard_timeout": 30, "actions": ["output(1)"], "priority": 32768, "idle_timeout": 10, "command": "add", "out_port": 65535, "flags": 0, "class": "ofp_flow_mod", "match": "dl_src:12:34:56:78:02:02,dl_dst:12:34:56:78:01:02,dl_vlan:65535,dl_vlan_pcp:0,dl_type:2048,nw_tos:0,nw_proto:1,nw_src:123.123.2.2/32,nw_dst:123.123.1.2/32,tp_src:8,tp_dst:0"}, 2, ["c", "1"]], "timeout_disallowed": false, "time": [1371419054, 812988], "controller_id": "c1", "timed_out": true, "dependent_labels": [], "dpid": 2, "label": "i201", "class": "ControlMessageReceive", "round": -1, "prunable": true}
{"fingerprint": ["ControlMessageSend", {"reason": 1, "class": "ofp_port_status", "desc": [5, "00:00:00:00:01:02"]}, 1, ["c", "1"]], "timeout_disallowed": false, "time": [1371419054, 813656], "controller_id": "c1", "timed_out": false, "dependent_labels": [], "dpid": 1, "label": "i202", "class": "ControlMessageSend", "round": -1, "prunable": true}
{"fingerprint": ["ControlMessageSend", {"data": {"dl_dst": "12:34:56:78:01:02", "nw_src": "123.123.1.2", "dl_src": "12:34:56:78:01:02", "nw_dst": "123.123.1.2"}, "class": "ofp_packet_in", "in_port": 8}, 1, ["c", "1"]], "timeout_disallowed": false, "time": [1371419054, 814080], "controller_id": "c1", "timed_out": false, "dependent_labels": [], "dpid": 1, "label": "i203", "class": "ControlMessageSend", "round": -1, "prunable": true}
{"fingerprint": ["ControlMessageSend", {"reason": 0, "class": "ofp_port_status", "desc": [8, "00:00:00:00:01:02"]}, 1, ["c", "1"]], "timeout_disallowed": false, "time": [1371419054, 814607], "controller_id": "c1", "timed_out": false, "dependent_labels": [], "dpid": 1, "label": "i204", "class": "ControlMessageSend", "round": -1, "prunable": true}
{"name": null, "timeout_disallowed": false, "fingerprint": ["ControllerStateChange", "%s moved from %s.%i to %s.%i?", "c1"], "controller_id": "c1", "value": ["(EthAddr('12:34:56:78:01:02'), '00-00-00-00-00-02', 1, '00-00-00-00-00-01', 8)"], "timed_out": false, "dependent_labels": [], "time": [1371419054, 818276], "label": "i205", "class": "ControllerStateChange", "round": -1, "prunable": true}
{"name": null, "timeout_disallowed": false, "fingerprint": ["ControllerStateChange", "Learned %s at %s.%i", "c1"], "controller_id": "c1", "value": ["(EthAddr('12:34:56:78:01:02'), 00-00-00-00-00-01, 8)"], "timed_out": false, "dependent_labels": [], "time": [1371419054, 820872], "label": "i206", "class": "ControllerStateChange", "round": -1, "prunable": true}
{"name": null, "timeout_disallowed": false, "fingerprint": ["ControllerStateChange", "Installing path for %s -> %s %04x (%i hops)", "c1"], "controller_id": "c1", "value": ["(EthAddr('12:34:56:78:01:02'), EthAddr('12:34:56:78:01:02'), 2048, 1)"], "timed_out": false, "dependent_labels": [], "time": [1371419054, 822293], "label": "i207", "class": "ControllerStateChange", "round": -1, "prunable": true}
{"fingerprint": ["ControlMessageReceive", {"hard_timeout": 30, "actions": ["output(8)"], "priority": 32768, "idle_timeout": 10, "command": "add", "out_port": 65535, "flags": 0, "class": "ofp_flow_mod", "match": "dl_src:12:34:56:78:01:02,dl_dst:12:34:56:78:01:02,dl_vlan:65535,dl_vlan_pcp:0,dl_type:2048,nw_tos:0,nw_proto:1,nw_src:123.123.1.2/32,nw_dst:123.123.1.2/32,tp_src:0,tp_dst:0"}, 1, ["c", "1"]], "timeout_disallowed": false, "time": [1371419054, 823060], "controller_id": "c1", "timed_out": false, "dependent_labels": [], "dpid": 1, "label": "i208", "class": "ControlMessageReceive", "round": -1, "prunable": true}
{"legacy_invariant_check": false, "class": "CheckInvariants", "fingerprint": "N/A", "timed_out": false, "label": "e209", "dependent_labels": [], "invariant_name": "check_for_loops_or_connectivity", "invariant_check_name": "check_for_loops_or_connectivity", "time": [1371419054, 839131], "invariant_check": null, "round": -1, "prunable": true}
{"wait_time": 1.0, "dependent_labels": [], "time": [1371419054, 839131], "class": "WaitTime", "prunable": true, "fingerprint": ["WaitTime"], "timed_out": false, "round": -1, "label": "e216"}
