{
  "_iteration": 2,
  "_runtime_stats_path": "experiments/trigger_multithreading_bug_mcs/intermcs_2_/runtime_stats.json",
  "ambiguous_counts": {},
  "ambiguous_events": {},
  "buffered_message_receipts": {
    "2": [
      "PendingReceive(dpid=2, controller_id='c1', fingerprint=OFFingerprint{'hard_timeout': 0, 'out_port': 65535, 'priority': 32767, 'idle_timeout': 0, 'command': 'add', 'actions': ('output(1)', 'output(2)', 'output(3)', 'output(4)', 'output(5)', 'output(6)', 'output(7)', 'output(8)', 'output(10)'), 'flags': 0, 'class': 'ofp_flow_mod', 'match': 'dl_type:2048,nw_dst:255.255.255.255/32,in_port:None'})",
      "PendingReceive(dpid=2, controller_id='c1', fingerprint=OFFingerprint{'hard_timeout': 0, 'out_port': 65535, 'priority': 32768, 'idle_timeout': 0, 'command': 'add', 'actions': ('output(7)',), 'flags': 0, 'class': 'ofp_flow_mod', 'match': 'dl_type:2048,nw_dst:10.7.0.0/16,in_port:None'})",
      "PendingReceive(dpid=7, controller_id='c1', fingerprint=OFFingerprint{'hard_timeout': 0, 'out_port': 65535, 'priority': 32768, 'idle_timeout': 0, 'command': 'add', 'actions': ('output(9)',), 'flags': 0, 'class': 'ofp_flow_mod', 'match': 'dl_type:2048,nw_dst:10.9.0.0/16,in_port:None'})",
      "PendingReceive(dpid=5, controller_id='c1', fingerprint=OFFingerprint{'hard_timeout': 0, 'out_port': 65535, 'priority': 32767, 'idle_timeout': 0, 'command': 'add', 'actions': ('output(1)', 'output(2)', 'output(3)', 'output(4)', 'output(5)', 'output(6)', 'output(7)', 'output(8)', 'output(9)', 'output(10)', 'output(11)'), 'flags': 0, 'class': 'ofp_flow_mod', 'match': 'dl_type:2048,nw_dst:255.255.255.255/32,in_port:None'})",
      "PendingReceive(dpid=7, controller_id='c1', fingerprint=OFFingerprint{'hard_timeout': 0, 'out_port': 65535, 'priority': 32768, 'idle_timeout': 0, 'command': 'add', 'actions': ('output(3)',), 'flags': 0, 'class': 'ofp_flow_mod', 'match': 'dl_type:2048,nw_dst:10.8.0.0/16,in_port:None'})",
      "PendingReceive(dpid=10, controller_id='c1', fingerprint=OFFingerprint{'hard_timeout': 0, 'out_port': 65535, 'priority': 32767, 'idle_timeout': 0, 'command': 'add', 'actions': ('output(1)', 'output(3)', 'output(4)', 'output(6)', 'output(7)', 'output(9)', 'output(10)'), 'flags': 0, 'class': 'ofp_flow_mod', 'match': 'dl_type:2048,nw_dst:255.255.255.255/32,in_port:None'})",
      "PendingReceive(dpid=10, controller_id='c1', fingerprint=OFFingerprint{'hard_timeout': 0, 'out_port': 65535, 'priority': 32768, 'idle_timeout': 0, 'command': 'add', 'actions': ('output(2)',), 'flags': 0, 'class': 'ofp_flow_mod', 'match': 'dl_type:2048,nw_dst:10.8.0.0/16,in_port:None'})",
      "PendingReceive(dpid=10, controller_id='c1', fingerprint=OFFingerprint{'hard_timeout': 0, 'out_port': 65535, 'priority': 32768, 'idle_timeout': 0, 'command': 'add', 'actions': ('output(8)',), 'flags': 0, 'class': 'ofp_flow_mod', 'match': 'dl_type:2048,nw_dst:10.2.0.0/16,in_port:None'})",
      "PendingReceive(dpid=8, controller_id='c1', fingerprint=OFFingerprint{'hard_timeout': 0, 'out_port': 65535, 'priority': 32768, 'idle_timeout': 0, 'command': 'add', 'actions': ('output(3)',), 'flags': 0, 'class': 'ofp_flow_mod', 'match': 'dl_type:2048,nw_dst:10.7.0.0/16,in_port:None'})",
      "PendingReceive(dpid=2, controller_id='c1', fingerprint=OFFingerprint{'hard_timeout': 0, 'out_port': 65535, 'priority': 32768, 'idle_timeout': 0, 'command': 'add', 'actions': ('output(9)',), 'flags': 0, 'class': 'ofp_flow_mod', 'match': 'dl_type:2048,nw_dst:10.1.0.0/16,in_port:None'})",
      "PendingReceive(dpid=8, controller_id='c1', fingerprint=OFFingerprint{'hard_timeout': 0, 'out_port': 65535, 'priority': 32767, 'idle_timeout': 0, 'command': 'add', 'actions': ('output(1)', 'output(4)', 'output(5)', 'output(6)', 'output(7)', 'output(8)', 'output(10)', 'output(11)'), 'flags': 0, 'class': 'ofp_flow_mod', 'match': 'dl_type:2048,nw_dst:255.255.255.255/32,in_port:None'})",
      "PendingReceive(dpid=8, controller_id='c1', fingerprint=OFFingerprint{'hard_timeout': 0, 'out_port': 65535, 'priority': 32768, 'idle_timeout': 0, 'command': 'add', 'actions': ('output(1)',), 'flags': 0, 'class': 'ofp_flow_mod', 'match': 'dl_type:2048,nw_dst:10.10.0.0/16,in_port:None'})",
      "PendingReceive(dpid=10, controller_id='c1', fingerprint=OFFingerprint{'hard_timeout': 0, 'out_port': 65535, 'priority': 32768, 'idle_timeout': 0, 'command': 'add', 'actions': ('output(8)',), 'flags': 0, 'class': 'ofp_flow_mod', 'match': 'dl_type:2048,nw_dst:10.9.0.0/16,in_port:None'})",
      "PendingReceive(dpid=1, controller_id='c1', fingerprint=OFFingerprint{'hard_timeout': 0, 'out_port': 65535, 'priority': 32767, 'idle_timeout': 0, 'command': 'add', 'actions': ('output(1)', 'output(4)', 'output(6)', 'output(8)', 'output(9)', 'output(10)'), 'flags': 0, 'class': 'ofp_flow_mod', 'match': 'dl_type:2048,nw_dst:255.255.255.255/32,in_port:None'})",
      "PendingReceive(dpid=8, controller_id='c1', fingerprint=OFFingerprint{'hard_timeout': 0, 'out_port': 65535, 'priority': 32767, 'idle_timeout': 0, 'command': 'add', 'actions': ('output(1)', 'output(4)', 'output(5)', 'output(7)', 'output(8)', 'output(10)', 'output(11)'), 'flags': 0, 'class': 'ofp_flow_mod', 'match': 'dl_type:2048,nw_dst:255.255.255.255/32,in_port:None'})",
      "PendingReceive(dpid=10, controller_id='c1', fingerprint=OFFingerprint{'hard_timeout': 0, 'out_port': 65535, 'priority': 32767, 'idle_timeout': 0, 'command': 'add', 'actions': ('output(1)', 'output(2)', 'output(3)', 'output(4)', 'output(6)', 'output(7)', 'output(8)', 'output(9)', 'output(10)'), 'flags': 0, 'class': 'ofp_flow_mod', 'match': 'dl_type:2048,nw_dst:255.255.255.255/32,in_port:None'})",
      "PendingReceive(dpid=5, controller_id='c1', fingerprint=OFFingerprint{'hard_timeout': 0, 'out_port': 65535, 'priority': 32767, 'idle_timeout': 0, 'command': 'add', 'actions': ('output(2)', 'output(3)', 'output(4)', 'output(5)', 'output(6)', 'output(7)', 'output(8)', 'output(9)', 'output(10)', 'output(11)'), 'flags': 0, 'class': 'ofp_flow_mod', 'match': 'dl_type:2048,nw_dst:255.255.255.255/32,in_port:None'})",
      "PendingReceive(dpid=9, controller_id='c1', fingerprint=OFFingerprint{'hard_timeout': 0, 'out_port': 65535, 'priority': 32768, 'idle_timeout': 0, 'command': 'add', 'actions': ('output(3)',), 'flags': 0, 'class': 'ofp_flow_mod', 'match': 'dl_type:2048,nw_dst:10.8.0.0/16,in_port:None'})",
      "PendingReceive(dpid=10, controller_id='c1', fingerprint=OFFingerprint{'hard_timeout': 0, 'out_port': 65535, 'priority': 32768, 'idle_timeout': 0, 'command': 'add', 'actions': ('output(8)',), 'flags': 0, 'class': 'ofp_flow_mod', 'match': 'dl_type:2048,nw_dst:10.1.0.0/16,in_port:None'})",
      "PendingReceive(dpid=1, controller_id='c1', fingerprint=OFFingerprint{'hard_timeout': 0, 'out_port': 65535, 'priority': 32767, 'idle_timeout': 0, 'command': 'add', 'actions': ('output(6)', 'output(8)', 'output(10)'), 'flags': 0, 'class': 'ofp_flow_mod', 'match': 'dl_type:2048,nw_dst:255.255.255.255/32,in_port:None'})",
      "PendingReceive(dpid=7, controller_id='c1', fingerprint=OFFingerprint{'hard_timeout': 0, 'out_port': 65535, 'priority': 32767, 'idle_timeout': 0, 'command': 'add', 'actions': ('output(1)', 'output(4)', 'output(5)', 'output(7)', 'output(8)', 'output(9)', 'output(10)'), 'flags': 0, 'class': 'ofp_flow_mod', 'match': 'dl_type:2048,nw_dst:255.255.255.255/32,in_port:None'})",
      "PendingReceive(dpid=9, controller_id='c1', fingerprint=OFFingerprint{'hard_timeout': 0, 'out_port': 65535, 'priority': 32767, 'idle_timeout': 0, 'command': 'add', 'actions': ('output(1)', 'output(4)', 'output(5)', 'output(7)', 'output(10)', 'output(11)'), 'flags': 0, 'class': 'ofp_flow_mod', 'match': 'dl_type:2048,nw_dst:255.255.255.255/32,in_port:None'})",
      "PendingReceive(dpid=10, controller_id='c1', fingerprint=OFFingerprint{'hard_timeout': 0, 'out_port': 65535, 'priority': 32768, 'idle_timeout': 0, 'command': 'add', 'actions': ('output(6)',), 'flags': 0, 'class': 'ofp_flow_mod', 'match': 'dl_type:2048,nw_dst:10.1.0.0/16,in_port:None'})",
      "PendingReceive(dpid=4, controller_id='c1', fingerprint=OFFingerprint{'hard_timeout': 0, 'out_port': 65535, 'priority': 32768, 'idle_timeout': 0, 'command': 'add', 'actions': ('output(3)',), 'flags': 0, 'class': 'ofp_flow_mod', 'match': 'dl_type:2048,nw_dst:10.8.0.0/16,in_port:None'})",
      "PendingReceive(dpid=7, controller_id='c1', fingerprint=OFFingerprint{'hard_timeout': 0, 'out_port': 65535, 'priority': 32768, 'idle_timeout': 0, 'command': 'add', 'actions': ('output(9)',), 'flags': 0, 'class': 'ofp_flow_mod', 'match': 'dl_type:2048,nw_dst:10.1.0.0/16,in_port:None'})",
      "PendingReceive(dpid=1, controller_id='c1', fingerprint=OFFingerprint{'hard_timeout': 0, 'out_port': 65535, 'priority': 32768, 'idle_timeout': 0, 'command': 'add', 'actions': ('output(9)',), 'flags': 0, 'class': 'ofp_flow_mod', 'match': 'dl_type:2048,nw_dst:10.10.0.0/16,in_port:None'})",
      "PendingReceive(dpid=2, controller_id='c1', fingerprint=OFFingerprint{'hard_timeout': 0, 'out_port': 65535, 'priority': 32767, 'idle_timeout': 0, 'command': 'add', 'actions': ('output(5)', 'output(6)', 'output(8)', 'output(10)'), 'flags': 0, 'class': 'ofp_flow_mod', 'match': 'dl_type:2048,nw_dst:255.255.255.255/32,in_port:None'})",
      "PendingReceive(dpid=2, controller_id='c1', fingerprint=OFFingerprint{'hard_timeout': 0, 'out_port': 65535, 'priority': 32768, 'idle_timeout': 0, 'command': 'add', 'actions': ('output(9)',), 'flags': 0, 'class': 'ofp_flow_mod', 'match': 'dl_type:2048,nw_dst:10.7.0.0/16,in_port:None'})",
      "PendingReceive(dpid=2, controller_id='c1', fingerprint=OFFingerprint{'hard_timeout': 0, 'out_port': 65535, 'priority': 32768, 'idle_timeout': 0, 'command': 'add', 'actions': ('output(2)',), 'flags': 0, 'class': 'ofp_flow_mod', 'match': 'dl_type:2048,nw_dst:10.9.0.0/16,in_port:None'})",
      "PendingReceive(dpid=9, controller_id='c1', fingerprint=OFFingerprint{'hard_timeout': 0, 'out_port': 65535, 'priority': 32767, 'idle_timeout': 0, 'command': 'add', 'actions': ('output(1)', 'output(4)', 'output(5)', 'output(6)', 'output(7)', 'output(8)', 'output(10)', 'output(11)'), 'flags': 0, 'class': 'ofp_flow_mod', 'match': 'dl_type:2048,nw_dst:255.255.255.255/32,in_port:None'})",
      "PendingReceive(dpid=2, controller_id='c1', fingerprint=OFFingerprint{'hard_timeout': 0, 'out_port': 65535, 'priority': 32768, 'idle_timeout': 0, 'command': 'add', 'actions': ('output(7)',), 'flags': 0, 'class': 'ofp_flow_mod', 'match': 'dl_type:2048,nw_dst:10.4.0.0/16,in_port:None'})",
      "PendingReceive(dpid=1, controller_id='c1', fingerprint=OFFingerprint{'hard_timeout': 0, 'out_port': 65535, 'priority': 32768, 'idle_timeout': 0, 'command': 'add', 'actions': ('output(3)',), 'flags': 0, 'class': 'ofp_flow_mod', 'match': 'dl_type:2048,nw_dst:10.8.0.0/16,in_port:None'})",
      "PendingReceive(dpid=4, controller_id='c1', fingerprint=OFFingerprint{'hard_timeout': 0, 'out_port': 65535, 'priority': 32768, 'idle_timeout': 0, 'command': 'add', 'actions': ('output(8)',), 'flags': 0, 'class': 'ofp_flow_mod', 'match': 'dl_type:2048,nw_dst:10.9.0.0/16,in_port:None'})",
      "PendingReceive(dpid=2, controller_id='c1', fingerprint=OFFingerprint{'hard_timeout': 0, 'out_port': 65535, 'priority': 32767, 'idle_timeout': 0, 'command': 'add', 'actions': ('output(1)', 'output(2)', 'output(3)', 'output(4)', 'output(5)', 'output(6)', 'output(8)', 'output(10)'), 'flags': 0, 'class': 'ofp_flow_mod', 'match': 'dl_type:2048,nw_dst:255.255.255.255/32,in_port:None'})",
      "PendingReceive(dpid=8, controller_id='c1', fingerprint=OFFingerprint{'hard_timeout': 0, 'out_port': 65535, 'priority': 32768, 'idle_timeout': 0, 'command': 'add', 'actions': ('output(8)',), 'flags': 0, 'class': 'ofp_flow_mod', 'match': 'dl_type:2048,nw_dst:10.2.0.0/16,in_port:None'})",
      "PendingReceive(dpid=9, controller_id='c1', fingerprint=OFFingerprint{'hard_timeout': 0, 'out_port': 65535, 'priority': 32767, 'idle_timeout': 0, 'command': 'add', 'actions': ('output(1)', 'output(4)', 'output(5)', 'output(7)', 'output(8)', 'output(10)', 'output(11)'), 'flags': 0, 'class': 'ofp_flow_mod', 'match': 'dl_type:2048,nw_dst:255.255.255.255/32,in_port:None'})",
      "PendingReceive(dpid=1, controller_id='c1', fingerprint=OFFingerprint{'hard_timeout': 0, 'out_port': 65535, 'priority': 32767, 'idle_timeout': 0, 'command': 'add', 'actions': ('output(8)', 'output(10)'), 'flags': 0, 'class': 'ofp_flow_mod', 'match': 'dl_type:2048,nw_dst:255.255.255.255/32,in_port:None'})",
      "PendingReceive(dpid=10, controller_id='c1', fingerprint=OFFingerprint{'hard_timeout': 0, 'out_port': 65535, 'priority': 32768, 'idle_timeout': 0, 'command': 'add', 'actions': ('output(2)',), 'flags': 0, 'class': 'ofp_flow_mod', 'match': 'dl_type:2048,nw_dst:10.4.0.0/16,in_port:None'})",
      "PendingReceive(dpid=8, controller_id='c1', fingerprint=OFFingerprint{'hard_timeout': 0, 'out_port': 65535, 'priority': 32768, 'idle_timeout': 0, 'command': 'add', 'actions': ('output(6)',), 'flags': 0, 'class': 'ofp_flow_mod', 'match': 'dl_type:2048,nw_dst:10.9.0.0/16,in_port:None'})",
      "PendingReceive(dpid=10, controller_id='c1', fingerprint=OFFingerprint{'hard_timeout': 0, 'out_port': 65535, 'priority': 32768, 'idle_timeout': 0, 'command': 'add', 'actions': ('output(2)',), 'flags': 0, 'class': 'ofp_flow_mod', 'match': 'dl_type:2048,nw_dst:10.9.0.0/16,in_port:None'})",
      "PendingReceive(dpid=4, controller_id='c1', fingerprint=OFFingerprint{'hard_timeout': 0, 'out_port': 65535, 'priority': 32767, 'idle_timeout': 0, 'command': 'add', 'actions': ('output(1)', 'output(5)', 'output(6)', 'output(7)', 'output(10)'), 'flags': 0, 'class': 'ofp_flow_mod', 'match': 'dl_type:2048,nw_dst:255.255.255.255/32,in_port:None'})",
      "PendingReceive(dpid=8, controller_id='c1', fingerprint=OFFingerprint{'hard_timeout': 0, 'out_port': 65535, 'priority': 32768, 'idle_timeout': 0, 'command': 'add', 'actions': ('output(9)',), 'flags': 0, 'class': 'ofp_flow_mod', 'match': 'dl_type:2048,nw_dst:10.2.0.0/16,in_port:None'})",
      "PendingReceive(dpid=4, controller_id='c1', fingerprint=OFFingerprint{'hard_timeout': 0, 'out_port': 65535, 'priority': 32767, 'idle_timeout': 0, 'command': 'add', 'actions': ('output(1)', 'output(2)', 'output(3)', 'output(4)', 'output(5)', 'output(6)', 'output(7)', 'output(8)', 'output(10)'), 'flags': 0, 'class': 'ofp_flow_mod', 'match': 'dl_type:2048,nw_dst:255.255.255.255/32,in_port:None'})",
      "PendingReceive(dpid=2, controller_id='c1', fingerprint=OFFingerprint{'hard_timeout': 0, 'out_port': 65535, 'priority': 32768, 'idle_timeout': 0, 'command': 'add', 'actions': ('output(9)',), 'flags': 0, 'class': 'ofp_flow_mod', 'match': 'dl_type:2048,nw_dst:10.9.0.0/16,in_port:None'})",
      "PendingReceive(dpid=1, controller_id='c1', fingerprint=OFFingerprint{'hard_timeout': 0, 'out_port': 65535, 'priority': 32767, 'idle_timeout': 0, 'command': 'add', 'actions': ('output(1)', 'output(4)', 'output(6)', 'output(8)', 'output(10)'), 'flags': 0, 'class': 'ofp_flow_mod', 'match': 'dl_type:2048,nw_dst:255.255.255.255/32,in_port:None'})",
      "PendingReceive(dpid=8, controller_id='c1', fingerprint=OFFingerprint{'hard_timeout': 0, 'out_port': 65535, 'priority': 32768, 'idle_timeout': 0, 'command': 'add', 'actions': ('output(6)',), 'flags': 0, 'class': 'ofp_flow_mod', 'match': 'dl_type:2048,nw_dst:10.1.0.0/16,in_port:None'})",
      "PendingReceive(dpid=9, controller_id='c1', fingerprint=OFFingerprint{'hard_timeout': 0, 'out_port': 65535, 'priority': 32768, 'idle_timeout': 0, 'command': 'add', 'actions': ('output(8)',), 'flags': 0, 'class': 'ofp_flow_mod', 'match': 'dl_type:2048,nw_dst:10.2.0.0/16,in_port:None'})",
      "PendingReceive(dpid=9, controller_id='c1', fingerprint=OFFingerprint{'hard_timeout': 0, 'out_port': 65535, 'priority': 32768, 'idle_timeout': 0, 'command': 'add', 'actions': ('output(8)',), 'flags': 0, 'class': 'ofp_flow_mod', 'match': 'dl_type:2048,nw_dst:10.7.0.0/16,in_port:None'})",
      "PendingReceive(dpid=10, controller_id='c1', fingerprint=OFFingerprint{'hard_timeout': 0, 'out_port': 65535, 'priority': 32768, 'idle_timeout': 0, 'command': 'add', 'actions': ('output(2)',), 'flags': 0, 'class': 'ofp_flow_mod', 'match': 'dl_type:2048,nw_dst:10.1.0.0/16,in_port:None'})",
      "PendingReceive(dpid=2, controller_id='c1', fingerprint=OFFingerprint{'hard_timeout': 0, 'out_port': 65535, 'priority': 32768, 'idle_timeout': 0, 'command': 'add', 'actions': ('output(1)',), 'flags': 0, 'class': 'ofp_flow_mod', 'match': 'dl_type:2048,nw_dst:10.10.0.0/16,in_port:None'})",
      "PendingReceive(dpid=2, controller_id='c1', fingerprint=OFFingerprint{'hard_timeout': 0, 'out_port': 65535, 'priority': 32767, 'idle_timeout': 0, 'command': 'add', 'actions': ('output(1)', 'output(2)', 'output(3)', 'output(5)', 'output(6)', 'output(8)', 'output(10)'), 'flags': 0, 'class': 'ofp_flow_mod', 'match': 'dl_type:2048,nw_dst:255.255.255.255/32,in_port:None'})",
      "PendingReceive(dpid=7, controller_id='c1', fingerprint=OFFingerprint{'hard_timeout': 0, 'out_port': 65535, 'priority': 32767, 'idle_timeout': 0, 'command': 'add', 'actions': ('output(1)', 'output(4)', 'output(5)', 'output(7)', 'output(8)', 'output(10)'), 'flags': 0, 'class': 'ofp_flow_mod', 'match': 'dl_type:2048,nw_dst:255.255.255.255/32,in_port:None'})",
      "PendingReceive(dpid=1, controller_id='c1', fingerprint=OFFingerprint{'hard_timeout': 0, 'out_port': 65535, 'priority': 32768, 'idle_timeout': 0, 'command': 'add', 'actions': ('output(4)',), 'flags': 0, 'class': 'ofp_flow_mod', 'match': 'dl_type:2048,nw_dst:10.7.0.0/16,in_port:None'})",
      "PendingReceive(dpid=10, controller_id='c1', fingerprint=OFFingerprint{'hard_timeout': 0, 'out_port': 65535, 'priority': 32768, 'idle_timeout': 0, 'command': 'add', 'actions': ('output(9)',), 'flags': 0, 'class': 'ofp_flow_mod', 'match': 'dl_type:2048,nw_dst:10.9.0.0/16,in_port:None'})",
      "PendingReceive(dpid=4, controller_id='c1', fingerprint=OFFingerprint{'hard_timeout': 0, 'out_port': 65535, 'priority': 32767, 'idle_timeout': 0, 'command': 'add', 'actions': ('output(5)', 'output(6)', 'output(7)', 'output(10)'), 'flags': 0, 'class': 'ofp_flow_mod', 'match': 'dl_type:2048,nw_dst:255.255.255.255/32,in_port:None'})",
      "PendingReceive(dpid=1, controller_id='c1', fingerprint=OFFingerprint{'hard_timeout': 0, 'out_port': 65535, 'priority': 32768, 'idle_timeout': 0, 'command': 'add', 'actions': ('output(4)',), 'flags': 0, 'class': 'ofp_flow_mod', 'match': 'dl_type:2048,nw_dst:10.10.0.0/16,in_port:None'})",
      "PendingReceive(dpid=2, controller_id='c1', fingerprint=OFFingerprint{'hard_timeout': 0, 'out_port': 65535, 'priority': 32768, 'idle_timeout': 0, 'command': 'add', 'actions': ('output(3)',), 'flags': 0, 'class': 'ofp_flow_mod', 'match': 'dl_type:2048,nw_dst:10.10.0.0/16,in_port:None'})",
      "PendingReceive(dpid=7, controller_id='c1', fingerprint=OFFingerprint{'hard_timeout': 0, 'out_port': 65535, 'priority': 32768, 'idle_timeout': 0, 'command': 'add', 'actions': ('output(2)',), 'flags': 0, 'class': 'ofp_flow_mod', 'match': 'dl_type:2048,nw_dst:10.9.0.0/16,in_port:None'})",
      "PendingReceive(dpid=8, controller_id='c1', fingerprint=OFFingerprint{'hard_timeout': 0, 'out_port': 65535, 'priority': 32767, 'idle_timeout': 0, 'command': 'add', 'actions': ('output(1)', 'output(3)', 'output(4)', 'output(5)', 'output(6)', 'output(7)', 'output(8)', 'output(9)', 'output(10)', 'output(11)'), 'flags': 0, 'class': 'ofp_flow_mod', 'match': 'dl_type:2048,nw_dst:255.255.255.255/32,in_port:None'})",
      "PendingReceive(dpid=10, controller_id='c1', fingerprint=OFFingerprint{'hard_timeout': 0, 'out_port': 65535, 'priority': 32768, 'idle_timeout': 0, 'command': 'add', 'actions': ('output(6)',), 'flags': 0, 'class': 'ofp_flow_mod', 'match': 'dl_type:2048,nw_dst:10.2.0.0/16,in_port:None'})",
      "PendingReceive(dpid=2, controller_id='c1', fingerprint=OFFingerprint{'hard_timeout': 0, 'out_port': 65535, 'priority': 32768, 'idle_timeout': 0, 'command': 'add', 'actions': ('output(7)',), 'flags': 0, 'class': 'ofp_flow_mod', 'match': 'dl_type:2048,nw_dst:10.10.0.0/16,in_port:None'})",
      "PendingReceive(dpid=1, controller_id='c1', fingerprint=OFFingerprint{'hard_timeout': 0, 'out_port': 65535, 'priority': 32768, 'idle_timeout': 0, 'command': 'add', 'actions': ('output(1)',), 'flags': 0, 'class': 'ofp_flow_mod', 'match': 'dl_type:2048,nw_dst:10.10.0.0/16,in_port:None'})",
      "PendingReceive(dpid=10, controller_id='c1', fingerprint=OFFingerprint{'hard_timeout': 0, 'out_port': 65535, 'priority': 32768, 'idle_timeout': 0, 'command': 'add', 'actions': ('output(2)',), 'flags': 0, 'class': 'ofp_flow_mod', 'match': 'dl_type:2048,nw_dst:10.2.0.0/16,in_port:None'})",
      "PendingReceive(dpid=10, controller_id='c1', fingerprint=OFFingerprint{'hard_timeout': 0, 'out_port': 65535, 'priority': 32768, 'idle_timeout': 0, 'command': 'add', 'actions': ('output(2)',), 'flags': 0, 'class': 'ofp_flow_mod', 'match': 'dl_type:2048,nw_dst:10.7.0.0/16,in_port:None'})",
      "PendingReceive(dpid=10, controller_id='c1', fingerprint=OFFingerprint{'hard_timeout': 0, 'out_port': 65535, 'priority': 32767, 'idle_timeout': 0, 'command': 'add', 'actions': ('output(1)', 'output(2)', 'output(3)', 'output(4)', 'output(6)', 'output(7)', 'output(9)', 'output(10)'), 'flags': 0, 'class': 'ofp_flow_mod', 'match': 'dl_type:2048,nw_dst:255.255.255.255/32,in_port:None'})",
      "PendingReceive(dpid=8, controller_id='c1', fingerprint=OFFingerprint{'hard_timeout': 0, 'out_port': 65535, 'priority': 32768, 'idle_timeout': 0, 'command': 'add', 'actions': ('output(6)',), 'flags': 0, 'class': 'ofp_flow_mod', 'match': 'dl_type:2048,nw_dst:10.2.0.0/16,in_port:None'})",
      "PendingReceive(dpid=2, controller_id='c1', fingerprint=OFFingerprint{'hard_timeout': 0, 'out_port': 65535, 'priority': 32767, 'idle_timeout': 0, 'command': 'add', 'actions': ('output(1)', 'output(5)', 'output(6)', 'output(8)', 'output(10)'), 'flags': 0, 'class': 'ofp_flow_mod', 'match': 'dl_type:2048,nw_dst:255.255.255.255/32,in_port:None'})",
      "PendingReceive(dpid=9, controller_id='c1', fingerprint=OFFingerprint{'hard_timeout': 0, 'out_port': 65535, 'priority': 32768, 'idle_timeout': 0, 'command': 'add', 'actions': ('output(3)',), 'flags': 0, 'class': 'ofp_flow_mod', 'match': 'dl_type:2048,nw_dst:10.7.0.0/16,in_port:None'})",
      "PendingReceive(dpid=10, controller_id='c1', fingerprint=OFFingerprint{'hard_timeout': 0, 'out_port': 65535, 'priority': 32767, 'idle_timeout': 0, 'command': 'add', 'actions': ('output(1)', 'output(2)', 'output(3)', 'output(4)', 'output(5)', 'output(6)', 'output(7)', 'output(8)', 'output(9)', 'output(10)'), 'flags': 0, 'class': 'ofp_flow_mod', 'match': 'dl_type:2048,nw_dst:255.255.255.255/32,in_port:None'})",
      "PendingReceive(dpid=7, controller_id='c1', fingerprint=OFFingerprint{'hard_timeout': 0, 'out_port': 65535, 'priority': 32767, 'idle_timeout': 0, 'command': 'add', 'actions': ('output(4)', 'output(5)', 'output(7)', 'output(10)'), 'flags': 0, 'class': 'ofp_flow_mod', 'match': 'dl_type:2048,nw_dst:255.255.255.255/32,in_port:None'})",
      "PendingReceive(dpid=8, controller_id='c1', fingerprint=OFFingerprint{'hard_timeout': 0, 'out_port': 65535, 'priority': 32768, 'idle_timeout': 0, 'command': 'add', 'actions': ('output(9)',), 'flags': 0, 'class': 'ofp_flow_mod', 'match': 'dl_type:2048,nw_dst:10.9.0.0/16,in_port:None'})",
      "PendingReceive(dpid=4, controller_id='c1', fingerprint=OFFingerprint{'hard_timeout': 0, 'out_port': 65535, 'priority': 32768, 'idle_timeout': 0, 'command': 'add', 'actions': ('output(3)',), 'flags': 0, 'class': 'ofp_flow_mod', 'match': 'dl_type:2048,nw_dst:10.7.0.0/16,in_port:None'})",
      "PendingReceive(dpid=8, controller_id='c1', fingerprint=OFFingerprint{'hard_timeout': 0, 'out_port': 65535, 'priority': 32768, 'idle_timeout': 0, 'command': 'add', 'actions': ('output(3)',), 'flags': 0, 'class': 'ofp_flow_mod', 'match': 'dl_type:2048,nw_dst:10.9.0.0/16,in_port:None'})",
      "PendingReceive(dpid=8, controller_id='c1', fingerprint=OFFingerprint{'hard_timeout': 0, 'out_port': 65535, 'priority': 32767, 'idle_timeout': 0, 'command': 'add', 'actions': ('output(1)', 'output(4)', 'output(5)', 'output(7)', 'output(10)', 'output(11)'), 'flags': 0, 'class': 'ofp_flow_mod', 'match': 'dl_type:2048,nw_dst:255.255.255.255/32,in_port:None'})",
      "PendingReceive(dpid=8, controller_id='c1', fingerprint=OFFingerprint{'hard_timeout': 0, 'out_port': 65535, 'priority': 32767, 'idle_timeout': 0, 'command': 'add', 'actions': ('output(4)', 'output(5)', 'output(7)', 'output(10)', 'output(11)'), 'flags': 0, 'class': 'ofp_flow_mod', 'match': 'dl_type:2048,nw_dst:255.255.255.255/32,in_port:None'})",
      "PendingReceive(dpid=1, controller_id='c1', fingerprint=OFFingerprint{'hard_timeout': 0, 'out_port': 65535, 'priority': 32768, 'idle_timeout': 0, 'command': 'add', 'actions': ('output(9)',), 'flags': 0, 'class': 'ofp_flow_mod', 'match': 'dl_type:2048,nw_dst:10.2.0.0/16,in_port:None'})",
      "PendingReceive(dpid=5, controller_id='c1', fingerprint=OFFingerprint{'hard_timeout': 0, 'out_port': 65535, 'priority': 32767, 'idle_timeout': 0, 'command': 'add', 'actions': ('output(2)', 'output(3)', 'output(4)', 'output(5)', 'output(7)', 'output(8)', 'output(9)', 'output(10)', 'output(11)'), 'flags': 0, 'class': 'ofp_flow_mod', 'match': 'dl_type:2048,nw_dst:255.255.255.255/32,in_port:None'})",
      "PendingReceive(dpid=2, controller_id='c1', fingerprint=OFFingerprint{'hard_timeout': 0, 'out_port': 65535, 'priority': 32768, 'idle_timeout': 0, 'command': 'add', 'actions': ('output(3)',), 'flags': 0, 'class': 'ofp_flow_mod', 'match': 'dl_type:2048,nw_dst:10.8.0.0/16,in_port:None'})",
      "PendingReceive(dpid=10, controller_id='c1', fingerprint=OFFingerprint{'hard_timeout': 0, 'out_port': 65535, 'priority': 32768, 'idle_timeout': 0, 'command': 'add', 'actions': ('output(9)',), 'flags': 0, 'class': 'ofp_flow_mod', 'match': 'dl_type:2048,nw_dst:10.1.0.0/16,in_port:None'})",
      "PendingReceive(dpid=1, controller_id='c1', fingerprint=OFFingerprint{'hard_timeout': 0, 'out_port': 65535, 'priority': 32767, 'idle_timeout': 0, 'command': 'add', 'actions': ('output(1)', 'output(3)', 'output(4)', 'output(6)', 'output(8)', 'output(9)', 'output(10)'), 'flags': 0, 'class': 'ofp_flow_mod', 'match': 'dl_type:2048,nw_dst:255.255.255.255/32,in_port:None'})",
      "PendingReceive(dpid=9, controller_id='c1', fingerprint=OFFingerprint{'hard_timeout': 0, 'out_port': 65535, 'priority': 32768, 'idle_timeout': 0, 'command': 'add', 'actions': ('output(8)',), 'flags': 0, 'class': 'ofp_flow_mod', 'match': 'dl_type:2048,nw_dst:10.4.0.0/16,in_port:None'})",
      "PendingReceive(dpid=4, controller_id='c1', fingerprint=OFFingerprint{'hard_timeout': 0, 'out_port': 65535, 'priority': 32767, 'idle_timeout': 0, 'command': 'add', 'actions': ('output(1)', 'output(2)', 'output(4)', 'output(5)', 'output(6)', 'output(7)', 'output(8)', 'output(10)'), 'flags': 0, 'class': 'ofp_flow_mod', 'match': 'dl_type:2048,nw_dst:255.255.255.255/32,in_port:None'})",
      "PendingReceive(dpid=10, controller_id='c1', fingerprint=OFFingerprint{'hard_timeout': 0, 'out_port': 65535, 'priority': 32768, 'idle_timeout': 0, 'command': 'add', 'actions': ('output(6)',), 'flags': 0, 'class': 'ofp_flow_mod', 'match': 'dl_type:2048,nw_dst:10.4.0.0/16,in_port:None'})",
      "PendingReceive(dpid=4, controller_id='c1', fingerprint=OFFingerprint{'hard_timeout': 0, 'out_port': 65535, 'priority': 32768, 'idle_timeout': 0, 'command': 'add', 'actions': ('output(8)',), 'flags': 0, 'class': 'ofp_flow_mod', 'match': 'dl_type:2048,nw_dst:10.1.0.0/16,in_port:None'})",
      "PendingReceive(dpid=2, controller_id='c1', fingerprint=OFFingerprint{'hard_timeout': 0, 'out_port': 65535, 'priority': 32768, 'idle_timeout': 0, 'command': 'add', 'actions': ('output(7)',), 'flags': 0, 'class': 'ofp_flow_mod', 'match': 'dl_type:2048,nw_dst:10.8.0.0/16,in_port:None'})",
      "PendingReceive(dpid=9, controller_id='c1', fingerprint=OFFingerprint{'hard_timeout': 0, 'out_port': 65535, 'priority': 32768, 'idle_timeout': 0, 'command': 'add', 'actions': ('output(8)',), 'flags': 0, 'class': 'ofp_flow_mod', 'match': 'dl_type:2048,nw_dst:10.8.0.0/16,in_port:None'})",
      "PendingReceive(dpid=1, controller_id='c1', fingerprint=OFFingerprint{'hard_timeout': 0, 'out_port': 65535, 'priority': 32768, 'idle_timeout': 0, 'command': 'add', 'actions': ('output(9)',), 'flags': 0, 'class': 'ofp_flow_mod', 'match': 'dl_type:2048,nw_dst:10.7.0.0/16,in_port:None'})",
      "PendingReceive(dpid=7, controller_id='c1', fingerprint=OFFingerprint{'hard_timeout': 0, 'out_port': 65535, 'priority': 32768, 'idle_timeout': 0, 'command': 'add', 'actions': ('output(9)',), 'flags': 0, 'class': 'ofp_flow_mod', 'match': 'dl_type:2048,nw_dst:10.2.0.0/16,in_port:None'})",
      "PendingReceive(dpid=1, controller_id='c1', fingerprint=OFFingerprint{'hard_timeout': 0, 'out_port': 65535, 'priority': 32768, 'idle_timeout': 0, 'command': 'add', 'actions': ('output(9)',), 'flags': 0, 'class': 'ofp_flow_mod', 'match': 'dl_type:2048,nw_dst:10.4.0.0/16,in_port:None'})",
      "PendingReceive(dpid=1, controller_id='c1', fingerprint=OFFingerprint{'hard_timeout': 0, 'out_port': 65535, 'priority': 32768, 'idle_timeout': 0, 'command': 'add', 'actions': ('output(9)',), 'flags': 0, 'class': 'ofp_flow_mod', 'match': 'dl_type:2048,nw_dst:10.8.0.0/16,in_port:None'})",
      "PendingReceive(dpid=10, controller_id='c1', fingerprint=OFFingerprint{'hard_timeout': 0, 'out_port': 65535, 'priority': 32767, 'idle_timeout': 0, 'command': 'add', 'actions': ('output(1)', 'output(4)', 'output(6)', 'output(7)', 'output(9)', 'output(10)'), 'flags': 0, 'class': 'ofp_flow_mod', 'match': 'dl_type:2048,nw_dst:255.255.255.255/32,in_port:None'})",
      "PendingReceive(dpid=7, controller_id='c1', fingerprint=OFFingerprint{'hard_timeout': 0, 'out_port': 65535, 'priority': 32768, 'idle_timeout': 0, 'command': 'add', 'actions': ('output(3)',), 'flags': 0, 'class': 'ofp_flow_mod', 'match': 'dl_type:2048,nw_dst:10.10.0.0/16,in_port:None'})",
      "PendingReceive(dpid=7, controller_id='c1', fingerprint=OFFingerprint{'hard_timeout': 0, 'out_port': 65535, 'priority': 32768, 'idle_timeout': 0, 'command': 'add', 'actions': ('output(6)',), 'flags': 0, 'class': 'ofp_flow_mod', 'match': 'dl_type:2048,nw_dst:10.2.0.0/16,in_port:None'})",
      "PendingReceive(dpid=10, controller_id='c1', fingerprint=OFFingerprint{'hard_timeout': 0, 'out_port': 65535, 'priority': 32767, 'idle_timeout': 0, 'command': 'add', 'actions': ('output(1)', 'output(4)', 'output(6)', 'output(7)', 'output(10)'), 'flags': 0, 'class': 'ofp_flow_mod', 'match': 'dl_type:2048,nw_dst:255.255.255.255/32,in_port:None'})",
      "PendingReceive(dpid=4, controller_id='c1', fingerprint=OFFingerprint{'hard_timeout': 0, 'out_port': 65535, 'priority': 32767, 'idle_timeout': 0, 'command': 'add', 'actions': ('output(1)', 'output(2)', 'output(5)', 'output(6)', 'output(7)', 'output(10)'), 'flags': 0, 'class': 'ofp_flow_mod', 'match': 'dl_type:2048,nw_dst:255.255.255.255/32,in_port:None'})",
      "PendingReceive(dpid=2, controller_id='c1', fingerprint=OFFingerprint{'hard_timeout': 0, 'out_port': 65535, 'priority': 32768, 'idle_timeout': 0, 'command': 'add', 'actions': ('output(9)',), 'flags': 0, 'class': 'ofp_flow_mod', 'match': 'dl_type:2048,nw_dst:10.8.0.0/16,in_port:None'})",
      "PendingReceive(dpid=7, controller_id='c1', fingerprint=OFFingerprint{'hard_timeout': 0, 'out_port': 65535, 'priority': 32767, 'idle_timeout': 0, 'command': 'add', 'actions': ('output(1)', 'output(4)', 'output(5)', 'output(7)', 'output(10)'), 'flags': 0, 'class': 'ofp_flow_mod', 'match': 'dl_type:2048,nw_dst:255.255.255.255/32,in_port:None'})",
      "PendingReceive(dpid=4, controller_id='c1', fingerprint=OFFingerprint{'hard_timeout': 0, 'out_port': 65535, 'priority': 32767, 'idle_timeout': 0, 'command': 'add', 'actions': ('output(5)', 'output(7)', 'output(10)'), 'flags': 0, 'class': 'ofp_flow_mod', 'match': 'dl_type:2048,nw_dst:255.255.255.255/32,in_port:None'})",
      "PendingReceive(dpid=7, controller_id='c1', fingerprint=OFFingerprint{'hard_timeout': 0, 'out_port': 65535, 'priority': 32767, 'idle_timeout': 0, 'command': 'add', 'actions': ('output(1)', 'output(4)', 'output(5)', 'output(6)', 'output(7)', 'output(8)', 'output(9)', 'output(10)'), 'flags': 0, 'class': 'ofp_flow_mod', 'match': 'dl_type:2048,nw_dst:255.255.255.255/32,in_port:None'})",
      "PendingReceive(dpid=10, controller_id='c1', fingerprint=OFFingerprint{'hard_timeout': 0, 'out_port': 65535, 'priority': 32767, 'idle_timeout': 0, 'command': 'add', 'actions': ('output(1)', 'output(4)', 'output(7)', 'output(10)'), 'flags': 0, 'class': 'ofp_flow_mod', 'match': 'dl_type:2048,nw_dst:255.255.255.255/32,in_port:None'})",
      "PendingReceive(dpid=9, controller_id='c1', fingerprint=OFFingerprint{'hard_timeout': 0, 'out_port': 65535, 'priority': 32767, 'idle_timeout': 0, 'command': 'add', 'actions': ('output(1)', 'output(3)', 'output(4)', 'output(5)', 'output(6)', 'output(7)', 'output(8)', 'output(10)', 'output(11)'), 'flags': 0, 'class': 'ofp_flow_mod', 'match': 'dl_type:2048,nw_dst:255.255.255.255/32,in_port:None'})",
      "PendingReceive(dpid=8, controller_id='c1', fingerprint=OFFingerprint{'hard_timeout': 0, 'out_port': 65535, 'priority': 32768, 'idle_timeout': 0, 'command': 'add', 'actions': ('output(9)',), 'flags': 0, 'class': 'ofp_flow_mod', 'match': 'dl_type:2048,nw_dst:10.1.0.0/16,in_port:None'})",
      "PendingReceive(dpid=1, controller_id='c1', fingerprint=OFFingerprint{'hard_timeout': 0, 'out_port': 65535, 'priority': 32768, 'idle_timeout': 0, 'command': 'add', 'actions': ('output(3)',), 'flags': 0, 'class': 'ofp_flow_mod', 'match': 'dl_type:2048,nw_dst:10.10.0.0/16,in_port:None'})",
      "PendingReceive(dpid=4, controller_id='c1', fingerprint=OFFingerprint{'hard_timeout': 0, 'out_port': 65535, 'priority': 32768, 'idle_timeout': 0, 'command': 'add', 'actions': ('output(1)',), 'flags': 0, 'class': 'ofp_flow_mod', 'match': 'dl_type:2048,nw_dst:10.10.0.0/16,in_port:None'})",
      "PendingReceive(dpid=7, controller_id='c1', fingerprint=OFFingerprint{'hard_timeout': 0, 'out_port': 65535, 'priority': 32768, 'idle_timeout': 0, 'command': 'add', 'actions': ('output(3)',), 'flags': 0, 'class': 'ofp_flow_mod', 'match': 'dl_type:2048,nw_dst:10.4.0.0/16,in_port:None'})",
      "PendingReceive(dpid=8, controller_id='c1', fingerprint=OFFingerprint{'hard_timeout': 0, 'out_port': 65535, 'priority': 32767, 'idle_timeout': 0, 'command': 'add', 'actions': ('output(1)', 'output(3)', 'output(4)', 'output(5)', 'output(6)', 'output(7)', 'output(8)', 'output(10)', 'output(11)'), 'flags': 0, 'class': 'ofp_flow_mod', 'match': 'dl_type:2048,nw_dst:255.255.255.255/32,in_port:None'})",
      "PendingReceive(dpid=4, controller_id='c1', fingerprint=OFFingerprint{'hard_timeout': 0, 'out_port': 65535, 'priority': 32768, 'idle_timeout': 0, 'command': 'add', 'actions': ('output(3)',), 'flags': 0, 'class': 'ofp_flow_mod', 'match': 'dl_type:2048,nw_dst:10.10.0.0/16,in_port:None'})",
      "PendingReceive(dpid=5, controller_id='c1', fingerprint=OFFingerprint{'hard_timeout': 0, 'out_port': 65535, 'priority': 32767, 'idle_timeout': 0, 'command': 'add', 'actions': ('output(2)', 'output(3)', 'output(4)', 'output(5)', 'output(7)', 'output(8)', 'output(10)', 'output(11)'), 'flags': 0, 'class': 'ofp_flow_mod', 'match': 'dl_type:2048,nw_dst:255.255.255.255/32,in_port:None'})",
      "PendingReceive(dpid=1, controller_id='c1', fingerprint=OFFingerprint{'hard_timeout': 0, 'out_port': 65535, 'priority': 32767, 'idle_timeout': 0, 'command': 'add', 'actions': ('output(1)', 'output(6)', 'output(8)', 'output(10)'), 'flags': 0, 'class': 'ofp_flow_mod', 'match': 'dl_type:2048,nw_dst:255.255.255.255/32,in_port:None'})",
      "PendingReceive(dpid=8, controller_id='c1', fingerprint=OFFingerprint{'hard_timeout': 0, 'out_port': 65535, 'priority': 32768, 'idle_timeout': 0, 'command': 'add', 'actions': ('output(6)',), 'flags': 0, 'class': 'ofp_flow_mod', 'match': 'dl_type:2048,nw_dst:10.4.0.0/16,in_port:None'})",
      "PendingReceive(dpid=4, controller_id='c1', fingerprint=OFFingerprint{'hard_timeout': 0, 'out_port': 65535, 'priority': 32768, 'idle_timeout': 0, 'command': 'add', 'actions': ('output(8)',), 'flags': 0, 'class': 'ofp_flow_mod', 'match': 'dl_type:2048,nw_dst:10.2.0.0/16,in_port:None'})",
      "PendingReceive(dpid=1, controller_id='c1', fingerprint=OFFingerprint{'hard_timeout': 0, 'out_port': 65535, 'priority': 32768, 'idle_timeout': 0, 'command': 'add', 'actions': ('output(7)',), 'flags': 0, 'class': 'ofp_flow_mod', 'match': 'dl_type:2048,nw_dst:10.8.0.0/16,in_port:None'})"
    ],
    "3": [
      "PendingReceive(dpid=2, controller_id='c1', fingerprint=OFFingerprint{'hard_timeout': 0, 'out_port': 65535, 'priority': 32767, 'idle_timeout': 0, 'command': 'add', 'actions': ('output(1)', 'output(2)', 'output(3)', 'output(4)', 'output(5)', 'output(6)', 'output(7)', 'output(8)', 'output(10)'), 'flags': 0, 'class': 'ofp_flow_mod', 'match': 'dl_type:2048,nw_dst:255.255.255.255/32,in_port:None'})",
      "PendingReceive(dpid=5, controller_id='c1', fingerprint=OFFingerprint{'hard_timeout': 0, 'out_port': 65535, 'priority': 32767, 'idle_timeout': 0, 'command': 'add', 'actions': ('output(1)', 'output(2)', 'output(3)', 'output(4)', 'output(5)', 'output(6)', 'output(7)', 'output(8)', 'output(9)', 'output(10)', 'output(11)'), 'flags': 0, 'class': 'ofp_flow_mod', 'match': 'dl_type:2048,nw_dst:255.255.255.255/32,in_port:None'})",
      "PendingReceive(dpid=2, controller_id='c1', fingerprint=OFFingerprint{'hard_timeout': 0, 'out_port': 65535, 'priority': 32767, 'idle_timeout': 0, 'command': 'add', 'actions': ('output(1)', 'output(2)', 'output(3)', 'output(5)', 'output(6)', 'output(7)', 'output(8)', 'output(10)'), 'flags': 0, 'class': 'ofp_flow_mod', 'match': 'dl_type:2048,nw_dst:255.255.255.255/32,in_port:None'})",
      "PendingReceive(dpid=2, controller_id='c1', fingerprint=OFFingerprint{'hard_timeout': 0, 'out_port': 65535, 'priority': 32768, 'idle_timeout': 0, 'command': 'add', 'actions': ('output(7)',), 'flags': 0, 'class': 'ofp_flow_mod', 'match': 'dl_type:2048,nw_dst:10.7.0.0/16,in_port:None'})",
      "PendingReceive(dpid=7, controller_id='c1', fingerprint=OFFingerprint{'hard_timeout': 0, 'out_port': 65535, 'priority': 32768, 'idle_timeout': 0, 'command': 'add', 'actions': ('output(3)',), 'flags': 0, 'class': 'ofp_flow_mod', 'match': 'dl_type:2048,nw_dst:10.8.0.0/16,in_port:None'})",
      "PendingReceive(dpid=2, controller_id='c1', fingerprint=OFFingerprint{'hard_timeout': 0, 'out_port': 65535, 'priority': 32768, 'idle_timeout': 0, 'command': 'add', 'actions': ('output(9)',), 'flags': 0, 'class': 'ofp_flow_mod', 'match': 'dl_type:2048,nw_dst:10.1.0.0/16,in_port:None'})",
      "PendingReceive(dpid=2, controller_id='c1', fingerprint=OFFingerprint{'hard_timeout': 0, 'out_port': 65535, 'priority': 32767, 'idle_timeout': 0, 'command': 'add', 'actions': ('output(1)', 'output(5)', 'output(6)', 'output(8)', 'output(10)'), 'flags': 0, 'class': 'ofp_flow_mod', 'match': 'dl_type:2048,nw_dst:255.255.255.255/32,in_port:None'})",
      "PendingReceive(dpid=7, controller_id='c1', fingerprint=OFFingerprint{'hard_timeout': 0, 'out_port': 65535, 'priority': 32767, 'idle_timeout': 0, 'command': 'add', 'actions': ('output(1)', 'output(4)', 'output(5)', 'output(7)', 'output(8)', 'output(10)'), 'flags': 0, 'class': 'ofp_flow_mod', 'match': 'dl_type:2048,nw_dst:255.255.255.255/32,in_port:None'})",
      "PendingReceive(dpid=10, controller_id='c1', fingerprint=OFFingerprint{'hard_timeout': 0, 'out_port': 65535, 'priority': 32767, 'idle_timeout': 0, 'command': 'add', 'actions': ('output(1)', 'output(2)', 'output(3)', 'output(4)', 'output(5)', 'output(6)', 'output(7)', 'output(8)', 'output(9)', 'output(10)'), 'flags': 0, 'class': 'ofp_flow_mod', 'match': 'dl_type:2048,nw_dst:255.255.255.255/32,in_port:None'})",
      "PendingReceive(dpid=1, controller_id='c1', fingerprint=OFFingerprint{'hard_timeout': 0, 'out_port': 65535, 'priority': 32767, 'idle_timeout': 0, 'command': 'add', 'actions': ('output(1)', 'output(4)', 'output(6)', 'output(8)', 'output(9)', 'output(10)'), 'flags': 0, 'class': 'ofp_flow_mod', 'match': 'dl_type:2048,nw_dst:255.255.255.255/32,in_port:None'})",
      "PendingReceive(dpid=1, controller_id='c1', fingerprint=OFFingerprint{'hard_timeout': 0, 'out_port': 65535, 'priority': 32767, 'idle_timeout': 0, 'command': 'add', 'actions': ('output(1)', 'output(4)', 'output(6)', 'output(8)', 'output(10)'), 'flags': 0, 'class': 'ofp_flow_mod', 'match': 'dl_type:2048,nw_dst:255.255.255.255/32,in_port:None'})",
      "PendingReceive(dpid=4, controller_id='c1', fingerprint=OFFingerprint{'hard_timeout': 0, 'out_port': 65535, 'priority': 32768, 'idle_timeout': 0, 'command': 'add', 'actions': ('output(3)',), 'flags': 0, 'class': 'ofp_flow_mod', 'match': 'dl_type:2048,nw_dst:10.7.0.0/16,in_port:None'})",
      "PendingReceive(dpid=8, controller_id='c1', fingerprint=OFFingerprint{'hard_timeout': 0, 'out_port': 65535, 'priority': 32767, 'idle_timeout': 0, 'command': 'add', 'actions': ('output(1)', 'output(4)', 'output(5)', 'output(7)', 'output(10)', 'output(11)'), 'flags': 0, 'class': 'ofp_flow_mod', 'match': 'dl_type:2048,nw_dst:255.255.255.255/32,in_port:None'})",
      "PendingReceive(dpid=7, controller_id='c1', fingerprint=OFFingerprint{'hard_timeout': 0, 'out_port': 65535, 'priority': 32767, 'idle_timeout': 0, 'command': 'add', 'actions': ('output(1)', 'output(4)', 'output(5)', 'output(7)', 'output(8)', 'output(9)', 'output(10)'), 'flags': 0, 'class': 'ofp_flow_mod', 'match': 'dl_type:2048,nw_dst:255.255.255.255/32,in_port:None'})",
      "PendingReceive(dpid=9, controller_id='c1', fingerprint=OFFingerprint{'hard_timeout': 0, 'out_port': 65535, 'priority': 32767, 'idle_timeout': 0, 'command': 'add', 'actions': ('output(1)', 'output(4)', 'output(5)', 'output(7)', 'output(10)', 'output(11)'), 'flags': 0, 'class': 'ofp_flow_mod', 'match': 'dl_type:2048,nw_dst:255.255.255.255/32,in_port:None'})",
      "PendingReceive(dpid=8, controller_id='c1', fingerprint=OFFingerprint{'hard_timeout': 0, 'out_port': 65535, 'priority': 32767, 'idle_timeout': 0, 'command': 'add', 'actions': ('output(1)', 'output(4)', 'output(5)', 'output(6)', 'output(7)', 'output(8)', 'output(10)', 'output(11)'), 'flags': 0, 'class': 'ofp_flow_mod', 'match': 'dl_type:2048,nw_dst:255.255.255.255/32,in_port:None'})",
      "PendingReceive(dpid=1, controller_id='c1', fingerprint=OFFingerprint{'hard_timeout': 0, 'out_port': 65535, 'priority': 32768, 'idle_timeout': 0, 'command': 'add', 'actions': ('output(9)',), 'flags': 0, 'class': 'ofp_flow_mod', 'match': 'dl_type:2048,nw_dst:10.2.0.0/16,in_port:None'})",
      "PendingReceive(dpid=8, controller_id='c1', fingerprint=OFFingerprint{'hard_timeout': 0, 'out_port': 65535, 'priority': 32767, 'idle_timeout': 0, 'command': 'add', 'actions': ('output(1)', 'output(4)', 'output(5)', 'output(7)', 'output(8)', 'output(10)', 'output(11)'), 'flags': 0, 'class': 'ofp_flow_mod', 'match': 'dl_type:2048,nw_dst:255.255.255.255/32,in_port:None'})",
      "PendingReceive(dpid=2, controller_id='c1', fingerprint=OFFingerprint{'hard_timeout': 0, 'out_port': 65535, 'priority': 32768, 'idle_timeout': 0, 'command': 'add', 'actions': ('output(2)',), 'flags': 0, 'class': 'ofp_flow_mod', 'match': 'dl_type:2048,nw_dst:10.9.0.0/16,in_port:None'})",
      "PendingReceive(dpid=9, controller_id='c1', fingerprint=OFFingerprint{'hard_timeout': 0, 'out_port': 65535, 'priority': 32767, 'idle_timeout': 0, 'command': 'add', 'actions': ('output(1)', 'output(4)', 'output(5)', 'output(6)', 'output(7)', 'output(8)', 'output(10)', 'output(11)'), 'flags': 0, 'class': 'ofp_flow_mod', 'match': 'dl_type:2048,nw_dst:255.255.255.255/32,in_port:None'})",
      "PendingReceive(dpid=2, controller_id='c1', fingerprint=OFFingerprint{'hard_timeout': 0, 'out_port': 65535, 'priority': 32768, 'idle_timeout': 0, 'command': 'add', 'actions': ('output(7)',), 'flags': 0, 'class': 'ofp_flow_mod', 'match': 'dl_type:2048,nw_dst:10.4.0.0/16,in_port:None'})",
      "PendingReceive(dpid=1, controller_id='c1', fingerprint=OFFingerprint{'hard_timeout': 0, 'out_port': 65535, 'priority': 32767, 'idle_timeout': 0, 'command': 'add', 'actions': ('output(1)', 'output(3)', 'output(4)', 'output(6)', 'output(8)', 'output(9)', 'output(10)'), 'flags': 0, 'class': 'ofp_flow_mod', 'match': 'dl_type:2048,nw_dst:255.255.255.255/32,in_port:None'})",
      "PendingReceive(dpid=4, controller_id='c1', fingerprint=OFFingerprint{'hard_timeout': 0, 'out_port': 65535, 'priority': 32768, 'idle_timeout': 0, 'command': 'add', 'actions': ('output(8)',), 'flags': 0, 'class': 'ofp_flow_mod', 'match': 'dl_type:2048,nw_dst:10.9.0.0/16,in_port:None'})",
      "PendingReceive(dpid=9, controller_id='c1', fingerprint=OFFingerprint{'hard_timeout': 0, 'out_port': 65535, 'priority': 32768, 'idle_timeout': 0, 'command': 'add', 'actions': ('output(8)',), 'flags': 0, 'class': 'ofp_flow_mod', 'match': 'dl_type:2048,nw_dst:10.4.0.0/16,in_port:None'})",
      "PendingReceive(dpid=4, controller_id='c1', fingerprint=OFFingerprint{'hard_timeout': 0, 'out_port': 65535, 'priority': 32767, 'idle_timeout': 0, 'command': 'add', 'actions': ('output(1)', 'output(2)', 'output(4)', 'output(5)', 'output(6)', 'output(7)', 'output(8)', 'output(10)'), 'flags': 0, 'class': 'ofp_flow_mod', 'match': 'dl_type:2048,nw_dst:255.255.255.255/32,in_port:None'})",
      "PendingReceive(dpid=4, controller_id='c1', fingerprint=OFFingerprint{'hard_timeout': 0, 'out_port': 65535, 'priority': 32768, 'idle_timeout': 0, 'command': 'add', 'actions': ('output(8)',), 'flags': 0, 'class': 'ofp_flow_mod', 'match': 'dl_type:2048,nw_dst:10.1.0.0/16,in_port:None'})",
      "PendingReceive(dpid=2, controller_id='c1', fingerprint=OFFingerprint{'hard_timeout': 0, 'out_port': 65535, 'priority': 32768, 'idle_timeout': 0, 'command': 'add', 'actions': ('output(7)',), 'flags': 0, 'class': 'ofp_flow_mod', 'match': 'dl_type:2048,nw_dst:10.8.0.0/16,in_port:None'})",
      "PendingReceive(dpid=9, controller_id='c1', fingerprint=OFFingerprint{'hard_timeout': 0, 'out_port': 65535, 'priority': 32768, 'idle_timeout': 0, 'command': 'add', 'actions': ('output(8)',), 'flags': 0, 'class': 'ofp_flow_mod', 'match': 'dl_type:2048,nw_dst:10.8.0.0/16,in_port:None'})",
      "PendingReceive(dpid=1, controller_id='c1', fingerprint=OFFingerprint{'hard_timeout': 0, 'out_port': 65535, 'priority': 32768, 'idle_timeout': 0, 'command': 'add', 'actions': ('output(9)',), 'flags': 0, 'class': 'ofp_flow_mod', 'match': 'dl_type:2048,nw_dst:10.7.0.0/16,in_port:None'})",
      "PendingReceive(dpid=8, controller_id='c1', fingerprint=OFFingerprint{'hard_timeout': 0, 'out_port': 65535, 'priority': 32768, 'idle_timeout': 0, 'command': 'add', 'actions': ('output(6)',), 'flags': 0, 'class': 'ofp_flow_mod', 'match': 'dl_type:2048,nw_dst:10.2.0.0/16,in_port:None'})",
      "PendingReceive(dpid=1, controller_id='c1', fingerprint=OFFingerprint{'hard_timeout': 0, 'out_port': 65535, 'priority': 32768, 'idle_timeout': 0, 'command': 'add', 'actions': ('output(9)',), 'flags': 0, 'class': 'ofp_flow_mod', 'match': 'dl_type:2048,nw_dst:10.4.0.0/16,in_port:None'})",
      "PendingReceive(dpid=9, controller_id='c1', fingerprint=OFFingerprint{'hard_timeout': 0, 'out_port': 65535, 'priority': 32767, 'idle_timeout': 0, 'command': 'add', 'actions': ('output(1)', 'output(4)', 'output(5)', 'output(7)', 'output(8)', 'output(10)', 'output(11)'), 'flags': 0, 'class': 'ofp_flow_mod', 'match': 'dl_type:2048,nw_dst:255.255.255.255/32,in_port:None'})",
      "PendingReceive(dpid=8, controller_id='c1', fingerprint=OFFingerprint{'hard_timeout': 0, 'out_port': 65535, 'priority': 32768, 'idle_timeout': 0, 'command': 'add', 'actions': ('output(6)',), 'flags': 0, 'class': 'ofp_flow_mod', 'match': 'dl_type:2048,nw_dst:10.9.0.0/16,in_port:None'})",
      "PendingReceive(dpid=4, controller_id='c1', fingerprint=OFFingerprint{'hard_timeout': 0, 'out_port': 65535, 'priority': 32767, 'idle_timeout': 0, 'command': 'add', 'actions': ('output(1)', 'output(5)', 'output(6)', 'output(7)', 'output(10)'), 'flags': 0, 'class': 'ofp_flow_mod', 'match': 'dl_type:2048,nw_dst:255.255.255.255/32,in_port:None'})",
      "PendingReceive(dpid=7, controller_id='c1', fingerprint=OFFingerprint{'hard_timeout': 0, 'out_port': 65535, 'priority': 32768, 'idle_timeout': 0, 'command': 'add', 'actions': ('output(6)',), 'flags': 0, 'class': 'ofp_flow_mod', 'match': 'dl_type:2048,nw_dst:10.2.0.0/16,in_port:None'})",
      "PendingReceive(dpid=4, controller_id='c1', fingerprint=OFFingerprint{'hard_timeout': 0, 'out_port': 65535, 'priority': 32767, 'idle_timeout': 0, 'command': 'add', 'actions': ('output(1)', 'output(2)', 'output(3)', 'output(4)', 'output(5)', 'output(6)', 'output(7)', 'output(8)', 'output(10)'), 'flags': 0, 'class': 'ofp_flow_mod', 'match': 'dl_type:2048,nw_dst:255.255.255.255/32,in_port:None'})",
      "PendingReceive(dpid=4, controller_id='c1', fingerprint=OFFingerprint{'hard_timeout': 0, 'out_port': 65535, 'priority': 32767, 'idle_timeout': 0, 'command': 'add', 'actions': ('output(1)', 'output(2)', 'output(5)', 'output(6)', 'output(7)', 'output(10)'), 'flags': 0, 'class': 'ofp_flow_mod', 'match': 'dl_type:2048,nw_dst:255.255.255.255/32,in_port:None'})",
      "PendingReceive(dpid=2, controller_id='c1', fingerprint=OFFingerprint{'hard_timeout': 0, 'out_port': 65535, 'priority': 32767, 'idle_timeout': 0, 'command': 'add', 'actions': ('output(1)', 'output(2)', 'output(3)', 'output(5)', 'output(6)', 'output(8)', 'output(10)'), 'flags': 0, 'class': 'ofp_flow_mod', 'match': 'dl_type:2048,nw_dst:255.255.255.255/32,in_port:None'})",
      "PendingReceive(dpid=1, controller_id='c1', fingerprint=OFFingerprint{'hard_timeout': 0, 'out_port': 65535, 'priority': 32768, 'idle_timeout': 0, 'command': 'add', 'actions': ('output(9)',), 'flags': 0, 'class': 'ofp_flow_mod', 'match': 'dl_type:2048,nw_dst:10.8.0.0/16,in_port:None'})",
      "PendingReceive(dpid=2, controller_id='c1', fingerprint=OFFingerprint{'hard_timeout': 0, 'out_port': 65535, 'priority': 32768, 'idle_timeout': 0, 'command': 'add', 'actions': ('output(9)',), 'flags': 0, 'class': 'ofp_flow_mod', 'match': 'dl_type:2048,nw_dst:10.9.0.0/16,in_port:None'})",
      "PendingReceive(dpid=7, controller_id='c1', fingerprint=OFFingerprint{'hard_timeout': 0, 'out_port': 65535, 'priority': 32767, 'idle_timeout': 0, 'command': 'add', 'actions': ('output(1)', 'output(4)', 'output(5)', 'output(7)', 'output(10)'), 'flags': 0, 'class': 'ofp_flow_mod', 'match': 'dl_type:2048,nw_dst:255.255.255.255/32,in_port:None'})",
      "PendingReceive(dpid=8, controller_id='c1', fingerprint=OFFingerprint{'hard_timeout': 0, 'out_port': 65535, 'priority': 32768, 'idle_timeout': 0, 'command': 'add', 'actions': ('output(6)',), 'flags': 0, 'class': 'ofp_flow_mod', 'match': 'dl_type:2048,nw_dst:10.1.0.0/16,in_port:None'})",
      "PendingReceive(dpid=7, controller_id='c1', fingerprint=OFFingerprint{'hard_timeout': 0, 'out_port': 65535, 'priority': 32767, 'idle_timeout': 0, 'command': 'add', 'actions': ('output(1)', 'output(4)', 'output(5)', 'output(6)', 'output(7)', 'output(8)', 'output(9)', 'output(10)'), 'flags': 0, 'class': 'ofp_flow_mod', 'match': 'dl_type:2048,nw_dst:255.255.255.255/32,in_port:None'})",
      "PendingReceive(dpid=9, controller_id='c1', fingerprint=OFFingerprint{'hard_timeout': 0, 'out_port': 65535, 'priority': 32768, 'idle_timeout': 0, 'command': 'add', 'actions': ('output(8)',), 'flags': 0, 'class': 'ofp_flow_mod', 'match': 'dl_type:2048,nw_dst:10.2.0.0/16,in_port:None'})",
      "PendingReceive(dpid=9, controller_id='c1', fingerprint=OFFingerprint{'hard_timeout': 0, 'out_port': 65535, 'priority': 32768, 'idle_timeout': 0, 'command': 'add', 'actions': ('output(8)',), 'flags': 0, 'class': 'ofp_flow_mod', 'match': 'dl_type:2048,nw_dst:10.7.0.0/16,in_port:None'})",
      "PendingReceive(dpid=9, controller_id='c1', fingerprint=OFFingerprint{'hard_timeout': 0, 'out_port': 65535, 'priority': 32767, 'idle_timeout': 0, 'command': 'add', 'actions': ('output(1)', 'output(3)', 'output(4)', 'output(5)', 'output(6)', 'output(7)', 'output(8)', 'output(10)', 'output(11)'), 'flags': 0, 'class': 'ofp_flow_mod', 'match': 'dl_type:2048,nw_dst:255.255.255.255/32,in_port:None'})",
      "PendingReceive(dpid=7, controller_id='c1', fingerprint=OFFingerprint{'hard_timeout': 0, 'out_port': 65535, 'priority': 32768, 'idle_timeout': 0, 'command': 'add', 'actions': ('output(3)',), 'flags': 0, 'class': 'ofp_flow_mod', 'match': 'dl_type:2048,nw_dst:10.4.0.0/16,in_port:None'})",
      "PendingReceive(dpid=8, controller_id='c1', fingerprint=OFFingerprint{'hard_timeout': 0, 'out_port': 65535, 'priority': 32767, 'idle_timeout': 0, 'command': 'add', 'actions': ('output(1)', 'output(3)', 'output(4)', 'output(5)', 'output(6)', 'output(7)', 'output(8)', 'output(10)', 'output(11)'), 'flags': 0, 'class': 'ofp_flow_mod', 'match': 'dl_type:2048,nw_dst:255.255.255.255/32,in_port:None'})",
      "PendingReceive(dpid=1, controller_id='c1', fingerprint=OFFingerprint{'hard_timeout': 0, 'out_port': 65535, 'priority': 32767, 'idle_timeout': 0, 'command': 'add', 'actions': ('output(1)', 'output(6)', 'output(8)', 'output(10)'), 'flags': 0, 'class': 'ofp_flow_mod', 'match': 'dl_type:2048,nw_dst:255.255.255.255/32,in_port:None'})",
      "PendingReceive(dpid=4, controller_id='c1', fingerprint=OFFingerprint{'hard_timeout': 0, 'out_port': 65535, 'priority': 32767, 'idle_timeout': 0, 'command': 'add', 'actions': ('output(1)', 'output(2)', 'output(5)', 'output(6)', 'output(7)', 'output(8)', 'output(10)'), 'flags': 0, 'class': 'ofp_flow_mod', 'match': 'dl_type:2048,nw_dst:255.255.255.255/32,in_port:None'})",
      "PendingReceive(dpid=4, controller_id='c1', fingerprint=OFFingerprint{'hard_timeout': 0, 'out_port': 65535, 'priority': 32768, 'idle_timeout': 0, 'command': 'add', 'actions': ('output(8)',), 'flags': 0, 'class': 'ofp_flow_mod', 'match': 'dl_type:2048,nw_dst:10.2.0.0/16,in_port:None'})",
      "PendingReceive(dpid=8, controller_id='c1', fingerprint=OFFingerprint{'hard_timeout': 0, 'out_port': 65535, 'priority': 32768, 'idle_timeout': 0, 'command': 'add', 'actions': ('output(3)',), 'flags': 0, 'class': 'ofp_flow_mod', 'match': 'dl_type:2048,nw_dst:10.7.0.0/16,in_port:None'})",
      "PendingReceive(dpid=8, controller_id='c1', fingerprint=OFFingerprint{'hard_timeout': 0, 'out_port': 65535, 'priority': 32767, 'idle_timeout': 0, 'command': 'add', 'actions': ('output(1)', 'output(3)', 'output(4)', 'output(5)', 'output(6)', 'output(7)', 'output(8)', 'output(9)', 'output(10)', 'output(11)'), 'flags': 0, 'class': 'ofp_flow_mod', 'match': 'dl_type:2048,nw_dst:255.255.255.255/32,in_port:None'})"
    ]
  },
  "config": "SimulationConfig(controller_configs=[ControllerConfig(start_cmd='./pox.py --verbose openflow.discovery forwarding.topo_proactive sts.util.socket_mux.pox_monkeypatcher openflow.of_01 --address=__address__ --port=8901', label='c1', address='127.0.0.1', cwd='dart_pox')],\n                 topology_class=MeshTopology,\n                 topology_params=\"num_switches=10\",\n                 patch_panel_class=BufferedPatchPanel,\n                 multiplex_sockets=True,\n                 kill_controllers_on_exit=True)",
  "early_internal_events": {
    "2": [],
    "3": []
  },
  "initial_verification_runs_needed": 0,
  "iteration_size": {
    "0": 1596,
    "1": 806
  },
  "matched_events": {
    "2": {
      "CheckInvariants": 46,
      "ConnectToControllers": 1,
      "ControlChannelBlock": 20,
      "ControlChannelUnblock": 20,
      "ControlMessageReceive": 5477,
      "ControlMessageSend": 918,
      "DataplanePermit": 241,
      "HostMigration": 37,
      "LinkFailure": 296,
      "LinkRecovery": 296,
      "SwitchFailure": 7,
      "SwitchRecovery": 7,
      "TrafficInjection": 77
    },
    "3": {
      "CheckInvariants": 22,
      "ConnectToControllers": 1,
      "ControlChannelBlock": 9,
      "ControlChannelUnblock": 9,
      "ControlMessageReceive": 3316,
      "ControlMessageSend": 583,
      "DataplanePermit": 241,
      "HostMigration": 19,
      "LinkFailure": 148,
      "LinkRecovery": 148,
      "SwitchFailure": 4,
      "SwitchRecovery": 4,
      "TrafficInjection": 40
    }
  },
  "new_internal_events": {
    "2": [],
    "3": []
  },
  "original_duration_seconds": 15.134170055389404,
  "peeker": false,
  "prune_duration_seconds": 0,
  "prune_start_epoch": 1391029378.649523,
  "replay_duration_seconds": 3815.212329149246,
  "replay_end_epoch": 1391029378.649368,
  "replay_start_epoch": 1391025563.437039,
  "subsequence_id": 0,
  "timed_out_events": {
    "2": {
      "ControlMessageReceive": 4444,
      "ControlMessageSend": 1036
    },
    "3": {
      "ControlMessageReceive": 6605,
      "ControlMessageSend": 1371
    }
  },
  "total_events": 13714,
  "total_inputs": 1596,
  "total_inputs_replayed": 2805,
  "total_replays": 3,
  "violation_found_in_run": {
    "0": 2
  }
}