2014-06-05 16:04:41,550 INFO [main] n.f.c.m.FloodlightModuleLoader [FloodlightModuleLoader.java:170] Loading modules from file ./conf/onos.properties
2014-06-05 16:04:41,568 DEBUG [main] n.f.c.m.FloodlightModuleLoader [FloodlightModuleLoader.java:206] Starting module loader
2014-06-05 16:04:41,600 DEBUG [main] n.f.c.m.FloodlightModuleLoader [FloodlightModuleLoader.java:95] Found module net.floodlightcontroller.core.FloodlightProvider
2014-06-05 16:04:41,670 DEBUG [main] n.f.c.m.FloodlightModuleLoader [FloodlightModuleLoader.java:95] Found module net.onrc.onos.ofcontroller.floodlightlistener.NetworkGraphPublisher
2014-06-05 16:04:41,722 DEBUG [main] n.f.c.m.FloodlightModuleLoader [FloodlightModuleLoader.java:95] Found module net.onrc.onos.ofcontroller.linkdiscovery.internal.LinkDiscoveryManager
2014-06-05 16:04:41,730 DEBUG [main] n.f.c.m.FloodlightModuleLoader [FloodlightModuleLoader.java:95] Found module net.floodlightcontroller.topology.TopologyManager
2014-06-05 16:04:41,798 DEBUG [main] n.f.c.m.FloodlightModuleLoader [FloodlightModuleLoader.java:95] Found module net.floodlightcontroller.forwarding.Forwarding
2014-06-05 16:04:41,805 DEBUG [main] n.f.c.m.FloodlightModuleLoader [FloodlightModuleLoader.java:95] Found module net.floodlightcontroller.restserver.RestApiServer
2014-06-05 16:04:41,810 DEBUG [main] n.f.c.m.FloodlightModuleLoader [FloodlightModuleLoader.java:95] Found module net.floodlightcontroller.threadpool.ThreadPool
2014-06-05 16:04:41,834 DEBUG [main] n.f.c.m.FloodlightModuleLoader [FloodlightModuleLoader.java:95] Found module net.floodlightcontroller.ui.web.StaticWebRoutable
2014-06-05 16:04:41,907 DEBUG [main] n.f.c.m.FloodlightModuleLoader [FloodlightModuleLoader.java:95] Found module net.floodlightcontroller.devicemanager.internal.DefaultEntityClassifier
2014-06-05 16:04:41,909 DEBUG [main] n.f.c.m.FloodlightModuleLoader [FloodlightModuleLoader.java:88] Could not find module: net.floodlightcontroller.core.module.IFloodlightModule: Provider net.floodlightcontroller.devicemanager.test.MockDeviceManager not found
2014-06-05 16:04:41,911 DEBUG [main] n.f.c.m.FloodlightModuleLoader [FloodlightModuleLoader.java:88] Could not find module: net.floodlightcontroller.core.module.IFloodlightModule: Provider net.floodlightcontroller.core.test.MockFloodlightProvider not found
2014-06-05 16:04:41,912 DEBUG [main] n.f.c.m.FloodlightModuleLoader [FloodlightModuleLoader.java:88] Could not find module: net.floodlightcontroller.core.module.IFloodlightModule: Provider net.floodlightcontroller.core.test.MockThreadPoolService not found
2014-06-05 16:04:43,877 DEBUG [main] n.f.c.m.FloodlightModuleLoader [FloodlightModuleLoader.java:95] Found module net.onrc.onos.datagrid.HazelcastDatagrid
2014-06-05 16:04:44,706 DEBUG [main] n.f.c.m.FloodlightModuleLoader [FloodlightModuleLoader.java:95] Found module net.onrc.onos.ofcontroller.flowmanager.FlowManager
2014-06-05 16:04:45,641 DEBUG [main] n.o.o.g.GraphDBConnection [GraphDBConnection.java:59] GraphDBConnection::Setting Config File 
2014-06-05 16:04:45,645 DEBUG [main] n.f.c.m.FloodlightModuleLoader [FloodlightModuleLoader.java:95] Found module net.onrc.onos.ofcontroller.flowprogrammer.FlowProgrammer
2014-06-05 16:04:45,733 DEBUG [main] n.f.c.m.FloodlightModuleLoader [FloodlightModuleLoader.java:95] Found module net.onrc.onos.ofcontroller.topology.TopologyManager
2014-06-05 16:04:45,978 DEBUG [main] n.f.c.m.FloodlightModuleLoader [FloodlightModuleLoader.java:95] Found module net.onrc.onos.ofcontroller.bgproute.BgpRoute
2014-06-05 16:04:46,001 DEBUG [main] n.f.c.m.FloodlightModuleLoader [FloodlightModuleLoader.java:95] Found module net.onrc.onos.registry.controller.ZookeeperRegistry
2014-06-05 16:04:46,005 DEBUG [main] n.f.c.m.FloodlightModuleLoader [FloodlightModuleLoader.java:95] Found module net.onrc.onos.registry.controller.StandaloneRegistry
2014-06-05 16:04:46,021 DEBUG [main] n.f.c.m.FloodlightModuleLoader [FloodlightModuleLoader.java:95] Found module net.onrc.onos.ofcontroller.forwarding.Forwarding
2014-06-05 16:04:46,044 DEBUG [main] n.f.c.m.FloodlightModuleLoader [FloodlightModuleLoader.java:95] Found module net.onrc.onos.ofcontroller.proxyarp.ProxyArpManager
2014-06-05 16:04:46,048 DEBUG [main] n.f.c.m.FloodlightModuleLoader [FloodlightModuleLoader.java:95] Found module net.onrc.onos.ofcontroller.core.config.DefaultConfiguration
2014-06-05 16:04:46,055 DEBUG [main] n.f.c.m.FloodlightModuleLoader [FloodlightModuleLoader.java:95] Found module net.onrc.onos.ofcontroller.devicemanager.OnosDeviceManager
2014-06-05 16:04:46,056 DEBUG [main] n.f.c.m.FloodlightModuleLoader [FloodlightModuleLoader.java:416] Setting net.floodlightcontroller.threadpool.ThreadPool@5a407d55  as provider for net.floodlightcontroller.threadpool.IThreadPoolService
2014-06-05 16:04:46,056 DEBUG [main] n.f.c.m.FloodlightModuleLoader [FloodlightModuleLoader.java:416] Setting net.onrc.onos.ofcontroller.core.config.DefaultConfiguration@2e37dbea  as provider for net.onrc.onos.ofcontroller.core.config.IConfigInfoService
2014-06-05 16:04:46,057 DEBUG [main] n.f.c.m.FloodlightModuleLoader [FloodlightModuleLoader.java:416] Setting net.floodlightcontroller.restserver.RestApiServer@5b742cea  as provider for net.floodlightcontroller.restserver.IRestApiService
2014-06-05 16:04:46,086 DEBUG [main] n.f.c.m.FloodlightModuleLoader [FloodlightModuleLoader.java:416] Setting net.floodlightcontroller.core.internal.Controller@3a42c186  as provider for net.floodlightcontroller.core.IFloodlightProviderService
2014-06-05 16:04:46,086 DEBUG [main] n.f.c.m.FloodlightModuleLoader [FloodlightModuleLoader.java:416] Setting net.onrc.onos.datagrid.HazelcastDatagrid@6efe72b9  as provider for net.onrc.onos.datagrid.IDatagridService
2014-06-05 16:04:46,086 DEBUG [main] n.f.c.m.FloodlightModuleLoader [FloodlightModuleLoader.java:416] Setting net.onrc.onos.ofcontroller.flowprogrammer.FlowSynchronizer@74af624b  as provider for net.onrc.onos.ofcontroller.flowprogrammer.IFlowSyncService
2014-06-05 16:04:46,087 DEBUG [main] n.f.c.m.FloodlightModuleLoader [FloodlightModuleLoader.java:416] Setting net.onrc.onos.ofcontroller.flowprogrammer.FlowPusher@265e65c6  as provider for net.onrc.onos.ofcontroller.flowprogrammer.IFlowPusherService
2014-06-05 16:04:46,087 DEBUG [main] n.f.c.m.FloodlightModuleLoader [FloodlightModuleLoader.java:416] Setting net.onrc.onos.registry.controller.ZookeeperRegistry@24dee999  as provider for net.onrc.onos.registry.controller.IControllerRegistryService
2014-06-05 16:04:46,087 DEBUG [main] n.f.c.m.FloodlightModuleLoader [FloodlightModuleLoader.java:416] Setting net.onrc.onos.ofcontroller.linkdiscovery.internal.LinkDiscoveryManager@1081ee9f  as provider for net.onrc.onos.ofcontroller.linkdiscovery.ILinkDiscoveryService
2014-06-05 16:04:46,087 DEBUG [main] n.f.c.m.FloodlightModuleLoader [FloodlightModuleLoader.java:416] Setting net.onrc.onos.ofcontroller.floodlightlistener.NetworkGraphPublisher@6e75bb62  as provider for net.onrc.onos.ofcontroller.floodlightlistener.INetworkGraphService
2014-06-05 16:04:46,087 DEBUG [main] n.f.c.m.FloodlightModuleLoader [FloodlightModuleLoader.java:416] Setting net.onrc.onos.ofcontroller.flowmanager.FlowManager@5c356519  as provider for net.onrc.onos.ofcontroller.flowmanager.IFlowService
2014-06-05 16:04:46,088 DEBUG [main] n.f.c.m.FloodlightModuleLoader [FloodlightModuleLoader.java:416] Setting net.onrc.onos.ofcontroller.topology.TopologyManager@3adec164  as provider for net.onrc.onos.ofcontroller.topology.ITopologyNetService
2014-06-05 16:04:46,088 DEBUG [main] n.f.c.m.FloodlightModuleLoader [FloodlightModuleLoader.java:416] Setting net.floodlightcontroller.topology.TopologyManager@4c586c96  as provider for net.floodlightcontroller.topology.ITopologyService
2014-06-05 16:04:46,088 DEBUG [main] n.f.c.m.FloodlightModuleLoader [FloodlightModuleLoader.java:416] Setting net.floodlightcontroller.topology.TopologyManager@4c586c96  as provider for net.floodlightcontroller.routing.IRoutingService
2014-06-05 16:04:46,088 DEBUG [main] n.f.c.m.FloodlightModuleLoader [FloodlightModuleLoader.java:416] Setting net.onrc.onos.ofcontroller.proxyarp.ProxyArpManager@1aa5d24b  as provider for net.onrc.onos.ofcontroller.proxyarp.IProxyArpService
2014-06-05 16:04:46,088 DEBUG [main] n.f.c.m.FloodlightModuleLoader [FloodlightModuleLoader.java:416] Setting net.onrc.onos.ofcontroller.devicemanager.OnosDeviceManager@32457189  as provider for net.onrc.onos.ofcontroller.devicemanager.IOnosDeviceService
2014-06-05 16:04:46,089 DEBUG [main] n.f.c.m.FloodlightModuleLoader [FloodlightModuleLoader.java:416] Setting net.onrc.onos.ofcontroller.forwarding.Forwarding@5d688dcf  as provider for net.onrc.onos.ofcontroller.forwarding.IForwardingService
2014-06-05 16:04:46,089 DEBUG [main] n.f.c.m.FloodlightModuleLoader [FloodlightModuleLoader.java:439] Initializing net.floodlightcontroller.threadpool.ThreadPool
2014-06-05 16:04:46,089 DEBUG [main] n.f.c.m.FloodlightModuleLoader [FloodlightModuleLoader.java:439] Initializing net.onrc.onos.ofcontroller.core.config.DefaultConfiguration
2014-06-05 16:04:46,089 DEBUG [main] n.f.c.m.FloodlightModuleLoader [FloodlightModuleLoader.java:439] Initializing net.floodlightcontroller.restserver.RestApiServer
2014-06-05 16:04:46,089 DEBUG [main] n.f.r.RestApiServer [RestApiServer.java:187] REST port set to 8080
2014-06-05 16:04:46,089 DEBUG [main] n.f.c.m.FloodlightModuleLoader [FloodlightModuleLoader.java:439] Initializing net.floodlightcontroller.core.FloodlightProvider
2014-06-05 16:04:46,112 DEBUG [main] n.f.c.i.Controller [Controller.java:1761] OpenFlow port set to 6633
2014-06-05 16:04:46,115 DEBUG [main] n.f.c.i.Controller [Controller.java:1766] Number of worker threads set to 16
2014-06-05 16:04:46,115 DEBUG [main] n.f.c.i.Controller [Controller.java:1781] ControllerId set to onosdev2
2014-06-05 16:04:46,158 DEBUG [main] n.f.c.m.FloodlightModuleLoader [FloodlightModuleLoader.java:439] Initializing net.floodlightcontroller.ui.web.StaticWebRoutable
2014-06-05 16:04:46,158 DEBUG [main] n.f.c.m.FloodlightModuleLoader [FloodlightModuleLoader.java:439] Initializing net.onrc.onos.datagrid.HazelcastDatagrid
2014-06-05 16:04:46,184 INFO [main] c.h.c.FileSystemXmlConfig [Slf4jFactory.java:47] Configuring Hazelcast from '/vagrant/ONOS/conf/hazelcast.xml'.
2014-06-05 16:04:46,296 DEBUG [main] n.f.c.m.FloodlightModuleLoader [FloodlightModuleLoader.java:439] Initializing net.onrc.onos.ofcontroller.flowprogrammer.FlowProgrammer
2014-06-05 16:04:47,132 DEBUG [main] n.f.c.m.FloodlightModuleLoader [FloodlightModuleLoader.java:439] Initializing net.onrc.onos.registry.controller.ZookeeperRegistry
2014-06-05 16:04:47,133 INFO [main] n.o.o.r.c.ZookeeperRegistry [ZookeeperRegistry.java:474] Initialising the Zookeeper Registry - Zookeeper connection required
2014-06-05 16:04:47,133 INFO [main] n.o.o.r.c.ZookeeperRegistry [ZookeeperRegistry.java:482] Setting Zookeeper connection string to localhost:2181
2014-06-05 16:04:47,251 INFO [main] c.n.c.f.i.CuratorFrameworkImpl [CuratorFrameworkImpl.java:220] Starting
2014-06-05 16:04:47,252 DEBUG [main] c.n.c.CuratorZookeeperClient [CuratorZookeeperClient.java:173] Starting
2014-06-05 16:04:47,256 DEBUG [main] c.n.c.ConnectionState [ConnectionState.java:98] Starting
2014-06-05 16:04:47,265 DEBUG [main] c.n.c.ConnectionState [ConnectionState.java:199] reset
2014-06-05 16:04:47,341 INFO [main-EventThread] c.n.c.f.s.ConnectionStateManager [ConnectionStateManager.java:151] State change: CONNECTED
2014-06-05 16:04:47,344 WARN [ConnectionStateManager-0] c.n.c.f.s.ConnectionStateManager [ConnectionStateManager.java:169] There are no ConnectionStateListeners registered.
2014-06-05 16:04:47,805 DEBUG [main] n.f.c.m.FloodlightModuleLoader [FloodlightModuleLoader.java:439] Initializing net.onrc.onos.ofcontroller.linkdiscovery.internal.LinkDiscoveryManager
2014-06-05 16:04:47,848 DEBUG [main] n.f.c.m.FloodlightModuleLoader [FloodlightModuleLoader.java:439] Initializing net.onrc.onos.ofcontroller.floodlightlistener.NetworkGraphPublisher
2014-06-05 16:04:47,854 DEBUG [main] n.o.o.g.GraphDBConnection [GraphDBConnection.java:59] GraphDBConnection::Setting Config File /tmp/cassandra.titan
2014-06-05 16:04:48,589 INFO [main] c.t.t.d.Backend [Backend.java:148] Initiated backend operations thread pool of size 2
2014-06-05 16:04:53,198 DEBUG [main] n.o.o.o.f.NetworkGraphPublisher [NetworkGraphPublisher.java:470] Initializing NetworkGraphPublisher module with /tmp/cassandra.titan
2014-06-05 16:04:53,200 DEBUG [main] n.f.c.m.FloodlightModuleLoader [FloodlightModuleLoader.java:439] Initializing net.onrc.onos.ofcontroller.flowmanager.FlowManager
2014-06-05 16:04:53,201 DEBUG [main] n.f.c.m.FloodlightModuleLoader [FloodlightModuleLoader.java:439] Initializing net.onrc.onos.ofcontroller.topology.TopologyManager
2014-06-05 16:04:53,201 DEBUG [main] n.f.c.m.FloodlightModuleLoader [FloodlightModuleLoader.java:439] Initializing net.floodlightcontroller.topology.TopologyManager
2014-06-05 16:04:53,263 DEBUG [main] n.f.c.m.FloodlightModuleLoader [FloodlightModuleLoader.java:439] Initializing net.onrc.onos.ofcontroller.proxyarp.ProxyArpManager
2014-06-05 16:04:53,354 DEBUG [main] n.f.c.m.FloodlightModuleLoader [FloodlightModuleLoader.java:439] Initializing net.onrc.onos.ofcontroller.devicemanager.OnosDeviceManager
2014-06-05 16:04:53,355 DEBUG [main] n.f.c.m.FloodlightModuleLoader [FloodlightModuleLoader.java:439] Initializing net.onrc.onos.ofcontroller.forwarding.Forwarding
2014-06-05 16:04:53,359 DEBUG [main] n.f.c.m.FloodlightModuleLoader [FloodlightModuleLoader.java:453] Starting net.floodlightcontroller.threadpool.ThreadPool
2014-06-05 16:04:53,360 DEBUG [main] n.f.c.m.FloodlightModuleLoader [FloodlightModuleLoader.java:453] Starting net.onrc.onos.ofcontroller.core.config.DefaultConfiguration
2014-06-05 16:04:53,361 DEBUG [main] n.f.c.m.FloodlightModuleLoader [FloodlightModuleLoader.java:453] Starting net.floodlightcontroller.restserver.RestApiServer
2014-06-05 16:04:53,362 DEBUG [main] n.f.c.m.FloodlightModuleLoader [FloodlightModuleLoader.java:453] Starting net.floodlightcontroller.core.FloodlightProvider
2014-06-05 16:04:53,744 DEBUG [main] n.f.c.m.FloodlightModuleLoader [FloodlightModuleLoader.java:453] Starting net.floodlightcontroller.ui.web.StaticWebRoutable
2014-06-05 16:04:53,745 DEBUG [main] n.f.c.m.FloodlightModuleLoader [FloodlightModuleLoader.java:453] Starting net.onrc.onos.datagrid.HazelcastDatagrid
2014-06-05 16:04:54,453 INFO [main] c.h.i.DefaultAddressPicker [Slf4jFactory.java:47] Prefer IPv4 stack is true.
2014-06-05 16:04:54,472 DEBUG [main] c.h.i.DefaultAddressPicker [Slf4jFactory.java:41] inet reuseAddress:true
2014-06-05 16:04:54,474 DEBUG [main] c.h.i.DefaultAddressPicker [Slf4jFactory.java:41] Trying to bind inet socket address:0.0.0.0/0.0.0.0:5701
2014-06-05 16:04:54,474 DEBUG [main] c.h.i.DefaultAddressPicker [Slf4jFactory.java:41] Bind successful to inet socket address:0.0.0.0/0.0.0.0:5701
2014-06-05 16:04:54,482 INFO [main] c.h.i.DefaultAddressPicker [Slf4jFactory.java:47] Picked Address[192.168.56.12]:5701, using socket ServerSocket[addr=/0.0.0.0,localport=5701], bind any local is true
2014-06-05 16:04:54,484 DEBUG [main] c.h.i.DefaultAddressPicker [Slf4jFactory.java:41] Using public address the same as the bind address. Address[192.168.56.12]:5701
2014-06-05 16:04:54,882 DEBUG [main] c.h.c.ClusterService [Slf4jFactory.java:81] [192.168.56.12]:5701 [dev] Updating members -> [Member [192.168.56.12]:5701 this]
2014-06-05 16:04:54,941 INFO [main] c.h.system [Slf4jFactory.java:83] [192.168.56.12]:5701 [dev] Hazelcast Community Edition 3.0.2 (20130906) starting at Address[192.168.56.12]:5701
2014-06-05 16:04:54,942 INFO [main] c.h.system [Slf4jFactory.java:83] [192.168.56.12]:5701 [dev] Copyright (C) 2008-2013 Hazelcast.com
2014-06-05 16:04:54,966 INFO [main] c.h.i.Node [Slf4jFactory.java:83] [192.168.56.12]:5701 [dev] Creating MulticastJoiner
2014-06-05 16:04:54,986 INFO [main] c.h.c.LifecycleService [Slf4jFactory.java:83] [192.168.56.12]:5701 [dev] Address[192.168.56.12]:5701 is STARTING
2014-06-05 16:04:54,987 DEBUG [main] c.h.i.Node [Slf4jFactory.java:81] [192.168.56.12]:5701 [dev] We are asked to start and completelyShutdown is false
2014-06-05 16:04:54,989 DEBUG [main] c.h.s.i.ServiceManager [Slf4jFactory.java:81] [192.168.56.12]:5701 [dev] Registering core services...
2014-06-05 16:04:54,993 DEBUG [main] c.h.s.i.ServiceManager [Slf4jFactory.java:81] [192.168.56.12]:5701 [dev] Registering service: 'hz:core:clusterService'
2014-06-05 16:04:54,997 DEBUG [main] c.h.s.i.ServiceManager [Slf4jFactory.java:81] [192.168.56.12]:5701 [dev] Registering service: 'hz:core:partitionService'
2014-06-05 16:04:54,998 DEBUG [main] c.h.s.i.ServiceManager [Slf4jFactory.java:81] [192.168.56.12]:5701 [dev] Registering service: 'hz:core:proxyService'
2014-06-05 16:04:55,000 DEBUG [main] c.h.s.i.ServiceManager [Slf4jFactory.java:81] [192.168.56.12]:5701 [dev] Registering service: 'hz:core:txManagerService'
2014-06-05 16:04:55,001 DEBUG [main] c.h.s.i.ServiceManager [Slf4jFactory.java:81] [192.168.56.12]:5701 [dev] Registering service: 'hz:core:clientEngine'
2014-06-05 16:04:55,001 DEBUG [main] c.h.s.i.ServiceManager [Slf4jFactory.java:81] [192.168.56.12]:5701 [dev] Registering default services...
2014-06-05 16:04:55,079 DEBUG [main] c.h.s.i.ServiceManager [Slf4jFactory.java:81] [192.168.56.12]:5701 [dev] Registering service: 'hz:impl:mapService'
2014-06-05 16:04:55,099 DEBUG [main] c.h.s.i.ServiceManager [Slf4jFactory.java:81] [192.168.56.12]:5701 [dev] Registering service: 'hz:impl:lockService'
2014-06-05 16:04:55,126 DEBUG [main] c.h.s.i.ServiceManager [Slf4jFactory.java:81] [192.168.56.12]:5701 [dev] Registering service: 'hz:impl:queueService'
2014-06-05 16:04:55,151 DEBUG [main] c.h.s.i.ServiceManager [Slf4jFactory.java:81] [192.168.56.12]:5701 [dev] Registering service: 'hz:impl:topicService'
2014-06-05 16:04:55,164 DEBUG [main] c.h.s.i.ServiceManager [Slf4jFactory.java:81] [192.168.56.12]:5701 [dev] Registering service: 'hz:impl:collectionService'
2014-06-05 16:04:55,173 DEBUG [main] c.h.s.i.ServiceManager [Slf4jFactory.java:81] [192.168.56.12]:5701 [dev] Registering service: 'hz:impl:executorService'
2014-06-05 16:04:55,178 DEBUG [main] c.h.s.i.ServiceManager [Slf4jFactory.java:81] [192.168.56.12]:5701 [dev] Registering service: 'hz:impl:atomicLongService'
2014-06-05 16:04:55,190 DEBUG [main] c.h.s.i.ServiceManager [Slf4jFactory.java:81] [192.168.56.12]:5701 [dev] Registering service: 'hz:impl:countDownLatchService'
2014-06-05 16:04:55,204 DEBUG [main] c.h.s.i.ServiceManager [Slf4jFactory.java:81] [192.168.56.12]:5701 [dev] Registering service: 'hz:impl:semaphoreService'
2014-06-05 16:04:55,209 DEBUG [main] c.h.s.i.ServiceManager [Slf4jFactory.java:81] [192.168.56.12]:5701 [dev] Registering service: 'hz:impl:idGeneratorService'
2014-06-05 16:04:55,214 DEBUG [main] c.h.s.i.ServiceManager [Slf4jFactory.java:81] [192.168.56.12]:5701 [dev] Initializing service -> PartitionManager[0] {

migrationQ: 0
}
2014-06-05 16:04:55,222 DEBUG [main] c.h.s.i.ServiceManager [Slf4jFactory.java:81] [192.168.56.12]:5701 [dev] Initializing service -> ClusterService{address=Address[192.168.56.12]:5701}
2014-06-05 16:04:55,229 DEBUG [main] c.h.s.i.ServiceManager [Slf4jFactory.java:81] [192.168.56.12]:5701 [dev] Initializing service -> com.hazelcast.concurrent.atomiclong.AtomicLongService@4b0a833a
2014-06-05 16:04:55,231 DEBUG [main] c.h.s.i.ServiceManager [Slf4jFactory.java:81] [192.168.56.12]:5701 [dev] Initializing service -> com.hazelcast.concurrent.countdownlatch.CountDownLatchService@1f2d7b53
2014-06-05 16:04:55,232 DEBUG [main] c.h.s.i.ServiceManager [Slf4jFactory.java:81] [192.168.56.12]:5701 [dev] Initializing service -> com.hazelcast.transaction.impl.TransactionManagerServiceImpl@62fb9622
2014-06-05 16:04:55,234 DEBUG [main] c.h.s.i.ServiceManager [Slf4jFactory.java:81] [192.168.56.12]:5701 [dev] Initializing service -> com.hazelcast.concurrent.semaphore.SemaphoreService@733dc4f2
2014-06-05 16:04:55,235 DEBUG [main] c.h.s.i.ServiceManager [Slf4jFactory.java:81] [192.168.56.12]:5701 [dev] Initializing service -> com.hazelcast.collection.CollectionService@5c4d26f9
2014-06-05 16:04:55,241 DEBUG [main] c.h.s.i.ServiceManager [Slf4jFactory.java:81] [192.168.56.12]:5701 [dev] Initializing service -> com.hazelcast.map.MapService@15d6b659
2014-06-05 16:04:55,264 DEBUG [main] c.h.s.i.ServiceManager [Slf4jFactory.java:81] [192.168.56.12]:5701 [dev] Initializing service -> com.hazelcast.client.ClientEngineImpl@7a203667
2014-06-05 16:04:55,265 DEBUG [main] c.h.s.i.ServiceManager [Slf4jFactory.java:81] [192.168.56.12]:5701 [dev] Initializing service -> com.hazelcast.topic.TopicService@58d3e2d4
2014-06-05 16:04:55,267 DEBUG [main] c.h.s.i.ServiceManager [Slf4jFactory.java:81] [192.168.56.12]:5701 [dev] Initializing service -> com.hazelcast.concurrent.idgen.IdGeneratorService@3ed0f9db
2014-06-05 16:04:55,267 DEBUG [main] c.h.s.i.ServiceManager [Slf4jFactory.java:81] [192.168.56.12]:5701 [dev] Initializing service -> com.hazelcast.queue.QueueService@9c3b915
2014-06-05 16:04:55,267 DEBUG [main] c.h.s.i.ServiceManager [Slf4jFactory.java:81] [192.168.56.12]:5701 [dev] Initializing service -> com.hazelcast.executor.DistributedExecutorService@10ac16b5
2014-06-05 16:04:55,268 DEBUG [main] c.h.s.i.ServiceManager [Slf4jFactory.java:81] [192.168.56.12]:5701 [dev] Initializing service -> com.hazelcast.concurrent.lock.LockServiceImpl@1206cda0
2014-06-05 16:04:55,278 DEBUG [main] c.h.n.TcpIpConnectionManager [Slf4jFactory.java:81] [192.168.56.12]:5701 [dev] Starting ConnectionManager and IO selectors.
2014-06-05 16:04:55,321 DEBUG [main] c.h.i.Node [Slf4jFactory.java:81] [192.168.56.12]:5701 [dev] Adding ShutdownHook
2014-06-05 16:04:55,324 DEBUG [main] c.h.i.Node [Slf4jFactory.java:81] [192.168.56.12]:5701 [dev] finished starting threads, calling join
2014-06-05 16:04:55,323 DEBUG [hz._hzInstance_1_dev.IO.thread-Acceptor] c.h.n.SocketAcceptor [Slf4jFactory.java:81] [192.168.56.12]:5701 [dev] Starting SocketAcceptor on sun.nio.ch.ServerSocketChannelImpl[/0.0.0.0:5701]
2014-06-05 16:04:58,545 DEBUG [main] c.h.c.MulticastJoiner [Slf4jFactory.java:81] [192.168.56.12]:5701 [dev] Joining to master node: null
2014-06-05 16:04:58,545 DEBUG [main] c.h.i.Node [Slf4jFactory.java:81] [192.168.56.12]:5701 [dev] This node is being set as the master
2014-06-05 16:04:58,546 INFO [main] c.h.c.MulticastJoiner [Slf4jFactory.java:83] [192.168.56.12]:5701 [dev] 


Members [1] {
	Member [192.168.56.12]:5701 this
}

2014-06-05 16:04:58,566 DEBUG [main] c.h.i.Node [Slf4jFactory.java:81] [192.168.56.12]:5701 [dev] Starting health monitor
2014-06-05 16:04:58,576 INFO [main] c.h.c.LifecycleService [Slf4jFactory.java:83] [192.168.56.12]:5701 [dev] Address[192.168.56.12]:5701 is STARTED
2014-06-05 16:04:58,616 DEBUG [main] n.f.c.m.FloodlightModuleLoader [FloodlightModuleLoader.java:453] Starting net.onrc.onos.ofcontroller.flowprogrammer.FlowProgrammer
2014-06-05 16:04:58,623 DEBUG [main] n.f.c.m.FloodlightModuleLoader [FloodlightModuleLoader.java:453] Starting net.onrc.onos.registry.controller.ZookeeperRegistry
2014-06-05 16:04:58,645 DEBUG [pool-8-thread-1] n.o.o.r.c.ZookeeperRegistry [ZookeeperRegistry.java:179] Cluster leadership changed, now true
2014-06-05 16:04:58,653 DEBUG [main] n.f.c.m.FloodlightModuleLoader [FloodlightModuleLoader.java:453] Starting net.onrc.onos.ofcontroller.linkdiscovery.internal.LinkDiscoveryManager
2014-06-05 16:04:58,675 INFO [main] n.o.o.o.l.i.LinkDiscoveryManager [LinkDiscoveryManager.java:731] IIIII read controller id: 443175442348285297
2014-06-05 16:04:58,676 DEBUG [main] n.f.c.m.FloodlightModuleLoader [FloodlightModuleLoader.java:453] Starting net.onrc.onos.ofcontroller.floodlightlistener.NetworkGraphPublisher
2014-06-05 16:04:58,676 DEBUG [main] n.o.o.o.f.NetworkGraphPublisher [NetworkGraphPublisher.java:483] Adding EventListener
2014-06-05 16:04:58,680 DEBUG [main] n.o.o.g.GraphDBConnection [GraphDBConnection.java:139] Registered listener class net.onrc.onos.graph.LocalTopologyEventListener
2014-06-05 16:04:58,683 DEBUG [main] n.f.c.m.FloodlightModuleLoader [FloodlightModuleLoader.java:453] Starting net.onrc.onos.ofcontroller.flowmanager.FlowManager
2014-06-05 16:04:59,310 DEBUG [main] n.f.c.m.FloodlightModuleLoader [FloodlightModuleLoader.java:453] Starting net.onrc.onos.ofcontroller.topology.TopologyManager
2014-06-05 16:04:59,313 INFO [FlowEventHandler 48] c.h.p.PartitionService [Slf4jFactory.java:83] [192.168.56.12]:5701 [dev] Initializing cluster partition table first arrangement...
2014-06-05 16:04:59,318 DEBUG [main] n.f.c.m.FloodlightModuleLoader [FloodlightModuleLoader.java:453] Starting net.floodlightcontroller.topology.TopologyManager
2014-06-05 16:04:59,347 DEBUG [main] n.f.c.m.FloodlightModuleLoader [FloodlightModuleLoader.java:453] Starting net.onrc.onos.ofcontroller.proxyarp.ProxyArpManager
2014-06-05 16:04:59,348 INFO [main] n.o.o.o.p.ProxyArpManager [ProxyArpManager.java:184] vlan set to 0
2014-06-05 16:04:59,372 DEBUG [main] n.f.c.m.FloodlightModuleLoader [FloodlightModuleLoader.java:453] Starting net.onrc.onos.ofcontroller.devicemanager.OnosDeviceManager
2014-06-05 16:04:59,373 DEBUG [main] n.f.c.m.FloodlightModuleLoader [FloodlightModuleLoader.java:453] Starting net.onrc.onos.ofcontroller.forwarding.Forwarding
2014-06-05 16:04:59,373 DEBUG [main] n.f.r.RestApiServer [RestApiServer.java:137] REST API routables: CoreWebRoutable (/wm/floodlight/core), OnosInternalWebRoutable (/wm/onos/internal), StaticWebRoutable (/wm/floodlight/ui/), DatagridWebRoutable (/wm/onos/datagrid), FlowProgrammerWebRoutable (/wm/onos/flowprogrammer), RegistryWebRoutable (/wm/onos/registry), LinkDiscoveryWebRoutable (/wm/onos/linkdiscovery), FlowWebRoutable (/wm/onos/flows), OnosTopologyWebRoutable (/wm/onos/topology), TopologyWebRoutable (/wm/floodlight/topology), ArpWebRoutable (/wm/arp), 
2014-06-05 16:05:00,173 DEBUG [main] n.f.c.i.Controller [Controller.java:1490] OFListeners for PACKET_IN: linkdiscovery,onosdevicemanager,proxyarpmanager,onosforwarding,topology,
2014-06-05 16:05:00,173 DEBUG [main] n.f.c.i.Controller [Controller.java:1490] OFListeners for FLOW_REMOVED: FlowProgrammer,
2014-06-05 16:05:00,173 DEBUG [main] n.f.c.i.Controller [Controller.java:1490] OFListeners for BARRIER_REPLY: flowpusher,
2014-06-05 16:05:00,173 DEBUG [main] n.f.c.i.Controller [Controller.java:1490] OFListeners for PORT_STATUS: linkdiscovery,
2014-06-05 16:05:00,278 INFO [main] n.f.c.i.Controller [Controller.java:1724] Listening for switch connections on 0.0.0.0/0.0.0.0:6633
2014-06-05 16:05:13,671 DEBUG [pool-2-thread-8] n.o.o.o.l.i.LinkDiscoveryManager [LinkDiscoveryManager.java:350] Sending LLDP out on all ports.
2014-06-05 16:05:28,677 DEBUG [pool-2-thread-1] n.o.o.o.l.i.LinkDiscoveryManager [LinkDiscoveryManager.java:350] Sending LLDP out on all ports.
2014-06-05 16:05:43,685 DEBUG [pool-2-thread-12] n.o.o.o.l.i.LinkDiscoveryManager [LinkDiscoveryManager.java:350] Sending LLDP out on all ports.
2014-06-05 16:05:46,530 DEBUG [hz.ShutdownThread] c.h.i.Node [Slf4jFactory.java:81] [192.168.56.12]:5701 [dev] ** we are being asked to shutdown when active = true
2014-06-05 16:05:46,530 DEBUG [hz.ShutdownThread] c.h.i.Node [Slf4jFactory.java:81] [192.168.56.12]:5701 [dev] Shutting down client command service
2014-06-05 16:05:46,531 DEBUG [hz.ShutdownThread] c.h.i.Node [Slf4jFactory.java:81] [192.168.56.12]:5701 [dev] Shutting down node engine
2014-06-05 16:05:46,531 DEBUG [hz.ShutdownThread] c.h.s.NodeEngine [Slf4jFactory.java:81] [192.168.56.12]:5701 [dev] Shutting down services...
2014-06-05 16:05:46,531 DEBUG [hz.ShutdownThread] c.h.s.WaitNotifyService [Slf4jFactory.java:81] [192.168.56.12]:5701 [dev] Stopping tasks...
2014-06-05 16:05:46,533 DEBUG [hz.ShutdownThread] c.h.s.i.ServiceManager [Slf4jFactory.java:81] [192.168.56.12]:5701 [dev] Stopping services...
2014-06-05 16:05:46,533 DEBUG [hz.ShutdownThread] c.h.s.i.ServiceManager [Slf4jFactory.java:81] [192.168.56.12]:5701 [dev] Shutting down service -> com.hazelcast.concurrent.lock.LockServiceImpl@1206cda0
2014-06-05 16:05:46,539 DEBUG [hz.ShutdownThread] c.h.s.i.ServiceManager [Slf4jFactory.java:81] [192.168.56.12]:5701 [dev] Shutting down service -> com.hazelcast.executor.DistributedExecutorService@10ac16b5
2014-06-05 16:05:46,540 DEBUG [hz.ShutdownThread] c.h.s.i.ServiceManager [Slf4jFactory.java:81] [192.168.56.12]:5701 [dev] Shutting down service -> com.hazelcast.queue.QueueService@9c3b915
2014-06-05 16:05:46,541 DEBUG [hz.ShutdownThread] c.h.s.i.ServiceManager [Slf4jFactory.java:81] [192.168.56.12]:5701 [dev] Shutting down service -> com.hazelcast.concurrent.idgen.IdGeneratorService@3ed0f9db
2014-06-05 16:05:46,543 DEBUG [hz.ShutdownThread] c.h.s.i.ServiceManager [Slf4jFactory.java:81] [192.168.56.12]:5701 [dev] Shutting down service -> com.hazelcast.topic.TopicService@58d3e2d4
2014-06-05 16:05:46,543 DEBUG [hz.ShutdownThread] c.h.s.i.ServiceManager [Slf4jFactory.java:81] [192.168.56.12]:5701 [dev] Shutting down service -> com.hazelcast.map.MapService@15d6b659
2014-06-05 16:05:46,559 DEBUG [hz.ShutdownThread] c.h.s.i.ServiceManager [Slf4jFactory.java:81] [192.168.56.12]:5701 [dev] Shutting down service -> com.hazelcast.collection.CollectionService@5c4d26f9
2014-06-05 16:05:46,565 DEBUG [hz.ShutdownThread] c.h.s.i.ServiceManager [Slf4jFactory.java:81] [192.168.56.12]:5701 [dev] Shutting down service -> com.hazelcast.concurrent.semaphore.SemaphoreService@733dc4f2
2014-06-05 16:05:46,566 DEBUG [hz.ShutdownThread] c.h.s.i.ServiceManager [Slf4jFactory.java:81] [192.168.56.12]:5701 [dev] Shutting down service -> com.hazelcast.transaction.impl.TransactionManagerServiceImpl@62fb9622
2014-06-05 16:05:46,567 DEBUG [hz.ShutdownThread] c.h.s.i.ServiceManager [Slf4jFactory.java:81] [192.168.56.12]:5701 [dev] Shutting down service -> com.hazelcast.concurrent.countdownlatch.CountDownLatchService@1f2d7b53
2014-06-05 16:05:46,569 DEBUG [hz.ShutdownThread] c.h.s.i.ServiceManager [Slf4jFactory.java:81] [192.168.56.12]:5701 [dev] Shutting down service -> com.hazelcast.concurrent.atomiclong.AtomicLongService@4b0a833a
2014-06-05 16:05:46,570 DEBUG [hz.ShutdownThread] c.h.s.i.ServiceManager [Slf4jFactory.java:81] [192.168.56.12]:5701 [dev] Shutting down service -> PartitionManager[271] {

migrationQ: 0
}
2014-06-05 16:05:46,571 DEBUG [hz.ShutdownThread] c.h.p.PartitionService [Slf4jFactory.java:81] [192.168.56.12]:5701 [dev] Shutting down the partition service
2014-06-05 16:05:46,572 DEBUG [hz.ShutdownThread] c.h.s.i.ServiceManager [Slf4jFactory.java:81] [192.168.56.12]:5701 [dev] Shutting down service -> ClusterService{address=Address[192.168.56.12]:5701}
2014-06-05 16:05:46,573 DEBUG [hz.ShutdownThread] c.h.s.i.ServiceManager [Slf4jFactory.java:81] [192.168.56.12]:5701 [dev] Shutting down service -> com.hazelcast.client.ClientEngineImpl@7a203667
2014-06-05 16:05:46,573 DEBUG [hz.ShutdownThread] c.h.s.ExecutionService [Slf4jFactory.java:81] [192.168.56.12]:5701 [dev] Stopping executors...
2014-06-05 16:05:46,572 DEBUG [hz._hzInstance_1_dev.migration] c.h.p.PartitionService [Slf4jFactory.java:81] [192.168.56.12]:5701 [dev] MigrationThread is interrupted: null
2014-06-05 16:05:46,574 DEBUG [hz.ShutdownThread] c.h.s.EventService [Slf4jFactory.java:81] [192.168.56.12]:5701 [dev] Stopping event executor...
2014-06-05 16:05:46,575 DEBUG [hz.ShutdownThread] c.h.s.OperationService [Slf4jFactory.java:81] [192.168.56.12]:5701 [dev] Stopping operation threads...
2014-06-05 16:05:46,577 DEBUG [hz.ShutdownThread] c.h.i.Node [Slf4jFactory.java:81] [192.168.56.12]:5701 [dev] Shutting down multicast service
2014-06-05 16:05:46,579 DEBUG [hz.ShutdownThread] c.h.i.Node [Slf4jFactory.java:81] [192.168.56.12]:5701 [dev] Shutting down connection manager
2014-06-05 16:05:46,580 DEBUG [hz.ShutdownThread] c.h.n.TcpIpConnectionManager [Slf4jFactory.java:81] [192.168.56.12]:5701 [dev] Stopping ConnectionManager
2014-06-05 16:05:46,581 DEBUG [hz.ShutdownThread] c.h.n.TcpIpConnectionManager [Slf4jFactory.java:81] [192.168.56.12]:5701 [dev] Shutting down SocketAcceptor thread.
2014-06-05 16:05:46,582 DEBUG [hz._hzInstance_1_dev.IO.thread-Acceptor] c.h.n.SocketAcceptor [Slf4jFactory.java:81] [192.168.56.12]:5701 [dev] Closing selector hz._hzInstance_1_dev.IO.thread-Acceptor
2014-06-05 16:05:46,583 DEBUG [hz.ShutdownThread] c.h.n.TcpIpConnectionManager [Slf4jFactory.java:81] [192.168.56.12]:5701 [dev] Shutting down IO selectors... Total: 3
2014-06-05 16:05:46,585 DEBUG [hz._hzInstance_1_dev.IO.thread-in-0] c.h.n.InSelectorImpl [Slf4jFactory.java:81] [192.168.56.12]:5701 [dev] hz._hzInstance_1_dev.IO.thread-in-0 is interrupted!
2014-06-05 16:05:46,586 DEBUG [hz._hzInstance_1_dev.IO.thread-in-0] c.h.n.InSelectorImpl [Slf4jFactory.java:81] [192.168.56.12]:5701 [dev] Closing selector hz._hzInstance_1_dev.IO.thread-in-0
2014-06-05 16:05:46,585 DEBUG [hz._hzInstance_1_dev.IO.thread-out-0] c.h.n.OutSelectorImpl [Slf4jFactory.java:81] [192.168.56.12]:5701 [dev] hz._hzInstance_1_dev.IO.thread-out-0 is interrupted!
2014-06-05 16:05:46,592 DEBUG [hz._hzInstance_1_dev.IO.thread-out-0] c.h.n.OutSelectorImpl [Slf4jFactory.java:81] [192.168.56.12]:5701 [dev] Closing selector hz._hzInstance_1_dev.IO.thread-out-0
2014-06-05 16:05:46,586 DEBUG [hz._hzInstance_1_dev.IO.thread-out-2] c.h.n.OutSelectorImpl [Slf4jFactory.java:81] [192.168.56.12]:5701 [dev] hz._hzInstance_1_dev.IO.thread-out-2 is interrupted!
2014-06-05 16:05:46,593 DEBUG [hz._hzInstance_1_dev.IO.thread-out-2] c.h.n.OutSelectorImpl [Slf4jFactory.java:81] [192.168.56.12]:5701 [dev] Closing selector hz._hzInstance_1_dev.IO.thread-out-2
2014-06-05 16:05:46,586 DEBUG [hz._hzInstance_1_dev.IO.thread-in-2] c.h.n.InSelectorImpl [Slf4jFactory.java:81] [192.168.56.12]:5701 [dev] hz._hzInstance_1_dev.IO.thread-in-2 is interrupted!
2014-06-05 16:05:46,600 DEBUG [hz._hzInstance_1_dev.IO.thread-in-2] c.h.n.InSelectorImpl [Slf4jFactory.java:81] [192.168.56.12]:5701 [dev] Closing selector hz._hzInstance_1_dev.IO.thread-in-2
2014-06-05 16:05:46,586 DEBUG [hz.ShutdownThread] c.h.n.TcpIpConnectionManager [Slf4jFactory.java:81] [192.168.56.12]:5701 [dev] Closing server socket channel: sun.nio.ch.ServerSocketChannelImpl[/0.0.0.0:5701]
2014-06-05 16:05:46,586 DEBUG [hz._hzInstance_1_dev.IO.thread-out-1] c.h.n.OutSelectorImpl [Slf4jFactory.java:81] [192.168.56.12]:5701 [dev] hz._hzInstance_1_dev.IO.thread-out-1 is interrupted!
2014-06-05 16:05:46,604 DEBUG [hz._hzInstance_1_dev.IO.thread-out-1] c.h.n.OutSelectorImpl [Slf4jFactory.java:81] [192.168.56.12]:5701 [dev] Closing selector hz._hzInstance_1_dev.IO.thread-out-1
2014-06-05 16:05:46,586 DEBUG [hz._hzInstance_1_dev.IO.thread-in-1] c.h.n.InSelectorImpl [Slf4jFactory.java:81] [192.168.56.12]:5701 [dev] hz._hzInstance_1_dev.IO.thread-in-1 is interrupted!
2014-06-05 16:05:46,608 DEBUG [hz._hzInstance_1_dev.IO.thread-in-1] c.h.n.InSelectorImpl [Slf4jFactory.java:81] [192.168.56.12]:5701 [dev] Closing selector hz._hzInstance_1_dev.IO.thread-in-1
2014-06-05 16:05:46,602 INFO [hz.ShutdownThread] c.h.initializer [Slf4jFactory.java:83] [192.168.56.12]:5701 [dev] Destroying node initializer.
2014-06-05 16:05:46,612 DEBUG [hz.ShutdownThread] c.h.i.Node [Slf4jFactory.java:81] [192.168.56.12]:5701 [dev] Shutting down thread hz._hzInstance_1_dev.HealthMonitor
2014-06-05 16:05:46,612 INFO [hz.ShutdownThread] c.h.i.Node [Slf4jFactory.java:83] [192.168.56.12]:5701 [dev] Hazelcast Shutdown is completed in 82 ms.
