{"timeout_disallowed": true, "fingerprint": ["ConnectToControllers"], "timed_out": false, "label": "e1", "dependent_labels": [], "time": [1401148018, 763741], "replay_time": [1401162765, 878521], "class": "ConnectToControllers", "round": 0, "prunable": false}
{"pass_through_sends": false, "timeout_disallowed": false, "time": [1401148018, 765883], "controller_id": "c1", "fingerprint": ["ControlMessageReceive", {"class": "ofp_hello"}, 1, ["c", "1"]], "timed_out": false, "dependent_labels": [], "ignore_whitelisted_packets": false, "dpid": 1, "replay_time": [1401162765, 880474], "label": "i2", "class": "ControlMessageReceive", "b64_packet": "AQAACAAAAAE=", "round": 1, "prunable": true}
{"pass_through_sends": false, "timeout_disallowed": false, "time": [1401148018, 766232], "controller_id": "c1", "fingerprint": ["ControlMessageReceive", {"class": "ofp_hello"}, 3, ["c", "1"]], "timed_out": false, "dependent_labels": [], "ignore_whitelisted_packets": false, "dpid": 3, "replay_time": [1401162765, 881139], "label": "i3", "class": "ControlMessageReceive", "b64_packet": "AQAACAAAAAU=", "round": 1, "prunable": true}
{"pass_through_sends": false, "timeout_disallowed": false, "time": [1401148018, 766445], "controller_id": "c1", "fingerprint": ["ControlMessageReceive", {"class": "ofp_hello"}, 2, ["c", "1"]], "timed_out": false, "dependent_labels": [], "ignore_whitelisted_packets": false, "dpid": 2, "replay_time": [1401162765, 881575], "label": "i4", "class": "ControlMessageReceive", "b64_packet": "AQAACAAAAAM=", "round": 1, "prunable": true}
{"pass_through_sends": false, "timeout_disallowed": false, "time": [1401148018, 766653], "controller_id": "c1", "fingerprint": ["ControlMessageSend", {"class": "ofp_hello"}, 1, ["c", "1"]], "timed_out": false, "dependent_labels": [], "ignore_whitelisted_packets": false, "dpid": 1, "replay_time": [1401162765, 881932], "label": "i5", "class": "ControlMessageSend", "b64_packet": "AQAACAAAAAE=", "round": 1, "prunable": true}
{"pass_through_sends": false, "timeout_disallowed": false, "time": [1401148018, 766800], "controller_id": "c1", "fingerprint": ["ControlMessageSend", {"class": "ofp_hello"}, 3, ["c", "1"]], "timed_out": false, "dependent_labels": [], "ignore_whitelisted_packets": false, "dpid": 3, "replay_time": [1401162765, 882264], "label": "i6", "class": "ControlMessageSend", "b64_packet": "AQAACAAAAAM=", "round": 1, "prunable": true}
{"pass_through_sends": false, "timeout_disallowed": false, "time": [1401148018, 766935], "controller_id": "c1", "fingerprint": ["ControlMessageSend", {"class": "ofp_hello"}, 2, ["c", "1"]], "timed_out": false, "dependent_labels": [], "ignore_whitelisted_packets": false, "dpid": 2, "replay_time": [1401162765, 882585], "label": "i7", "class": "ControlMessageSend", "b64_packet": "AQAACAAAAAU=", "round": 1, "prunable": true}
{"pass_through_sends": false, "timeout_disallowed": false, "time": [1401148018, 868372], "controller_id": "c1", "fingerprint": ["ControlMessageReceive", {"class": "ofp_features_request"}, 1, ["c", "1"]], "timed_out": false, "dependent_labels": [], "ignore_whitelisted_packets": false, "dpid": 1, "replay_time": [1401162765, 884186], "label": "i8", "class": "ControlMessageReceive", "b64_packet": "AQUACAAAAAs=", "round": 2, "prunable": true}
{"pass_through_sends": false, "timeout_disallowed": false, "time": [1401148018, 869059], "controller_id": "c1", "fingerprint": ["ControlMessageReceive", {"class": "ofp_features_request"}, 3, ["c", "1"]], "timed_out": false, "dependent_labels": [], "ignore_whitelisted_packets": false, "dpid": 3, "replay_time": [1401162765, 884636], "label": "i9", "class": "ControlMessageReceive", "b64_packet": "AQUACAAAAAc=", "round": 2, "prunable": true}
{"pass_through_sends": false, "timeout_disallowed": false, "time": [1401148018, 869523], "controller_id": "c1", "fingerprint": ["ControlMessageReceive", {"class": "ofp_features_request"}, 2, ["c", "1"]], "timed_out": false, "dependent_labels": [], "ignore_whitelisted_packets": false, "dpid": 2, "replay_time": [1401162765, 885057], "label": "i10", "class": "ControlMessageReceive", "b64_packet": "AQUACAAAAAk=", "round": 2, "prunable": true}
{"pass_through_sends": false, "timeout_disallowed": false, "time": [1401148018, 870024], "controller_id": "c1", "fingerprint": ["ControlMessageSend", {"datapath_id": 1, "class": "ofp_features_reply"}, 1, ["c", "1"]], "timed_out": false, "dependent_labels": [], "ignore_whitelisted_packets": false, "dpid": 1, "replay_time": [1401162765, 885381], "label": "i11", "class": "ControlMessageSend", "b64_packet": "AQYAsAAAAAsAAAAAAAAAAQAAAGQBAAAAAAAA7wAAB/8AAQAAAAABAWV0aDEAAAAAAAAAAAAAAAAAAAAAAAAAAAAAAAAAAAAAAAAAAAAAAAAAAgAAAAABAmV0aDIAAAAAAAAAAAAAAAAAAAAAAAAAAAAAAAAAAAAAAAAAAAAAAAAAAwAAAAABA2V0aDMAAAAAAAAAAAAAAAAAAAAAAAAAAAAAAAAAAAAAAAAAAAAAAAA=", "round": 2, "prunable": true}
{"pass_through_sends": false, "timeout_disallowed": false, "time": [1401148018, 870484], "controller_id": "c1", "fingerprint": ["ControlMessageSend", {"datapath_id": 3, "class": "ofp_features_reply"}, 3, ["c", "1"]], "timed_out": false, "dependent_labels": [], "ignore_whitelisted_packets": false, "dpid": 3, "replay_time": [1401162765, 885738], "label": "i12", "class": "ControlMessageSend", "b64_packet": "AQYAsAAAAAcAAAAAAAAAAwAAAGQBAAAAAAAA7wAAB/8AAQAAAAADAWV0aDEAAAAAAAAAAAAAAAAAAAAAAAAAAAAAAAAAAAAAAAAAAAAAAAAAAgAAAAADAmV0aDIAAAAAAAAAAAAAAAAAAAAAAAAAAAAAAAAAAAAAAAAAAAAAAAAAAwAAAAADA2V0aDMAAAAAAAAAAAAAAAAAAAAAAAAAAAAAAAAAAAAAAAAAAAAAAAA=", "round": 2, "prunable": true}
{"pass_through_sends": false, "timeout_disallowed": false, "time": [1401148018, 870839], "controller_id": "c1", "fingerprint": ["ControlMessageSend", {"datapath_id": 2, "class": "ofp_features_reply"}, 2, ["c", "1"]], "timed_out": false, "dependent_labels": [], "ignore_whitelisted_packets": false, "dpid": 2, "replay_time": [1401162765, 886059], "label": "i13", "class": "ControlMessageSend", "b64_packet": "AQYAsAAAAAkAAAAAAAAAAgAAAGQBAAAAAAAA7wAAB/8AAQAAAAACAWV0aDEAAAAAAAAAAAAAAAAAAAAAAAAAAAAAAAAAAAAAAAAAAAAAAAAAAgAAAAACAmV0aDIAAAAAAAAAAAAAAAAAAAAAAAAAAAAAAAAAAAAAAAAAAAAAAAAAAwAAAAACA2V0aDMAAAAAAAAAAAAAAAAAAAAAAAAAAAAAAAAAAAAAAAAAAAAAAAA=", "round": 2, "prunable": true}
{"pass_through_sends": false, "timeout_disallowed": false, "time": [1401148018, 972485], "controller_id": "c1", "fingerprint": ["ControlMessageReceive", {"class": "ofp_set_config"}, 1, ["c", "1"]], "timed_out": false, "dependent_labels": [], "ignore_whitelisted_packets": false, "dpid": 1, "replay_time": [1401162765, 888651], "label": "i14", "class": "ControlMessageReceive", "b64_packet": "AQkADAAAABkAAACA", "round": 3, "prunable": true}
{"pass_through_sends": false, "timeout_disallowed": false, "time": [1401148018, 972944], "controller_id": "c1", "fingerprint": ["ControlMessageReceive", {"hard_timeout": 0, "actions": [], "priority": 32768, "idle_timeout": 0, "command": "delete", "out_port": 65535, "flags": 0, "class": "ofp_flow_mod", "match": "x^L,in_port:None"}, 1, ["c", "1"]], "timed_out": false, "dependent_labels": [], "ignore_whitelisted_packets": false, "dpid": 1, "replay_time": [1401162765, 889879], "label": "i15", "class": "ControlMessageReceive", "b64_packet": "AQ4ASAAAABsAEAAfAAAAAAAAAAAAAAAAAAAAAAAAAAAAAAAAAAAAAAAAAAAAAAAAAAAAAAAAAAAAAwAAAACAAP///////wAA", "round": 3, "prunable": true}
{"pass_through_sends": false, "timeout_disallowed": false, "time": [1401148018, 973458], "controller_id": "c1", "fingerprint": ["ControlMessageReceive", {"class": "ofp_barrier_request"}, 1, ["c", "1"]], "timed_out": false, "dependent_labels": [], "ignore_whitelisted_packets": false, "dpid": 1, "replay_time": [1401162765, 890627], "label": "i16", "class": "ControlMessageReceive", "b64_packet": "ARIACAAAAB0=", "round": 3, "prunable": true}
{"pass_through_sends": false, "timeout_disallowed": false, "time": [1401148018, 973788], "controller_id": "c1", "fingerprint": ["ControlMessageReceive", {"class": "ofp_set_config"}, 3, ["c", "1"]], "timed_out": false, "dependent_labels": [], "ignore_whitelisted_packets": false, "dpid": 3, "replay_time": [1401162765, 890930], "label": "i17", "class": "ControlMessageReceive", "b64_packet": "AQkADAAAAA0AAACA", "round": 3, "prunable": true}
{"pass_through_sends": false, "timeout_disallowed": false, "time": [1401148018, 974023], "controller_id": "c1", "fingerprint": ["ControlMessageReceive", {"hard_timeout": 0, "actions": [], "priority": 32768, "idle_timeout": 0, "command": "delete", "out_port": 65535, "flags": 0, "class": "ofp_flow_mod", "match": "x^L,in_port:None"}, 3, ["c", "1"]], "timed_out": false, "dependent_labels": [], "ignore_whitelisted_packets": false, "dpid": 3, "replay_time": [1401162765, 891322], "label": "i18", "class": "ControlMessageReceive", "b64_packet": "AQ4ASAAAAA8AEAAfAAAAAAAAAAAAAAAAAAAAAAAAAAAAAAAAAAAAAAAAAAAAAAAAAAAAAAAAAAAAAwAAAACAAP///////wAA", "round": 3, "prunable": true}
{"pass_through_sends": false, "timeout_disallowed": false, "time": [1401148018, 974447], "controller_id": "c1", "fingerprint": ["ControlMessageReceive", {"class": "ofp_barrier_request"}, 3, ["c", "1"]], "timed_out": false, "dependent_labels": [], "ignore_whitelisted_packets": false, "dpid": 3, "replay_time": [1401162765, 891882], "label": "i19", "class": "ControlMessageReceive", "b64_packet": "ARIACAAAABE=", "round": 3, "prunable": true}
{"pass_through_sends": false, "timeout_disallowed": false, "time": [1401148018, 974786], "controller_id": "c1", "fingerprint": ["ControlMessageReceive", {"class": "ofp_set_config"}, 2, ["c", "1"]], "timed_out": false, "dependent_labels": [], "ignore_whitelisted_packets": false, "dpid": 2, "replay_time": [1401162765, 892167], "label": "i20", "class": "ControlMessageReceive", "b64_packet": "AQkADAAAABMAAACA", "round": 3, "prunable": true}
{"pass_through_sends": false, "timeout_disallowed": false, "time": [1401148018, 975021], "controller_id": "c1", "fingerprint": ["ControlMessageReceive", {"hard_timeout": 0, "actions": [], "priority": 32768, "idle_timeout": 0, "command": "delete", "out_port": 65535, "flags": 0, "class": "ofp_flow_mod", "match": "x^L,in_port:None"}, 2, ["c", "1"]], "timed_out": false, "dependent_labels": [], "ignore_whitelisted_packets": false, "dpid": 2, "replay_time": [1401162765, 892585], "label": "i21", "class": "ControlMessageReceive", "b64_packet": "AQ4ASAAAABUAEAAfAAAAAAAAAAAAAAAAAAAAAAAAAAAAAAAAAAAAAAAAAAAAAAAAAAAAAAAAAAAAAwAAAACAAP///////wAA", "round": 3, "prunable": true}
{"pass_through_sends": false, "timeout_disallowed": false, "time": [1401148018, 975463], "controller_id": "c1", "fingerprint": ["ControlMessageReceive", {"class": "ofp_barrier_request"}, 2, ["c", "1"]], "timed_out": false, "dependent_labels": [], "ignore_whitelisted_packets": false, "dpid": 2, "replay_time": [1401162765, 893140], "label": "i22", "class": "ControlMessageReceive", "b64_packet": "ARIACAAAABc=", "round": 3, "prunable": true}
{"pass_through_sends": false, "timeout_disallowed": false, "time": [1401148018, 975848], "controller_id": "c1", "fingerprint": ["ControlMessageSend", {"class": "ofp_barrier_reply"}, 1, ["c", "1"]], "timed_out": false, "dependent_labels": [], "ignore_whitelisted_packets": false, "dpid": 1, "replay_time": [1401162765, 893395], "label": "i23", "class": "ControlMessageSend", "b64_packet": "ARMACAAAAB0=", "round": 3, "prunable": true}
{"pass_through_sends": false, "timeout_disallowed": false, "time": [1401148018, 976100], "controller_id": "c1", "fingerprint": ["ControlMessageSend", {"class": "ofp_barrier_reply"}, 3, ["c", "1"]], "timed_out": false, "dependent_labels": [], "ignore_whitelisted_packets": false, "dpid": 3, "replay_time": [1401162765, 893660], "label": "i24", "class": "ControlMessageSend", "b64_packet": "ARMACAAAABE=", "round": 3, "prunable": true}
{"pass_through_sends": false, "timeout_disallowed": false, "time": [1401148018, 976335], "controller_id": "c1", "fingerprint": ["ControlMessageSend", {"class": "ofp_barrier_reply"}, 2, ["c", "1"]], "timed_out": false, "dependent_labels": [], "ignore_whitelisted_packets": false, "dpid": 2, "replay_time": [1401162765, 893905], "label": "i25", "class": "ControlMessageSend", "b64_packet": "ARMACAAAABc=", "round": 3, "prunable": true}
{"pass_through_sends": false, "timeout_disallowed": false, "time": [1401148019, 78130], "controller_id": "c1", "fingerprint": ["ControlMessageReceive", {"hard_timeout": 0, "actions": ["output(65533)"], "priority": 32768, "idle_timeout": 0, "command": "add", "out_port": 65535, "flags": 0, "class": "ofp_flow_mod", "match": "dl_dst:01:23:20:00:00:01,dl_type:35020,in_port:None"}, 1, ["c", "1"]], "timed_out": false, "dependent_labels": [], "ignore_whitelisted_packets": false, "dpid": 1, "replay_time": [1401162765, 897926], "label": "i26", "class": "ControlMessageReceive", "b64_packet": "AQ4AUAAAAC8AEAAHAAAAAAAAAAABIyAAAAEAAAAAiMwAAAAAAAAAAAAAAAAAAAAAAAAAAAAAAAAAAAAAAACAAP///////wAAAAAACP/9//8=", "round": 4, "prunable": true}
{"pass_through_sends": false, "timeout_disallowed": false, "time": [1401148019, 79229], "controller_id": "c1", "fingerprint": ["ControlMessageReceive", {"hard_timeout": 0, "actions": ["output(65533)"], "priority": 32768, "idle_timeout": 0, "command": "add", "out_port": 65535, "flags": 0, "class": "ofp_flow_mod", "match": "dl_dst:01:23:20:00:00:01,dl_type:35020,in_port:None"}, 3, ["c", "1"]], "timed_out": false, "dependent_labels": [], "ignore_whitelisted_packets": false, "dpid": 3, "replay_time": [1401162765, 898849], "label": "i27", "class": "ControlMessageReceive", "b64_packet": "AQ4AUAAAAB8AEAAHAAAAAAAAAAABIyAAAAEAAAAAiMwAAAAAAAAAAAAAAAAAAAAAAAAAAAAAAAAAAAAAAACAAP///////wAAAAAACP/9//8=", "round": 4, "prunable": true}
{"pass_through_sends": false, "timeout_disallowed": false, "time": [1401148019, 80180], "controller_id": "c1", "fingerprint": ["ControlMessageReceive", {"hard_timeout": 0, "actions": ["output(65533)"], "priority": 32768, "idle_timeout": 0, "command": "add", "out_port": 65535, "flags": 0, "class": "ofp_flow_mod", "match": "dl_dst:01:23:20:00:00:01,dl_type:35020,in_port:None"}, 2, ["c", "1"]], "timed_out": false, "dependent_labels": [], "ignore_whitelisted_packets": false, "dpid": 2, "replay_time": [1401162765, 899662], "label": "i28", "class": "ControlMessageReceive", "b64_packet": "AQ4AUAAAACcAEAAHAAAAAAAAAAABIyAAAAEAAAAAiMwAAAAAAAAAAAAAAAAAAAAAAAAAAAAAAAAAAAAAAACAAP///////wAAAAAACP/9//8=", "round": 4, "prunable": true}
{"pass_through_sends": false, "timeout_disallowed": false, "time": [1401148019, 586880], "controller_id": "c1", "fingerprint": ["ControlMessageReceive", {"in_port": 65535, "data": {"class": "lldp"}, "class": "ofp_packet_out", "actions": ["output(1)"]}, 3, ["c", "1"]], "timed_out": false, "dependent_labels": [], "ignore_whitelisted_packets": false, "dpid": 3, "replay_time": [1401162766, 455198], "label": "i29", "class": "ControlMessageReceive", "b64_packet": "AQ0AQQAAACH///////8ACAAAAAgAAQAAASMgAAABAAAAAAMBiMwCBwdkcGlkOjMEAgIxBgIAeAwGZHBpZDozAAA=", "round": 9, "prunable": true}
{"pass_through_sends": false, "timeout_disallowed": false, "time": [1401148019, 689770], "controller_id": "c1", "fingerprint": ["ControlMessageSend", {"data": {"class": "lldp"}, "class": "ofp_packet_in", "in_port": 1}, 2, ["c", "1"]], "timed_out": true, "dependent_labels": [], "ignore_whitelisted_packets": false, "dpid": 2, "replay_time": [1401162767, 212006], "label": "i31", "class": "ControlMessageSend", "b64_packet": "AQoAOwAAAAEAAAABADsAAQEAASMgAAABAAAAAAMBiMwCBwdkcGlkOjMEAgIxBgIAeAwGZHBpZDozAAA=", "round": 10, "prunable": true}
{"pass_through_sends": false, "timeout_disallowed": false, "time": [1401148019, 791258], "controller_id": "c1", "fingerprint": ["ControlMessageReceive", {"hard_timeout": 0, "actions": [], "priority": 32768, "idle_timeout": 0, "command": "delete", "out_port": 65535, "flags": 0, "class": "ofp_flow_mod", "match": "x^L,in_port:None"}, 1, ["c", "1"]], "timed_out": true, "dependent_labels": [], "ignore_whitelisted_packets": false, "dpid": 1, "replay_time": [1401162767, 970442], "label": "i32", "class": "ControlMessageReceive", "b64_packet": "AQ4ASAAAADcAEAAfAAAAAAAAAAAAAAAAAAAAAAAAAAAAAAAAAAAAAAAAAAAAAAAAAAAAAAAAAAAAAwAAAACAAP///////wAA", "round": 11, "prunable": true}
{"pass_through_sends": false, "timeout_disallowed": false, "time": [1401148019, 791997], "controller_id": "c1", "fingerprint": ["ControlMessageReceive", {"hard_timeout": 0, "actions": [], "priority": 32768, "idle_timeout": 0, "command": "delete", "out_port": 65535, "flags": 0, "class": "ofp_flow_mod", "match": "x^L,in_port:None"}, 3, ["c", "1"]], "timed_out": true, "dependent_labels": [], "ignore_whitelisted_packets": false, "dpid": 3, "replay_time": [1401162768, 525427], "label": "i33", "class": "ControlMessageReceive", "b64_packet": "AQ4ASAAAADcAEAAfAAAAAAAAAAAAAAAAAAAAAAAAAAAAAAAAAAAAAAAAAAAAAAAAAAAAAAAAAAAAAwAAAACAAP///////wAA", "round": 11, "prunable": true}
{"pass_through_sends": false, "timeout_disallowed": false, "time": [1401148019, 792566], "controller_id": "c1", "fingerprint": ["ControlMessageReceive", {"hard_timeout": 0, "actions": [], "priority": 32768, "idle_timeout": 0, "command": "delete", "out_port": 65535, "flags": 0, "class": "ofp_flow_mod", "match": "x^L,in_port:None"}, 2, ["c", "1"]], "timed_out": true, "dependent_labels": [], "ignore_whitelisted_packets": false, "dpid": 2, "replay_time": [1401162769, 82905], "label": "i34", "class": "ControlMessageReceive", "b64_packet": "AQ4ASAAAADcAEAAfAAAAAAAAAAAAAAAAAAAAAAAAAAAAAAAAAAAAAAAAAAAAAAAAAAAAAAAAAAAAAwAAAACAAP///////wAA", "round": 11, "prunable": true}
{"pass_through_sends": false, "timeout_disallowed": false, "time": [1401148019, 793075], "controller_id": "c1", "fingerprint": ["ControlMessageReceive", {"in_port": 1, "data": [], "class": "ofp_packet_out", "actions": []}, 2, ["c", "1"]], "timed_out": true, "dependent_labels": [], "ignore_whitelisted_packets": false, "dpid": 2, "replay_time": [1401162769, 637506], "label": "i35", "class": "ControlMessageReceive", "b64_packet": "AQ0AEAAAADkAAAABAAEAAA==", "round": 11, "prunable": true}
{"pass_through_sends": false, "timeout_disallowed": false, "time": [1401148020, 93674], "controller_id": "c1", "fingerprint": ["ControlMessageReceive", {"in_port": 65535, "data": {"class": "lldp"}, "class": "ofp_packet_out", "actions": ["output(2)"]}, 3, ["c", "1"]], "timed_out": false, "dependent_labels": [], "ignore_whitelisted_packets": false, "dpid": 3, "replay_time": [1401162769, 638178], "label": "i36", "class": "ControlMessageReceive", "b64_packet": "AQ0AQQAAACP///////8ACAAAAAgAAgAAASMgAAABAAAAAAMCiMwCBwdkcGlkOjMEAgIyBgIAeAwGZHBpZDozAAA=", "round": 14, "prunable": true}
{"pass_through_sends": false, "timeout_disallowed": false, "time": [1401148020, 196582], "controller_id": "c1", "fingerprint": ["ControlMessageSend", {"data": {"class": "lldp"}, "class": "ofp_packet_in", "in_port": 1}, 1, ["c", "1"]], "timed_out": true, "dependent_labels": [], "ignore_whitelisted_packets": false, "dpid": 1, "replay_time": [1401162770, 349463], "label": "i38", "class": "ControlMessageSend", "b64_packet": "AQoAOwAAAAEAAAABADsAAQAAASMgAAABAAAAAAMCiMwCBwdkcGlkOjMEAgIyBgIAeAwGZHBpZDozAAA=", "round": 15, "prunable": true}
{"pass_through_sends": false, "timeout_disallowed": false, "time": [1401148020, 298392], "controller_id": "c1", "fingerprint": ["ControlMessageReceive", {"hard_timeout": 0, "actions": [], "priority": 32768, "idle_timeout": 0, "command": "delete", "out_port": 65535, "flags": 0, "class": "ofp_flow_mod", "match": "x^L,in_port:None"}, 1, ["c", "1"]], "timed_out": true, "dependent_labels": [], "ignore_whitelisted_packets": false, "dpid": 1, "replay_time": [1401162771, 107286], "label": "i39", "class": "ControlMessageReceive", "b64_packet": "AQ4ASAAAADsAEAAfAAAAAAAAAAAAAAAAAAAAAAAAAAAAAAAAAAAAAAAAAAAAAAAAAAAAAAAAAAAAAwAAAACAAP///////wAA", "round": 16, "prunable": true}
{"pass_through_sends": false, "timeout_disallowed": false, "time": [1401148020, 299157], "controller_id": "c1", "fingerprint": ["ControlMessageReceive", {"in_port": 1, "data": [], "class": "ofp_packet_out", "actions": []}, 1, ["c", "1"]], "timed_out": true, "dependent_labels": [], "ignore_whitelisted_packets": false, "dpid": 1, "replay_time": [1401162771, 663150], "label": "i40", "class": "ControlMessageReceive", "b64_packet": "AQ0AEAAAAD0AAAABAAEAAA==", "round": 16, "prunable": true}
{"pass_through_sends": false, "timeout_disallowed": false, "time": [1401148020, 299541], "controller_id": "c1", "fingerprint": ["ControlMessageReceive", {"hard_timeout": 0, "actions": [], "priority": 32768, "idle_timeout": 0, "command": "delete", "out_port": 65535, "flags": 0, "class": "ofp_flow_mod", "match": "x^L,in_port:None"}, 3, ["c", "1"]], "timed_out": true, "dependent_labels": [], "ignore_whitelisted_packets": false, "dpid": 3, "replay_time": [1401162772, 220027], "label": "i41", "class": "ControlMessageReceive", "b64_packet": "AQ4ASAAAADsAEAAfAAAAAAAAAAAAAAAAAAAAAAAAAAAAAAAAAAAAAAAAAAAAAAAAAAAAAAAAAAAAAwAAAACAAP///////wAA", "round": 16, "prunable": true}
{"pass_through_sends": false, "timeout_disallowed": false, "time": [1401148020, 300051], "controller_id": "c1", "fingerprint": ["ControlMessageReceive", {"hard_timeout": 0, "actions": [], "priority": 32768, "idle_timeout": 0, "command": "delete", "out_port": 65535, "flags": 0, "class": "ofp_flow_mod", "match": "x^L,in_port:None"}, 2, ["c", "1"]], "timed_out": true, "dependent_labels": [], "ignore_whitelisted_packets": false, "dpid": 2, "replay_time": [1401162772, 776108], "label": "i42", "class": "ControlMessageReceive", "b64_packet": "AQ4ASAAAADsAEAAfAAAAAAAAAAAAAAAAAAAAAAAAAAAAAAAAAAAAAAAAAAAAAAAAAAAAAAAAAAAAAwAAAACAAP///////wAA", "round": 16, "prunable": true}
{"pass_through_sends": false, "timeout_disallowed": false, "time": [1401148020, 705042], "controller_id": "c1", "fingerprint": ["ControlMessageReceive", {"in_port": 65535, "data": {"class": "lldp"}, "class": "ofp_packet_out", "actions": ["output(3)"]}, 3, ["c", "1"]], "timed_out": false, "dependent_labels": [], "ignore_whitelisted_packets": false, "dpid": 3, "replay_time": [1401162772, 777225], "label": "i43", "class": "ControlMessageReceive", "b64_packet": "AQ0AQQAAACX///////8ACAAAAAgAAwAAASMgAAABAAAAAAMDiMwCBwdkcGlkOjMEAgIzBgIAeAwGZHBpZDozAAA=", "round": 20, "prunable": true}
{"pass_through_sends": false, "timeout_disallowed": false, "time": [1401148021, 205888], "controller_id": "c1", "fingerprint": ["ControlMessageReceive", {"in_port": 65535, "data": {"class": "lldp"}, "class": "ofp_packet_out", "actions": ["output(1)"]}, 2, ["c", "1"]], "timed_out": false, "dependent_labels": [], "ignore_whitelisted_packets": false, "dpid": 2, "replay_time": [1401162772, 778120], "label": "i45", "class": "ControlMessageReceive", "b64_packet": "AQ0AQQAAACn///////8ACAAAAAgAAQAAASMgAAABAAAAAAIBiMwCBwdkcGlkOjIEAgIxBgIAeAwGZHBpZDoyAAA=", "round": 25, "prunable": true}
{"pass_through_sends": false, "timeout_disallowed": false, "time": [1401148021, 308533], "controller_id": "c1", "fingerprint": ["ControlMessageSend", {"data": {"class": "lldp"}, "class": "ofp_packet_in", "in_port": 1}, 3, ["c", "1"]], "timed_out": true, "dependent_labels": [], "ignore_whitelisted_packets": false, "dpid": 3, "replay_time": [1401162773, 533685], "label": "i47", "class": "ControlMessageSend", "b64_packet": "AQoAOwAAAAEAAAABADsAAQAAASMgAAABAAAAAAIBiMwCBwdkcGlkOjIEAgIxBgIAeAwGZHBpZDoyAAA=", "round": 26, "prunable": true}
{"pass_through_sends": false, "timeout_disallowed": false, "time": [1401148021, 410624], "controller_id": "c1", "fingerprint": ["ControlMessageReceive", {"hard_timeout": 0, "actions": [], "priority": 32768, "idle_timeout": 0, "command": "delete", "out_port": 65535, "flags": 0, "class": "ofp_flow_mod", "match": "x^L,in_port:None"}, 1, ["c", "1"]], "timed_out": true, "dependent_labels": [], "ignore_whitelisted_packets": false, "dpid": 1, "replay_time": [1401162774, 244414], "label": "i48", "class": "ControlMessageReceive", "b64_packet": "AQ4ASAAAAD8AEAAfAAAAAAAAAAAAAAAAAAAAAAAAAAAAAAAAAAAAAAAAAAAAAAAAAAAAAAAAAAAAAwAAAACAAP///////wAA", "round": 27, "prunable": true}
{"pass_through_sends": false, "timeout_disallowed": false, "time": [1401148021, 411357], "controller_id": "c1", "fingerprint": ["ControlMessageReceive", {"hard_timeout": 0, "actions": [], "priority": 32768, "idle_timeout": 0, "command": "delete", "out_port": 65535, "flags": 0, "class": "ofp_flow_mod", "match": "x^L,in_port:None"}, 3, ["c", "1"]], "timed_out": true, "dependent_labels": [], "ignore_whitelisted_packets": false, "dpid": 3, "replay_time": [1401162774, 801241], "label": "i49", "class": "ControlMessageReceive", "b64_packet": "AQ4ASAAAAD8AEAAfAAAAAAAAAAAAAAAAAAAAAAAAAAAAAAAAAAAAAAAAAAAAAAAAAAAAAAAAAAAAAwAAAACAAP///////wAA", "round": 27, "prunable": true}
{"pass_through_sends": false, "timeout_disallowed": false, "time": [1401148021, 411816], "controller_id": "c1", "fingerprint": ["ControlMessageReceive", {"in_port": 1, "data": [], "class": "ofp_packet_out", "actions": []}, 3, ["c", "1"]], "timed_out": true, "dependent_labels": [], "ignore_whitelisted_packets": false, "dpid": 3, "replay_time": [1401162775, 357236], "label": "i50", "class": "ControlMessageReceive", "b64_packet": "AQ0AEAAAAEEAAAABAAEAAA==", "round": 27, "prunable": true}
{"pass_through_sends": false, "timeout_disallowed": false, "time": [1401148021, 412167], "controller_id": "c1", "fingerprint": ["ControlMessageReceive", {"hard_timeout": 0, "actions": [], "priority": 32768, "idle_timeout": 0, "command": "delete", "out_port": 65535, "flags": 0, "class": "ofp_flow_mod", "match": "x^L,in_port:None"}, 2, ["c", "1"]], "timed_out": true, "dependent_labels": [], "ignore_whitelisted_packets": false, "dpid": 2, "replay_time": [1401162775, 912999], "label": "i51", "class": "ControlMessageReceive", "b64_packet": "AQ4ASAAAAD8AEAAfAAAAAAAAAAAAAAAAAAAAAAAAAAAAAAAAAAAAAAAAAAAAAAAAAAAAAAAAAAAAAwAAAACAAP///////wAA", "round": 27, "prunable": true}
{"pass_through_sends": false, "timeout_disallowed": false, "time": [1401148021, 817314], "controller_id": "c1", "fingerprint": ["ControlMessageReceive", {"in_port": 65535, "data": {"class": "lldp"}, "class": "ofp_packet_out", "actions": ["output(2)"]}, 2, ["c", "1"]], "timed_out": false, "dependent_labels": [], "ignore_whitelisted_packets": false, "dpid": 2, "replay_time": [1401162775, 913861], "label": "i52", "class": "ControlMessageReceive", "b64_packet": "AQ0AQQAAACv///////8ACAAAAAgAAgAAASMgAAABAAAAAAICiMwCBwdkcGlkOjIEAgIyBgIAeAwGZHBpZDoyAAA=", "round": 31, "prunable": true}
{"pass_through_sends": false, "timeout_disallowed": false, "time": [1401148021, 920502], "controller_id": "c1", "fingerprint": ["ControlMessageSend", {"data": {"class": "lldp"}, "class": "ofp_packet_in", "in_port": 2}, 1, ["c", "1"]], "timed_out": true, "dependent_labels": [], "ignore_whitelisted_packets": false, "dpid": 1, "replay_time": [1401162776, 669989], "label": "i54", "class": "ControlMessageSend", "b64_packet": "AQoAOwAAAAIAAAABADsAAgAAASMgAAABAAAAAAICiMwCBwdkcGlkOjIEAgIyBgIAeAwGZHBpZDoyAAA=", "round": 32, "prunable": true}
{"pass_through_sends": false, "timeout_disallowed": false, "time": [1401148022, 21757], "controller_id": "c1", "fingerprint": ["ControlMessageReceive", {"hard_timeout": 0, "actions": [], "priority": 32768, "idle_timeout": 0, "command": "delete", "out_port": 65535, "flags": 0, "class": "ofp_flow_mod", "match": "x^L,in_port:None"}, 1, ["c", "1"]], "timed_out": true, "dependent_labels": [], "ignore_whitelisted_packets": false, "dpid": 1, "replay_time": [1401162777, 426337], "label": "i55", "class": "ControlMessageReceive", "b64_packet": "AQ4ASAAAAEMAEAAfAAAAAAAAAAAAAAAAAAAAAAAAAAAAAAAAAAAAAAAAAAAAAAAAAAAAAAAAAAAAAwAAAACAAP///////wAA", "round": 33, "prunable": true}
{"pass_through_sends": false, "timeout_disallowed": false, "time": [1401148022, 22677], "controller_id": "c1", "fingerprint": ["ControlMessageReceive", {"in_port": 2, "data": [], "class": "ofp_packet_out", "actions": []}, 1, ["c", "1"]], "timed_out": true, "dependent_labels": [], "ignore_whitelisted_packets": false, "dpid": 1, "replay_time": [1401162777, 982928], "label": "i56", "class": "ControlMessageReceive", "b64_packet": "AQ0AEAAAAEUAAAABAAIAAA==", "round": 33, "prunable": true}
{"pass_through_sends": false, "timeout_disallowed": false, "time": [1401148022, 23159], "controller_id": "c1", "fingerprint": ["ControlMessageReceive", {"hard_timeout": 0, "actions": [], "priority": 32768, "idle_timeout": 0, "command": "delete", "out_port": 65535, "flags": 0, "class": "ofp_flow_mod", "match": "x^L,in_port:None"}, 3, ["c", "1"]], "timed_out": true, "dependent_labels": [], "ignore_whitelisted_packets": false, "dpid": 3, "replay_time": [1401162778, 539053], "label": "i57", "class": "ControlMessageReceive", "b64_packet": "AQ4ASAAAAEMAEAAfAAAAAAAAAAAAAAAAAAAAAAAAAAAAAAAAAAAAAAAAAAAAAAAAAAAAAAAAAAAAAwAAAACAAP///////wAA", "round": 33, "prunable": true}
{"pass_through_sends": false, "timeout_disallowed": false, "time": [1401148022, 23650], "controller_id": "c1", "fingerprint": ["ControlMessageReceive", {"hard_timeout": 0, "actions": [], "priority": 32768, "idle_timeout": 0, "command": "delete", "out_port": 65535, "flags": 0, "class": "ofp_flow_mod", "match": "x^L,in_port:None"}, 2, ["c", "1"]], "timed_out": true, "dependent_labels": [], "ignore_whitelisted_packets": false, "dpid": 2, "replay_time": [1401162779, 96657], "label": "i58", "class": "ControlMessageReceive", "b64_packet": "AQ4ASAAAAEMAEAAfAAAAAAAAAAAAAAAAAAAAAAAAAAAAAAAAAAAAAAAAAAAAAAAAAAAAAAAAAAAAAwAAAACAAP///////wAA", "round": 33, "prunable": true}
{"pass_through_sends": false, "timeout_disallowed": false, "time": [1401148022, 319728], "controller_id": "c1", "fingerprint": ["ControlMessageReceive", {"in_port": 65535, "data": {"class": "lldp"}, "class": "ofp_packet_out", "actions": ["output(3)"]}, 2, ["c", "1"]], "timed_out": false, "dependent_labels": [], "ignore_whitelisted_packets": false, "dpid": 2, "replay_time": [1401162779, 97542], "label": "i59", "class": "ControlMessageReceive", "b64_packet": "AQ0AQQAAAC3///////8ACAAAAAgAAwAAASMgAAABAAAAAAIDiMwCBwdkcGlkOjIEAgIzBgIAeAwGZHBpZDoyAAA=", "round": 36, "prunable": true}
{"pass_through_sends": false, "timeout_disallowed": false, "time": [1401148022, 928169], "controller_id": "c1", "fingerprint": ["ControlMessageReceive", {"in_port": 65535, "data": {"class": "lldp"}, "class": "ofp_packet_out", "actions": ["output(1)"]}, 1, ["c", "1"]], "timed_out": false, "dependent_labels": [], "ignore_whitelisted_packets": false, "dpid": 1, "replay_time": [1401162779, 98166], "label": "i61", "class": "ControlMessageReceive", "b64_packet": "AQ0AQQAAADH///////8ACAAAAAgAAQAAASMgAAABAAAAAAEBiMwCBwdkcGlkOjEEAgIxBgIAeAwGZHBpZDoxAAA=", "round": 42, "prunable": true}
{"pass_through_sends": false, "timeout_disallowed": false, "time": [1401148023, 30571], "controller_id": "c1", "fingerprint": ["ControlMessageSend", {"data": {"class": "lldp"}, "class": "ofp_packet_in", "in_port": 2}, 3, ["c", "1"]], "timed_out": true, "dependent_labels": [], "ignore_whitelisted_packets": false, "dpid": 3, "replay_time": [1401162779, 806426], "label": "i63", "class": "ControlMessageSend", "b64_packet": "AQoAOwAAAAIAAAABADsAAgAAASMgAAABAAAAAAEBiMwCBwdkcGlkOjEEAgIxBgIAeAwGZHBpZDoxAAA=", "round": 43, "prunable": true}
{"pass_through_sends": false, "timeout_disallowed": false, "time": [1401148023, 132213], "controller_id": "c1", "fingerprint": ["ControlMessageReceive", {"hard_timeout": 0, "actions": [], "priority": 32768, "idle_timeout": 0, "command": "delete", "out_port": 65535, "flags": 0, "class": "ofp_flow_mod", "match": "x^L,in_port:None"}, 1, ["c", "1"]], "timed_out": true, "dependent_labels": [], "ignore_whitelisted_packets": false, "dpid": 1, "replay_time": [1401162780, 562386], "label": "i64", "class": "ControlMessageReceive", "b64_packet": "AQ4ASAAAAEcAEAAfAAAAAAAAAAAAAAAAAAAAAAAAAAAAAAAAAAAAAAAAAAAAAAAAAAAAAAAAAAAAAwAAAACAAP///////wAA", "round": 44, "prunable": true}
{"pass_through_sends": false, "timeout_disallowed": false, "time": [1401148023, 133194], "controller_id": "c1", "fingerprint": ["ControlMessageReceive", {"hard_timeout": 0, "actions": [], "priority": 32768, "idle_timeout": 0, "command": "delete", "out_port": 65535, "flags": 0, "class": "ofp_flow_mod", "match": "x^L,in_port:None"}, 3, ["c", "1"]], "timed_out": true, "dependent_labels": [], "ignore_whitelisted_packets": false, "dpid": 3, "replay_time": [1401162781, 119656], "label": "i65", "class": "ControlMessageReceive", "b64_packet": "AQ4ASAAAAEcAEAAfAAAAAAAAAAAAAAAAAAAAAAAAAAAAAAAAAAAAAAAAAAAAAAAAAAAAAAAAAAAAAwAAAACAAP///////wAA", "round": 44, "prunable": true}
{"pass_through_sends": false, "timeout_disallowed": false, "time": [1401148023, 133881], "controller_id": "c1", "fingerprint": ["ControlMessageReceive", {"in_port": 2, "data": [], "class": "ofp_packet_out", "actions": []}, 3, ["c", "1"]], "timed_out": true, "dependent_labels": [], "ignore_whitelisted_packets": false, "dpid": 3, "replay_time": [1401162781, 676535], "label": "i66", "class": "ControlMessageReceive", "b64_packet": "AQ0AEAAAAEkAAAABAAIAAA==", "round": 44, "prunable": true}
{"pass_through_sends": false, "timeout_disallowed": false, "time": [1401148023, 134395], "controller_id": "c1", "fingerprint": ["ControlMessageReceive", {"hard_timeout": 0, "actions": [], "priority": 32768, "idle_timeout": 0, "command": "delete", "out_port": 65535, "flags": 0, "class": "ofp_flow_mod", "match": "x^L,in_port:None"}, 2, ["c", "1"]], "timed_out": true, "dependent_labels": [], "ignore_whitelisted_packets": false, "dpid": 2, "replay_time": [1401162782, 232312], "label": "i67", "class": "ControlMessageReceive", "b64_packet": "AQ4ASAAAAEcAEAAfAAAAAAAAAAAAAAAAAAAAAAAAAAAAAAAAAAAAAAAAAAAAAAAAAAAAAAAAAAAAAwAAAACAAP///////wAA", "round": 44, "prunable": true}
{"pass_through_sends": false, "timeout_disallowed": false, "time": [1401148023, 433439], "controller_id": "c1", "fingerprint": ["ControlMessageReceive", {"in_port": 65535, "data": {"class": "lldp"}, "class": "ofp_packet_out", "actions": ["output(2)"]}, 1, ["c", "1"]], "timed_out": false, "dependent_labels": [], "ignore_whitelisted_packets": false, "dpid": 1, "replay_time": [1401162782, 233410], "label": "i68", "class": "ControlMessageReceive", "b64_packet": "AQ0AQQAAADP///////8ACAAAAAgAAgAAASMgAAABAAAAAAECiMwCBwdkcGlkOjEEAgIyBgIAeAwGZHBpZDoxAAA=", "round": 47, "prunable": true}
{"pass_through_sends": false, "timeout_disallowed": false, "time": [1401148023, 535588], "controller_id": "c1", "fingerprint": ["ControlMessageSend", {"data": {"class": "lldp"}, "class": "ofp_packet_in", "in_port": 2}, 2, ["c", "1"]], "timed_out": true, "dependent_labels": [], "ignore_whitelisted_packets": false, "dpid": 2, "replay_time": [1401162782, 989907], "label": "i70", "class": "ControlMessageSend", "b64_packet": "AQoAOwAAAAIAAAABADsAAgAAASMgAAABAAAAAAECiMwCBwdkcGlkOjEEAgIyBgIAeAwGZHBpZDoxAAA=", "round": 48, "prunable": true}
{"pass_through_sends": false, "timeout_disallowed": false, "time": [1401148023, 637159], "controller_id": "c1", "fingerprint": ["ControlMessageReceive", {"hard_timeout": 0, "actions": [], "priority": 32768, "idle_timeout": 0, "command": "delete", "out_port": 65535, "flags": 0, "class": "ofp_flow_mod", "match": "x^L,in_port:None"}, 1, ["c", "1"]], "timed_out": true, "dependent_labels": [], "ignore_whitelisted_packets": false, "dpid": 1, "replay_time": [1401162783, 701689], "label": "i71", "class": "ControlMessageReceive", "b64_packet": "AQ4ASAAAAEsAEAAfAAAAAAAAAAAAAAAAAAAAAAAAAAAAAAAAAAAAAAAAAAAAAAAAAAAAAAAAAAAAAwAAAACAAP///////wAA", "round": 49, "prunable": true}
{"pass_through_sends": false, "timeout_disallowed": false, "time": [1401148023, 638101], "controller_id": "c1", "fingerprint": ["ControlMessageReceive", {"hard_timeout": 0, "actions": [], "priority": 32768, "idle_timeout": 0, "command": "delete", "out_port": 65535, "flags": 0, "class": "ofp_flow_mod", "match": "x^L,in_port:None"}, 3, ["c", "1"]], "timed_out": true, "dependent_labels": [], "ignore_whitelisted_packets": false, "dpid": 3, "replay_time": [1401162784, 258393], "label": "i72", "class": "ControlMessageReceive", "b64_packet": "AQ4ASAAAAEsAEAAfAAAAAAAAAAAAAAAAAAAAAAAAAAAAAAAAAAAAAAAAAAAAAAAAAAAAAAAAAAAAAwAAAACAAP///////wAA", "round": 49, "prunable": true}
{"pass_through_sends": false, "timeout_disallowed": false, "time": [1401148023, 638836], "controller_id": "c1", "fingerprint": ["ControlMessageReceive", {"hard_timeout": 0, "actions": [], "priority": 32768, "idle_timeout": 0, "command": "delete", "out_port": 65535, "flags": 0, "class": "ofp_flow_mod", "match": "x^L,in_port:None"}, 2, ["c", "1"]], "timed_out": true, "dependent_labels": [], "ignore_whitelisted_packets": false, "dpid": 2, "replay_time": [1401162784, 815401], "label": "i73", "class": "ControlMessageReceive", "b64_packet": "AQ4ASAAAAEsAEAAfAAAAAAAAAAAAAAAAAAAAAAAAAAAAAAAAAAAAAAAAAAAAAAAAAAAAAAAAAAAAAwAAAACAAP///////wAA", "round": 49, "prunable": true}
{"pass_through_sends": false, "timeout_disallowed": false, "time": [1401148023, 639488], "controller_id": "c1", "fingerprint": ["ControlMessageReceive", {"in_port": 2, "data": [], "class": "ofp_packet_out", "actions": []}, 2, ["c", "1"]], "timed_out": true, "dependent_labels": [], "ignore_whitelisted_packets": false, "dpid": 2, "replay_time": [1401162785, 371723], "label": "i74", "class": "ControlMessageReceive", "b64_packet": "AQ0AEAAAAE0AAAABAAIAAA==", "round": 49, "prunable": true}
{"pass_through_sends": false, "timeout_disallowed": false, "time": [1401148024, 44952], "controller_id": "c1", "fingerprint": ["ControlMessageReceive", {"in_port": 65535, "data": {"class": "lldp"}, "class": "ofp_packet_out", "actions": ["output(3)"]}, 1, ["c", "1"]], "timed_out": false, "dependent_labels": [], "ignore_whitelisted_packets": false, "dpid": 1, "replay_time": [1401162785, 372354], "label": "i75", "class": "ControlMessageReceive", "b64_packet": "AQ0AQQAAADX///////8ACAAAAAgAAwAAASMgAAABAAAAAAEDiMwCBwdkcGlkOjEEAgIzBgIAeAwGZHBpZDoxAAA=", "round": 53, "prunable": true}
{"dependent_labels": [], "class": "TrafficInjection", "fingerprint": ["TrafficInjection", {"interface": {"hw_addr": "12:34:56:78:01:03", "ips": ["123.123.1.3"], "__type__": "sts.entities.hosts.HostInterface", "name": "eth1"}, "packet": "EjRWeAEDEjRWeAEDCABFAABI0nIAAEABr0Z7ewEDe3sBAwAADjdQaW5nUGluZ1BpbmdQaW5nUGluZ1BpbmdQaW5nUGluZ1BpbmdQaW5nUGluZ1Bpbmc="}, 1], "timed_out": false, "label": "e87", "dp_event": {"interface": {"hw_addr": "12:34:56:78:01:03", "ips": ["123.123.1.3"], "__type__": "sts.entities.hosts.HostInterface", "name": "eth1"}, "packet": "EjRWeAEDEjRWeAEDCABFAABI0nIAAEABr0Z7ewEDe3sBAwAADjdQaW5nUGluZ1BpbmdQaW5nUGluZ1BpbmdQaW5nUGluZ1BpbmdQaW5nUGluZ1Bpbmc="}, "time": [1401148025, 863010], "replay_time": [1401162787, 192506], "host_id": 1, "round": 71, "prunable": true}
{"dependent_labels": [], "class": "TrafficInjection", "fingerprint": ["TrafficInjection", {"interface": {"hw_addr": "12:34:56:78:02:03", "ips": ["123.123.2.3"], "__type__": "sts.entities.hosts.HostInterface", "name": "eth2"}, "packet": "EjRWeAIDEjRWeAIDCABFAABI0nMAAEABrUV7ewIDe3sCAwgABjdQaW5nUGluZ1BpbmdQaW5nUGluZ1BpbmdQaW5nUGluZ1BpbmdQaW5nUGluZ1Bpbmc="}, 2], "timed_out": false, "label": "e88", "dp_event": {"interface": {"hw_addr": "12:34:56:78:02:03", "ips": ["123.123.2.3"], "__type__": "sts.entities.hosts.HostInterface", "name": "eth2"}, "packet": "EjRWeAIDEjRWeAIDCABFAABI0nMAAEABrUV7ewIDe3sCAwgABjdQaW5nUGluZ1BpbmdQaW5nUGluZ1BpbmdQaW5nUGluZ1BpbmdQaW5nUGluZ1Bpbmc="}, "time": [1401148025, 863802], "replay_time": [1401162787, 193512], "host_id": 2, "round": 71, "prunable": true}
{"dependent_labels": [], "class": "TrafficInjection", "fingerprint": ["TrafficInjection", {"interface": {"hw_addr": "12:34:56:78:03:03", "ips": ["123.123.3.3"], "__type__": "sts.entities.hosts.HostInterface", "name": "eth3"}, "packet": "EjRWeAMDEjRWeAMDCABFAABI0nQAAEABq0R7ewMDe3sDAwgABjdQaW5nUGluZ1BpbmdQaW5nUGluZ1BpbmdQaW5nUGluZ1BpbmdQaW5nUGluZ1Bpbmc="}, 3], "timed_out": false, "label": "e89", "dp_event": {"interface": {"hw_addr": "12:34:56:78:03:03", "ips": ["123.123.3.3"], "__type__": "sts.entities.hosts.HostInterface", "name": "eth3"}, "packet": "EjRWeAMDEjRWeAMDCABFAABI0nQAAEABq0R7ewMDe3sDAwgABjdQaW5nUGluZ1BpbmdQaW5nUGluZ1BpbmdQaW5nUGluZ1BpbmdQaW5nUGluZ1Bpbmc="}, "time": [1401148025, 864441], "replay_time": [1401162787, 194189], "host_id": 3, "round": 71, "prunable": true}
{"pass_through_sends": false, "timeout_disallowed": false, "time": [1401148025, 968500], "controller_id": "c1", "fingerprint": ["ControlMessageSend", {"data": {"dl_dst": "12:34:56:78:03:03", "nw_src": "123.123.3.3", "dl_src": "12:34:56:78:03:03", "nw_dst": "123.123.3.3"}, "class": "ofp_packet_in", "in_port": 3}, 3, ["c", "1"]], "timed_out": true, "dependent_labels": [], "ignore_whitelisted_packets": false, "dpid": 3, "replay_time": [1401162787, 799181], "label": "i94", "class": "ControlMessageSend", "b64_packet": "AQoAaAAAAAMAAAABAGgAAwAAEjRWeAMDEjRWeAMDCABFAABI0nQAAEABq0R7ewMDe3sDAwgABjdQaW5nUGluZ1BpbmdQaW5nUGluZ1BpbmdQaW5nUGluZ1BpbmdQaW5nUGluZ1Bpbmc=", "round": 72, "prunable": true}
{"legacy_invariant_check": false, "class": "CheckInvariants", "fingerprint": "N/A", "timed_out": false, "label": "e96", "dependent_labels": [], "invariant_name": "InvariantChecker.python_check_loops", "invariant_check_name": "InvariantChecker.python_check_loops", "time": [1401148025, 969665], "replay_time": [1401162787, 800997], "invariant_check": null, "round": 72, "prunable": true}
{"pass_through_sends": false, "timeout_disallowed": false, "time": [1401148026, 81256], "controller_id": "c1", "fingerprint": ["ControlMessageReceive", {"hard_timeout": 30, "actions": ["output(3)"], "priority": 32768, "idle_timeout": 10, "command": "add", "out_port": 65535, "flags": 0, "class": "ofp_flow_mod", "match": "dl_src:12:34:56:78:03:03,dl_dst:12:34:56:78:03:03,dl_vlan:65535,dl_vlan_pcp:0,dl_type:2048,nw_tos:0,nw_proto:1,nw_src:123.123.3.3/32,nw_dst:123.123.3.3/32,tp_src:8,tp_dst:0,in_port:None"}, 3, ["c", "1"]], "timed_out": true, "dependent_labels": [], "ignore_whitelisted_packets": false, "dpid": 3, "replay_time": [1401162788, 556424], "label": "i98", "class": "ControlMessageReceive", "b64_packet": "AQ4AUAAAAFMAAAABAAASNFZ4AwMSNFZ4AwP//wAACAAAAQAAe3sDA3t7AwMACAAAAAAAAAAAAAAAAAAKAB6AAAAAAAH//wAAAAAACAADAAA=", "round": 73, "prunable": true}
{"dependent_labels": [], "class": "TrafficInjection", "fingerprint": ["TrafficInjection", {"interface": {"hw_addr": "12:34:56:78:01:03", "ips": ["123.123.1.3"], "__type__": "sts.entities.hosts.HostInterface", "name": "eth1"}, "packet": "EjRWeAIDEjRWeAEDCABFAABI0ngAAEABrkB7ewEDe3sCAwgABjdQaW5nUGluZ1BpbmdQaW5nUGluZ1BpbmdQaW5nUGluZ1BpbmdQaW5nUGluZ1Bpbmc="}, null], "timed_out": false, "label": "e100", "dp_event": {"interface": {"hw_addr": "12:34:56:78:01:03", "ips": ["123.123.1.3"], "__type__": "sts.entities.hosts.HostInterface", "name": "eth1"}, "packet": "EjRWeAIDEjRWeAEDCABFAABI0ngAAEABrkB7ewEDe3sCAwgABjdQaW5nUGluZ1BpbmdQaW5nUGluZ1BpbmdQaW5nUGluZ1BpbmdQaW5nUGluZ1Bpbmc="}, "time": [1401148026, 83487], "replay_time": [1401162788, 557359], "host_id": null, "round": 73, "prunable": true}
{"legacy_invariant_check": false, "class": "CheckInvariants", "fingerprint": "N/A", "timed_out": false, "label": "e101", "dependent_labels": [], "invariant_name": "InvariantChecker.python_check_loops", "invariant_check_name": "InvariantChecker.python_check_loops", "time": [1401148026, 83960], "replay_time": [1401162788, 558501], "invariant_check": null, "round": 73, "prunable": true}
{"dependent_labels": [], "class": "TrafficInjection", "fingerprint": ["TrafficInjection", {"interface": {"hw_addr": "12:34:56:78:01:03", "ips": ["123.123.1.3"], "__type__": "sts.entities.hosts.HostInterface", "name": "eth1"}, "packet": "EjRWeAMDEjRWeAEDCABFAABI0noAAEABrT57ewEDe3sDAwAADjdQaW5nUGluZ1BpbmdQaW5nUGluZ1BpbmdQaW5nUGluZ1BpbmdQaW5nUGluZ1Bpbmc="}, null], "timed_out": false, "label": "e104", "dp_event": {"interface": {"hw_addr": "12:34:56:78:01:03", "ips": ["123.123.1.3"], "__type__": "sts.entities.hosts.HostInterface", "name": "eth1"}, "packet": "EjRWeAMDEjRWeAEDCABFAABI0noAAEABrT57ewEDe3sDAwAADjdQaW5nUGluZ1BpbmdQaW5nUGluZ1BpbmdQaW5nUGluZ1BpbmdQaW5nUGluZ1Bpbmc="}, "time": [1401148026, 189927], "replay_time": [1401162788, 666919], "host_id": null, "round": 74, "prunable": true}
{"dependent_labels": [], "class": "TrafficInjection", "fingerprint": ["TrafficInjection", {"interface": {"hw_addr": "12:34:56:78:03:03", "ips": ["123.123.3.3"], "__type__": "sts.entities.hosts.HostInterface", "name": "eth3"}, "packet": "EjRWeAIDEjRWeAMDCABFAABI0nsAAEABrD17ewMDe3sCAwgABjdQaW5nUGluZ1BpbmdQaW5nUGluZ1BpbmdQaW5nUGluZ1BpbmdQaW5nUGluZ1Bpbmc="}, null], "timed_out": false, "label": "e105", "dp_event": {"interface": {"hw_addr": "12:34:56:78:03:03", "ips": ["123.123.3.3"], "__type__": "sts.entities.hosts.HostInterface", "name": "eth3"}, "packet": "EjRWeAIDEjRWeAMDCABFAABI0nsAAEABrD17ewMDe3sCAwgABjdQaW5nUGluZ1BpbmdQaW5nUGluZ1BpbmdQaW5nUGluZ1BpbmdQaW5nUGluZ1Bpbmc="}, "time": [1401148026, 190548], "replay_time": [1401162788, 667878], "host_id": null, "round": 74, "prunable": true}
{"legacy_invariant_check": false, "class": "CheckInvariants", "fingerprint": "N/A", "timed_out": false, "label": "e106", "dependent_labels": [], "invariant_name": "InvariantChecker.python_check_loops", "invariant_check_name": "InvariantChecker.python_check_loops", "time": [1401148026, 191064], "replay_time": [1401162788, 669189], "invariant_check": null, "round": 74, "prunable": true}
{"legacy_invariant_check": false, "class": "CheckInvariants", "fingerprint": "N/A", "timed_out": false, "label": "e114", "dependent_labels": [], "invariant_name": "InvariantChecker.python_check_loops", "invariant_check_name": "InvariantChecker.python_check_loops", "time": [1401148026, 300825], "replay_time": [1401162788, 781052], "invariant_check": null, "round": 75, "prunable": true}
{"legacy_invariant_check": false, "class": "CheckInvariants", "fingerprint": "N/A", "timed_out": false, "label": "e123", "dependent_labels": [], "invariant_name": "InvariantChecker.python_check_loops", "invariant_check_name": "InvariantChecker.python_check_loops", "time": [1401148026, 412191], "replay_time": [1401162788, 894310], "invariant_check": null, "round": 76, "prunable": true}
{"class": "WaitTime", "fingerprint": ["WaitTime"], "timed_out": false, "label": "e125", "wait_time": 1.0, "dependent_labels": [], "time": [1401148026, 426390], "replay_time": [1401162789, 911574], "round": -1, "prunable": true}
{"wait_time": 1.0, "dependent_labels": [], "fingerprint": ["WaitTime"], "time": [1401148026, 426390], "class": "WaitTime", "prunable": true, "timed_out": false, "round": -1, "label": "e233"}
