{
  "_iteration": 19,
  "_runtime_stats_path": "experiments/trigger_memory_leak3_mcs/intermcs_9_/runtime_stats.json",
  "ambiguous_counts": {},
  "ambiguous_events": {},
  "buffered_message_receipts": {
    "10": [
      "PendingReceive(dpid=1, controller_id='c1', fingerprint=OFFingerprint{'class': 'ofp_hello'})",
      "PendingReceive(dpid=2, controller_id='c1', fingerprint=OFFingerprint{'class': 'ofp_hello'})"
    ],
    "11": [
      "PendingReceive(dpid=1, controller_id='c1', fingerprint=OFFingerprint{'class': 'ofp_hello'})",
      "PendingReceive(dpid=2, controller_id='c1', fingerprint=OFFingerprint{'class': 'ofp_hello'})"
    ],
    "12": [
      "PendingReceive(dpid=1, controller_id='c1', fingerprint=OFFingerprint{'class': 'ofp_hello'})",
      "PendingReceive(dpid=2, controller_id='c1', fingerprint=OFFingerprint{'class': 'ofp_hello'})"
    ],
    "13": [
      "PendingReceive(dpid=1, controller_id='c1', fingerprint=OFFingerprint{'class': 'ofp_hello'})",
      "PendingReceive(dpid=2, controller_id='c1', fingerprint=OFFingerprint{'class': 'ofp_hello'})"
    ],
    "14": [
      "PendingReceive(dpid=1, controller_id='c1', fingerprint=OFFingerprint{'class': 'ofp_hello'})",
      "PendingReceive(dpid=2, controller_id='c1', fingerprint=OFFingerprint{'class': 'ofp_hello'})"
    ],
    "15": [
      "PendingReceive(dpid=1, controller_id='c1', fingerprint=OFFingerprint{'class': 'ofp_hello'})",
      "PendingReceive(dpid=2, controller_id='c1', fingerprint=OFFingerprint{'class': 'ofp_hello'})"
    ],
    "16": [
      "PendingReceive(dpid=1, controller_id='c1', fingerprint=OFFingerprint{'class': 'ofp_hello'})",
      "PendingReceive(dpid=2, controller_id='c1', fingerprint=OFFingerprint{'class': 'ofp_hello'})"
    ],
    "17": [
      "PendingReceive(dpid=1, controller_id='c1', fingerprint=OFFingerprint{'class': 'ofp_hello'})",
      "PendingReceive(dpid=2, controller_id='c1', fingerprint=OFFingerprint{'class': 'ofp_hello'})"
    ],
    "18": [
      "PendingReceive(dpid=1, controller_id='c1', fingerprint=OFFingerprint{'class': 'ofp_hello'})",
      "PendingReceive(dpid=2, controller_id='c1', fingerprint=OFFingerprint{'class': 'ofp_hello'})"
    ],
    "19": [
      "PendingReceive(dpid=1, controller_id='c1', fingerprint=OFFingerprint{'class': 'ofp_hello'})",
      "PendingReceive(dpid=2, controller_id='c1', fingerprint=OFFingerprint{'class': 'ofp_hello'})"
    ],
    "2": [],
    "20": [
      "PendingReceive(dpid=1, controller_id='c1', fingerprint=OFFingerprint{'class': 'ofp_hello'})",
      "PendingReceive(dpid=2, controller_id='c1', fingerprint=OFFingerprint{'class': 'ofp_hello'})"
    ],
    "3": [
      "PendingReceive(dpid=1, controller_id='c1', fingerprint=OFFingerprint{'class': 'ofp_hello'})",
      "PendingReceive(dpid=2, controller_id='c1', fingerprint=OFFingerprint{'class': 'ofp_hello'})"
    ],
    "4": [
      "PendingReceive(dpid=1, controller_id='c1', fingerprint=OFFingerprint{'class': 'ofp_hello'})",
      "PendingReceive(dpid=2, controller_id='c1', fingerprint=OFFingerprint{'class': 'ofp_hello'})"
    ],
    "5": [
      "PendingReceive(dpid=1, controller_id='c1', fingerprint=OFFingerprint{'class': 'ofp_hello'})",
      "PendingReceive(dpid=2, controller_id='c1', fingerprint=OFFingerprint{'class': 'ofp_hello'})"
    ],
    "6": [
      "PendingReceive(dpid=1, controller_id='c1', fingerprint=OFFingerprint{'class': 'ofp_hello'})",
      "PendingReceive(dpid=2, controller_id='c1', fingerprint=OFFingerprint{'class': 'ofp_hello'})"
    ],
    "7": [
      "PendingReceive(dpid=1, controller_id='c1', fingerprint=OFFingerprint{'class': 'ofp_hello'})",
      "PendingReceive(dpid=2, controller_id='c1', fingerprint=OFFingerprint{'class': 'ofp_hello'})"
    ],
    "8": [
      "PendingReceive(dpid=1, controller_id='c1', fingerprint=OFFingerprint{'class': 'ofp_hello'})",
      "PendingReceive(dpid=2, controller_id='c1', fingerprint=OFFingerprint{'class': 'ofp_hello'})"
    ],
    "9": [
      "PendingReceive(dpid=1, controller_id='c1', fingerprint=OFFingerprint{'class': 'ofp_hello'})",
      "PendingReceive(dpid=2, controller_id='c1', fingerprint=OFFingerprint{'class': 'ofp_hello'})"
    ]
  },
  "config": "SimulationConfig(controller_configs=[ControllerConfig(start_cmd='./pox.py --verbose openflow.discovery topology host_tracker sts.util.socket_mux.pox_monkeypatcher openflow.of_01 --address=__address__ --port=__port__ --max_connections=15', label='c1', address='127.0.0.1', cwd='pox')],\n                 topology_class=MeshTopology,\n                 topology_params=\"num_switches=2\",\n                 patch_panel_class=BufferedPatchPanel,\n                 multiplex_sockets=True,\n                 kill_controllers_on_exit=True)",
  "early_internal_events": {
    "10": [],
    "11": [],
    "12": [],
    "13": [],
    "14": [],
    "15": [],
    "16": [],
    "17": [],
    "18": [],
    "19": [],
    "2": [],
    "20": [],
    "3": [],
    "4": [],
    "5": [],
    "6": [],
    "7": [],
    "8": [],
    "9": []
  },
  "initial_verification_runs_needed": 0,
  "iteration_size": {
    "0": 719,
    "1": 719,
    "2": 719,
    "3": 719,
    "4": 546,
    "5": 546,
    "6": 546,
    "7": 546,
    "8": 501,
    "9": 479,
    "10": 466,
    "11": 461,
    "12": 461,
    "13": 458,
    "14": 457,
    "15": 457,
    "16": 457,
    "17": 457,
    "18": 436
  },
  "matched_events": {
    "10": {
      "CheckInvariants": 5,
      "ConnectToControllers": 1,
      "ControlChannelBlock": 89,
      "ControlChannelUnblock": 87,
      "ControlMessageReceive": 1133,
      "ControlMessageSend": 427,
      "DataplanePermit": 218,
      "HostMigration": 117,
      "LinkFailure": 11,
      "LinkRecovery": 11,
      "SwitchFailure": 13,
      "SwitchRecovery": 26,
      "TrafficInjection": 119,
      "WaitTime": 1
    },
    "11": {
      "CheckInvariants": 4,
      "ConnectToControllers": 1,
      "ControlChannelBlock": 85,
      "ControlChannelUnblock": 83,
      "ControlMessageReceive": 1133,
      "ControlMessageSend": 422,
      "DataplanePermit": 218,
      "HostMigration": 116,
      "LinkFailure": 10,
      "LinkRecovery": 10,
      "SwitchFailure": 13,
      "SwitchRecovery": 26,
      "TrafficInjection": 118,
      "WaitTime": 1
    },
    "12": {
      "CheckInvariants": 4,
      "ConnectToControllers": 1,
      "ControlChannelBlock": 84,
      "ControlChannelUnblock": 82,
      "ControlMessageReceive": 1133,
      "ControlMessageSend": 418,
      "DataplanePermit": 218,
      "HostMigration": 115,
      "LinkFailure": 10,
      "LinkRecovery": 10,
      "SwitchFailure": 13,
      "SwitchRecovery": 26,
      "TrafficInjection": 116,
      "WaitTime": 1
    },
    "13": {
      "CheckInvariants": 4,
      "ConnectToControllers": 1,
      "ControlChannelBlock": 84,
      "ControlChannelUnblock": 82,
      "ControlMessageReceive": 1127,
      "ControlMessageSend": 414,
      "DataplanePermit": 218,
      "HostMigration": 114,
      "LinkFailure": 10,
      "LinkRecovery": 10,
      "SwitchFailure": 12,
      "SwitchRecovery": 25,
      "TrafficInjection": 116,
      "WaitTime": 1
    },
    "14": {
      "CheckInvariants": 4,
      "ConnectToControllers": 1,
      "ControlChannelBlock": 84,
      "ControlChannelUnblock": 82,
      "ControlMessageReceive": 1133,
      "ControlMessageSend": 416,
      "DataplanePermit": 218,
      "HostMigration": 114,
      "LinkFailure": 10,
      "LinkRecovery": 10,
      "SwitchFailure": 13,
      "SwitchRecovery": 26,
      "TrafficInjection": 114,
      "WaitTime": 1
    },
    "15": {
      "CheckInvariants": 4,
      "ConnectToControllers": 1,
      "ControlChannelBlock": 84,
      "ControlChannelUnblock": 82,
      "ControlMessageReceive": 1133,
      "ControlMessageSend": 415,
      "DataplanePermit": 218,
      "HostMigration": 113,
      "LinkFailure": 10,
      "LinkRecovery": 10,
      "SwitchFailure": 13,
      "SwitchRecovery": 26,
      "TrafficInjection": 114,
      "WaitTime": 1
    },
    "16": {
      "CheckInvariants": 4,
      "ConnectToControllers": 1,
      "ControlChannelBlock": 93,
      "ControlChannelUnblock": 91,
      "ControlMessageReceive": 1127,
      "ControlMessageSend": 449,
      "DataplanePermit": 218,
      "HostMigration": 124,
      "LinkFailure": 13,
      "LinkRecovery": 13,
      "SwitchFailure": 12,
      "SwitchRecovery": 25,
      "TrafficInjection": 126,
      "WaitTime": 1
    },
    "17": {
      "CheckInvariants": 5,
      "ConnectToControllers": 1,
      "ControlChannelBlock": 96,
      "ControlChannelUnblock": 95,
      "ControlMessageReceive": 1121,
      "ControlMessageSend": 441,
      "DataplanePermit": 218,
      "HostMigration": 123,
      "LinkFailure": 12,
      "LinkRecovery": 12,
      "SwitchFailure": 11,
      "SwitchRecovery": 24,
      "TrafficInjection": 124,
      "WaitTime": 1
    },
    "18": {
      "CheckInvariants": 5,
      "ConnectToControllers": 1,
      "ControlChannelBlock": 100,
      "ControlChannelUnblock": 99,
      "ControlMessageReceive": 1121,
      "ControlMessageSend": 461,
      "DataplanePermit": 218,
      "HostMigration": 130,
      "LinkFailure": 12,
      "LinkRecovery": 12,
      "SwitchFailure": 11,
      "SwitchRecovery": 24,
      "TrafficInjection": 130,
      "WaitTime": 1
    },
    "19": {
      "CheckInvariants": 5,
      "ConnectToControllers": 1,
      "ControlChannelBlock": 99,
      "ControlChannelUnblock": 97,
      "ControlMessageReceive": 1133,
      "ControlMessageSend": 464,
      "DataplanePermit": 218,
      "HostMigration": 128,
      "LinkFailure": 13,
      "LinkRecovery": 13,
      "SwitchFailure": 13,
      "SwitchRecovery": 26,
      "TrafficInjection": 130,
      "WaitTime": 1
    },
    "2": {
      "CheckInvariants": 3,
      "ConnectToControllers": 1,
      "ControlChannelBlock": 64,
      "ControlChannelUnblock": 63,
      "ControlMessageReceive": 1109,
      "ControlMessageSend": 350,
      "DataplanePermit": 218,
      "HostMigration": 93,
      "LinkFailure": 11,
      "LinkRecovery": 11,
      "SwitchFailure": 6,
      "SwitchRecovery": 6,
      "TrafficInjection": 94
    },
    "20": {
      "CheckInvariants": 5,
      "ConnectToControllers": 1,
      "ControlChannelBlock": 97,
      "ControlChannelUnblock": 95,
      "ControlMessageReceive": 1133,
      "ControlMessageSend": 453,
      "DataplanePermit": 218,
      "HostMigration": 125,
      "LinkFailure": 13,
      "LinkRecovery": 13,
      "SwitchFailure": 13,
      "SwitchRecovery": 26,
      "TrafficInjection": 127,
      "WaitTime": 1
    },
    "3": {
      "CheckInvariants": 3,
      "ConnectToControllers": 1,
      "ControlChannelBlock": 67,
      "ControlChannelUnblock": 66,
      "ControlMessageReceive": 1109,
      "ControlMessageSend": 332,
      "DataplanePermit": 218,
      "HostMigration": 90,
      "LinkFailure": 9,
      "LinkRecovery": 9,
      "SwitchFailure": 9,
      "SwitchRecovery": 22,
      "TrafficInjection": 92,
      "WaitTime": 1
    },
    "4": {
      "CheckInvariants": 4,
      "ConnectToControllers": 1,
      "ControlChannelBlock": 95,
      "ControlChannelUnblock": 94,
      "ControlMessageReceive": 1121,
      "ControlMessageSend": 498,
      "DataplanePermit": 218,
      "HostMigration": 138,
      "LinkFailure": 16,
      "LinkRecovery": 16,
      "SwitchFailure": 11,
      "SwitchRecovery": 24,
      "TrafficInjection": 142,
      "WaitTime": 1
    },
    "5": {
      "CheckInvariants": 5,
      "ConnectToControllers": 1,
      "ControlChannelBlock": 103,
      "ControlChannelUnblock": 101,
      "ControlMessageReceive": 1133,
      "ControlMessageSend": 487,
      "DataplanePermit": 218,
      "HostMigration": 135,
      "LinkFailure": 13,
      "LinkRecovery": 13,
      "SwitchFailure": 13,
      "SwitchRecovery": 26,
      "TrafficInjection": 136,
      "WaitTime": 1
    },
    "6": {
      "CheckInvariants": 4,
      "ConnectToControllers": 1,
      "ControlChannelBlock": 86,
      "ControlChannelUnblock": 85,
      "ControlMessageReceive": 1115,
      "ControlMessageSend": 405,
      "DataplanePermit": 218,
      "HostMigration": 112,
      "LinkFailure": 12,
      "LinkRecovery": 12,
      "SwitchFailure": 10,
      "SwitchRecovery": 23,
      "TrafficInjection": 114,
      "WaitTime": 1
    },
    "7": {
      "CheckInvariants": 4,
      "ConnectToControllers": 1,
      "ControlChannelBlock": 84,
      "ControlChannelUnblock": 82,
      "ControlMessageReceive": 1127,
      "ControlMessageSend": 412,
      "DataplanePermit": 218,
      "HostMigration": 113,
      "LinkFailure": 10,
      "LinkRecovery": 10,
      "SwitchFailure": 12,
      "SwitchRecovery": 25,
      "TrafficInjection": 114,
      "WaitTime": 1
    },
    "8": {
      "CheckInvariants": 4,
      "ConnectToControllers": 1,
      "ControlChannelBlock": 95,
      "ControlChannelUnblock": 93,
      "ControlMessageReceive": 1127,
      "ControlMessageSend": 445,
      "DataplanePermit": 218,
      "HostMigration": 125,
      "LinkFailure": 10,
      "LinkRecovery": 10,
      "SwitchFailure": 12,
      "SwitchRecovery": 25,
      "TrafficInjection": 125,
      "WaitTime": 1
    },
    "9": {
      "CheckInvariants": 5,
      "ConnectToControllers": 1,
      "ControlChannelBlock": 92,
      "ControlChannelUnblock": 90,
      "ControlMessageReceive": 1133,
      "ControlMessageSend": 451,
      "DataplanePermit": 218,
      "HostMigration": 123,
      "LinkFailure": 13,
      "LinkRecovery": 13,
      "SwitchFailure": 13,
      "SwitchRecovery": 26,
      "TrafficInjection": 125,
      "WaitTime": 1
    }
  },
  "new_internal_events": {
    "10": [],
    "11": [],
    "12": [],
    "13": [],
    "14": [],
    "15": [],
    "16": [],
    "17": [],
    "18": [],
    "19": [],
    "2": [],
    "20": [],
    "3": [],
    "4": [],
    "5": [],
    "6": [],
    "7": [],
    "8": [],
    "9": []
  },
  "original_duration_seconds": 91.72263312339783,
  "peeker": false,
  "prune_duration_seconds": 0,
  "prune_start_epoch": 1391063196.7723,
  "replay_duration_seconds": 108.55117392539978,
  "replay_end_epoch": 1391063196.772049,
  "replay_start_epoch": 1391063088.220875,
  "subsequence_id": 0,
  "timed_out_events": {
    "10": {
      "ControlMessageReceive": 12,
      "ControlMessageSend": 228
    },
    "11": {
      "ControlMessageReceive": 12,
      "ControlMessageSend": 233
    },
    "12": {
      "ControlMessageReceive": 12,
      "ControlMessageSend": 237
    },
    "13": {
      "ControlMessageReceive": 18,
      "ControlMessageSend": 241
    },
    "14": {
      "ControlMessageReceive": 12,
      "ControlMessageSend": 239
    },
    "15": {
      "ControlMessageReceive": 12,
      "ControlMessageSend": 240
    },
    "16": {
      "ControlMessageReceive": 18,
      "ControlMessageSend": 206
    },
    "17": {
      "ControlMessageReceive": 24,
      "ControlMessageSend": 214
    },
    "18": {
      "ControlMessageReceive": 24,
      "ControlMessageSend": 194
    },
    "19": {
      "ControlMessageReceive": 12,
      "ControlMessageSend": 191
    },
    "2": {
      "ControlMessageReceive": 36,
      "ControlMessageSend": 305
    },
    "20": {
      "ControlMessageReceive": 12,
      "ControlMessageSend": 202
    },
    "3": {
      "ControlMessageReceive": 36,
      "ControlMessageSend": 323
    },
    "4": {
      "ControlMessageReceive": 24,
      "ControlMessageSend": 157
    },
    "5": {
      "ControlMessageReceive": 12,
      "ControlMessageSend": 168
    },
    "6": {
      "ControlMessageReceive": 30,
      "ControlMessageSend": 250
    },
    "7": {
      "ControlMessageReceive": 18,
      "ControlMessageSend": 243
    },
    "8": {
      "ControlMessageReceive": 18,
      "ControlMessageSend": 210
    },
    "9": {
      "ControlMessageReceive": 12,
      "ControlMessageSend": 204
    }
  },
  "total_events": 2739,
  "total_inputs": 719,
  "total_inputs_replayed": 9788,
  "total_replays": 20,
  "violation_found_in_run": {
    "0": 9
  }
}