{"name": null, "timeout_disallowed": false, "controller_id": ["127.0.0.1", 6633], "value": ["('POX 0.0.0',)"], "label": "i1", "dependent_labels": [], "time": [1359491882, 503659], "class": "ControllerStateChange", "_fingerprint": ["ControllerStateChange", "%s going up..."]}
{"name": null, "timeout_disallowed": false, "controller_id": ["127.0.0.1", 6633], "value": ["('CPython (2.7.2+/Jul 20 2012 22:15:08)',)"], "label": "i2", "dependent_labels": [], "time": [1359491882, 510722], "class": "ControllerStateChange", "_fingerprint": ["ControllerStateChange", "Running on %s"]}
{"name": null, "timeout_disallowed": false, "controller_id": ["127.0.0.1", 6633], "value": ["('POX 0.0.0',)"], "label": "i3", "dependent_labels": [], "time": [1359491882, 511895], "class": "ControllerStateChange", "_fingerprint": ["ControllerStateChange", "%s is up."]}
{"name": null, "timeout_disallowed": false, "controller_id": ["127.0.0.1", 6633], "value": ["()"], "label": "i4", "dependent_labels": [], "time": [1359491882, 514750], "class": "ControllerStateChange", "_fingerprint": ["ControllerStateChange", "Listening for connections on ('127.0.0.1', 6633)"]}
{"dependent_labels": [], "timeout_disallowed": false, "label": "i5", "class": "ConnectToControllers", "time": [1359491884, 251784]}
{"dependent_labels": [], "dpid": 1, "timeout_disallowed": false, "time": [1359491884, 252421], "class": "ControlMessageReceive", "controller_id": ["127.0.0.1", 6633], "fingerprint": ["ControlMessageReceive", {"class": "ofp_hello"}, 1, ["127.0.0.1", 6633]], "label": "i6"}
{"dependent_labels": [], "dpid": 2, "timeout_disallowed": false, "time": [1359491884, 353353], "class": "ControlMessageReceive", "controller_id": ["127.0.0.1", 6633], "fingerprint": ["ControlMessageReceive", {"class": "ofp_hello"}, 2, ["127.0.0.1", 6633]], "label": "i7"}
{"dependent_labels": [], "dpid": 1, "timeout_disallowed": false, "time": [1359491884, 353722], "class": "ControlMessageReceive", "controller_id": ["127.0.0.1", 6633], "fingerprint": ["ControlMessageReceive", {"class": "ofp_features_request"}, 1, ["127.0.0.1", 6633]], "label": "i8"}
{"dependent_labels": [], "dpid": 2, "timeout_disallowed": false, "time": [1359491884, 454518], "class": "ControlMessageReceive", "controller_id": ["127.0.0.1", 6633], "fingerprint": ["ControlMessageReceive", {"class": "ofp_features_request"}, 2, ["127.0.0.1", 6633]], "label": "i9"}
{"dependent_labels": [], "dpid": 1, "timeout_disallowed": false, "time": [1359491884, 454755], "class": "ControlMessageReceive", "controller_id": ["127.0.0.1", 6633], "fingerprint": ["ControlMessageReceive", {"class": "ofp_set_config"}, 1, ["127.0.0.1", 6633]], "label": "i10"}
{"dependent_labels": [], "dpid": 1, "timeout_disallowed": false, "time": [1359491884, 455235], "class": "ControlMessageReceive", "controller_id": ["127.0.0.1", 6633], "fingerprint": ["ControlMessageReceive", {"hard_timeout": 0, "actions": [], "priority": 32768, "idle_timeout": 0, "command": "delete", "out_port": 65535, "flags": 0, "class": "ofp_flow_mod", "match": "x^L"}, 1, ["127.0.0.1", 6633]], "label": "i11"}
{"dependent_labels": [], "dpid": 1, "timeout_disallowed": false, "time": [1359491884, 455847], "class": "ControlMessageReceive", "controller_id": ["127.0.0.1", 6633], "fingerprint": ["ControlMessageReceive", {"class": "ofp_barrier_request"}, 1, ["127.0.0.1", 6633]], "label": "i12"}
{"name": null, "timeout_disallowed": false, "controller_id": ["127.0.0.1", 6633], "value": ["('[Con 1/1]', '00-00-00-00-00-01')"], "label": "i13", "dependent_labels": [], "time": [1359491884, 459918], "class": "ControllerStateChange", "_fingerprint": ["ControllerStateChange", "of_01 %s Connected to %s"]}
{"name": null, "timeout_disallowed": false, "controller_id": ["127.0.0.1", 6633], "value": ["(<pox.openflow.of_01.Connection object at 0x2222250>,)"], "label": "i14", "dependent_labels": [], "time": [1359491884, 462081], "class": "ControllerStateChange", "_fingerprint": ["ControllerStateChange", "Connect %s"]}
{"name": null, "timeout_disallowed": false, "controller_id": ["127.0.0.1", 6633], "value": ["('00-00-00-00-00-01',)"], "label": "i15", "dependent_labels": [], "time": [1359491884, 463501], "class": "ControllerStateChange", "_fingerprint": ["ControllerStateChange", "Installing flow for %s"]}
{"dependent_labels": [], "dpid": 1, "timeout_disallowed": false, "time": [1359491884, 556648], "class": "ControlMessageReceive", "controller_id": ["127.0.0.1", 6633], "fingerprint": ["ControlMessageReceive", {"hard_timeout": 0, "actions": ["output(65533)"], "priority": 32768, "idle_timeout": 0, "command": "add", "out_port": 65535, "flags": 0, "class": "ofp_flow_mod", "match": "dl_dst:01:23:20:00:00:01,dl_type:35020"}, 1, ["127.0.0.1", 6633]], "label": "i16"}
{"dependent_labels": [], "dpid": 2, "timeout_disallowed": false, "time": [1359491884, 557304], "class": "ControlMessageReceive", "controller_id": ["127.0.0.1", 6633], "fingerprint": ["ControlMessageReceive", {"hard_timeout": 0, "actions": [], "priority": 32768, "idle_timeout": 0, "command": "delete", "out_port": 65535, "flags": 0, "class": "ofp_flow_mod", "match": "x^L"}, 2, ["127.0.0.1", 6633]], "label": "i17"}
{"dependent_labels": [], "dpid": 2, "timeout_disallowed": false, "time": [1359491884, 557845], "class": "ControlMessageReceive", "controller_id": ["127.0.0.1", 6633], "fingerprint": ["ControlMessageReceive", {"class": "ofp_set_config"}, 2, ["127.0.0.1", 6633]], "label": "i18"}
{"dependent_labels": [], "dpid": 2, "timeout_disallowed": false, "time": [1359491884, 558104], "class": "ControlMessageReceive", "controller_id": ["127.0.0.1", 6633], "fingerprint": ["ControlMessageReceive", {"class": "ofp_barrier_request"}, 2, ["127.0.0.1", 6633]], "label": "i19"}
{"name": null, "timeout_disallowed": false, "controller_id": ["127.0.0.1", 6633], "value": ["('[Con 2/2]', '00-00-00-00-00-02')"], "label": "i20", "dependent_labels": [], "time": [1359491884, 559805], "class": "ControllerStateChange", "_fingerprint": ["ControllerStateChange", "of_01 %s Connected to %s"]}
{"name": null, "timeout_disallowed": false, "controller_id": ["127.0.0.1", 6633], "value": ["(<pox.openflow.of_01.Connection object at 0x22222d0>,)"], "label": "i21", "dependent_labels": [], "time": [1359491884, 561935], "class": "ControllerStateChange", "_fingerprint": ["ControllerStateChange", "Connect %s"]}
{"name": null, "timeout_disallowed": false, "controller_id": ["127.0.0.1", 6633], "value": ["('00-00-00-00-00-02',)"], "label": "i22", "dependent_labels": [], "time": [1359491884, 563319], "class": "ControllerStateChange", "_fingerprint": ["ControllerStateChange", "Installing flow for %s"]}
{"dependent_labels": [], "dpid": 2, "timeout_disallowed": false, "time": [1359491884, 658951], "class": "ControlMessageReceive", "controller_id": ["127.0.0.1", 6633], "fingerprint": ["ControlMessageReceive", {"hard_timeout": 0, "actions": ["output(65533)"], "priority": 32768, "idle_timeout": 0, "command": "add", "out_port": 65535, "flags": 0, "class": "ofp_flow_mod", "match": "dl_dst:01:23:20:00:00:01,dl_type:35020"}, 2, ["127.0.0.1", 6633]], "label": "i23"}
{"dependent_labels": [], "label": "e24", "class": "TrafficInjection", "time": [1359491885, 162586]}
{"name": null, "timeout_disallowed": false, "controller_id": ["127.0.0.1", 6633], "value": ["(EthAddr('12:34:56:78:02:02'), 00-00-00-00-00-02, 2)"], "label": "i26", "dependent_labels": [], "time": [1359491885, 265462], "class": "ControllerStateChange", "_fingerprint": ["ControllerStateChange", "Learned %s at %s.%i"]}
{"name": null, "timeout_disallowed": false, "controller_id": ["127.0.0.1", 6633], "value": ["(EthAddr('12:34:56:78:02:02'),)"], "label": "i27", "dependent_labels": [], "time": [1359491885, 266781], "class": "ControllerStateChange", "_fingerprint": ["ControllerStateChange", "Flood multicast from %s"]}
{"dependent_labels": [], "dpid": 2, "timeout_disallowed": false, "time": [1359491885, 364334], "class": "ControlMessageReceive", "controller_id": ["127.0.0.1", 6633], "fingerprint": ["ControlMessageReceive", {"in_port": 2, "data": [], "class": "ofp_packet_out", "actions": ["output(65531)"]}, 2, ["127.0.0.1", 6633]], "label": "i28"}
{"dependent_labels": [], "class": "DataplanePermit", "time": [1359491885, 465569], "label": "e29", "fingerprint": ["DataplanePermit", {"class": "arp"}, 2, 1]}
{"name": null, "timeout_disallowed": false, "controller_id": ["127.0.0.1", 6633], "value": ["(EthAddr('12:34:56:78:02:02'), '00-00-00-00-00-02', 2, '00-00-00-00-00-01', 1)"], "label": "i30", "dependent_labels": [], "time": [1359491885, 467518], "class": "ControllerStateChange", "_fingerprint": ["ControllerStateChange", "%s moved from %s.%i to %s.%i?"]}
{"name": null, "timeout_disallowed": false, "controller_id": ["127.0.0.1", 6633], "value": ["(EthAddr('12:34:56:78:02:02'), 00-00-00-00-00-01, 1)"], "label": "i31", "dependent_labels": [], "time": [1359491885, 468880], "class": "ControllerStateChange", "_fingerprint": ["ControllerStateChange", "Learned %s at %s.%i"]}
{"name": null, "timeout_disallowed": false, "controller_id": ["127.0.0.1", 6633], "value": ["(EthAddr('12:34:56:78:02:02'),)"], "label": "i32", "dependent_labels": [], "time": [1359491885, 470160], "class": "ControllerStateChange", "_fingerprint": ["ControllerStateChange", "Flood multicast from %s"]}
{"dependent_labels": [], "dpid": 1, "timeout_disallowed": false, "time": [1359491885, 566387], "class": "ControlMessageReceive", "controller_id": ["127.0.0.1", 6633], "fingerprint": ["ControlMessageReceive", {"in_port": 1, "data": [], "class": "ofp_packet_out", "actions": ["output(65531)"]}, 1, ["127.0.0.1", 6633]], "label": "i33"}
{"dependent_labels": [], "dpid": 1, "timeout_disallowed": false, "time": [1359491885, 868553], "class": "ControlMessageReceive", "controller_id": ["127.0.0.1", 6633], "fingerprint": ["ControlMessageReceive", {"in_port": 65535, "data": {"class": "lldp"}, "class": "ofp_packet_out", "actions": ["output(1)"]}, 1, ["127.0.0.1", 6633]], "label": "i35"}
{"dependent_labels": [], "class": "DataplanePermit", "time": [1359491885, 969917], "label": "e36", "fingerprint": ["DataplanePermit", {"class": "lldp"}, 1, 1]}
{"name": null, "timeout_disallowed": false, "controller_id": ["127.0.0.1", 6633], "value": ["('00-00-00-00-00-01', 1, '00-00-00-00-00-02', 1)"], "label": "i37", "dependent_labels": [], "time": [1359491885, 972651], "class": "ControllerStateChange", "_fingerprint": ["ControllerStateChange", "link detected: %s.%i -> %s.%i"]}
{"name": null, "timeout_disallowed": false, "controller_id": ["127.0.0.1", 6633], "value": ["(EthAddr('12:34:56:78:02:02'),)"], "label": "i38", "dependent_labels": [], "time": [1359491885, 974643], "class": "ControllerStateChange", "_fingerprint": ["ControllerStateChange", "Unlearned %s"]}
{"dependent_labels": [], "dpid": 1, "timeout_disallowed": false, "time": [1359491886, 70734], "class": "ControlMessageReceive", "controller_id": ["127.0.0.1", 6633], "fingerprint": ["ControlMessageReceive", {"hard_timeout": 0, "actions": [], "priority": 32768, "idle_timeout": 0, "command": "delete", "out_port": 65535, "flags": 0, "class": "ofp_flow_mod", "match": "x^L"}, 1, ["127.0.0.1", 6633]], "label": "i39"}
{"dependent_labels": [], "dpid": 2, "timeout_disallowed": false, "time": [1359491886, 71332], "class": "ControlMessageReceive", "controller_id": ["127.0.0.1", 6633], "fingerprint": ["ControlMessageReceive", {"in_port": 1, "data": [], "class": "ofp_packet_out", "actions": []}, 2, ["127.0.0.1", 6633]], "label": "i40"}
{"dependent_labels": [], "dpid": 2, "timeout_disallowed": false, "time": [1359491886, 71746], "class": "ControlMessageReceive", "controller_id": ["127.0.0.1", 6633], "fingerprint": ["ControlMessageReceive", {"hard_timeout": 0, "actions": [], "priority": 32768, "idle_timeout": 0, "command": "delete", "out_port": 65535, "flags": 0, "class": "ofp_flow_mod", "match": "x^L"}, 2, ["127.0.0.1", 6633]], "label": "i41"}
{"dependent_labels": [], "label": "e43", "class": "TrafficInjection", "time": [1359491886, 187905]}
{"dependent_labels": [], "class": "DataplanePermit", "time": [1359491886, 389756], "label": "e44", "fingerprint": ["DataplanePermit", {"class": "arp"}, "host:[IPAddr('123.123.1.2')]", "12:34:56:78:01:02"]}
{"name": null, "timeout_disallowed": false, "controller_id": ["127.0.0.1", 6633], "value": ["(EthAddr('12:34:56:78:01:02'), 00-00-00-00-00-01, 2)"], "label": "i45", "dependent_labels": [], "time": [1359491886, 392153], "class": "ControllerStateChange", "_fingerprint": ["ControllerStateChange", "Learned %s at %s.%i"]}
{"name": null, "timeout_disallowed": false, "controller_id": ["127.0.0.1", 6633], "value": ["(EthAddr('12:34:56:78:02:02'),)"], "label": "i46", "dependent_labels": [], "time": [1359491886, 393455], "class": "ControllerStateChange", "_fingerprint": ["ControllerStateChange", "%s unknown -- flooding"]}
{"dependent_labels": [], "dpid": 1, "timeout_disallowed": false, "time": [1359491886, 490684], "class": "ControlMessageReceive", "controller_id": ["127.0.0.1", 6633], "fingerprint": ["ControlMessageReceive", {"in_port": 2, "data": [], "class": "ofp_packet_out", "actions": ["output(65531)"]}, 1, ["127.0.0.1", 6633]], "label": "i47"}
{"dependent_labels": [], "class": "DataplanePermit", "time": [1359491886, 692531], "label": "e48", "fingerprint": ["DataplanePermit", {"class": "arp"}, 1, 1]}
{"name": null, "timeout_disallowed": false, "controller_id": ["127.0.0.1", 6633], "value": ["(EthAddr('12:34:56:78:01:02'), '00-00-00-00-00-01', 2, '00-00-00-00-00-02', 1)"], "label": "i49", "dependent_labels": [], "time": [1359491886, 694485], "class": "ControllerStateChange", "_fingerprint": ["ControllerStateChange", "%s moved from %s.%i to %s.%i?"]}
{"name": null, "timeout_disallowed": false, "controller_id": ["127.0.0.1", 6633], "value": ["(EthAddr('12:34:56:78:01:02'), 00-00-00-00-00-02, 1)"], "label": "i50", "dependent_labels": [], "time": [1359491886, 695826], "class": "ControllerStateChange", "_fingerprint": ["ControllerStateChange", "Learned %s at %s.%i"]}
{"name": null, "timeout_disallowed": false, "controller_id": ["127.0.0.1", 6633], "value": ["(EthAddr('12:34:56:78:02:02'),)"], "label": "i51", "dependent_labels": [], "time": [1359491886, 697114], "class": "ControllerStateChange", "_fingerprint": ["ControllerStateChange", "%s unknown -- flooding"]}
{"dependent_labels": [], "dpid": 2, "timeout_disallowed": false, "time": [1359491886, 793360], "class": "ControlMessageReceive", "controller_id": ["127.0.0.1", 6633], "fingerprint": ["ControlMessageReceive", {"in_port": 1, "data": [], "class": "ofp_packet_out", "actions": ["output(65531)"]}, 2, ["127.0.0.1", 6633]], "label": "i52"}
{"dependent_labels": [], "dpid": 1, "timeout_disallowed": false, "time": [1359491887, 95839], "class": "ControlMessageReceive", "controller_id": ["127.0.0.1", 6633], "fingerprint": ["ControlMessageReceive", {"in_port": 65535, "data": {"class": "lldp"}, "class": "ofp_packet_out", "actions": ["output(2)"]}, 1, ["127.0.0.1", 6633]], "label": "i54"}
{"dependent_labels": [], "label": "e56", "class": "TrafficInjection", "time": [1359491887, 197693]}
{"dependent_labels": [], "class": "DataplanePermit", "time": [1359491887, 298630], "label": "e57", "fingerprint": ["DataplanePermit", {"dl_dst": "12:34:56:78:01:02", "nw_src": "123.123.2.2", "dl_src": "12:34:56:78:02:02", "nw_dst": "123.123.1.2"}, "host:[IPAddr('123.123.2.2')]", "12:34:56:78:02:02"]}
{"name": null, "timeout_disallowed": false, "controller_id": ["127.0.0.1", 6633], "value": ["(EthAddr('12:34:56:78:02:02'), 00-00-00-00-00-02, 2)"], "label": "i58", "dependent_labels": [], "time": [1359491887, 300763], "class": "ControllerStateChange", "_fingerprint": ["ControllerStateChange", "Learned %s at %s.%i"]}
{"name": null, "timeout_disallowed": false, "controller_id": ["127.0.0.1", 6633], "value": ["(EthAddr('12:34:56:78:02:02'), EthAddr('12:34:56:78:01:02'), 2048, 1)"], "label": "i59", "dependent_labels": [], "time": [1359491887, 303407], "class": "ControllerStateChange", "_fingerprint": ["ControllerStateChange", "Installing path for %s -> %s %04x (%i hops)"]}
{"dependent_labels": [], "dpid": 2, "timeout_disallowed": false, "time": [1359491887, 399841], "class": "ControlMessageReceive", "controller_id": ["127.0.0.1", 6633], "fingerprint": ["ControlMessageReceive", {"hard_timeout": 30, "actions": ["output(1)"], "priority": 32768, "idle_timeout": 10, "command": "add", "out_port": 65535, "flags": 0, "class": "ofp_flow_mod", "match": "dl_src:12:34:56:78:02:02,dl_dst:12:34:56:78:01:02,dl_vlan:65535,dl_vlan_pcp:0,dl_type:2048,nw_tos:0,nw_proto:1,nw_src:123.123.2.2/32,nw_dst:123.123.1.2/32,tp_src:8,tp_dst:0"}, 2, ["127.0.0.1", 6633]], "label": "i60"}
{"dependent_labels": [], "class": "DataplanePermit", "time": [1359491887, 501348], "label": "e61", "fingerprint": ["DataplanePermit", {"dl_dst": "12:34:56:78:01:02", "nw_src": "123.123.2.2", "dl_src": "12:34:56:78:02:02", "nw_dst": "123.123.1.2"}, 2, 1]}
{"name": null, "timeout_disallowed": false, "controller_id": ["127.0.0.1", 6633], "value": ["(EthAddr('12:34:56:78:02:02'), '00-00-00-00-00-02', 2, '00-00-00-00-00-01', 1)"], "label": "i62", "dependent_labels": [], "time": [1359491887, 503440], "class": "ControllerStateChange", "_fingerprint": ["ControllerStateChange", "%s moved from %s.%i to %s.%i?"]}
{"name": null, "timeout_disallowed": false, "controller_id": ["127.0.0.1", 6633], "value": ["(EthAddr('12:34:56:78:02:02'), 00-00-00-00-00-01, 1)"], "label": "i63", "dependent_labels": [], "time": [1359491887, 504747], "class": "ControllerStateChange", "_fingerprint": ["ControllerStateChange", "Learned %s at %s.%i"]}
{"name": null, "timeout_disallowed": false, "controller_id": ["127.0.0.1", 6633], "value": ["(EthAddr('12:34:56:78:02:02'), EthAddr('12:34:56:78:01:02'))"], "label": "i64", "dependent_labels": [], "time": [1359491887, 506201], "class": "ControllerStateChange", "_fingerprint": ["ControllerStateChange", "Can't get from %s to %s"]}
{"name": null, "timeout_disallowed": false, "controller_id": ["127.0.0.1", 6633], "value": ["(EthAddr('12:34:56:78:02:02'), EthAddr('12:34:56:78:01:02'))"], "label": "i65", "dependent_labels": [], "time": [1359491887, 507529], "class": "ControllerStateChange", "_fingerprint": ["ControllerStateChange", "Dest unreachable (%s -> %s)"]}
{"dependent_labels": [], "dpid": 1, "timeout_disallowed": false, "time": [1359491887, 602476], "class": "ControlMessageReceive", "controller_id": ["127.0.0.1", 6633], "fingerprint": ["ControlMessageReceive", {"in_port": 65535, "data": {"dl_dst": "12:34:56:78:02:02", "nw_src": "123.123.1.2", "dl_src": "00:00:00:00:00:01", "nw_dst": "123.123.2.2"}, "class": "ofp_packet_out", "actions": ["output(1)"]}, 1, ["127.0.0.1", 6633]], "label": "i66"}
{"name": null, "timeout_disallowed": false, "controller_id": ["127.0.0.1", 6633], "value": ["(EthAddr('00:00:00:00:00:01'), 00-00-00-00-00-02, 1)"], "label": "i68", "dependent_labels": [], "time": [1359491887, 706395], "class": "ControllerStateChange", "_fingerprint": ["ControllerStateChange", "Learned %s at %s.%i"]}
{"name": null, "timeout_disallowed": false, "controller_id": ["127.0.0.1", 6633], "value": ["(EthAddr('00:00:00:00:00:01'), EthAddr('12:34:56:78:02:02'))"], "label": "i69", "dependent_labels": [], "time": [1359491887, 707896], "class": "ControllerStateChange", "_fingerprint": ["ControllerStateChange", "Can't get from %s to %s"]}
{"name": null, "timeout_disallowed": false, "controller_id": ["127.0.0.1", 6633], "value": ["(EthAddr('00:00:00:00:00:01'), EthAddr('12:34:56:78:02:02'))"], "label": "i70", "dependent_labels": [], "time": [1359491887, 709251], "class": "ControllerStateChange", "_fingerprint": ["ControllerStateChange", "Dest unreachable (%s -> %s)"]}
{"dependent_labels": [], "dpid": 2, "timeout_disallowed": false, "time": [1359491887, 805165], "class": "ControlMessageReceive", "controller_id": ["127.0.0.1", 6633], "fingerprint": ["ControlMessageReceive", {"in_port": 65535, "data": {"dl_dst": "00:00:00:00:00:01", "nw_src": "123.123.2.2", "dl_src": "00:00:00:00:00:02", "nw_dst": "123.123.1.2"}, "class": "ofp_packet_out", "actions": ["output(1)"]}, 2, ["127.0.0.1", 6633]], "label": "i71"}
{"dependent_labels": [], "label": "e74", "class": "TrafficInjection", "time": [1359491888, 224792]}
{"dependent_labels": [], "class": "DataplanePermit", "time": [1359491888, 319929], "label": "e75", "fingerprint": ["DataplanePermit", {"dl_dst": "12:34:56:78:02:02", "nw_src": "123.123.1.2", "dl_src": "12:34:56:78:01:02", "nw_dst": "123.123.2.2"}, "host:[IPAddr('123.123.1.2')]", "12:34:56:78:01:02"]}
{"name": null, "timeout_disallowed": false, "controller_id": ["127.0.0.1", 6633], "value": ["(EthAddr('12:34:56:78:01:02'), '00-00-00-00-00-02', 1, '00-00-00-00-00-01', 2)"], "label": "i76", "dependent_labels": [], "time": [1359491888, 324275], "class": "ControllerStateChange", "_fingerprint": ["ControllerStateChange", "%s moved from %s.%i to %s.%i?"]}
{"name": null, "timeout_disallowed": false, "controller_id": ["127.0.0.1", 6633], "value": ["(EthAddr('12:34:56:78:01:02'), 00-00-00-00-00-01, 2)"], "label": "i77", "dependent_labels": [], "time": [1359491888, 325586], "class": "ControllerStateChange", "_fingerprint": ["ControllerStateChange", "Learned %s at %s.%i"]}
{"name": null, "timeout_disallowed": false, "controller_id": ["127.0.0.1", 6633], "value": ["(EthAddr('12:34:56:78:01:02'), EthAddr('12:34:56:78:02:02'), 2048, 1)"], "label": "i78", "dependent_labels": [], "time": [1359491888, 328234], "class": "ControllerStateChange", "_fingerprint": ["ControllerStateChange", "Installing path for %s -> %s %04x (%i hops)"]}
{"dependent_labels": [], "dpid": 1, "timeout_disallowed": false, "time": [1359491888, 421221], "class": "ControlMessageReceive", "controller_id": ["127.0.0.1", 6633], "fingerprint": ["ControlMessageReceive", {"hard_timeout": 30, "actions": ["output(1)"], "priority": 32768, "idle_timeout": 10, "command": "add", "out_port": 65535, "flags": 0, "class": "ofp_flow_mod", "match": "dl_src:12:34:56:78:01:02,dl_dst:12:34:56:78:02:02,dl_vlan:65535,dl_vlan_pcp:0,dl_type:2048,nw_tos:0,nw_proto:1,nw_src:123.123.1.2/32,nw_dst:123.123.2.2/32,tp_src:0,tp_dst:0"}, 1, ["127.0.0.1", 6633]], "label": "i79"}
{"dependent_labels": [], "dpid": 2, "timeout_disallowed": false, "time": [1359491888, 421987], "class": "ControlMessageReceive", "controller_id": ["127.0.0.1", 6633], "fingerprint": ["ControlMessageReceive", {"in_port": 65535, "data": {"class": "lldp"}, "class": "ofp_packet_out", "actions": ["output(1)"]}, 2, ["127.0.0.1", 6633]], "label": "i80"}
{"name": null, "timeout_disallowed": false, "controller_id": ["127.0.0.1", 6633], "value": ["(EthAddr('12:34:56:78:01:02'), '00-00-00-00-00-01', 2, '00-00-00-00-00-02', 1)"], "label": "i83", "dependent_labels": [], "time": [1359491888, 525755], "class": "ControllerStateChange", "_fingerprint": ["ControllerStateChange", "%s moved from %s.%i to %s.%i?"]}
{"name": null, "timeout_disallowed": false, "controller_id": ["127.0.0.1", 6633], "value": ["(EthAddr('12:34:56:78:01:02'), 00-00-00-00-00-02, 1)"], "label": "i84", "dependent_labels": [], "time": [1359491888, 527273], "class": "ControllerStateChange", "_fingerprint": ["ControllerStateChange", "Learned %s at %s.%i"]}
{"name": null, "timeout_disallowed": false, "controller_id": ["127.0.0.1", 6633], "value": ["(EthAddr('12:34:56:78:01:02'), EthAddr('12:34:56:78:02:02'))"], "label": "i85", "dependent_labels": [], "time": [1359491888, 528687], "class": "ControllerStateChange", "_fingerprint": ["ControllerStateChange", "Can't get from %s to %s"]}
{"name": null, "timeout_disallowed": false, "controller_id": ["127.0.0.1", 6633], "value": ["(EthAddr('12:34:56:78:01:02'), EthAddr('12:34:56:78:02:02'))"], "label": "i86", "dependent_labels": [], "time": [1359491888, 530027], "class": "ControllerStateChange", "_fingerprint": ["ControllerStateChange", "Dest unreachable (%s -> %s)"]}
{"dependent_labels": [], "dpid": 2, "timeout_disallowed": false, "time": [1359491888, 624770], "class": "ControlMessageReceive", "controller_id": ["127.0.0.1", 6633], "fingerprint": ["ControlMessageReceive", {"in_port": 65535, "data": {"dl_dst": "12:34:56:78:01:02", "nw_src": "123.123.2.2", "dl_src": "00:00:00:00:00:02", "nw_dst": "123.123.1.2"}, "class": "ofp_packet_out", "actions": ["output(1)"]}, 2, ["127.0.0.1", 6633]], "label": "i87"}
{"dependent_labels": [], "label": "e89", "class": "TrafficInjection", "time": [1359491889, 229259]}
{"name": null, "timeout_disallowed": false, "controller_id": ["127.0.0.1", 6633], "value": ["(EthAddr('12:34:56:78:02:02'), '00-00-00-00-00-01', 1, '00-00-00-00-00-02', 2)"], "label": "i91", "dependent_labels": [], "time": [1359491889, 332082], "class": "ControllerStateChange", "_fingerprint": ["ControllerStateChange", "%s moved from %s.%i to %s.%i?"]}
{"name": null, "timeout_disallowed": false, "controller_id": ["127.0.0.1", 6633], "value": ["(EthAddr('12:34:56:78:02:02'), 00-00-00-00-00-02, 2)"], "label": "i92", "dependent_labels": [], "time": [1359491889, 333389], "class": "ControllerStateChange", "_fingerprint": ["ControllerStateChange", "Learned %s at %s.%i"]}
{"name": null, "timeout_disallowed": false, "controller_id": ["127.0.0.1", 6633], "value": ["(EthAddr('12:34:56:78:02:02'),)"], "label": "i93", "dependent_labels": [], "time": [1359491889, 334701], "class": "ControllerStateChange", "_fingerprint": ["ControllerStateChange", "Flood multicast from %s"]}
{"dependent_labels": [], "dpid": 2, "timeout_disallowed": false, "time": [1359491889, 430982], "class": "ControlMessageReceive", "controller_id": ["127.0.0.1", 6633], "fingerprint": ["ControlMessageReceive", {"in_port": 2, "data": [], "class": "ofp_packet_out", "actions": ["output(65531)"]}, 2, ["127.0.0.1", 6633]], "label": "i94"}
{"dependent_labels": [], "class": "DataplanePermit", "time": [1359491889, 532266], "label": "e95", "fingerprint": ["DataplanePermit", {"class": "arp"}, 2, 1]}
{"name": null, "timeout_disallowed": false, "controller_id": ["127.0.0.1", 6633], "value": ["(EthAddr('12:34:56:78:02:02'), '00-00-00-00-00-02', 2, '00-00-00-00-00-01', 1)"], "label": "i96", "dependent_labels": [], "time": [1359491889, 534188], "class": "ControllerStateChange", "_fingerprint": ["ControllerStateChange", "%s moved from %s.%i to %s.%i?"]}
{"name": null, "timeout_disallowed": false, "controller_id": ["127.0.0.1", 6633], "value": ["(EthAddr('12:34:56:78:02:02'), 00-00-00-00-00-01, 1)"], "label": "i97", "dependent_labels": [], "time": [1359491889, 535523], "class": "ControllerStateChange", "_fingerprint": ["ControllerStateChange", "Learned %s at %s.%i"]}
{"name": null, "timeout_disallowed": false, "controller_id": ["127.0.0.1", 6633], "value": ["(EthAddr('12:34:56:78:02:02'),)"], "label": "i98", "dependent_labels": [], "time": [1359491889, 536816], "class": "ControllerStateChange", "_fingerprint": ["ControllerStateChange", "Flood multicast from %s"]}
{"dependent_labels": [], "dpid": 1, "timeout_disallowed": false, "time": [1359491889, 633057], "class": "ControlMessageReceive", "controller_id": ["127.0.0.1", 6633], "fingerprint": ["ControlMessageReceive", {"in_port": 1, "data": [], "class": "ofp_packet_out", "actions": ["output(65531)"]}, 1, ["127.0.0.1", 6633]], "label": "i99"}
{"dependent_labels": [], "dpid": 2, "timeout_disallowed": false, "time": [1359491889, 633547], "class": "ControlMessageReceive", "controller_id": ["127.0.0.1", 6633], "fingerprint": ["ControlMessageReceive", {"in_port": 65535, "data": {"class": "lldp"}, "class": "ofp_packet_out", "actions": ["output(2)"]}, 2, ["127.0.0.1", 6633]], "label": "i100"}
{"dependent_labels": [], "label": "e104", "class": "TrafficInjection", "time": [1359491890, 256886]}
{"dependent_labels": [], "class": "DataplanePermit", "time": [1359491890, 659852], "label": "e105", "fingerprint": ["DataplanePermit", {"class": "arp"}, "host:[IPAddr('123.123.1.2')]", "12:34:56:78:01:02"]}
{"name": null, "timeout_disallowed": false, "controller_id": ["127.0.0.1", 6633], "value": ["(EthAddr('12:34:56:78:01:02'), '00-00-00-00-00-02', 1, '00-00-00-00-00-01', 2)"], "label": "i106", "dependent_labels": [], "time": [1359491890, 661931], "class": "ControllerStateChange", "_fingerprint": ["ControllerStateChange", "%s moved from %s.%i to %s.%i?"]}
{"name": null, "timeout_disallowed": false, "controller_id": ["127.0.0.1", 6633], "value": ["(EthAddr('12:34:56:78:01:02'), 00-00-00-00-00-01, 2)"], "label": "i107", "dependent_labels": [], "time": [1359491890, 663305], "class": "ControllerStateChange", "_fingerprint": ["ControllerStateChange", "Learned %s at %s.%i"]}
{"name": null, "timeout_disallowed": false, "controller_id": ["127.0.0.1", 6633], "value": ["(EthAddr('12:34:56:78:01:02'), EthAddr('12:34:56:78:02:02'), 2054, 1)"], "label": "i108", "dependent_labels": [], "time": [1359491890, 665873], "class": "ControllerStateChange", "_fingerprint": ["ControllerStateChange", "Installing path for %s -> %s %04x (%i hops)"]}
{"dependent_labels": [], "dpid": 1, "timeout_disallowed": false, "time": [1359491890, 760945], "class": "ControlMessageReceive", "controller_id": ["127.0.0.1", 6633], "fingerprint": ["ControlMessageReceive", {"hard_timeout": 30, "actions": ["output(1)"], "priority": 32768, "idle_timeout": 10, "command": "add", "out_port": 65535, "flags": 0, "class": "ofp_flow_mod", "match": "dl_src:12:34:56:78:01:02,dl_dst:12:34:56:78:02:02,dl_vlan:65535,dl_vlan_pcp:0,dl_type:2054,nw_proto:2,nw_src:123.123.1.2/32,nw_dst:123.123.2.2/32"}, 1, ["127.0.0.1", 6633]], "label": "i109"}
{"dependent_labels": [], "dpid": 1, "timeout_disallowed": false, "time": [1359491890, 862860], "class": "ControlMessageReceive", "controller_id": ["127.0.0.1", 6633], "fingerprint": ["ControlMessageReceive", {"in_port": 65535, "data": {"class": "lldp"}, "class": "ofp_packet_out", "actions": ["output(1)"]}, 1, ["127.0.0.1", 6633]], "label": "i111"}
{"name": null, "timeout_disallowed": false, "controller_id": ["127.0.0.1", 6633], "value": ["(EthAddr('12:34:56:78:01:02'), '00-00-00-00-00-01', 2, '00-00-00-00-00-02', 1)"], "label": "i112", "dependent_labels": [], "time": [1359491890, 864966], "class": "ControllerStateChange", "_fingerprint": ["ControllerStateChange", "%s moved from %s.%i to %s.%i?"]}
{"name": null, "timeout_disallowed": false, "controller_id": ["127.0.0.1", 6633], "value": ["(EthAddr('12:34:56:78:01:02'), 00-00-00-00-00-02, 1)"], "label": "i113", "dependent_labels": [], "time": [1359491890, 866289], "class": "ControllerStateChange", "_fingerprint": ["ControllerStateChange", "Learned %s at %s.%i"]}
{"name": null, "timeout_disallowed": false, "controller_id": ["127.0.0.1", 6633], "value": ["(EthAddr('12:34:56:78:01:02'), EthAddr('12:34:56:78:02:02'))"], "label": "i114", "dependent_labels": [], "time": [1359491890, 867694], "class": "ControllerStateChange", "_fingerprint": ["ControllerStateChange", "Can't get from %s to %s"]}
{"dependent_labels": [], "label": "e116", "class": "TrafficInjection", "time": [1359491891, 266199]}
{"name": null, "timeout_disallowed": false, "controller_id": ["127.0.0.1", 6633], "value": ["(EthAddr('12:34:56:78:02:02'), EthAddr('12:34:56:78:01:02'))"], "label": "i119", "dependent_labels": [], "time": [1359491891, 672098], "class": "ControllerStateChange", "_fingerprint": ["ControllerStateChange", "Can't get from %s to %s"]}
{"name": null, "timeout_disallowed": false, "controller_id": ["127.0.0.1", 6633], "value": ["(EthAddr('12:34:56:78:02:02'), EthAddr('12:34:56:78:01:02'))"], "label": "i120", "dependent_labels": [], "time": [1359491891, 673463], "class": "ControllerStateChange", "_fingerprint": ["ControllerStateChange", "Dest unreachable (%s -> %s)"]}
{"dependent_labels": [], "dpid": 1, "timeout_disallowed": false, "time": [1359491891, 771019], "class": "ControlMessageReceive", "controller_id": ["127.0.0.1", 6633], "fingerprint": ["ControlMessageReceive", {"in_port": 65535, "data": {"dl_dst": "12:34:56:78:02:02", "nw_src": "123.123.1.2", "dl_src": "00:00:00:00:00:01", "nw_dst": "123.123.2.2"}, "class": "ofp_packet_out", "actions": ["output(1)"]}, 1, ["127.0.0.1", 6633]], "label": "i121"}
{"dependent_labels": [], "dpid": 1, "timeout_disallowed": false, "time": [1359491892, 174552], "class": "ControlMessageReceive", "controller_id": ["127.0.0.1", 6633], "fingerprint": ["ControlMessageReceive", {"in_port": 65535, "data": {"class": "lldp"}, "class": "ofp_packet_out", "actions": ["output(2)"]}, 1, ["127.0.0.1", 6633]], "label": "i123"}
{"name": null, "timeout_disallowed": false, "controller_id": ["127.0.0.1", 6633], "value": ["(EthAddr('00:00:00:00:00:01'), EthAddr('12:34:56:78:02:02'))"], "label": "i124", "dependent_labels": [], "time": [1359491892, 176871], "class": "ControllerStateChange", "_fingerprint": ["ControllerStateChange", "Can't get from %s to %s"]}
{"name": null, "timeout_disallowed": false, "controller_id": ["127.0.0.1", 6633], "value": ["(EthAddr('00:00:00:00:00:01'), EthAddr('12:34:56:78:02:02'))"], "label": "i125", "dependent_labels": [], "time": [1359491892, 178203], "class": "ControllerStateChange", "_fingerprint": ["ControllerStateChange", "Dest unreachable (%s -> %s)"]}
{"dependent_labels": [], "dpid": 2, "timeout_disallowed": false, "time": [1359491892, 276268], "class": "ControlMessageReceive", "controller_id": ["127.0.0.1", 6633], "fingerprint": ["ControlMessageReceive", {"in_port": 65535, "data": {"dl_dst": "00:00:00:00:00:01", "nw_src": "123.123.2.2", "dl_src": "00:00:00:00:00:02", "nw_dst": "123.123.1.2"}, "class": "ofp_packet_out", "actions": ["output(1)"]}, 2, ["127.0.0.1", 6633]], "label": "i127"}
{"dependent_labels": [], "label": "e129", "class": "TrafficInjection", "time": [1359491892, 296882]}
{"name": null, "timeout_disallowed": false, "controller_id": ["127.0.0.1", 6633], "value": ["(EthAddr('00:00:00:00:00:02'), 00-00-00-00-00-01, 1)"], "label": "i132", "dependent_labels": [], "time": [1359491892, 401512], "class": "ControllerStateChange", "_fingerprint": ["ControllerStateChange", "Learned %s at %s.%i"]}
{"name": null, "timeout_disallowed": false, "controller_id": ["127.0.0.1", 6633], "value": ["(EthAddr('00:00:00:00:00:02'), EthAddr('00:00:00:00:00:01'))"], "label": "i133", "dependent_labels": [], "time": [1359491892, 402892], "class": "ControllerStateChange", "_fingerprint": ["ControllerStateChange", "Can't get from %s to %s"]}
{"name": null, "timeout_disallowed": false, "controller_id": ["127.0.0.1", 6633], "value": ["(EthAddr('00:00:00:00:00:02'), EthAddr('00:00:00:00:00:01'))"], "label": "i134", "dependent_labels": [], "time": [1359491892, 404242], "class": "ControllerStateChange", "_fingerprint": ["ControllerStateChange", "Dest unreachable (%s -> %s)"]}
{"dependent_labels": [], "dpid": 1, "timeout_disallowed": false, "time": [1359491892, 501244], "class": "ControlMessageReceive", "controller_id": ["127.0.0.1", 6633], "fingerprint": ["ControlMessageReceive", {"in_port": 65535, "data": {"dl_dst": "00:00:00:00:00:02", "nw_src": "123.123.1.2", "dl_src": "00:00:00:00:00:01", "nw_dst": "123.123.2.2"}, "class": "ofp_packet_out", "actions": ["output(1)"]}, 1, ["127.0.0.1", 6633]], "label": "i136"}
{"name": null, "timeout_disallowed": false, "controller_id": ["127.0.0.1", 6633], "value": ["(EthAddr('12:34:56:78:01:02'), EthAddr('12:34:56:78:02:02'))"], "label": "i137", "dependent_labels": [], "time": [1359491892, 503631], "class": "ControllerStateChange", "_fingerprint": ["ControllerStateChange", "Can't get from %s to %s"]}
{"name": null, "timeout_disallowed": false, "controller_id": ["127.0.0.1", 6633], "value": ["(EthAddr('12:34:56:78:01:02'), EthAddr('12:34:56:78:02:02'))"], "label": "i138", "dependent_labels": [], "time": [1359491892, 504985], "class": "ControllerStateChange", "_fingerprint": ["ControllerStateChange", "Dest unreachable (%s -> %s)"]}
{"dependent_labels": [], "dpid": 2, "timeout_disallowed": false, "time": [1359491892, 602953], "class": "ControlMessageReceive", "controller_id": ["127.0.0.1", 6633], "fingerprint": ["ControlMessageReceive", {"in_port": 65535, "data": {"dl_dst": "12:34:56:78:01:02", "nw_src": "123.123.2.2", "dl_src": "00:00:00:00:00:02", "nw_dst": "123.123.1.2"}, "class": "ofp_packet_out", "actions": ["output(1)"]}, 2, ["127.0.0.1", 6633]], "label": "i140"}
{"name": null, "timeout_disallowed": false, "controller_id": ["127.0.0.1", 6633], "value": ["(EthAddr('00:00:00:00:00:02'), EthAddr('12:34:56:78:01:02'))"], "label": "i142", "dependent_labels": [], "time": [1359491892, 706815], "class": "ControllerStateChange", "_fingerprint": ["ControllerStateChange", "Can't get from %s to %s"]}
{"name": null, "timeout_disallowed": false, "controller_id": ["127.0.0.1", 6633], "value": ["(EthAddr('00:00:00:00:00:02'), EthAddr('12:34:56:78:01:02'))"], "label": "i143", "dependent_labels": [], "time": [1359491892, 708163], "class": "ControllerStateChange", "_fingerprint": ["ControllerStateChange", "Dest unreachable (%s -> %s)"]}
{"dependent_labels": [], "dpid": 1, "timeout_disallowed": false, "time": [1359491892, 805667], "class": "ControlMessageReceive", "controller_id": ["127.0.0.1", 6633], "fingerprint": ["ControlMessageReceive", {"in_port": 65535, "data": {"dl_dst": "00:00:00:00:00:02", "nw_src": "123.123.1.2", "dl_src": "00:00:00:00:00:01", "nw_dst": "123.123.2.2"}, "class": "ofp_packet_out", "actions": ["output(1)"]}, 1, ["127.0.0.1", 6633]], "label": "i144"}
{"name": null, "timeout_disallowed": false, "controller_id": ["127.0.0.1", 6633], "value": ["(EthAddr('00:00:00:00:00:01'), EthAddr('00:00:00:00:00:02'))"], "label": "i146", "dependent_labels": [], "time": [1359491893, 110642], "class": "ControllerStateChange", "_fingerprint": ["ControllerStateChange", "Can't get from %s to %s"]}
{"name": null, "timeout_disallowed": false, "controller_id": ["127.0.0.1", 6633], "value": ["(EthAddr('00:00:00:00:00:01'), EthAddr('00:00:00:00:00:02'))"], "label": "i147", "dependent_labels": [], "time": [1359491893, 111990], "class": "ControllerStateChange", "_fingerprint": ["ControllerStateChange", "Dest unreachable (%s -> %s)"]}
{"dependent_labels": [], "dpid": 2, "timeout_disallowed": false, "time": [1359491893, 209524], "class": "ControlMessageReceive", "controller_id": ["127.0.0.1", 6633], "fingerprint": ["ControlMessageReceive", {"in_port": 65535, "data": {"dl_dst": "00:00:00:00:00:01", "nw_src": "123.123.2.2", "dl_src": "00:00:00:00:00:02", "nw_dst": "123.123.1.2"}, "class": "ofp_packet_out", "actions": ["output(1)"]}, 2, ["127.0.0.1", 6633]], "label": "i148"}
{"dependent_labels": [], "label": "e150", "class": "TrafficInjection", "time": [1359491893, 312148]}
{"name": null, "timeout_disallowed": false, "controller_id": ["127.0.0.1", 6633], "value": ["(EthAddr('00:00:00:00:00:02'), EthAddr('00:00:00:00:00:01'))"], "label": "i151", "dependent_labels": [], "time": [1359491893, 314004], "class": "ControllerStateChange", "_fingerprint": ["ControllerStateChange", "Can't get from %s to %s"]}
{"name": null, "timeout_disallowed": false, "controller_id": ["127.0.0.1", 6633], "value": ["(EthAddr('00:00:00:00:00:02'), EthAddr('00:00:00:00:00:01'))"], "label": "i152", "dependent_labels": [], "time": [1359491893, 315356], "class": "ControllerStateChange", "_fingerprint": ["ControllerStateChange", "Dest unreachable (%s -> %s)"]}
{"dependent_labels": [], "dpid": 2, "timeout_disallowed": false, "time": [1359491893, 413447], "class": "ControlMessageReceive", "controller_id": ["127.0.0.1", 6633], "fingerprint": ["ControlMessageReceive", {"in_port": 65535, "data": {"class": "lldp"}, "class": "ofp_packet_out", "actions": ["output(1)"]}, 2, ["127.0.0.1", 6633]], "label": "i154"}
{"dependent_labels": [], "dpid": 1, "timeout_disallowed": false, "time": [1359491893, 414115], "class": "ControlMessageReceive", "controller_id": ["127.0.0.1", 6633], "fingerprint": ["ControlMessageReceive", {"in_port": 65535, "data": {"dl_dst": "00:00:00:00:00:02", "nw_src": "123.123.1.2", "dl_src": "00:00:00:00:00:01", "nw_dst": "123.123.2.2"}, "class": "ofp_packet_out", "actions": ["output(1)"]}, 1, ["127.0.0.1", 6633]], "label": "i155"}
{"name": null, "timeout_disallowed": false, "controller_id": ["127.0.0.1", 6633], "value": ["(EthAddr('12:34:56:78:02:02'), '00-00-00-00-00-01', 1, '00-00-00-00-00-02', 2)"], "label": "i156", "dependent_labels": [], "time": [1359491893, 416325], "class": "ControllerStateChange", "_fingerprint": ["ControllerStateChange", "%s moved from %s.%i to %s.%i?"]}
{"name": null, "timeout_disallowed": false, "controller_id": ["127.0.0.1", 6633], "value": ["(EthAddr('12:34:56:78:02:02'), 00-00-00-00-00-02, 2)"], "label": "i157", "dependent_labels": [], "time": [1359491893, 417669], "class": "ControllerStateChange", "_fingerprint": ["ControllerStateChange", "Learned %s at %s.%i"]}
{"name": null, "timeout_disallowed": false, "controller_id": ["127.0.0.1", 6633], "value": ["(EthAddr('12:34:56:78:02:02'),)"], "label": "i158", "dependent_labels": [], "time": [1359491893, 418955], "class": "ControllerStateChange", "_fingerprint": ["ControllerStateChange", "Flood multicast from %s"]}
{"dependent_labels": [], "class": "DataplanePermit", "time": [1359491893, 505577], "label": "e159", "fingerprint": ["DataplanePermit", {"class": "lldp"}, 2, 1]}
{"dependent_labels": [], "dpid": 2, "timeout_disallowed": false, "time": [1359491893, 506816], "class": "ControlMessageReceive", "controller_id": ["127.0.0.1", 6633], "fingerprint": ["ControlMessageReceive", {"in_port": 2, "data": [], "class": "ofp_packet_out", "actions": ["output(65531)"]}, 2, ["127.0.0.1", 6633]], "label": "i161"}
{"name": null, "timeout_disallowed": false, "controller_id": ["127.0.0.1", 6633], "value": ["(EthAddr('00:00:00:00:00:01'), EthAddr('00:00:00:00:00:02'))"], "label": "i162", "dependent_labels": [], "time": [1359491893, 509335], "class": "ControllerStateChange", "_fingerprint": ["ControllerStateChange", "Can't get from %s to %s"]}
{"name": null, "timeout_disallowed": false, "controller_id": ["127.0.0.1", 6633], "value": ["(EthAddr('00:00:00:00:00:01'), EthAddr('00:00:00:00:00:02'))"], "label": "i163", "dependent_labels": [], "time": [1359491893, 510703], "class": "ControllerStateChange", "_fingerprint": ["ControllerStateChange", "Dest unreachable (%s -> %s)"]}
{"name": null, "timeout_disallowed": false, "controller_id": ["127.0.0.1", 6633], "value": ["('00-00-00-00-00-02', 1, '00-00-00-00-00-01', 1)"], "label": "i164", "dependent_labels": [], "time": [1359491893, 515289], "class": "ControllerStateChange", "_fingerprint": ["ControllerStateChange", "link detected: %s.%i -> %s.%i"]}
{"name": null, "timeout_disallowed": false, "controller_id": ["127.0.0.1", 6633], "value": ["(EthAddr('00:00:00:00:00:01'),)"], "label": "i165", "dependent_labels": [], "time": [1359491893, 516932], "class": "ControllerStateChange", "_fingerprint": ["ControllerStateChange", "Unlearned %s"]}
{"name": null, "timeout_disallowed": false, "controller_id": ["127.0.0.1", 6633], "value": ["(EthAddr('00:00:00:00:00:02'),)"], "label": "i166", "dependent_labels": [], "time": [1359491893, 518396], "class": "ControllerStateChange", "_fingerprint": ["ControllerStateChange", "Unlearned %s"]}
{"name": null, "timeout_disallowed": false, "controller_id": ["127.0.0.1", 6633], "value": ["(EthAddr('12:34:56:78:01:02'),)"], "label": "i167", "dependent_labels": [], "time": [1359491893, 519616], "class": "ControllerStateChange", "_fingerprint": ["ControllerStateChange", "Unlearned %s"]}
{"dependent_labels": [], "dpid": 2, "timeout_disallowed": false, "time": [1359491893, 607912], "class": "ControlMessageReceive", "controller_id": ["127.0.0.1", 6633], "fingerprint": ["ControlMessageReceive", {"in_port": 65535, "data": {"dl_dst": "00:00:00:00:00:01", "nw_src": "123.123.2.2", "dl_src": "00:00:00:00:00:02", "nw_dst": "123.123.1.2"}, "class": "ofp_packet_out", "actions": ["output(1)"]}, 2, ["127.0.0.1", 6633]], "label": "i168"}
{"dependent_labels": [], "dpid": 2, "timeout_disallowed": false, "time": [1359491893, 608541], "class": "ControlMessageReceive", "controller_id": ["127.0.0.1", 6633], "fingerprint": ["ControlMessageReceive", {"hard_timeout": 0, "actions": [], "priority": 32768, "idle_timeout": 0, "command": "delete", "out_port": 65535, "flags": 0, "class": "ofp_flow_mod", "match": "x^L"}, 2, ["127.0.0.1", 6633]], "label": "i169"}
{"dependent_labels": [], "dpid": 1, "timeout_disallowed": false, "time": [1359491893, 609200], "class": "ControlMessageReceive", "controller_id": ["127.0.0.1", 6633], "fingerprint": ["ControlMessageReceive", {"hard_timeout": 0, "actions": [], "priority": 32768, "idle_timeout": 0, "command": "delete", "out_port": 65535, "flags": 0, "class": "ofp_flow_mod", "match": "x^L"}, 1, ["127.0.0.1", 6633]], "label": "i170"}
{"dependent_labels": [], "dpid": 1, "timeout_disallowed": false, "time": [1359491893, 609764], "class": "ControlMessageReceive", "controller_id": ["127.0.0.1", 6633], "fingerprint": ["ControlMessageReceive", {"in_port": 1, "data": [], "class": "ofp_packet_out", "actions": []}, 1, ["127.0.0.1", 6633]], "label": "i171"}
{"name": null, "timeout_disallowed": false, "controller_id": ["127.0.0.1", 6633], "value": ["(EthAddr('12:34:56:78:02:02'),)"], "label": "i174", "dependent_labels": [], "time": [1359491893, 713861], "class": "ControllerStateChange", "_fingerprint": ["ControllerStateChange", "Flood multicast from %s"]}
{"name": null, "timeout_disallowed": false, "controller_id": ["127.0.0.1", 6633], "value": ["(EthAddr('00:00:00:00:00:02'), 00-00-00-00-00-01, 1)"], "label": "i175", "dependent_labels": [], "time": [1359491893, 715664], "class": "ControllerStateChange", "_fingerprint": ["ControllerStateChange", "Learned %s at %s.%i"]}
{"name": null, "timeout_disallowed": false, "controller_id": ["127.0.0.1", 6633], "value": ["(EthAddr('00:00:00:00:00:01'),)"], "label": "i176", "dependent_labels": [], "time": [1359491893, 716943], "class": "ControllerStateChange", "_fingerprint": ["ControllerStateChange", "%s unknown -- flooding"]}
{"dependent_labels": [], "dpid": 1, "timeout_disallowed": false, "time": [1359491893, 812751], "class": "ControlMessageReceive", "controller_id": ["127.0.0.1", 6633], "fingerprint": ["ControlMessageReceive", {"in_port": 1, "data": [], "class": "ofp_packet_out", "actions": ["output(65531)"]}, 1, ["127.0.0.1", 6633]], "label": "i177"}
{"dependent_labels": [], "dpid": 1, "timeout_disallowed": false, "time": [1359491893, 914318], "class": "ControlMessageReceive", "controller_id": ["127.0.0.1", 6633], "fingerprint": ["ControlMessageReceive", {"in_port": 1, "data": [], "class": "ofp_packet_out", "actions": ["output(65531)"]}, 1, ["127.0.0.1", 6633]], "label": "i179"}
{"dependent_labels": [], "label": "e182", "class": "TrafficInjection", "time": [1359491894, 338301]}
{"dependent_labels": [], "class": "DataplanePermit", "time": [1359491894, 540174], "label": "e183", "fingerprint": ["DataplanePermit", {"class": "arp"}, "host:[IPAddr('123.123.1.2')]", "12:34:56:78:01:02"]}
{"dependent_labels": [], "class": "DataplanePermit", "time": [1359491894, 641370], "label": "e184", "fingerprint": ["DataplanePermit", {"class": "arp"}, 1, 1]}
{"dependent_labels": [], "dpid": 2, "timeout_disallowed": false, "time": [1359491894, 641832], "class": "ControlMessageReceive", "controller_id": ["127.0.0.1", 6633], "fingerprint": ["ControlMessageReceive", {"in_port": 65535, "data": {"class": "lldp"}, "class": "ofp_packet_out", "actions": ["output(2)"]}, 2, ["127.0.0.1", 6633]], "label": "i185"}
{"name": null, "timeout_disallowed": false, "controller_id": ["127.0.0.1", 6633], "value": ["(EthAddr('12:34:56:78:01:02'), 00-00-00-00-00-02, 1)"], "label": "i186", "dependent_labels": [], "time": [1359491894, 643906], "class": "ControllerStateChange", "_fingerprint": ["ControllerStateChange", "Learned %s at %s.%i"]}
{"name": null, "timeout_disallowed": false, "controller_id": ["127.0.0.1", 6633], "value": ["(EthAddr('12:34:56:78:01:02'), EthAddr('12:34:56:78:02:02'), 2054, 1)"], "label": "i187", "dependent_labels": [], "time": [1359491894, 646446], "class": "ControllerStateChange", "_fingerprint": ["ControllerStateChange", "Installing path for %s -> %s %04x (%i hops)"]}
{"dependent_labels": [], "dpid": 2, "timeout_disallowed": false, "time": [1359491894, 743118], "class": "ControlMessageReceive", "controller_id": ["127.0.0.1", 6633], "fingerprint": ["ControlMessageReceive", {"hard_timeout": 30, "actions": ["output(2)"], "priority": 32768, "idle_timeout": 10, "command": "add", "out_port": 65535, "flags": 0, "class": "ofp_flow_mod", "match": "dl_src:12:34:56:78:01:02,dl_dst:12:34:56:78:02:02,dl_vlan:65535,dl_vlan_pcp:0,dl_type:2054,nw_proto:2,nw_src:123.123.1.2/32,nw_dst:123.123.2.2/32"}, 2, ["127.0.0.1", 6633]], "label": "i188"}
{"dependent_labels": [], "label": "e191", "class": "TrafficInjection", "time": [1359491895, 348455]}
{"dependent_labels": [], "class": "DataplanePermit", "time": [1359491895, 550063], "label": "e192", "fingerprint": ["DataplanePermit", {"dl_dst": "12:34:56:78:01:02", "nw_src": "123.123.2.2", "dl_src": "12:34:56:78:02:02", "nw_dst": "123.123.1.2"}, "host:[IPAddr('123.123.2.2')]", "12:34:56:78:02:02"]}
{"dependent_labels": [], "class": "DataplanePermit", "time": [1359491895, 651474], "label": "e193", "fingerprint": ["DataplanePermit", {"dl_dst": "12:34:56:78:01:02", "nw_src": "123.123.2.2", "dl_src": "12:34:56:78:02:02", "nw_dst": "123.123.1.2"}, 2, 1]}
{"name": null, "timeout_disallowed": false, "controller_id": ["127.0.0.1", 6633], "value": ["(EthAddr('12:34:56:78:02:02'), '00-00-00-00-00-01', 1)"], "label": "i194", "dependent_labels": [], "time": [1359491895, 653592], "class": "ControllerStateChange", "_fingerprint": ["ControllerStateChange", "Packet from %s arrived at %s.%i without flow"]}
{"name": null, "timeout_disallowed": false, "controller_id": ["127.0.0.1", 6633], "value": ["(EthAddr('12:34:56:78:02:02'), EthAddr('12:34:56:78:01:02'), 2048, 2)"], "label": "i195", "dependent_labels": [], "time": [1359491895, 657337], "class": "ControllerStateChange", "_fingerprint": ["ControllerStateChange", "Installing path for %s -> %s %04x (%i hops)"]}
{"dependent_labels": [], "dpid": 1, "timeout_disallowed": false, "time": [1359491895, 752645], "class": "ControlMessageReceive", "controller_id": ["127.0.0.1", 6633], "fingerprint": ["ControlMessageReceive", {"hard_timeout": 30, "actions": ["output(1)"], "priority": 32768, "idle_timeout": 10, "command": "add", "out_port": 65535, "flags": 0, "class": "ofp_flow_mod", "match": "dl_src:12:34:56:78:02:02,dl_dst:12:34:56:78:01:02,dl_vlan:65535,dl_vlan_pcp:0,dl_type:2048,nw_tos:0,nw_proto:1,nw_src:123.123.2.2/32,nw_dst:123.123.1.2/32,tp_src:8,tp_dst:0"}, 1, ["127.0.0.1", 6633]], "label": "i196"}
{"dependent_labels": [], "dpid": 2, "timeout_disallowed": false, "time": [1359491895, 753502], "class": "ControlMessageReceive", "controller_id": ["127.0.0.1", 6633], "fingerprint": ["ControlMessageReceive", {"hard_timeout": 30, "actions": ["output(1)"], "priority": 32768, "idle_timeout": 10, "command": "add", "out_port": 65535, "flags": 0, "class": "ofp_flow_mod", "match": "dl_src:12:34:56:78:02:02,dl_dst:12:34:56:78:01:02,dl_vlan:65535,dl_vlan_pcp:0,dl_type:2048,nw_tos:0,nw_proto:1,nw_src:123.123.2.2/32,nw_dst:123.123.1.2/32,tp_src:8,tp_dst:0"}, 2, ["127.0.0.1", 6633]], "label": "i197"}
{"dependent_labels": [], "dpid": 1, "timeout_disallowed": false, "time": [1359491895, 855688], "class": "ControlMessageReceive", "controller_id": ["127.0.0.1", 6633], "fingerprint": ["ControlMessageReceive", {"in_port": 65535, "data": {"class": "lldp"}, "class": "ofp_packet_out", "actions": ["output(1)"]}, 1, ["127.0.0.1", 6633]], "label": "i199"}
{"dependent_labels": [], "dpid": 2, "timeout_disallowed": false, "time": [1359491896, 59270], "class": "ControlMessageReceive", "controller_id": ["127.0.0.1", 6633], "fingerprint": ["ControlMessageReceive", {"in_port": 1, "data": [], "class": "ofp_packet_out", "actions": []}, 2, ["127.0.0.1", 6633]], "label": "i203"}
{"wait_time": 1.0, "dependent_labels": [], "label": "e205", "class": "WaitTime", "time": [1359491896, 59270]}
