INFO:Controller: =====> Starting POX Controller <===== 
[1;36mStarting POX controller c1[1;m
INFO:Controller:Launching controller c1: ./pox.py --verbose --unthreaded-sh sts.util.socket_mux.pox_monkeypatcher openflow.discovery forwarding.topo_proactive openflow.of_01 --address=127.0.0.1 --port=6633
INFO:simulation:Launched controller c1: ./pox.py --verbose --unthreaded-sh sts.util.socket_mux.pox_monkeypatcher openflow.discovery forwarding.topo_proactive openflow.of_01 --address=127.0.0.1 --port=6633 [PID 9256]
INFO:simulation:Creating topology...
connect_socket_with_backoff ('127.0.0.1', 6633)
Error connecting.  -- [Errno 61] Connection refused. Backing off 1 seconds ...
[1;33m[c1] POX 0.3.0 (dart) / Copyright 2011-2013 James McCauley, et al.[1;m

[1;41m[1;33m[c1] DEBUG:core:POX 0.3.0 (dart) going up...[1;m

[1;41m[1;33m[c1] DEBUG:core:Running on CPython (2.7.5/Sep 12 2013 21:33:34)[1;m

[1;41m[1;33m[c1] DEBUG:core:Platform is Darwin-13.0.2-x86_64-i386-64bit[1;m

[1;41m[1;33m[c1] INFO:core:POX 0.3.0 (dart) is up.[1;m

[1;41m[1;33m[c1] DEBUG:openflow.of_01:Listening on 127.0.0.1:6633[1;m

connect_socket_with_backoff ('127.0.0.1', 6633)[1;33m[c1] Incoming true socket connected[1;m


connect_socket_with_backoff ('127.0.0.1', 6633)[1;33m[c1] Incoming MockSocket connection [u'127.0.0.1', 62070][1;m


connect_socket_with_backoff ('127.0.0.1', 6633)
connect_socket_with_backoff ('127.0.0.1', 6633)
connect_socket_with_backoff ('127.0.0.1', 6633)[1;33m[c1] Incoming MockSocket connection [u'127.0.0.1', 62070][1;m


connect_socket_with_backoff ('127.0.0.1', 6633)
connect_socket_with_backoff ('127.0.0.1', 6633)
[1;33m[c1] Incoming MockSocket connection [u'127.0.0.1', 62070][1;m

INFO:control_flow:Waiting until first OpenFlow message received..
[1;33m[c1] Incoming MockSocket connection [u'127.0.0.1', 62070][1;m
[1;36mRound 1 completed.[1;m

[1;33m[c1] Incoming MockSocket connection [u'127.0.0.1', 62070][1;m

[1;33m[c1] Incoming MockSocket connection [u'127.0.0.1', 62070][1;m

[1;33m[c1] Incoming MockSocket connection [u'127.0.0.1', 62070][1;m

[1;36mInjecting a random packet[1;m
INFO:host:[IPAddr('123.0.0.1')]:sending packet on interface eth1: [00:00:00:00:00:01>00:00:00:02:00:01:IP]|([v:4hl:5l:20t:64]ICMP cs:0[123.0.0.1>123.2.0.1]){t:ECHO_REPLY c:0 chk:0}PingPingPingPingPingPingPingPingPingPingPingPing
[1;36mInjecting a random packet[1;m
INFO:host:[IPAddr('123.1.0.1')]:sending packet on interface eth2: [00:00:00:01:00:01>00:00:00:02:00:01:IP]|([v:4hl:5l:20t:64]ICMP cs:0[123.1.0.1>123.2.0.1]){t:ECHO_REPLY c:0 chk:0}PingPingPingPingPingPingPingPingPingPingPingPing
[1;36mRound 2 completed.[1;m
[1;36mForwarding dataplane event[1;m
[1;36mForwarding dataplane event[1;m
[1;36mInjecting a random packet[1;m
INFO:host:[IPAddr('123.0.0.1')]:sending packet on interface eth1: [00:00:00:00:00:01>00:00:00:01:00:01:IP]|([v:4hl:5l:20t:64]ICMP cs:0[123.0.0.1>123.1.0.1]){t:ECHO_REQUEST c:0 chk:0}PingPingPingPingPingPingPingPingPingPingPingPing
[1;36mRound 3 completed.[1;m
[1;41m[1;33m[c1] INFO:openflow.of_01:[00-00-00-00-00-07 7] connected[1;m

[1;41m[1;33m[c1] DEBUG:openflow.discovery:Installing flow for 00-00-00-00-00-07[1;m

[1;41m[1;33m[c1] DEBUG:f.t_p.00-00-00-00-00-07:Connect [00-00-00-00-00-07 7][1;m

[1;41m[1;33m[c1] DEBUG:f.t_p:Disabling flooding for 3 ports[1;m

[1;41m[1;33m[c1] INFO:openflow.of_01:[00-00-00-00-00-06 6] connected[1;m

[1;41m[1;33m[c1] DEBUG:openflow.discovery:Installing flow for 00-00-00-00-00-06[1;m

[1;41m[1;33m[c1] DEBUG:f.t_p.00-00-00-00-00-06:Connect [00-00-00-00-00-06 6][1;m

[1;41m[1;33m[c1] DEBUG:f.t_p:Disabling flooding for 3 ports[1;m

[1;41m[1;33m[c1] INFO:openflow.of_01:[00-00-00-00-00-05 5] connected[1;m

[1;41m[1;33m[c1] DEBUG:openflow.discovery:Installing flow for 00-00-00-00-00-05[1;m

[1;41m[1;33m[c1] DEBUG:f.t_p.00-00-00-00-00-05:Connect [00-00-00-00-00-05 5][1;m

[1;41m[1;33m[c1] DEBUG:f.t_p:Disabling flooding for 3 ports[1;m

[1;41m[1;33m[c1] INFO:openflow.of_01:[00-00-00-00-00-04 4] connected[1;m

[1;41m[1;33m[c1] DEBUG:openflow.discovery:Installing flow for 00-00-00-00-00-04[1;m

[1;41m[1;33m[c1] DEBUG:f.t_p.00-00-00-00-00-04:Connect [00-00-00-00-00-04 4][1;m

[1;41m[1;33m[c1] DEBUG:f.t_p:Disabling flooding for 3 ports[1;m

[1;41m[1;33m[c1] INFO:openflow.of_01:[00-00-00-00-00-03 3] connected[1;m

[1;41m[1;33m[c1] DEBUG:openflow.discovery:Installing flow for 00-00-00-00-00-03[1;m

[1;41m[1;33m[c1] DEBUG:f.t_p.00-00-00-00-00-03:Connect [00-00-00-00-00-03 3][1;m

[1;41m[1;33m[c1] DEBUG:f.t_p:Disabling flooding for 3 ports[1;m

[1;41m[1;33m[c1] INFO:openflow.of_01:[00-00-00-00-00-02 2] connected[1;m

[1;41m[1;33m[c1] DEBUG:openflow.discovery:Installing flow for 00-00-00-00-00-02[1;m

[1;41m[1;33m[c1] DEBUG:f.t_p.00-00-00-00-00-02:Connect [00-00-00-00-00-02 2][1;m

[1;41m[1;33m[c1] DEBUG:f.t_p:Disabling flooding for 3 ports[1;m

[1;41m[1;33m[c1] INFO:openflow.of_01:[00-00-00-00-00-01 1] connected[1;m

[1;41m[1;33m[c1] DEBUG:openflow.discovery:Installing flow for 00-00-00-00-00-01[1;m

[1;41m[1;33m[c1] DEBUG:f.t_p.00-00-00-00-00-01:Connect [00-00-00-00-00-01 1][1;m

[1;41m[1;33m[c1] DEBUG:f.t_p:Disabling flooding for 3 ports[1;m

[1;36mForwarding dataplane event[1;m
[1;36mInjecting a random packet[1;m
INFO:host:[IPAddr('123.2.0.1')]:sending packet on interface eth3: [00:00:00:02:00:01>00:00:00:00:00:01:IP]|([v:4hl:5l:20t:64]ICMP cs:0[123.2.0.1>123.0.0.1]){t:ECHO_REQUEST c:0 chk:0}PingPingPingPingPingPingPingPingPingPingPingPing
[1;36mRound 4 completed.[1;m
[1;41m[1;33m[c1] DEBUG:f.t_p:Need MAC for 123.1.0.1[1;m

[1;36mForwarding dataplane event[1;m
WARNING:FuzzSoftwareSwitch(1):invalid arguments Invalid physical output port: 0
[1;36mRound 5 completed.[1;m
[1;36mCrashing software_switch SoftwareSwitch(dpid=2, num_ports=3)[1;m
[1;36mRound 6 completed.[1;m
[1;36mForwarding dataplane event[1;m
[1;36mRound 7 completed.[1;m
[1;41m[1;33m[c1] DEBUG:openflow.discovery:Dropping LLDP packet 1[1;m

[1;41m[1;33m[c1] INFO:openflow.discovery:link detected: 00-00-00-00-00-07.1 -> 00-00-00-00-00-04.3[1;m

[1;36mInjecting a random packet[1;m
INFO:host:[IPAddr('123.2.0.1')]:sending packet on interface eth3: [00:00:00:02:00:01>00:00:00:00:00:01:IP]|([v:4hl:5l:20t:64]ICMP cs:0[123.2.0.1>123.0.0.1]){t:ECHO_REQUEST c:0 chk:0}PingPingPingPingPingPingPingPingPingPingPingPing
[1;36mRound 8 completed.[1;m
[1;36mForwarding dataplane event[1;m
[1;36mForwarding dataplane event[1;m
[1;36mCrashing software_switch SoftwareSwitch(dpid=5, num_ports=3)[1;m
[1;36mInjecting a random packet[1;m
INFO:host:[IPAddr('123.0.0.1')]:sending packet on interface eth1: [00:00:00:00:00:01>00:00:00:01:00:01:IP]|([v:4hl:5l:20t:64]ICMP cs:0[123.0.0.1>123.1.0.1]){t:ECHO_REQUEST c:0 chk:0}PingPingPingPingPingPingPingPingPingPingPingPing
[1;36mRound 9 completed.[1;m
[1;36mForwarding dataplane event[1;m
[1;36mRound 10 completed.[1;m
[1;41m[1;33m[c1] DEBUG:f.t_p:Need MAC for 123.1.0.1[1;m

[1;36mForwarding dataplane event[1;m
WARNING:FuzzSoftwareSwitch(1):invalid arguments Invalid physical output port: 0
[1;36mRound 11 completed.[1;m
[1;41m[1;33m[c1] DEBUG:openflow.discovery:Dropping LLDP packet 1[1;m

[1;41m[1;33m[c1] INFO:openflow.discovery:link detected: 00-00-00-00-00-07.3 -> 00-00-00-00-00-06.3[1;m

[1;36mInjecting a random packet[1;m
INFO:host:[IPAddr('123.2.0.1')]:sending packet on interface eth3: [00:00:00:02:00:01>00:00:00:00:00:01:IP]|([v:4hl:5l:20t:64]ICMP cs:0[123.2.0.1>123.0.0.1]){t:ECHO_REPLY c:0 chk:0}PingPingPingPingPingPingPingPingPingPingPingPing
[1;36mRound 12 completed.[1;m
[1;36mForwarding dataplane event[1;m
[1;36mRound 13 completed.[1;m
[1;36mForwarding dataplane event[1;m
[1;36mRound 14 completed.[1;m
[1;41m[1;33m[c1] DEBUG:openflow.discovery:Dropping LLDP packet 4[1;m

[1;41m[1;33m[c1] INFO:openflow.discovery:link detected: 00-00-00-00-00-06.1 -> 00-00-00-00-00-03.2[1;m

[1;36mInjecting a random packet[1;m
INFO:host:[IPAddr('123.0.0.1')]:sending packet on interface eth1: [00:00:00:00:00:01>00:00:00:02:00:01:IP]|([v:4hl:5l:20t:64]ICMP cs:0[123.0.0.1>123.2.0.1]){t:ECHO_REQUEST c:0 chk:0}PingPingPingPingPingPingPingPingPingPingPingPing
[1;36mRound 15 completed.[1;m
[1;36mForwarding dataplane event[1;m
[1;36mForwarding dataplane event[1;m
[1;36mInjecting a random packet[1;m
INFO:host:[IPAddr('123.1.0.1')]:sending packet on interface eth2: [00:00:00:01:00:01>00:00:00:02:00:01:IP]|([v:4hl:5l:20t:64]ICMP cs:0[123.1.0.1>123.2.0.1]){t:ECHO_REQUEST c:0 chk:0}PingPingPingPingPingPingPingPingPingPingPingPing
[1;36mRound 16 completed.[1;m
[1;41m[1;33m[c1] DEBUG:openflow.discovery:Dropping LLDP packet 1[1;m

[1;41m[1;33m[c1] INFO:openflow.discovery:link detected: 00-00-00-00-00-06.2 -> 00-00-00-00-00-07.3[1;m

[1;36mForwarding dataplane event[1;m
WARNING:FuzzSoftwareSwitch(2):Currently down. Dropping send()
[1;36mCrashing software_switch SoftwareSwitch(dpid=4, num_ports=3)[1;m
[1;36mInjecting a random packet[1;m
INFO:host:[IPAddr('123.0.0.1')]:sending packet on interface eth1: [00:00:00:00:00:01>00:00:00:01:00:01:IP]|([v:4hl:5l:20t:64]ICMP cs:0[123.0.0.1>123.1.0.1]){t:ECHO_REPLY c:0 chk:0}PingPingPingPingPingPingPingPingPingPingPingPing
[1;36mRound 17 completed.[1;m
[1;36mForwarding dataplane event[1;m
[1;36mForwarding dataplane event[1;m
[1;36mRound 18 completed.[1;m
[1;41m[1;33m[c1] DEBUG:openflow.discovery:Dropping LLDP packet 1[1;m

[1;41m[1;33m[c1] INFO:openflow.discovery:link detected: 00-00-00-00-00-06.3 -> 00-00-00-00-00-07.3[1;m

[1;41m[1;33m[c1] DEBUG:f.t_p:Need MAC for 123.1.0.1[1;m

WARNING:FuzzSoftwareSwitch(1):invalid arguments Invalid physical output port: 0
[1;36mRound 19 completed.[1;m
[1;41m[1;37mViolation encountered again after 0 steps: (1, 0)[1;m
[1;41m[1;37mViolation encountered again after 0 steps: (1, 0)[1;m
[1;41m[1;37mThe following correctness violations have occurred: ['(1, 0)', '(1, 0)', '(1, 0)'][1;m
[1;41m[1;37mPersistent violations detected!: ['(1, 0)'][1;m
INFO:control_flow:Terminating fuzzing after 20 rounds
INFO:control_flow:Pending Messages:
[1;36mKilling controller c1[1;m
Terminating child controllers... OK
