{"timeout_disallowed": true, "fingerprint": ["ConnectToControllers"], "timed_out": false, "label": "e1", "dependent_labels": [], "time": [1390616566, 187768], "replay_time": [1400995330, 518292], "class": "ConnectToControllers", "round": 0, "prunable": false}
{"legacy_invariant_check": false, "class": "CheckInvariants", "fingerprint": "N/A", "timed_out": false, "label": "e56", "dependent_labels": [], "invariant_name": "check_for_flow_entry", "invariant_check_name": "check_for_flow_entry", "time": [1390616572, 589142], "replay_time": [1400995336, 921388], "invariant_check": null, "round": 64, "prunable": true}
{"legacy_invariant_check": false, "class": "CheckInvariants", "fingerprint": "N/A", "timed_out": false, "label": "e58", "dependent_labels": [], "invariant_name": "check_for_flow_entry", "invariant_check_name": "check_for_flow_entry", "time": [1390616572, 691554], "replay_time": [1400995337, 25433], "invariant_check": null, "round": 65, "prunable": true}
{"legacy_invariant_check": false, "class": "CheckInvariants", "fingerprint": "N/A", "timed_out": false, "label": "e61", "dependent_labels": [], "invariant_name": "check_for_flow_entry", "invariant_check_name": "check_for_flow_entry", "time": [1390616572, 793737], "replay_time": [1400995337, 129218], "invariant_check": null, "round": 66, "prunable": true}
{"legacy_invariant_check": false, "class": "CheckInvariants", "fingerprint": "N/A", "timed_out": false, "label": "e63", "dependent_labels": [], "invariant_name": "check_for_flow_entry", "invariant_check_name": "check_for_flow_entry", "time": [1390616572, 895947], "replay_time": [1400995337, 233102], "invariant_check": null, "round": 67, "prunable": true}
{"dependent_labels": [], "class": "TrafficInjection", "fingerprint": ["TrafficInjection", {"interface": {"hw_addr": "12:34:56:78:02:02", "ips": ["10.2.2.2"], "name": "eth2"}, "packet": "EjRWeAECEjRWeAICCABFAABIH/oAAEABQrUKAgICCgECAgAADjdQaW5nUGluZ1BpbmdQaW5nUGluZ1BpbmdQaW5nUGluZ1BpbmdQaW5nUGluZ1Bpbmc="}, null], "timed_out": false, "label": "e64", "dp_event": {"interface": {"hw_addr": "12:34:56:78:02:02", "ips": ["10.2.2.2"], "name": "eth2"}, "packet": "EjRWeAECEjRWeAICCABFAABIH/oAAEABQrUKAgICCgECAgAADjdQaW5nUGluZ1BpbmdQaW5nUGluZ1BpbmdQaW5nUGluZ1BpbmdQaW5nUGluZ1Bpbmc="}, "time": [1390616572, 998247], "replay_time": [1400995337, 337602], "host_id": null, "round": 68, "prunable": true}
{"legacy_invariant_check": false, "class": "CheckInvariants", "fingerprint": "N/A", "timed_out": false, "label": "e65", "dependent_labels": [], "invariant_name": "check_for_flow_entry", "invariant_check_name": "check_for_flow_entry", "time": [1390616572, 998818], "replay_time": [1400995337, 339523], "invariant_check": null, "round": 68, "prunable": true}
{"legacy_invariant_check": false, "class": "CheckInvariants", "fingerprint": "N/A", "timed_out": false, "label": "e68", "dependent_labels": [], "invariant_name": "check_for_flow_entry", "invariant_check_name": "check_for_flow_entry", "time": [1390616573, 101099], "replay_time": [1400995337, 443355], "invariant_check": null, "round": 69, "prunable": true}
{"legacy_invariant_check": false, "class": "CheckInvariants", "fingerprint": "N/A", "timed_out": false, "label": "e71", "dependent_labels": [], "invariant_name": "check_for_flow_entry", "invariant_check_name": "check_for_flow_entry", "time": [1390616573, 203712], "replay_time": [1400995337, 547535], "invariant_check": null, "round": 70, "prunable": true}
{"class": "InvariantViolation", "fingerprint": ["InvariantViolation"], "persistent": true, "timed_out": false, "dependent_labels": [], "time": [1390616573, 616781], "violations": ["123Found"], "label": "e83", "round": 74, "prunable": true}
{"wait_time": 1.0, "dependent_labels": [], "fingerprint": ["WaitTime"], "time": [1390616573, 616781], "class": "WaitTime", "prunable": true, "timed_out": false, "round": -1, "label": "e131"}
