xss =  -ea -javaagent:/home/mininet/apache-cassandra-1.2.4/bin/../lib/jamm-0.2.5.jar -XX:+UseThreadPriorities -XX:ThreadPriorityPolicy=42 -Xms1001M -Xmx1001M -Xmn100M -XX:+HeapDumpOnOutOfMemoryError -Xss228k
 INFO 13:46:44,047 Logging initialized
 INFO 13:46:44,059 JVM vendor/version: OpenJDK 64-Bit Server VM/1.7.0_51
 WARN 13:46:44,059 OpenJDK is not recommended. Please upgrade to the newest Oracle Java release
 INFO 13:46:44,059 Heap size: 1039138816/1040187392
 INFO 13:46:44,060 Classpath: /home/mininet/apache-cassandra-1.2.4/bin/../conf:/home/mininet/apache-cassandra-1.2.4/bin/../build/classes/main:/home/mininet/apache-cassandra-1.2.4/bin/../build/classes/thrift:/home/mininet/apache-cassandra-1.2.4/bin/../lib/antlr-3.2.jar:/home/mininet/apache-cassandra-1.2.4/bin/../lib/apache-cassandra-1.2.4.jar:/home/mininet/apache-cassandra-1.2.4/bin/../lib/apache-cassandra-clientutil-1.2.4.jar:/home/mininet/apache-cassandra-1.2.4/bin/../lib/apache-cassandra-thrift-1.2.4.jar:/home/mininet/apache-cassandra-1.2.4/bin/../lib/avro-1.4.0-fixes.jar:/home/mininet/apache-cassandra-1.2.4/bin/../lib/avro-1.4.0-sources-fixes.jar:/home/mininet/apache-cassandra-1.2.4/bin/../lib/commons-cli-1.1.jar:/home/mininet/apache-cassandra-1.2.4/bin/../lib/commons-codec-1.2.jar:/home/mininet/apache-cassandra-1.2.4/bin/../lib/commons-lang-2.6.jar:/home/mininet/apache-cassandra-1.2.4/bin/../lib/compress-lzf-0.8.4.jar:/home/mininet/apache-cassandra-1.2.4/bin/../lib/concurrentlinkedhashmap-lru-1.3.jar:/home/mininet/apache-cassandra-1.2.4/bin/../lib/guava-13.0.1.jar:/home/mininet/apache-cassandra-1.2.4/bin/../lib/high-scale-lib-1.1.2.jar:/home/mininet/apache-cassandra-1.2.4/bin/../lib/jackson-core-asl-1.9.2.jar:/home/mininet/apache-cassandra-1.2.4/bin/../lib/jackson-mapper-asl-1.9.2.jar:/home/mininet/apache-cassandra-1.2.4/bin/../lib/jamm-0.2.5.jar:/home/mininet/apache-cassandra-1.2.4/bin/../lib/jbcrypt-0.3m.jar:/home/mininet/apache-cassandra-1.2.4/bin/../lib/jline-1.0.jar:/home/mininet/apache-cassandra-1.2.4/bin/../lib/json-simple-1.1.jar:/home/mininet/apache-cassandra-1.2.4/bin/../lib/libthrift-0.7.0.jar:/home/mininet/apache-cassandra-1.2.4/bin/../lib/log4j-1.2.16.jar:/home/mininet/apache-cassandra-1.2.4/bin/../lib/lz4-1.1.0.jar:/home/mininet/apache-cassandra-1.2.4/bin/../lib/metrics-core-2.0.3.jar:/home/mininet/apache-cassandra-1.2.4/bin/../lib/netty-3.5.9.Final.jar:/home/mininet/apache-cassandra-1.2.4/bin/../lib/servlet-api-2.5-20081211.jar:/home/mininet/apache-cassandra-1.2.4/bin/../lib/slf4j-api-1.7.2.jar:/home/mininet/apache-cassandra-1.2.4/bin/../lib/slf4j-log4j12-1.7.2.jar:/home/mininet/apache-cassandra-1.2.4/bin/../lib/snakeyaml-1.6.jar:/home/mininet/apache-cassandra-1.2.4/bin/../lib/snappy-java-1.0.4.1.jar:/home/mininet/apache-cassandra-1.2.4/bin/../lib/snaptree-0.1.jar:/home/mininet/apache-cassandra-1.2.4/bin/../lib/jamm-0.2.5.jar
 INFO 13:46:44,061 JNA not found. Native methods will be disabled.
 INFO 13:46:44,071 Loading settings from file:/home/mininet/apache-cassandra-1.2.4/conf/cassandra.yaml
 INFO 13:46:44,759 Data files directories: [/var/lib/cassandra/data]
 INFO 13:46:44,759 Commit log directory: /var/lib/cassandra/commitlog
 INFO 13:46:44,760 DiskAccessMode 'auto' determined to be mmap, indexAccessMode is mmap
 INFO 13:46:44,760 disk_failure_policy is stop
 INFO 13:46:44,774 Global memtable threshold is enabled at 330MB
 INFO 13:46:44,887 Not using multi-threaded compaction
 INFO 13:46:45,347 Initializing key cache with capacity of 49 MBs.
 INFO 13:46:45,355 Scheduling key cache save to each 14400 seconds (going to save all keys).
 INFO 13:46:45,356 Initializing row cache with capacity of 0 MBs and provider org.apache.cassandra.cache.SerializingCacheProvider
 INFO 13:46:45,364 Scheduling row cache save to each 0 seconds (going to save all keys).
 INFO 13:46:45,743 Couldn't detect any schema definitions in local storage.
 INFO 13:46:45,744 To create keyspaces and column families, see 'help create keyspace' in the CLI, or set up a schema using the thrift system_* calls.
 INFO 13:46:45,825 No commitlog files found; skipping replay
 INFO 13:46:46,217 Cassandra version: 1.2.4
 INFO 13:46:46,219 Thrift API version: 19.35.0
 INFO 13:46:46,230 CQL supported versions: 2.0.0,3.0.1 (default: 3.0.1)
 INFO 13:46:46,304 Loading persisted ring state
 INFO 13:46:46,310 Starting up server gossip
 WARN 13:46:46,323 No host ID found, created 6a2a7986-7d1b-45bf-99df-e72fec194d1a (Note: This should happen exactly once per node).
 INFO 13:46:46,349 Enqueuing flush of Memtable-local@1156511567(361/361 serialized/live bytes, 15 ops)
 INFO 13:46:46,361 Writing Memtable-local@1156511567(361/361 serialized/live bytes, 15 ops)
 INFO 13:46:46,433 Completed flushing /var/lib/cassandra/data/system/local/system-local-ib-1-Data.db (352 bytes) for commitlog position ReplayPosition(segmentId=1391204805718, position=50656)
 INFO 13:46:46,511 Starting Messaging Service on port 7000
 INFO 13:46:46,575 Enqueuing flush of Memtable-local@1622940842(86/86 serialized/live bytes, 4 ops)
 INFO 13:46:46,580 Writing Memtable-local@1622940842(86/86 serialized/live bytes, 4 ops)
 INFO 13:46:46,600 Completed flushing /var/lib/cassandra/data/system/local/system-local-ib-2-Data.db (122 bytes) for commitlog position ReplayPosition(segmentId=1391204805718, position=50933)
 INFO 13:46:46,603 JOINING: waiting for ring information
 INFO 13:46:47,924 Node /192.168.56.11 is now part of the cluster
 INFO 13:46:47,925 InetAddress /192.168.56.11 is now UP
 INFO 13:46:47,954 Enqueuing flush of Memtable-peers@63447224(182/182 serialized/live bytes, 10 ops)
 INFO 13:46:47,954 Writing Memtable-peers@63447224(182/182 serialized/live bytes, 10 ops)
 INFO 13:46:47,985 Completed flushing /var/lib/cassandra/data/system/peers/system-peers-ib-1-Data.db (233 bytes) for commitlog position ReplayPosition(segmentId=1391204805718, position=51638)
 INFO 13:46:48,031 Enqueuing flush of Memtable-schema_keyspaces@822241569(389/389 serialized/live bytes, 11 ops)
 INFO 13:46:48,032 Writing Memtable-schema_keyspaces@822241569(389/389 serialized/live bytes, 11 ops)
 INFO 13:46:48,053 Completed flushing /var/lib/cassandra/data/system/schema_keyspaces/system-schema_keyspaces-ib-1-Data.db (264 bytes) for commitlog position ReplayPosition(segmentId=1391204805718, position=53730)
 INFO 13:46:48,056 Enqueuing flush of Memtable-schema_columnfamilies@432884427(23066/23066 serialized/live bytes, 379 ops)
 INFO 13:46:48,059 Writing Memtable-schema_columnfamilies@432884427(23066/23066 serialized/live bytes, 379 ops)
 INFO 13:46:48,097 Completed flushing /var/lib/cassandra/data/system/schema_columnfamilies/system-schema_columnfamilies-ib-1-Data.db (4868 bytes) for commitlog position ReplayPosition(segmentId=1391204805718, position=53730)
 INFO 13:46:48,098 Enqueuing flush of Memtable-schema_columns@626077030(22154/22154 serialized/live bytes, 337 ops)
 INFO 13:46:48,099 Writing Memtable-schema_columns@626077030(22154/22154 serialized/live bytes, 337 ops)
 INFO 13:46:48,134 Completed flushing /var/lib/cassandra/data/system/schema_columns/system-schema_columns-ib-1-Data.db (3947 bytes) for commitlog position ReplayPosition(segmentId=1391204805718, position=53730)
 INFO 13:46:48,605 JOINING: schema complete, ready to bootstrap
 INFO 13:46:48,606 JOINING: getting bootstrap token
 INFO 13:46:48,613 Enqueuing flush of Memtable-local@1658221466(73/73 serialized/live bytes, 4 ops)
 INFO 13:46:48,614 Writing Memtable-local@1658221466(73/73 serialized/live bytes, 4 ops)
 INFO 13:46:48,638 Completed flushing /var/lib/cassandra/data/system/local/system-local-ib-3-Data.db (139 bytes) for commitlog position ReplayPosition(segmentId=1391204805718, position=54028)
 INFO 13:46:48,653 JOINING: sleeping 30000 ms for pending range setup
 INFO 13:47:18,655 JOINING: Starting to bootstrap...
 INFO 13:47:18,740 Finished streaming session 41b132e0-8ac1-11e3-ba78-c1b7d013ecd2 from /192.168.56.11
 INFO 13:47:18,741 Bootstrap completed! for the tokens [0]
 INFO 13:47:18,743 Enqueuing flush of Memtable-local@1699593206(43/43 serialized/live bytes, 2 ops)
 INFO 13:47:18,744 Writing Memtable-local@1699593206(43/43 serialized/live bytes, 2 ops)
 INFO 13:47:18,767 Completed flushing /var/lib/cassandra/data/system/local/system-local-ib-4-Data.db (75 bytes) for commitlog position ReplayPosition(segmentId=1391204805718, position=54161)
 INFO 13:47:18,776 Enqueuing flush of Memtable-local@260808008(32/32 serialized/live bytes, 2 ops)
 INFO 13:47:18,779 Writing Memtable-local@260808008(32/32 serialized/live bytes, 2 ops)
 INFO 13:47:18,782 Compacting [SSTableReader(path='/var/lib/cassandra/data/system/local/system-local-ib-2-Data.db'), SSTableReader(path='/var/lib/cassandra/data/system/local/system-local-ib-1-Data.db'), SSTableReader(path='/var/lib/cassandra/data/system/local/system-local-ib-4-Data.db'), SSTableReader(path='/var/lib/cassandra/data/system/local/system-local-ib-3-Data.db')]
 INFO 13:47:18,806 Completed flushing /var/lib/cassandra/data/system/local/system-local-ib-5-Data.db (90 bytes) for commitlog position ReplayPosition(segmentId=1391204805718, position=54317)
 INFO 13:47:18,819 Node /192.168.56.12 state jump to normal
 INFO 13:47:18,821 Startup completed! Now serving reads.
 INFO 13:47:18,858 Compacted 4 sstables to [/var/lib/cassandra/data/system/local/system-local-ib-6,].  688 bytes to 409 (~59% of original) in 74ms = 0.005271MB/s.  4 total rows, 1 unique.  Row merge counts were {1:0, 2:0, 3:0, 4:1, }
