{"timeout_disallowed": true, "fingerprint": ["ConnectToControllers"], "timed_out": false, "label": "e1", "dependent_labels": [], "time": [1391067687, 781578], "replay_time": [1401057430, 521222], "class": "ConnectToControllers", "round": 0, "prunable": false}
{"legacy_invariant_check": false, "class": "CheckInvariants", "fingerprint": "N/A", "timed_out": false, "label": "e10", "dependent_labels": [], "invariant_name": "InvariantChecker.check_liveness", "invariant_check_name": "InvariantChecker.check_liveness", "time": [1391067688, 792067], "replay_time": [1401057431, 533386], "invariant_check": null, "round": 1, "prunable": true}
{"legacy_invariant_check": false, "class": "CheckInvariants", "fingerprint": "N/A", "timed_out": false, "label": "e19", "dependent_labels": [], "invariant_name": "InvariantChecker.check_liveness", "invariant_check_name": "InvariantChecker.check_liveness", "time": [1391067688, 900162], "replay_time": [1401057431, 642131], "invariant_check": null, "round": 2, "prunable": true}
{"legacy_invariant_check": false, "class": "CheckInvariants", "fingerprint": "N/A", "timed_out": false, "label": "e36", "dependent_labels": [], "invariant_name": "InvariantChecker.check_liveness", "invariant_check_name": "InvariantChecker.check_liveness", "time": [1391067689, 14998], "replay_time": [1401057431, 758403], "invariant_check": null, "round": 3, "prunable": true}
{"legacy_invariant_check": false, "class": "CheckInvariants", "fingerprint": "N/A", "timed_out": false, "label": "e41", "dependent_labels": [], "invariant_name": "InvariantChecker.check_liveness", "invariant_check_name": "InvariantChecker.check_liveness", "time": [1391067689, 121429], "replay_time": [1401057431, 865846], "invariant_check": null, "round": 4, "prunable": true}
{"legacy_invariant_check": false, "class": "CheckInvariants", "fingerprint": "N/A", "timed_out": false, "label": "e42", "dependent_labels": [], "invariant_name": "InvariantChecker.check_liveness", "invariant_check_name": "InvariantChecker.check_liveness", "time": [1391067689, 222301], "replay_time": [1401057431, 967346], "invariant_check": null, "round": 5, "prunable": true}
{"legacy_invariant_check": false, "class": "CheckInvariants", "fingerprint": "N/A", "timed_out": false, "label": "e43", "dependent_labels": [], "invariant_name": "InvariantChecker.check_liveness", "invariant_check_name": "InvariantChecker.check_liveness", "time": [1391067689, 323260], "replay_time": [1401057432, 69891], "invariant_check": null, "round": 6, "prunable": true}
{"legacy_invariant_check": false, "class": "CheckInvariants", "fingerprint": "N/A", "timed_out": false, "label": "e45", "dependent_labels": [], "invariant_name": "InvariantChecker.check_liveness", "invariant_check_name": "InvariantChecker.check_liveness", "time": [1391067689, 425434], "replay_time": [1401057432, 173440], "invariant_check": null, "round": 7, "prunable": true}
{"end_port_no": 2, "dependent_labels": ["e381"], "start_dpid": 3, "fingerprint": ["LinkFailure", 3, 2, 2, 2], "timed_out": false, "label": "e48", "start_port_no": 2, "end_dpid": 2, "time": [1391067689, 528715], "replay_time": [1401057432, 278812], "class": "LinkFailure", "round": 8, "prunable": true}
{"legacy_invariant_check": false, "class": "CheckInvariants", "fingerprint": "N/A", "timed_out": false, "label": "e49", "dependent_labels": [], "invariant_name": "InvariantChecker.check_liveness", "invariant_check_name": "InvariantChecker.check_liveness", "time": [1391067689, 529540], "replay_time": [1401057432, 279375], "invariant_check": null, "round": 8, "prunable": true}
{"legacy_invariant_check": false, "class": "CheckInvariants", "fingerprint": "N/A", "timed_out": false, "label": "e56", "dependent_labels": [], "invariant_name": "InvariantChecker.check_liveness", "invariant_check_name": "InvariantChecker.check_liveness", "time": [1391067689, 637303], "replay_time": [1401057432, 388238], "invariant_check": null, "round": 9, "prunable": true}
{"legacy_invariant_check": false, "class": "CheckInvariants", "fingerprint": "N/A", "timed_out": false, "label": "e58", "dependent_labels": [], "invariant_name": "InvariantChecker.check_liveness", "invariant_check_name": "InvariantChecker.check_liveness", "time": [1391067689, 739579], "replay_time": [1401057432, 491997], "invariant_check": null, "round": 10, "prunable": true}
{"legacy_invariant_check": false, "class": "CheckInvariants", "fingerprint": "N/A", "timed_out": false, "label": "e59", "dependent_labels": [], "invariant_name": "InvariantChecker.check_liveness", "invariant_check_name": "InvariantChecker.check_liveness", "time": [1391067689, 840635], "replay_time": [1401057432, 594273], "invariant_check": null, "round": 11, "prunable": true}
{"legacy_invariant_check": false, "class": "CheckInvariants", "fingerprint": "N/A", "timed_out": false, "label": "e60", "dependent_labels": [], "invariant_name": "InvariantChecker.check_liveness", "invariant_check_name": "InvariantChecker.check_liveness", "time": [1391067689, 941490], "replay_time": [1401057432, 695643], "invariant_check": null, "round": 12, "prunable": true}
{"legacy_invariant_check": false, "class": "CheckInvariants", "fingerprint": "N/A", "timed_out": false, "label": "e62", "dependent_labels": [], "invariant_name": "InvariantChecker.check_liveness", "invariant_check_name": "InvariantChecker.check_liveness", "time": [1391067690, 43668], "replay_time": [1401057432, 799427], "invariant_check": null, "round": 13, "prunable": true}
{"legacy_invariant_check": false, "class": "CheckInvariants", "fingerprint": "N/A", "timed_out": false, "label": "e65", "dependent_labels": [], "invariant_name": "InvariantChecker.check_liveness", "invariant_check_name": "InvariantChecker.check_liveness", "time": [1391067690, 146655], "replay_time": [1401057432, 903997], "invariant_check": null, "round": 14, "prunable": true}
{"legacy_invariant_check": false, "class": "CheckInvariants", "fingerprint": "N/A", "timed_out": false, "label": "e71", "dependent_labels": [], "invariant_name": "InvariantChecker.check_liveness", "invariant_check_name": "InvariantChecker.check_liveness", "time": [1391067690, 253248], "replay_time": [1401057433, 11949], "invariant_check": null, "round": 15, "prunable": true}
{"legacy_invariant_check": false, "class": "CheckInvariants", "fingerprint": "N/A", "timed_out": false, "label": "e73", "dependent_labels": [], "invariant_name": "InvariantChecker.check_liveness", "invariant_check_name": "InvariantChecker.check_liveness", "time": [1391067690, 355413], "replay_time": [1401057433, 115647], "invariant_check": null, "round": 16, "prunable": true}
{"legacy_invariant_check": false, "class": "CheckInvariants", "fingerprint": "N/A", "timed_out": false, "label": "e75", "dependent_labels": [], "invariant_name": "InvariantChecker.check_liveness", "invariant_check_name": "InvariantChecker.check_liveness", "time": [1391067690, 457163], "replay_time": [1401057433, 218317], "invariant_check": null, "round": 17, "prunable": true}
{"end_port_no": 1, "dependent_labels": ["e120"], "start_dpid": 4, "fingerprint": ["LinkFailure", 4, 1, 3, 1], "timed_out": false, "label": "e76", "start_port_no": 1, "end_dpid": 3, "time": [1391067690, 557984], "replay_time": [1401057433, 321030], "class": "LinkFailure", "round": 18, "prunable": true}
{"legacy_invariant_check": false, "class": "CheckInvariants", "fingerprint": "N/A", "timed_out": false, "label": "e77", "dependent_labels": [], "invariant_name": "InvariantChecker.check_liveness", "invariant_check_name": "InvariantChecker.check_liveness", "time": [1391067690, 558866], "replay_time": [1401057433, 321509], "invariant_check": null, "round": 18, "prunable": true}
{"legacy_invariant_check": false, "class": "CheckInvariants", "fingerprint": "N/A", "timed_out": false, "label": "e80", "dependent_labels": [], "invariant_name": "InvariantChecker.check_liveness", "invariant_check_name": "InvariantChecker.check_liveness", "time": [1391067690, 661653], "replay_time": [1401057433, 425882], "invariant_check": null, "round": 19, "prunable": true}
{"legacy_invariant_check": false, "class": "CheckInvariants", "fingerprint": "N/A", "timed_out": false, "label": "e83", "dependent_labels": [], "invariant_name": "InvariantChecker.check_liveness", "invariant_check_name": "InvariantChecker.check_liveness", "time": [1391067690, 764812], "replay_time": [1401057433, 530581], "invariant_check": null, "round": 20, "prunable": true}
{"legacy_invariant_check": false, "class": "CheckInvariants", "fingerprint": "N/A", "timed_out": false, "label": "e89", "dependent_labels": [], "invariant_name": "InvariantChecker.check_liveness", "invariant_check_name": "InvariantChecker.check_liveness", "time": [1391067690, 871546], "replay_time": [1401057433, 638770], "invariant_check": null, "round": 21, "prunable": true}
{"legacy_invariant_check": false, "class": "CheckInvariants", "fingerprint": "N/A", "timed_out": false, "label": "e91", "dependent_labels": [], "invariant_name": "InvariantChecker.check_liveness", "invariant_check_name": "InvariantChecker.check_liveness", "time": [1391067690, 974673], "replay_time": [1401057433, 743465], "invariant_check": null, "round": 22, "prunable": true}
{"legacy_invariant_check": false, "class": "CheckInvariants", "fingerprint": "N/A", "timed_out": false, "label": "e94", "dependent_labels": [], "invariant_name": "InvariantChecker.check_liveness", "invariant_check_name": "InvariantChecker.check_liveness", "time": [1391067691, 77777], "replay_time": [1401057433, 848210], "invariant_check": null, "round": 23, "prunable": true}
{"legacy_invariant_check": false, "class": "CheckInvariants", "fingerprint": "N/A", "timed_out": false, "label": "e100", "dependent_labels": [], "invariant_name": "InvariantChecker.check_liveness", "invariant_check_name": "InvariantChecker.check_liveness", "time": [1391067691, 184474], "replay_time": [1401057433, 955708], "invariant_check": null, "round": 24, "prunable": true}
{"legacy_invariant_check": false, "class": "CheckInvariants", "fingerprint": "N/A", "timed_out": false, "label": "e102", "dependent_labels": [], "invariant_name": "InvariantChecker.check_liveness", "invariant_check_name": "InvariantChecker.check_liveness", "time": [1391067691, 286604], "replay_time": [1401057434, 59346], "invariant_check": null, "round": 25, "prunable": true}
{"legacy_invariant_check": false, "class": "CheckInvariants", "fingerprint": "N/A", "timed_out": false, "label": "e105", "dependent_labels": [], "invariant_name": "InvariantChecker.check_liveness", "invariant_check_name": "InvariantChecker.check_liveness", "time": [1391067691, 389709], "replay_time": [1401057434, 164044], "invariant_check": null, "round": 26, "prunable": true}
{"legacy_invariant_check": false, "class": "CheckInvariants", "fingerprint": "N/A", "timed_out": false, "label": "e111", "dependent_labels": [], "invariant_name": "InvariantChecker.check_liveness", "invariant_check_name": "InvariantChecker.check_liveness", "time": [1391067691, 496409], "replay_time": [1401057434, 272271], "invariant_check": null, "round": 27, "prunable": true}
{"end_port_no": 3, "dependent_labels": ["e145"], "start_dpid": 1, "fingerprint": ["LinkFailure", 1, 2, 3, 3], "timed_out": false, "label": "e113", "start_port_no": 2, "end_dpid": 3, "time": [1391067691, 598449], "replay_time": [1401057434, 376277], "class": "LinkFailure", "round": 28, "prunable": true}
{"legacy_invariant_check": false, "class": "CheckInvariants", "fingerprint": "N/A", "timed_out": false, "label": "e114", "dependent_labels": [], "invariant_name": "InvariantChecker.check_liveness", "invariant_check_name": "InvariantChecker.check_liveness", "time": [1391067691, 599289], "replay_time": [1401057434, 376983], "invariant_check": null, "round": 28, "prunable": true}
{"legacy_invariant_check": false, "class": "CheckInvariants", "fingerprint": "N/A", "timed_out": false, "label": "e117", "dependent_labels": [], "invariant_name": "InvariantChecker.check_liveness", "invariant_check_name": "InvariantChecker.check_liveness", "time": [1391067691, 701753], "replay_time": [1401057434, 480847], "invariant_check": null, "round": 29, "prunable": true}
{"legacy_invariant_check": false, "class": "CheckInvariants", "fingerprint": "N/A", "timed_out": false, "label": "e118", "dependent_labels": [], "invariant_name": "InvariantChecker.check_liveness", "invariant_check_name": "InvariantChecker.check_liveness", "time": [1391067691, 802750], "replay_time": [1401057434, 582502], "invariant_check": null, "round": 30, "prunable": true}
{"end_port_no": 1, "dependent_labels": [], "start_dpid": 4, "fingerprint": ["LinkRecovery", 4, 1, 3, 1], "timed_out": false, "label": "e120", "start_port_no": 1, "end_dpid": 3, "time": [1391067691, 905053], "replay_time": [1401057434, 686859], "class": "LinkRecovery", "round": 31, "prunable": true}
{"legacy_invariant_check": false, "class": "CheckInvariants", "fingerprint": "N/A", "timed_out": false, "label": "e121", "dependent_labels": [], "invariant_name": "InvariantChecker.check_liveness", "invariant_check_name": "InvariantChecker.check_liveness", "time": [1391067691, 905874], "replay_time": [1401057434, 687801], "invariant_check": null, "round": 31, "prunable": true}
{"end_port_no": 1, "dependent_labels": ["e243"], "start_dpid": 3, "fingerprint": ["LinkFailure", 3, 1, 4, 1], "timed_out": false, "label": "e125", "start_port_no": 1, "end_dpid": 4, "time": [1391067692, 9572], "replay_time": [1401057434, 793435], "class": "LinkFailure", "round": 32, "prunable": true}
{"legacy_invariant_check": false, "class": "CheckInvariants", "fingerprint": "N/A", "timed_out": false, "label": "e126", "dependent_labels": [], "invariant_name": "InvariantChecker.check_liveness", "invariant_check_name": "InvariantChecker.check_liveness", "time": [1391067692, 10411], "replay_time": [1401057434, 793901], "invariant_check": null, "round": 32, "prunable": true}
{"legacy_invariant_check": false, "class": "CheckInvariants", "fingerprint": "N/A", "timed_out": false, "label": "e133", "dependent_labels": [], "invariant_name": "InvariantChecker.check_liveness", "invariant_check_name": "InvariantChecker.check_liveness", "time": [1391067692, 117792], "replay_time": [1401057434, 902936], "invariant_check": null, "round": 33, "prunable": true}
{"legacy_invariant_check": false, "class": "CheckInvariants", "fingerprint": "N/A", "timed_out": false, "label": "e135", "dependent_labels": [], "invariant_name": "InvariantChecker.check_liveness", "invariant_check_name": "InvariantChecker.check_liveness", "time": [1391067692, 219907], "replay_time": [1401057435, 6192], "invariant_check": null, "round": 34, "prunable": true}
{"legacy_invariant_check": false, "class": "CheckInvariants", "fingerprint": "N/A", "timed_out": false, "label": "e138", "dependent_labels": [], "invariant_name": "InvariantChecker.check_liveness", "invariant_check_name": "InvariantChecker.check_liveness", "time": [1391067692, 323025], "replay_time": [1401057435, 110757], "invariant_check": null, "round": 35, "prunable": true}
{"end_port_no": 2, "dependent_labels": [], "start_dpid": 3, "fingerprint": ["LinkFailure", 3, 3, 1, 2], "timed_out": false, "label": "e144", "start_port_no": 3, "end_dpid": 1, "time": [1391067692, 429523], "replay_time": [1401057435, 218501], "class": "LinkFailure", "round": 36, "prunable": true}
{"end_port_no": 3, "dependent_labels": [], "start_dpid": 1, "fingerprint": ["LinkRecovery", 1, 2, 3, 3], "timed_out": false, "label": "e145", "start_port_no": 2, "end_dpid": 3, "time": [1391067692, 430310], "replay_time": [1401057435, 219156], "class": "LinkRecovery", "round": 36, "prunable": true}
{"legacy_invariant_check": false, "class": "CheckInvariants", "fingerprint": "N/A", "timed_out": false, "label": "e146", "dependent_labels": [], "invariant_name": "InvariantChecker.check_liveness", "invariant_check_name": "InvariantChecker.check_liveness", "time": [1391067692, 431112], "replay_time": [1401057435, 219504], "invariant_check": null, "round": 36, "prunable": true}
{"legacy_invariant_check": false, "class": "CheckInvariants", "fingerprint": "N/A", "timed_out": false, "label": "e150", "dependent_labels": [], "invariant_name": "InvariantChecker.check_liveness", "invariant_check_name": "InvariantChecker.check_liveness", "time": [1391067692, 534609], "replay_time": [1401057435, 324394], "invariant_check": null, "round": 37, "prunable": true}
{"legacy_invariant_check": false, "class": "CheckInvariants", "fingerprint": "N/A", "timed_out": false, "label": "e153", "dependent_labels": [], "invariant_name": "InvariantChecker.check_liveness", "invariant_check_name": "InvariantChecker.check_liveness", "time": [1391067692, 637671], "replay_time": [1401057435, 428923], "invariant_check": null, "round": 38, "prunable": true}
{"legacy_invariant_check": false, "class": "CheckInvariants", "fingerprint": "N/A", "timed_out": false, "label": "e159", "dependent_labels": [], "invariant_name": "InvariantChecker.check_liveness", "invariant_check_name": "InvariantChecker.check_liveness", "time": [1391067692, 744381], "replay_time": [1401057435, 537100], "invariant_check": null, "round": 39, "prunable": true}
{"legacy_invariant_check": false, "class": "CheckInvariants", "fingerprint": "N/A", "timed_out": false, "label": "e161", "dependent_labels": [], "invariant_name": "InvariantChecker.check_liveness", "invariant_check_name": "InvariantChecker.check_liveness", "time": [1391067692, 846556], "replay_time": [1401057435, 640769], "invariant_check": null, "round": 40, "prunable": true}
{"legacy_invariant_check": false, "class": "CheckInvariants", "fingerprint": "N/A", "timed_out": false, "label": "e163", "dependent_labels": [], "invariant_name": "InvariantChecker.check_liveness", "invariant_check_name": "InvariantChecker.check_liveness", "time": [1391067692, 948355], "replay_time": [1401057435, 743331], "invariant_check": null, "round": 41, "prunable": true}
{"legacy_invariant_check": false, "class": "CheckInvariants", "fingerprint": "N/A", "timed_out": false, "label": "e164", "dependent_labels": [], "invariant_name": "InvariantChecker.check_liveness", "invariant_check_name": "InvariantChecker.check_liveness", "time": [1391067693, 49295], "replay_time": [1401057435, 845029], "invariant_check": null, "round": 42, "prunable": true}
{"legacy_invariant_check": false, "class": "CheckInvariants", "fingerprint": "N/A", "timed_out": false, "label": "e166", "dependent_labels": [], "invariant_name": "InvariantChecker.check_liveness", "invariant_check_name": "InvariantChecker.check_liveness", "time": [1391067693, 151448], "replay_time": [1401057435, 948740], "invariant_check": null, "round": 43, "prunable": true}
{"end_port_no": 1, "dependent_labels": ["e365"], "start_dpid": 4, "fingerprint": ["LinkFailure", 4, 3, 1, 1], "timed_out": false, "label": "e169", "start_port_no": 3, "end_dpid": 1, "time": [1391067693, 254561], "replay_time": [1401057436, 53851], "class": "LinkFailure", "round": 44, "prunable": true}
{"legacy_invariant_check": false, "class": "CheckInvariants", "fingerprint": "N/A", "timed_out": false, "label": "e170", "dependent_labels": [], "invariant_name": "InvariantChecker.check_liveness", "invariant_check_name": "InvariantChecker.check_liveness", "time": [1391067693, 255397], "replay_time": [1401057436, 54315], "invariant_check": null, "round": 44, "prunable": true}
{"legacy_invariant_check": false, "class": "CheckInvariants", "fingerprint": "N/A", "timed_out": false, "label": "e177", "dependent_labels": [], "invariant_name": "InvariantChecker.check_liveness", "invariant_check_name": "InvariantChecker.check_liveness", "time": [1391067693, 362743], "replay_time": [1401057436, 163075], "invariant_check": null, "round": 45, "prunable": true}
{"legacy_invariant_check": false, "class": "CheckInvariants", "fingerprint": "N/A", "timed_out": false, "label": "e179", "dependent_labels": [], "invariant_name": "InvariantChecker.check_liveness", "invariant_check_name": "InvariantChecker.check_liveness", "time": [1391067693, 464847], "replay_time": [1401057436, 265874], "invariant_check": null, "round": 46, "prunable": true}
{"legacy_invariant_check": false, "class": "CheckInvariants", "fingerprint": "N/A", "timed_out": false, "label": "e182", "dependent_labels": [], "invariant_name": "InvariantChecker.check_liveness", "invariant_check_name": "InvariantChecker.check_liveness", "time": [1391067693, 568027], "replay_time": [1401057436, 370445], "invariant_check": null, "round": 47, "prunable": true}
{"legacy_invariant_check": false, "class": "CheckInvariants", "fingerprint": "N/A", "timed_out": false, "label": "e188", "dependent_labels": [], "invariant_name": "InvariantChecker.check_liveness", "invariant_check_name": "InvariantChecker.check_liveness", "time": [1391067693, 674689], "replay_time": [1401057436, 477696], "invariant_check": null, "round": 48, "prunable": true}
{"legacy_invariant_check": false, "class": "CheckInvariants", "fingerprint": "N/A", "timed_out": false, "label": "e190", "dependent_labels": [], "invariant_name": "InvariantChecker.check_liveness", "invariant_check_name": "InvariantChecker.check_liveness", "time": [1391067693, 776847], "replay_time": [1401057436, 581421], "invariant_check": null, "round": 49, "prunable": true}
{"legacy_invariant_check": false, "class": "CheckInvariants", "fingerprint": "N/A", "timed_out": false, "label": "e193", "dependent_labels": [], "invariant_name": "InvariantChecker.check_liveness", "invariant_check_name": "InvariantChecker.check_liveness", "time": [1391067693, 879993], "replay_time": [1401057436, 686107], "invariant_check": null, "round": 50, "prunable": true}
{"legacy_invariant_check": false, "class": "CheckInvariants", "fingerprint": "N/A", "timed_out": false, "label": "e199", "dependent_labels": [], "invariant_name": "InvariantChecker.check_liveness", "invariant_check_name": "InvariantChecker.check_liveness", "time": [1391067693, 986669], "replay_time": [1401057436, 794169], "invariant_check": null, "round": 51, "prunable": true}
{"legacy_invariant_check": false, "class": "CheckInvariants", "fingerprint": "N/A", "timed_out": false, "label": "e201", "dependent_labels": [], "invariant_name": "InvariantChecker.check_liveness", "invariant_check_name": "InvariantChecker.check_liveness", "time": [1391067694, 88842], "replay_time": [1401057436, 897919], "invariant_check": null, "round": 52, "prunable": true}
{"legacy_invariant_check": false, "class": "CheckInvariants", "fingerprint": "N/A", "timed_out": false, "label": "e203", "dependent_labels": [], "invariant_name": "InvariantChecker.check_liveness", "invariant_check_name": "InvariantChecker.check_liveness", "time": [1391067694, 190634], "replay_time": [1401057437, 209], "invariant_check": null, "round": 53, "prunable": true}
{"legacy_invariant_check": false, "class": "CheckInvariants", "fingerprint": "N/A", "timed_out": false, "label": "e204", "dependent_labels": [], "invariant_name": "InvariantChecker.check_liveness", "invariant_check_name": "InvariantChecker.check_liveness", "time": [1391067694, 291534], "replay_time": [1401057437, 101639], "invariant_check": null, "round": 54, "prunable": true}
{"legacy_invariant_check": false, "class": "CheckInvariants", "fingerprint": "N/A", "timed_out": false, "label": "e206", "dependent_labels": [], "invariant_name": "InvariantChecker.check_liveness", "invariant_check_name": "InvariantChecker.check_liveness", "time": [1391067694, 393161], "replay_time": [1401057437, 204804], "invariant_check": null, "round": 55, "prunable": true}
{"legacy_invariant_check": false, "class": "CheckInvariants", "fingerprint": "N/A", "timed_out": false, "label": "e207", "dependent_labels": [], "invariant_name": "InvariantChecker.check_liveness", "invariant_check_name": "InvariantChecker.check_liveness", "time": [1391067694, 493946], "replay_time": [1401057437, 307116], "invariant_check": null, "round": 56, "prunable": true}
{"legacy_invariant_check": false, "class": "CheckInvariants", "fingerprint": "N/A", "timed_out": false, "label": "e208", "dependent_labels": [], "invariant_name": "InvariantChecker.check_liveness", "invariant_check_name": "InvariantChecker.check_liveness", "time": [1391067694, 594658], "replay_time": [1401057437, 409133], "invariant_check": null, "round": 57, "prunable": true}
{"legacy_invariant_check": false, "class": "CheckInvariants", "fingerprint": "N/A", "timed_out": false, "label": "e210", "dependent_labels": [], "invariant_name": "InvariantChecker.check_liveness", "invariant_check_name": "InvariantChecker.check_liveness", "time": [1391067694, 696174], "replay_time": [1401057437, 512055], "invariant_check": null, "round": 58, "prunable": true}
{"legacy_invariant_check": false, "class": "CheckInvariants", "fingerprint": "N/A", "timed_out": false, "label": "e211", "dependent_labels": [], "invariant_name": "InvariantChecker.check_liveness", "invariant_check_name": "InvariantChecker.check_liveness", "time": [1391067694, 796940], "replay_time": [1401057437, 614200], "invariant_check": null, "round": 59, "prunable": true}
{"legacy_invariant_check": false, "class": "CheckInvariants", "fingerprint": "N/A", "timed_out": false, "label": "e212", "dependent_labels": [], "invariant_name": "InvariantChecker.check_liveness", "invariant_check_name": "InvariantChecker.check_liveness", "time": [1391067694, 897671], "replay_time": [1401057437, 715628], "invariant_check": null, "round": 60, "prunable": true}
{"legacy_invariant_check": false, "class": "CheckInvariants", "fingerprint": "N/A", "timed_out": false, "label": "e214", "dependent_labels": [], "invariant_name": "InvariantChecker.check_liveness", "invariant_check_name": "InvariantChecker.check_liveness", "time": [1391067694, 999114], "replay_time": [1401057437, 818612], "invariant_check": null, "round": 61, "prunable": true}
{"legacy_invariant_check": false, "class": "CheckInvariants", "fingerprint": "N/A", "timed_out": false, "label": "e215", "dependent_labels": [], "invariant_name": "InvariantChecker.check_liveness", "invariant_check_name": "InvariantChecker.check_liveness", "time": [1391067695, 99897], "replay_time": [1401057437, 920256], "invariant_check": null, "round": 62, "prunable": true}
{"legacy_invariant_check": false, "class": "CheckInvariants", "fingerprint": "N/A", "timed_out": false, "label": "e216", "dependent_labels": [], "invariant_name": "InvariantChecker.check_liveness", "invariant_check_name": "InvariantChecker.check_liveness", "time": [1391067695, 200573], "replay_time": [1401057438, 21804], "invariant_check": null, "round": 63, "prunable": true}
{"legacy_invariant_check": false, "class": "CheckInvariants", "fingerprint": "N/A", "timed_out": false, "label": "e218", "dependent_labels": [], "invariant_name": "InvariantChecker.check_liveness", "invariant_check_name": "InvariantChecker.check_liveness", "time": [1391067695, 301977], "replay_time": [1401057438, 124824], "invariant_check": null, "round": 64, "prunable": true}
{"legacy_invariant_check": false, "class": "CheckInvariants", "fingerprint": "N/A", "timed_out": false, "label": "e220", "dependent_labels": [], "invariant_name": "InvariantChecker.check_liveness", "invariant_check_name": "InvariantChecker.check_liveness", "time": [1391067695, 403139], "replay_time": [1401057438, 226976], "invariant_check": null, "round": 65, "prunable": true}
{"legacy_invariant_check": false, "class": "CheckInvariants", "fingerprint": "N/A", "timed_out": false, "label": "e221", "dependent_labels": [], "invariant_name": "InvariantChecker.check_liveness", "invariant_check_name": "InvariantChecker.check_liveness", "time": [1391067695, 503694], "replay_time": [1401057438, 329150], "invariant_check": null, "round": 66, "prunable": true}
{"legacy_invariant_check": false, "class": "CheckInvariants", "fingerprint": "N/A", "timed_out": false, "label": "e223", "dependent_labels": [], "invariant_name": "InvariantChecker.check_liveness", "invariant_check_name": "InvariantChecker.check_liveness", "time": [1391067695, 604864], "replay_time": [1401057438, 431103], "invariant_check": null, "round": 67, "prunable": true}
{"legacy_invariant_check": false, "class": "CheckInvariants", "fingerprint": "N/A", "timed_out": false, "label": "e226", "dependent_labels": [], "invariant_name": "InvariantChecker.check_liveness", "invariant_check_name": "InvariantChecker.check_liveness", "time": [1391067695, 706529], "replay_time": [1401057438, 534326], "invariant_check": null, "round": 68, "prunable": true}
{"legacy_invariant_check": false, "class": "CheckInvariants", "fingerprint": "N/A", "timed_out": false, "label": "e228", "dependent_labels": [], "invariant_name": "InvariantChecker.check_liveness", "invariant_check_name": "InvariantChecker.check_liveness", "time": [1391067695, 807517], "replay_time": [1401057438, 636909], "invariant_check": null, "round": 69, "prunable": true}
{"legacy_invariant_check": false, "class": "CheckInvariants", "fingerprint": "N/A", "timed_out": false, "label": "e230", "dependent_labels": [], "invariant_name": "InvariantChecker.check_liveness", "invariant_check_name": "InvariantChecker.check_liveness", "time": [1391067695, 905829], "replay_time": [1401057438, 735840], "invariant_check": null, "round": 70, "prunable": true}
{"legacy_invariant_check": false, "class": "CheckInvariants", "fingerprint": "N/A", "timed_out": false, "label": "e233", "dependent_labels": [], "invariant_name": "InvariantChecker.check_liveness", "invariant_check_name": "InvariantChecker.check_liveness", "time": [1391067696, 7569], "replay_time": [1401057438, 839196], "invariant_check": null, "round": 71, "prunable": true}
{"legacy_invariant_check": false, "class": "CheckInvariants", "fingerprint": "N/A", "timed_out": false, "label": "e235", "dependent_labels": [], "invariant_name": "InvariantChecker.check_liveness", "invariant_check_name": "InvariantChecker.check_liveness", "time": [1391067696, 108553], "replay_time": [1401057438, 941685], "invariant_check": null, "round": 72, "prunable": true}
{"legacy_invariant_check": false, "class": "CheckInvariants", "fingerprint": "N/A", "timed_out": false, "label": "e236", "dependent_labels": [], "invariant_name": "InvariantChecker.check_liveness", "invariant_check_name": "InvariantChecker.check_liveness", "time": [1391067696, 209049], "replay_time": [1401057439, 43503], "invariant_check": null, "round": 73, "prunable": true}
{"legacy_invariant_check": false, "class": "CheckInvariants", "fingerprint": "N/A", "timed_out": false, "label": "e238", "dependent_labels": [], "invariant_name": "InvariantChecker.check_liveness", "invariant_check_name": "InvariantChecker.check_liveness", "time": [1391067696, 310136], "replay_time": [1401057439, 145096], "invariant_check": null, "round": 74, "prunable": true}
{"legacy_invariant_check": false, "class": "CheckInvariants", "fingerprint": "N/A", "timed_out": false, "label": "e241", "dependent_labels": [], "invariant_name": "InvariantChecker.check_liveness", "invariant_check_name": "InvariantChecker.check_liveness", "time": [1391067696, 411784], "replay_time": [1401057439, 248330], "invariant_check": null, "round": 75, "prunable": true}
{"end_port_no": 1, "dependent_labels": [], "start_dpid": 3, "fingerprint": ["LinkRecovery", 3, 1, 4, 1], "timed_out": false, "label": "e243", "start_port_no": 1, "end_dpid": 4, "time": [1391067696, 512813], "replay_time": [1401057439, 351238], "class": "LinkRecovery", "round": 76, "prunable": true}
{"legacy_invariant_check": false, "class": "CheckInvariants", "fingerprint": "N/A", "timed_out": false, "label": "e244", "dependent_labels": [], "invariant_name": "InvariantChecker.check_liveness", "invariant_check_name": "InvariantChecker.check_liveness", "time": [1391067696, 513255], "replay_time": [1401057439, 352004], "invariant_check": null, "round": 76, "prunable": true}
{"legacy_invariant_check": false, "class": "CheckInvariants", "fingerprint": "N/A", "timed_out": false, "label": "e247", "dependent_labels": [], "invariant_name": "InvariantChecker.check_liveness", "invariant_check_name": "InvariantChecker.check_liveness", "time": [1391067696, 614913], "replay_time": [1401057439, 454777], "invariant_check": null, "round": 77, "prunable": true}
{"legacy_invariant_check": false, "class": "CheckInvariants", "fingerprint": "N/A", "timed_out": false, "label": "e249", "dependent_labels": [], "invariant_name": "InvariantChecker.check_liveness", "invariant_check_name": "InvariantChecker.check_liveness", "time": [1391067696, 716015], "replay_time": [1401057439, 557124], "invariant_check": null, "round": 78, "prunable": true}
{"legacy_invariant_check": false, "class": "CheckInvariants", "fingerprint": "N/A", "timed_out": false, "label": "e250", "dependent_labels": [], "invariant_name": "InvariantChecker.check_liveness", "invariant_check_name": "InvariantChecker.check_liveness", "time": [1391067696, 816578], "replay_time": [1401057439, 658589], "invariant_check": null, "round": 79, "prunable": true}
{"legacy_invariant_check": false, "class": "CheckInvariants", "fingerprint": "N/A", "timed_out": false, "label": "e252", "dependent_labels": [], "invariant_name": "InvariantChecker.check_liveness", "invariant_check_name": "InvariantChecker.check_liveness", "time": [1391067696, 917750], "replay_time": [1401057439, 760370], "invariant_check": null, "round": 80, "prunable": true}
{"legacy_invariant_check": false, "class": "CheckInvariants", "fingerprint": "N/A", "timed_out": false, "label": "e255", "dependent_labels": [], "invariant_name": "InvariantChecker.check_liveness", "invariant_check_name": "InvariantChecker.check_liveness", "time": [1391067697, 19319], "replay_time": [1401057439, 863464], "invariant_check": null, "round": 81, "prunable": true}
{"legacy_invariant_check": false, "class": "CheckInvariants", "fingerprint": "N/A", "timed_out": false, "label": "e257", "dependent_labels": [], "invariant_name": "InvariantChecker.check_liveness", "invariant_check_name": "InvariantChecker.check_liveness", "time": [1391067697, 120359], "replay_time": [1401057439, 966107], "invariant_check": null, "round": 82, "prunable": true}
{"legacy_invariant_check": false, "class": "CheckInvariants", "fingerprint": "N/A", "timed_out": false, "label": "e259", "dependent_labels": [], "invariant_name": "InvariantChecker.check_liveness", "invariant_check_name": "InvariantChecker.check_liveness", "time": [1391067697, 221427], "replay_time": [1401057440, 68078], "invariant_check": null, "round": 83, "prunable": true}
{"legacy_invariant_check": false, "class": "CheckInvariants", "fingerprint": "N/A", "timed_out": false, "label": "e262", "dependent_labels": [], "invariant_name": "InvariantChecker.check_liveness", "invariant_check_name": "InvariantChecker.check_liveness", "time": [1391067697, 322892], "replay_time": [1401057440, 171067], "invariant_check": null, "round": 84, "prunable": true}
{"legacy_invariant_check": false, "class": "CheckInvariants", "fingerprint": "N/A", "timed_out": false, "label": "e264", "dependent_labels": [], "invariant_name": "InvariantChecker.check_liveness", "invariant_check_name": "InvariantChecker.check_liveness", "time": [1391067697, 424621], "replay_time": [1401057440, 274120], "invariant_check": null, "round": 85, "prunable": true}
{"legacy_invariant_check": false, "class": "CheckInvariants", "fingerprint": "N/A", "timed_out": false, "label": "e266", "dependent_labels": [], "invariant_name": "InvariantChecker.check_liveness", "invariant_check_name": "InvariantChecker.check_liveness", "time": [1391067697, 526831], "replay_time": [1401057440, 377400], "invariant_check": null, "round": 86, "prunable": true}
{"legacy_invariant_check": false, "class": "CheckInvariants", "fingerprint": "N/A", "timed_out": false, "label": "e267", "dependent_labels": [], "invariant_name": "InvariantChecker.check_liveness", "invariant_check_name": "InvariantChecker.check_liveness", "time": [1391067697, 627955], "replay_time": [1401057440, 480078], "invariant_check": null, "round": 87, "prunable": true}
{"legacy_invariant_check": false, "class": "CheckInvariants", "fingerprint": "N/A", "timed_out": false, "label": "e268", "dependent_labels": [], "invariant_name": "InvariantChecker.check_liveness", "invariant_check_name": "InvariantChecker.check_liveness", "time": [1391067697, 728909], "replay_time": [1401057440, 581801], "invariant_check": null, "round": 88, "prunable": true}
{"legacy_invariant_check": false, "class": "CheckInvariants", "fingerprint": "N/A", "timed_out": false, "label": "e270", "dependent_labels": [], "invariant_name": "InvariantChecker.check_liveness", "invariant_check_name": "InvariantChecker.check_liveness", "time": [1391067697, 830998], "replay_time": [1401057440, 684309], "invariant_check": null, "round": 89, "prunable": true}
{"legacy_invariant_check": false, "class": "CheckInvariants", "fingerprint": "N/A", "timed_out": false, "label": "e272", "dependent_labels": [], "invariant_name": "InvariantChecker.check_liveness", "invariant_check_name": "InvariantChecker.check_liveness", "time": [1391067697, 932870], "replay_time": [1401057440, 787808], "invariant_check": null, "round": 90, "prunable": true}
{"legacy_invariant_check": false, "class": "CheckInvariants", "fingerprint": "N/A", "timed_out": false, "label": "e273", "dependent_labels": [], "invariant_name": "InvariantChecker.check_liveness", "invariant_check_name": "InvariantChecker.check_liveness", "time": [1391067698, 33839], "replay_time": [1401057440, 889415], "invariant_check": null, "round": 91, "prunable": true}
{"legacy_invariant_check": false, "class": "CheckInvariants", "fingerprint": "N/A", "timed_out": false, "label": "e275", "dependent_labels": [], "invariant_name": "InvariantChecker.check_liveness", "invariant_check_name": "InvariantChecker.check_liveness", "time": [1391067698, 135986], "replay_time": [1401057440, 993009], "invariant_check": null, "round": 92, "prunable": true}
{"end_port_no": 2, "dependent_labels": ["e728"], "start_dpid": 2, "fingerprint": ["LinkFailure", 2, 2, 3, 2], "timed_out": false, "label": "e278", "start_port_no": 2, "end_dpid": 3, "time": [1391067698, 239114], "replay_time": [1401057441, 98175], "class": "LinkFailure", "round": 93, "prunable": true}
{"legacy_invariant_check": false, "class": "CheckInvariants", "fingerprint": "N/A", "timed_out": false, "label": "e279", "dependent_labels": [], "invariant_name": "InvariantChecker.check_liveness", "invariant_check_name": "InvariantChecker.check_liveness", "time": [1391067698, 239949], "replay_time": [1401057441, 98784], "invariant_check": null, "round": 93, "prunable": true}
{"legacy_invariant_check": false, "class": "CheckInvariants", "fingerprint": "N/A", "timed_out": false, "label": "e282", "dependent_labels": [], "invariant_name": "InvariantChecker.check_liveness", "invariant_check_name": "InvariantChecker.check_liveness", "time": [1391067698, 342504], "replay_time": [1401057441, 202893], "invariant_check": null, "round": 94, "prunable": true}
{"legacy_invariant_check": false, "class": "CheckInvariants", "fingerprint": "N/A", "timed_out": false, "label": "e284", "dependent_labels": [], "invariant_name": "InvariantChecker.check_liveness", "invariant_check_name": "InvariantChecker.check_liveness", "time": [1391067698, 444707], "replay_time": [1401057441, 306433], "invariant_check": null, "round": 95, "prunable": true}
{"legacy_invariant_check": false, "class": "CheckInvariants", "fingerprint": "N/A", "timed_out": false, "label": "e285", "dependent_labels": [], "invariant_name": "InvariantChecker.check_liveness", "invariant_check_name": "InvariantChecker.check_liveness", "time": [1391067698, 545820], "replay_time": [1401057441, 408975], "invariant_check": null, "round": 96, "prunable": true}
{"legacy_invariant_check": false, "class": "CheckInvariants", "fingerprint": "N/A", "timed_out": false, "label": "e286", "dependent_labels": [], "invariant_name": "InvariantChecker.check_liveness", "invariant_check_name": "InvariantChecker.check_liveness", "time": [1391067698, 646845], "replay_time": [1401057441, 502647], "invariant_check": null, "round": 97, "prunable": true}
{"legacy_invariant_check": false, "class": "CheckInvariants", "fingerprint": "N/A", "timed_out": false, "label": "e288", "dependent_labels": [], "invariant_name": "InvariantChecker.check_liveness", "invariant_check_name": "InvariantChecker.check_liveness", "time": [1391067698, 748914], "replay_time": [1401057441, 605228], "invariant_check": null, "round": 98, "prunable": true}
{"legacy_invariant_check": false, "class": "CheckInvariants", "fingerprint": "N/A", "timed_out": false, "label": "e291", "dependent_labels": [], "invariant_name": "InvariantChecker.check_liveness", "invariant_check_name": "InvariantChecker.check_liveness", "time": [1391067698, 852030], "replay_time": [1401057441, 709797], "invariant_check": null, "round": 99, "prunable": true}
{"legacy_invariant_check": false, "class": "CheckInvariants", "fingerprint": "N/A", "timed_out": false, "label": "e293", "dependent_labels": [], "invariant_name": "InvariantChecker.check_liveness", "invariant_check_name": "InvariantChecker.check_liveness", "time": [1391067698, 953859], "replay_time": [1401057441, 812398], "invariant_check": null, "round": 100, "prunable": true}
{"legacy_invariant_check": false, "class": "CheckInvariants", "fingerprint": "N/A", "timed_out": false, "label": "e295", "dependent_labels": [], "invariant_name": "InvariantChecker.check_liveness", "invariant_check_name": "InvariantChecker.check_liveness", "time": [1391067699, 55951], "replay_time": [1401057441, 915997], "invariant_check": null, "round": 101, "prunable": true}
{"legacy_invariant_check": false, "class": "CheckInvariants", "fingerprint": "N/A", "timed_out": false, "label": "e297", "dependent_labels": [], "invariant_name": "InvariantChecker.check_liveness", "invariant_check_name": "InvariantChecker.check_liveness", "time": [1391067699, 157720], "replay_time": [1401057442, 18568], "invariant_check": null, "round": 102, "prunable": true}
{"legacy_invariant_check": false, "class": "CheckInvariants", "fingerprint": "N/A", "timed_out": false, "label": "e298", "dependent_labels": [], "invariant_name": "InvariantChecker.check_liveness", "invariant_check_name": "InvariantChecker.check_liveness", "time": [1391067699, 258678], "replay_time": [1401057442, 121096], "invariant_check": null, "round": 103, "prunable": true}
{"legacy_invariant_check": false, "class": "CheckInvariants", "fingerprint": "N/A", "timed_out": false, "label": "e300", "dependent_labels": [], "invariant_name": "InvariantChecker.check_liveness", "invariant_check_name": "InvariantChecker.check_liveness", "time": [1391067699, 360774], "replay_time": [1401057442, 224505], "invariant_check": null, "round": 104, "prunable": true}
{"legacy_invariant_check": false, "class": "CheckInvariants", "fingerprint": "N/A", "timed_out": false, "label": "e303", "dependent_labels": [], "invariant_name": "InvariantChecker.check_liveness", "invariant_check_name": "InvariantChecker.check_liveness", "time": [1391067699, 464025], "replay_time": [1401057442, 329136], "invariant_check": null, "round": 105, "prunable": true}
{"legacy_invariant_check": false, "class": "CheckInvariants", "fingerprint": "N/A", "timed_out": false, "label": "e305", "dependent_labels": [], "invariant_name": "InvariantChecker.check_liveness", "invariant_check_name": "InvariantChecker.check_liveness", "time": [1391067699, 565818], "replay_time": [1401057442, 432440], "invariant_check": null, "round": 106, "prunable": true}
{"legacy_invariant_check": false, "class": "CheckInvariants", "fingerprint": "N/A", "timed_out": false, "label": "e307", "dependent_labels": [], "invariant_name": "InvariantChecker.check_liveness", "invariant_check_name": "InvariantChecker.check_liveness", "time": [1391067699, 661144], "replay_time": [1401057442, 529347], "invariant_check": null, "round": 107, "prunable": true}
{"legacy_invariant_check": false, "class": "CheckInvariants", "fingerprint": "N/A", "timed_out": false, "label": "e308", "dependent_labels": [], "invariant_name": "InvariantChecker.check_liveness", "invariant_check_name": "InvariantChecker.check_liveness", "time": [1391067699, 762279], "replay_time": [1401057442, 632044], "invariant_check": null, "round": 108, "prunable": true}
{"end_port_no": 3, "dependent_labels": ["e739"], "start_dpid": 1, "fingerprint": ["LinkFailure", 1, 1, 4, 3], "timed_out": false, "label": "e309", "start_port_no": 1, "end_dpid": 4, "time": [1391067699, 863235], "replay_time": [1401057442, 734896], "class": "LinkFailure", "round": 109, "prunable": true}
{"legacy_invariant_check": false, "class": "CheckInvariants", "fingerprint": "N/A", "timed_out": false, "label": "e310", "dependent_labels": [], "invariant_name": "InvariantChecker.check_liveness", "invariant_check_name": "InvariantChecker.check_liveness", "time": [1391067699, 864134], "replay_time": [1401057442, 735403], "invariant_check": null, "round": 109, "prunable": true}
{"legacy_invariant_check": false, "class": "CheckInvariants", "fingerprint": "N/A", "timed_out": false, "label": "e312", "dependent_labels": [], "invariant_name": "InvariantChecker.check_liveness", "invariant_check_name": "InvariantChecker.check_liveness", "time": [1391067699, 965919], "replay_time": [1401057442, 838499], "invariant_check": null, "round": 110, "prunable": true}
{"legacy_invariant_check": false, "class": "CheckInvariants", "fingerprint": "N/A", "timed_out": false, "label": "e314", "dependent_labels": [], "invariant_name": "InvariantChecker.check_liveness", "invariant_check_name": "InvariantChecker.check_liveness", "time": [1391067700, 68228], "replay_time": [1401057442, 941533], "invariant_check": null, "round": 111, "prunable": true}
{"legacy_invariant_check": false, "class": "CheckInvariants", "fingerprint": "N/A", "timed_out": false, "label": "e315", "dependent_labels": [], "invariant_name": "InvariantChecker.check_liveness", "invariant_check_name": "InvariantChecker.check_liveness", "time": [1391067700, 169336], "replay_time": [1401057443, 44254], "invariant_check": null, "round": 112, "prunable": true}
{"legacy_invariant_check": false, "class": "CheckInvariants", "fingerprint": "N/A", "timed_out": false, "label": "e316", "dependent_labels": [], "invariant_name": "InvariantChecker.check_liveness", "invariant_check_name": "InvariantChecker.check_liveness", "time": [1391067700, 270262], "replay_time": [1401057443, 146717], "invariant_check": null, "round": 113, "prunable": true}
{"legacy_invariant_check": false, "class": "CheckInvariants", "fingerprint": "N/A", "timed_out": false, "label": "e318", "dependent_labels": [], "invariant_name": "InvariantChecker.check_liveness", "invariant_check_name": "InvariantChecker.check_liveness", "time": [1391067700, 372411], "replay_time": [1401057443, 250437], "invariant_check": null, "round": 114, "prunable": true}
{"legacy_invariant_check": false, "class": "CheckInvariants", "fingerprint": "N/A", "timed_out": false, "label": "e320", "dependent_labels": [], "invariant_name": "InvariantChecker.check_liveness", "invariant_check_name": "InvariantChecker.check_liveness", "time": [1391067700, 474225], "replay_time": [1401057443, 353580], "invariant_check": null, "round": 115, "prunable": true}
{"legacy_invariant_check": false, "class": "CheckInvariants", "fingerprint": "N/A", "timed_out": false, "label": "e321", "dependent_labels": [], "invariant_name": "InvariantChecker.check_liveness", "invariant_check_name": "InvariantChecker.check_liveness", "time": [1391067700, 575221], "replay_time": [1401057443, 455298], "invariant_check": null, "round": 116, "prunable": true}
{"legacy_invariant_check": false, "class": "CheckInvariants", "fingerprint": "N/A", "timed_out": false, "label": "e323", "dependent_labels": [], "invariant_name": "InvariantChecker.check_liveness", "invariant_check_name": "InvariantChecker.check_liveness", "time": [1391067700, 677462], "replay_time": [1401057443, 559137], "invariant_check": null, "round": 117, "prunable": true}
{"legacy_invariant_check": false, "class": "CheckInvariants", "fingerprint": "N/A", "timed_out": false, "label": "e324", "dependent_labels": [], "invariant_name": "InvariantChecker.check_liveness", "invariant_check_name": "InvariantChecker.check_liveness", "time": [1391067700, 778662], "replay_time": [1401057443, 661275], "invariant_check": null, "round": 118, "prunable": true}
{"legacy_invariant_check": false, "class": "CheckInvariants", "fingerprint": "N/A", "timed_out": false, "label": "e325", "dependent_labels": [], "invariant_name": "InvariantChecker.check_liveness", "invariant_check_name": "InvariantChecker.check_liveness", "time": [1391067700, 879627], "replay_time": [1401057443, 762880], "invariant_check": null, "round": 119, "prunable": true}
{"legacy_invariant_check": false, "class": "CheckInvariants", "fingerprint": "N/A", "timed_out": false, "label": "e327", "dependent_labels": [], "invariant_name": "InvariantChecker.check_liveness", "invariant_check_name": "InvariantChecker.check_liveness", "time": [1391067700, 981751], "replay_time": [1401057443, 866571], "invariant_check": null, "round": 120, "prunable": true}
{"legacy_invariant_check": false, "class": "CheckInvariants", "fingerprint": "N/A", "timed_out": false, "label": "e330", "dependent_labels": [], "invariant_name": "InvariantChecker.check_liveness", "invariant_check_name": "InvariantChecker.check_liveness", "time": [1391067701, 85512], "replay_time": [1401057443, 971923], "invariant_check": null, "round": 121, "prunable": true}
{"legacy_invariant_check": false, "class": "CheckInvariants", "fingerprint": "N/A", "timed_out": false, "label": "e332", "dependent_labels": [], "invariant_name": "InvariantChecker.check_liveness", "invariant_check_name": "InvariantChecker.check_liveness", "time": [1391067701, 187330], "replay_time": [1401057444, 75152], "invariant_check": null, "round": 122, "prunable": true}
{"legacy_invariant_check": false, "class": "CheckInvariants", "fingerprint": "N/A", "timed_out": false, "label": "e334", "dependent_labels": [], "invariant_name": "InvariantChecker.check_liveness", "invariant_check_name": "InvariantChecker.check_liveness", "time": [1391067701, 289325], "replay_time": [1401057444, 177887], "invariant_check": null, "round": 123, "prunable": true}
{"legacy_invariant_check": false, "class": "CheckInvariants", "fingerprint": "N/A", "timed_out": false, "label": "e337", "dependent_labels": [], "invariant_name": "InvariantChecker.check_liveness", "invariant_check_name": "InvariantChecker.check_liveness", "time": [1391067701, 392316], "replay_time": [1401057444, 282450], "invariant_check": null, "round": 124, "prunable": true}
{"legacy_invariant_check": false, "class": "CheckInvariants", "fingerprint": "N/A", "timed_out": false, "label": "e339", "dependent_labels": [], "invariant_name": "InvariantChecker.check_liveness", "invariant_check_name": "InvariantChecker.check_liveness", "time": [1391067701, 494184], "replay_time": [1401057444, 385916], "invariant_check": null, "round": 125, "prunable": true}
{"legacy_invariant_check": false, "class": "CheckInvariants", "fingerprint": "N/A", "timed_out": false, "label": "e341", "dependent_labels": [], "invariant_name": "InvariantChecker.check_liveness", "invariant_check_name": "InvariantChecker.check_liveness", "time": [1391067701, 596589], "replay_time": [1401057444, 489783], "invariant_check": null, "round": 126, "prunable": true}
{"legacy_invariant_check": false, "class": "CheckInvariants", "fingerprint": "N/A", "timed_out": false, "label": "e343", "dependent_labels": [], "invariant_name": "InvariantChecker.check_liveness", "invariant_check_name": "InvariantChecker.check_liveness", "time": [1391067701, 698353], "replay_time": [1401057444, 593055], "invariant_check": null, "round": 127, "prunable": true}
{"legacy_invariant_check": false, "class": "CheckInvariants", "fingerprint": "N/A", "timed_out": false, "label": "e344", "dependent_labels": [], "invariant_name": "InvariantChecker.check_liveness", "invariant_check_name": "InvariantChecker.check_liveness", "time": [1391067701, 799313], "replay_time": [1401057444, 694470], "invariant_check": null, "round": 128, "prunable": true}
{"legacy_invariant_check": false, "class": "CheckInvariants", "fingerprint": "N/A", "timed_out": false, "label": "e346", "dependent_labels": [], "invariant_name": "InvariantChecker.check_liveness", "invariant_check_name": "InvariantChecker.check_liveness", "time": [1391067701, 901400], "replay_time": [1401057444, 798097], "invariant_check": null, "round": 129, "prunable": true}
{"legacy_invariant_check": false, "class": "CheckInvariants", "fingerprint": "N/A", "timed_out": false, "label": "e349", "dependent_labels": [], "invariant_name": "InvariantChecker.check_liveness", "invariant_check_name": "InvariantChecker.check_liveness", "time": [1391067702, 4518], "replay_time": [1401057444, 902692], "invariant_check": null, "round": 130, "prunable": true}
{"legacy_invariant_check": false, "class": "CheckInvariants", "fingerprint": "N/A", "timed_out": false, "label": "e351", "dependent_labels": [], "invariant_name": "InvariantChecker.check_liveness", "invariant_check_name": "InvariantChecker.check_liveness", "time": [1391067702, 106350], "replay_time": [1401057445, 4929], "invariant_check": null, "round": 131, "prunable": true}
{"legacy_invariant_check": false, "class": "CheckInvariants", "fingerprint": "N/A", "timed_out": false, "label": "e353", "dependent_labels": [], "invariant_name": "InvariantChecker.check_liveness", "invariant_check_name": "InvariantChecker.check_liveness", "time": [1391067702, 208431], "replay_time": [1401057445, 108429], "invariant_check": null, "round": 132, "prunable": true}
{"legacy_invariant_check": false, "class": "CheckInvariants", "fingerprint": "N/A", "timed_out": false, "label": "e356", "dependent_labels": [], "invariant_name": "InvariantChecker.check_liveness", "invariant_check_name": "InvariantChecker.check_liveness", "time": [1391067702, 311609], "replay_time": [1401057445, 213095], "invariant_check": null, "round": 133, "prunable": true}
{"legacy_invariant_check": false, "class": "CheckInvariants", "fingerprint": "N/A", "timed_out": false, "label": "e358", "dependent_labels": [], "invariant_name": "InvariantChecker.check_liveness", "invariant_check_name": "InvariantChecker.check_liveness", "time": [1391067702, 413450], "replay_time": [1401057445, 315887], "invariant_check": null, "round": 134, "prunable": true}
{"legacy_invariant_check": false, "class": "CheckInvariants", "fingerprint": "N/A", "timed_out": false, "label": "e360", "dependent_labels": [], "invariant_name": "InvariantChecker.check_liveness", "invariant_check_name": "InvariantChecker.check_liveness", "time": [1391067702, 515758], "replay_time": [1401057445, 419805], "invariant_check": null, "round": 135, "prunable": true}
{"legacy_invariant_check": false, "class": "CheckInvariants", "fingerprint": "N/A", "timed_out": false, "label": "e361", "dependent_labels": [], "invariant_name": "InvariantChecker.check_liveness", "invariant_check_name": "InvariantChecker.check_liveness", "time": [1391067702, 616898], "replay_time": [1401057445, 521859], "invariant_check": null, "round": 136, "prunable": true}
{"legacy_invariant_check": false, "class": "CheckInvariants", "fingerprint": "N/A", "timed_out": false, "label": "e362", "dependent_labels": [], "invariant_name": "InvariantChecker.check_liveness", "invariant_check_name": "InvariantChecker.check_liveness", "time": [1391067702, 717834], "replay_time": [1401057445, 623302], "invariant_check": null, "round": 137, "prunable": true}
{"end_port_no": 1, "dependent_labels": ["e401"], "start_dpid": 4, "fingerprint": ["LinkFailure", 4, 2, 2, 1], "timed_out": false, "label": "e364", "start_port_no": 2, "end_dpid": 2, "time": [1391067702, 819893], "replay_time": [1401057445, 727379], "class": "LinkFailure", "round": 138, "prunable": true}
{"end_port_no": 1, "dependent_labels": [], "start_dpid": 4, "fingerprint": ["LinkRecovery", 4, 3, 1, 1], "timed_out": false, "label": "e365", "start_port_no": 3, "end_dpid": 1, "time": [1391067702, 820693], "replay_time": [1401057445, 728075], "class": "LinkRecovery", "round": 138, "prunable": true}
{"legacy_invariant_check": false, "class": "CheckInvariants", "fingerprint": "N/A", "timed_out": false, "label": "e366", "dependent_labels": [], "invariant_name": "InvariantChecker.check_liveness", "invariant_check_name": "InvariantChecker.check_liveness", "time": [1391067702, 821443], "replay_time": [1401057445, 728424], "invariant_check": null, "round": 138, "prunable": true}
{"legacy_invariant_check": false, "class": "CheckInvariants", "fingerprint": "N/A", "timed_out": false, "label": "e370", "dependent_labels": [], "invariant_name": "InvariantChecker.check_liveness", "invariant_check_name": "InvariantChecker.check_liveness", "time": [1391067702, 924681], "replay_time": [1401057445, 832424], "invariant_check": null, "round": 139, "prunable": true}
{"legacy_invariant_check": false, "class": "CheckInvariants", "fingerprint": "N/A", "timed_out": false, "label": "e375", "dependent_labels": [], "invariant_name": "InvariantChecker.check_liveness", "invariant_check_name": "InvariantChecker.check_liveness", "time": [1391067703, 29042], "replay_time": [1401057445, 938318], "invariant_check": null, "round": 140, "prunable": true}
{"end_port_no": 2, "dependent_labels": [], "start_dpid": 3, "fingerprint": ["LinkRecovery", 3, 2, 2, 2], "timed_out": false, "label": "e381", "start_port_no": 2, "end_dpid": 2, "time": [1391067703, 135881], "replay_time": [1401057446, 47113], "class": "LinkRecovery", "round": 141, "prunable": true}
{"legacy_invariant_check": false, "class": "CheckInvariants", "fingerprint": "N/A", "timed_out": false, "label": "e382", "dependent_labels": [], "invariant_name": "InvariantChecker.check_liveness", "invariant_check_name": "InvariantChecker.check_liveness", "time": [1391067703, 136703], "replay_time": [1401057446, 47597], "invariant_check": null, "round": 141, "prunable": true}
{"legacy_invariant_check": false, "class": "CheckInvariants", "fingerprint": "N/A", "timed_out": false, "label": "e386", "dependent_labels": [], "invariant_name": "InvariantChecker.check_liveness", "invariant_check_name": "InvariantChecker.check_liveness", "time": [1391067703, 240579], "replay_time": [1401057446, 152996], "invariant_check": null, "round": 142, "prunable": true}
{"legacy_invariant_check": false, "class": "CheckInvariants", "fingerprint": "N/A", "timed_out": false, "label": "e388", "dependent_labels": [], "invariant_name": "InvariantChecker.check_liveness", "invariant_check_name": "InvariantChecker.check_liveness", "time": [1391067703, 342423], "replay_time": [1401057446, 256096], "invariant_check": null, "round": 143, "prunable": true}
{"legacy_invariant_check": false, "class": "CheckInvariants", "fingerprint": "N/A", "timed_out": false, "label": "e390", "dependent_labels": [], "invariant_name": "InvariantChecker.check_liveness", "invariant_check_name": "InvariantChecker.check_liveness", "time": [1391067703, 444651], "replay_time": [1401057446, 359905], "invariant_check": null, "round": 144, "prunable": true}
{"legacy_invariant_check": false, "class": "CheckInvariants", "fingerprint": "N/A", "timed_out": false, "label": "e391", "dependent_labels": [], "invariant_name": "InvariantChecker.check_liveness", "invariant_check_name": "InvariantChecker.check_liveness", "time": [1391067703, 545768], "replay_time": [1401057446, 462200], "invariant_check": null, "round": 145, "prunable": true}
{"legacy_invariant_check": false, "class": "CheckInvariants", "fingerprint": "N/A", "timed_out": false, "label": "e392", "dependent_labels": [], "invariant_name": "InvariantChecker.check_liveness", "invariant_check_name": "InvariantChecker.check_liveness", "time": [1391067703, 646759], "replay_time": [1401057446, 563468], "invariant_check": null, "round": 146, "prunable": true}
{"legacy_invariant_check": false, "class": "CheckInvariants", "fingerprint": "N/A", "timed_out": false, "label": "e394", "dependent_labels": [], "invariant_name": "InvariantChecker.check_liveness", "invariant_check_name": "InvariantChecker.check_liveness", "time": [1391067703, 748926], "replay_time": [1401057446, 667088], "invariant_check": null, "round": 147, "prunable": true}
{"legacy_invariant_check": false, "class": "CheckInvariants", "fingerprint": "N/A", "timed_out": false, "label": "e397", "dependent_labels": [], "invariant_name": "InvariantChecker.check_liveness", "invariant_check_name": "InvariantChecker.check_liveness", "time": [1391067703, 852123], "replay_time": [1401057446, 771348], "invariant_check": null, "round": 148, "prunable": true}
{"legacy_invariant_check": false, "class": "CheckInvariants", "fingerprint": "N/A", "timed_out": false, "label": "e399", "dependent_labels": [], "invariant_name": "InvariantChecker.check_liveness", "invariant_check_name": "InvariantChecker.check_liveness", "time": [1391067703, 953928], "replay_time": [1401057446, 874377], "invariant_check": null, "round": 149, "prunable": true}
{"end_port_no": 1, "dependent_labels": [], "start_dpid": 4, "fingerprint": ["LinkRecovery", 4, 2, 2, 1], "timed_out": false, "label": "e401", "start_port_no": 2, "end_dpid": 2, "time": [1391067704, 55956], "replay_time": [1401057446, 978216], "class": "LinkRecovery", "round": 150, "prunable": true}
{"legacy_invariant_check": false, "class": "CheckInvariants", "fingerprint": "N/A", "timed_out": false, "label": "e402", "dependent_labels": [], "invariant_name": "InvariantChecker.check_liveness", "invariant_check_name": "InvariantChecker.check_liveness", "time": [1391067704, 56787], "replay_time": [1401057446, 978631], "invariant_check": null, "round": 150, "prunable": true}
{"legacy_invariant_check": false, "class": "CheckInvariants", "fingerprint": "N/A", "timed_out": false, "label": "e405", "dependent_labels": [], "invariant_name": "InvariantChecker.check_liveness", "invariant_check_name": "InvariantChecker.check_liveness", "time": [1391067704, 159339], "replay_time": [1401057447, 82687], "invariant_check": null, "round": 151, "prunable": true}
{"end_port_no": 3, "dependent_labels": ["e584"], "start_dpid": 1, "fingerprint": ["LinkFailure", 1, 3, 2, 3], "timed_out": false, "label": "e406", "start_port_no": 3, "end_dpid": 2, "time": [1391067704, 260158], "replay_time": [1401057447, 185237], "class": "LinkFailure", "round": 152, "prunable": true}
{"legacy_invariant_check": false, "class": "CheckInvariants", "fingerprint": "N/A", "timed_out": false, "label": "e407", "dependent_labels": [], "invariant_name": "InvariantChecker.check_liveness", "invariant_check_name": "InvariantChecker.check_liveness", "time": [1391067704, 261054], "replay_time": [1401057447, 186295], "invariant_check": null, "round": 152, "prunable": true}
{"end_port_no": 3, "dependent_labels": [], "start_dpid": 1, "fingerprint": ["LinkRecovery", 1, 3, 2, 3], "timed_out": false, "label": "e584", "start_port_no": 3, "end_dpid": 2, "time": [1391067712, 523955], "replay_time": [1401057455, 449970], "class": "LinkRecovery", "round": 233, "prunable": true}
{"end_port_no": 2, "dependent_labels": [], "start_dpid": 2, "fingerprint": ["LinkRecovery", 2, 2, 3, 2], "timed_out": false, "label": "e728", "start_port_no": 2, "end_dpid": 3, "time": [1391067718, 763460], "replay_time": [1401057461, 691400], "class": "LinkRecovery", "round": 294, "prunable": true}
{"end_port_no": 3, "dependent_labels": [], "start_dpid": 1, "fingerprint": ["LinkRecovery", 1, 1, 4, 3], "timed_out": false, "label": "e739", "start_port_no": 1, "end_dpid": 4, "time": [1391067719, 273620], "replay_time": [1401057462, 202535], "class": "LinkRecovery", "round": 299, "prunable": true}
{"class": "InvariantViolation", "fingerprint": ["InvariantViolation"], "persistent": true, "timed_out": false, "dependent_labels": [], "time": [1391067719, 474789], "violations": ["c1"], "label": "e748", "round": 301, "prunable": true}
{"class": "InvariantViolation", "fingerprint": ["InvariantViolation"], "persistent": false, "timed_out": false, "dependent_labels": [], "time": [1401057462, 705518], "violations": ["c1"], "label": "e1134", "round": -1, "prunable": true}
{"wait_time": 1.0, "dependent_labels": [], "fingerprint": ["WaitTime"], "time": [1401057462, 705518], "class": "WaitTime", "prunable": true, "timed_out": false, "round": -1, "label": "e1135"}
