No DataplaneDrops to replay. We suggest you set Replayer's default_dp_permit=True 
[1;36mStarting POX controller c1[1;m
[1;33m[c1] POX 0.0.0 / Copyright 2011 James McCauley[1;m

[1;41m[1;33m[c1] DEBUG:core:POX 0.0.0 going up...[1;m

[1;41m[1;33m[c1] DEBUG:core:Running on CPython (2.7.5/Mar 9 2014 22:15:05)[1;m

[1;41m[1;33m[c1] INFO:core:POX 0.0.0 is up.[1;m

[1;41m[1;33m[c1] DEBUG:openflow.of_01:Listening for connections on ('127.0.0.1', 6633)[1;m

connect_socket_with_backoff ('127.0.0.1', 6633)
connect_socket_with_backoff ('127.0.0.1', 6633)
[1;33m[c1] MAX_CONNS -2[1;m
connect_socket_with_backoff ('127.0.0.1', 6633)

[1;33m[c1] MAX_CONNS -3[1;m

connect_socket_with_backoff ('127.0.0.1', 6633)
[1;33m[c1] MAX_CONNS -4[1;m

[1;36m[1;44m00:00.502 00:00.000 Successfully matched event ConnectToControllers:e1[1;m [1;33m[c1] MAX_CONNS -5[1;m


[1;41m[1;33m[c1] INFO:openflow.of_01:of_01 [Con 3/3] Connected to 00-00-00-00-00-03[1;m

[1;41m[1;33m[c1] DEBUG:forwarding.l2_multi_syn_mem_corruption:Connect [Con 3/3][1;m

[1;41m[1;33m[c1] DEBUG:openflow.discovery:Installing flow for 00-00-00-00-00-03[1;m

[1;41m[1;33m[c1] INFO:openflow.of_01:of_01 [Con 4/4] Connected to 00-00-00-00-00-04[1;m

[1;41m[1;33m[c1] DEBUG:forwarding.l2_multi_syn_mem_corruption:Connect [Con 4/4][1;m

[1;41m[1;33m[c1] DEBUG:openflow.discovery:Installing flow for 00-00-00-00-00-04[1;m

[1;41m[1;33m[c1] INFO:openflow.of_01:of_01 [Con 1/1] Connected to 00-00-00-00-00-01[1;m

[1;41m[1;33m[c1] DEBUG:forwarding.l2_multi_syn_mem_corruption:Connect [Con 1/1][1;m

[1;41m[1;33m[c1] DEBUG:openflow.discovery:Installing flow for 00-00-00-00-00-01[1;m

[1;41m[1;33m[c1] INFO:openflow.of_01:of_01 [Con 2/2] Connected to 00-00-00-00-00-02[1;m

[1;41m[1;33m[c1] DEBUG:forwarding.l2_multi_syn_mem_corruption:Connect [Con 2/2][1;m

[1;41m[1;33m[c1] DEBUG:openflow.discovery:Installing flow for 00-00-00-00-00-02[1;m

[1;42m[1;37mNo correctness violations![1;m
[1;36m[1;44m00:01.515 00:01.010 Successfully matched event CheckInvariants:e10[1;m
[1;36m[1;36mRound 1[1;37m[1;m
[1;36mForwarding dataplane event[1;m
[1;36mForwarding dataplane event[1;m
[1;36mForwarding dataplane event[1;m
[1;41m[1;33m[c1] INFO:openflow.discovery:link detected: 00-00-00-00-00-03.1 -> 00-00-00-00-00-04.1[1;m

[1;41m[1;33m[c1] INFO:openflow.discovery:link detected: 00-00-00-00-00-03.3 -> 00-00-00-00-00-01.2[1;m

[1;41m[1;33m[c1] INFO:openflow.discovery:link detected: 00-00-00-00-00-03.2 -> 00-00-00-00-00-02.2[1;m

[1;42m[1;37mNo correctness violations![1;m
[1;36m[1;44m00:01.623 00:01.118 Successfully matched event CheckInvariants:e19[1;m
[1;36m[1;36mRound 2[1;37m[1;m
[1;42m[1;37mNo correctness violations![1;m
[1;36m[1;44m00:01.740 00:01.233 Successfully matched event CheckInvariants:e36[1;m
[1;36m[1;36mRound 3[1;37m[1;m
[1;42m[1;37mNo correctness violations![1;m
[1;36m[1;44m00:01.847 00:01.339 Successfully matched event CheckInvariants:e41[1;m
[1;36m[1;36mRound 4[1;37m[1;m
[1;36mForwarding dataplane event[1;m
[1;42m[1;37mNo correctness violations![1;m
[1;36m[1;44m00:01.949 00:01.440 Successfully matched event CheckInvariants:e42[1;m
[1;36m[1;36mRound 5[1;37m[1;m
[1;42m[1;37mNo correctness violations![1;m
[1;36m[1;44m00:02.051 00:01.541 Successfully matched event CheckInvariants:e43[1;m
[1;36m[1;36mRound 6[1;37m[1;m
[1;42m[1;37mNo correctness violations![1;m
[1;36m[1;44m00:02.155 00:01.643 Successfully matched event CheckInvariants:e45[1;m
[1;36m[1;36mRound 7[1;37m[1;m
[1;36mForwarding dataplane event[1;m
[1;41m[1;33m[c1] INFO:openflow.discovery:link detected: 00-00-00-00-00-04.1 -> 00-00-00-00-00-03.1[1;m

[1;36mCutting link (3:2) -> (2:2)[1;m
[1;36m[1;44m00:02.260 00:01.747 Successfully matched event LinkFailure:e48[1;m
[1;36m[1;36mRound 8[1;37m[1;m
[1;42m[1;37mNo correctness violations![1;m
[1;36m[1;44m00:02.261 00:01.747 Successfully matched event CheckInvariants:e49[1;m
[1;41m[1;33m[c1] WARNING:forwarding.l2_multi_syn_mem_corruption:Ignoring port status[1;m

[1;42m[1;37mNo correctness violations![1;m
[1;36m[1;44m00:02.369 00:01.855 Successfully matched event CheckInvariants:e56[1;m
[1;36m[1;36mRound 9[1;37m[1;m
[1;42m[1;37mNo correctness violations![1;m
[1;36m[1;44m00:02.473 00:01.958 Successfully matched event CheckInvariants:e58[1;m
[1;36m[1;36mRound 10[1;37m[1;m
[1;36mForwarding dataplane event[1;m
[1;41m[1;33m[c1] INFO:openflow.discovery:link detected: 00-00-00-00-00-04.2 -> 00-00-00-00-00-02.1[1;m

[1;42m[1;37mNo correctness violations![1;m
[1;36m[1;44m00:02.575 00:02.059 Successfully matched event CheckInvariants:e59[1;m
[1;36m[1;36mRound 11[1;37m[1;m
[1;42m[1;37mNo correctness violations![1;m
[1;36m[1;44m00:02.677 00:02.159 Successfully matched event CheckInvariants:e60[1;m
[1;36m[1;36mRound 12[1;37m[1;m
[1;42m[1;37mNo correctness violations![1;m
[1;36m[1;44m00:02.781 00:02.262 Successfully matched event CheckInvariants:e62[1;m
[1;36m[1;36mRound 13[1;37m[1;m
[1;36mForwarding dataplane event[1;m
[1;41m[1;33m[c1] INFO:openflow.discovery:link detected: 00-00-00-00-00-04.3 -> 00-00-00-00-00-01.1[1;m

[1;42m[1;37mNo correctness violations![1;m
[1;36m[1;44m00:02.885 00:02.365 Successfully matched event CheckInvariants:e65[1;m
[1;36m[1;36mRound 14[1;37m[1;m
[1;42m[1;37mNo correctness violations![1;m
[1;36m[1;44m00:02.993 00:02.471 Successfully matched event CheckInvariants:e71[1;m
[1;36m[1;36mRound 15[1;37m[1;m
[1;42m[1;37mNo correctness violations![1;m
[1;36m[1;44m00:03.097 00:02.573 Successfully matched event CheckInvariants:e73[1;m
[1;36m[1;36mRound 16[1;37m[1;m
[1;36mForwarding dataplane event[1;m
[1;42m[1;37mNo correctness violations![1;m
[1;36m[1;44m00:03.199 00:02.675 Successfully matched event CheckInvariants:e75[1;m
[1;36m[1;36mRound 17[1;37m[1;m
[1;36mCutting link (4:1) -> (3:1)[1;m
[1;36m[1;44m00:03.302 00:02.776 Successfully matched event LinkFailure:e76[1;m
[1;36m[1;36mRound 18[1;37m[1;m
[1;42m[1;37mNo correctness violations![1;m
[1;36m[1;44m00:03.303 00:02.777 Successfully matched event CheckInvariants:e77[1;m
[1;41m[1;33m[c1] WARNING:forwarding.l2_multi_syn_mem_corruption:Ignoring port status[1;m

[1;42m[1;37mNo correctness violations![1;m
[1;36m[1;44m00:03.407 00:02.880 Successfully matched event CheckInvariants:e80[1;m
[1;36m[1;36mRound 19[1;37m[1;m
[1;36mForwarding dataplane event[1;m
[1;41m[1;33m[c1] INFO:openflow.discovery:link detected: 00-00-00-00-00-01.1 -> 00-00-00-00-00-04.3[1;m

[1;42m[1;37mNo correctness violations![1;m
[1;36m[1;44m00:03.512 00:02.983 Successfully matched event CheckInvariants:e83[1;m
[1;36m[1;36mRound 20[1;37m[1;m
[1;42m[1;37mNo correctness violations![1;m
[1;36m[1;44m00:03.620 00:03.089 Successfully matched event CheckInvariants:e89[1;m
[1;36m[1;36mRound 21[1;37m[1;m
[1;42m[1;37mNo correctness violations![1;m
[1;36m[1;44m00:03.725 00:03.193 Successfully matched event CheckInvariants:e91[1;m
[1;36m[1;36mRound 22[1;37m[1;m
[1;36mForwarding dataplane event[1;m
[1;41m[1;33m[c1] INFO:openflow.discovery:link detected: 00-00-00-00-00-01.2 -> 00-00-00-00-00-03.3[1;m

[1;42m[1;37mNo correctness violations![1;m
[1;36m[1;44m00:03.829 00:03.296 Successfully matched event CheckInvariants:e94[1;m
[1;36m[1;36mRound 23[1;37m[1;m
[1;42m[1;37mNo correctness violations![1;m
[1;36m[1;44m00:03.937 00:03.402 Successfully matched event CheckInvariants:e100[1;m
[1;36m[1;36mRound 24[1;37m[1;m
[1;42m[1;37mNo correctness violations![1;m
[1;36m[1;44m00:04.041 00:03.505 Successfully matched event CheckInvariants:e102[1;m
[1;36m[1;36mRound 25[1;37m[1;m
[1;36mForwarding dataplane event[1;m
[1;41m[1;33m[c1] INFO:openflow.discovery:link detected: 00-00-00-00-00-01.3 -> 00-00-00-00-00-02.3[1;m

[1;42m[1;37mNo correctness violations![1;m
[1;36m[1;44m00:04.145 00:03.608 Successfully matched event CheckInvariants:e105[1;m
[1;36m[1;36mRound 26[1;37m[1;m
[1;42m[1;37mNo correctness violations![1;m
[1;36m[1;44m00:04.253 00:03.714 Successfully matched event CheckInvariants:e111[1;m
[1;36m[1;36mRound 27[1;37m[1;m
[1;36mCutting link (1:2) -> (3:3)[1;m
[1;36m[1;44m00:04.357 00:03.816 Successfully matched event LinkFailure:e113[1;m
[1;36m[1;36mRound 28[1;37m[1;m
[1;36mForwarding dataplane event[1;m
[1;42m[1;37mNo correctness violations![1;m
[1;36m[1;44m00:04.358 00:03.817 Successfully matched event CheckInvariants:e114[1;m
[1;41m[1;33m[c1] WARNING:forwarding.l2_multi_syn_mem_corruption:Ignoring port status[1;m

[1;42m[1;37mNo correctness violations![1;m
[1;36m[1;44m00:04.462 00:03.920 Successfully matched event CheckInvariants:e117[1;m
[1;36m[1;36mRound 29[1;37m[1;m
[1;42m[1;37mNo correctness violations![1;m
[1;36m[1;44m00:04.564 00:04.021 Successfully matched event CheckInvariants:e118[1;m
[1;36m[1;36mRound 30[1;37m[1;m
[1;36mRestoring link (4:1) -> (3:1)[1;m
[1;36m[1;44m00:04.668 00:04.123 Successfully matched event LinkRecovery:e120[1;m
[1;36m[1;36mRound 31[1;37m[1;m
[1;36mForwarding dataplane event[1;m
[1;42m[1;37mNo correctness violations![1;m
[1;36m[1;44m00:04.669 00:04.124 Successfully matched event CheckInvariants:e121[1;m
[1;41m[1;33m[c1] WARNING:forwarding.l2_multi_syn_mem_corruption:Ignoring port status[1;m

[1;41m[1;33m[c1] INFO:openflow.discovery:link detected: 00-00-00-00-00-02.1 -> 00-00-00-00-00-04.2[1;m

[1;36mCutting link (3:1) -> (4:1)[1;m
[1;36m[1;44m00:04.775 00:04.227 Successfully matched event LinkFailure:e125[1;m
[1;36m[1;36mRound 32[1;37m[1;m
[1;42m[1;37mNo correctness violations![1;m
[1;36m[1;44m00:04.775 00:04.228 Successfully matched event CheckInvariants:e126[1;m
[1;41m[1;33m[c1] WARNING:forwarding.l2_multi_syn_mem_corruption:Ignoring port status[1;m

[1;42m[1;37mNo correctness violations![1;m
[1;36m[1;44m00:04.884 00:04.336 Successfully matched event CheckInvariants:e133[1;m
[1;36m[1;36mRound 33[1;37m[1;m
[1;42m[1;37mNo correctness violations![1;m
[1;36m[1;44m00:04.987 00:04.438 Successfully matched event CheckInvariants:e135[1;m
[1;36m[1;36mRound 34[1;37m[1;m
[1;36mForwarding dataplane event[1;m
[1;41m[1;33m[c1] INFO:openflow.discovery:link detected: 00-00-00-00-00-02.2 -> 00-00-00-00-00-03.2[1;m

[1;42m[1;37mNo correctness violations![1;m
[1;36m[1;44m00:05.092 00:04.541 Successfully matched event CheckInvariants:e138[1;m
[1;36m[1;36mRound 35[1;37m[1;m
[1;36mCutting link (3:3) -> (1:2)[1;m
[1;36m[1;44m00:05.200 00:04.647 Successfully matched event LinkFailure:e144[1;m
[1;36m[1;36mRound 36[1;37m[1;m
[1;36mRestoring link (1:2) -> (3:3)[1;m
[1;36m[1;44m00:05.200 00:04.648 Successfully matched event LinkRecovery:e145[1;m
[1;42m[1;37mNo correctness violations![1;m
[1;36m[1;44m00:05.201 00:04.649 Successfully matched event CheckInvariants:e146[1;m
[1;41m[1;33m[c1] WARNING:forwarding.l2_multi_syn_mem_corruption:Ignoring port status[1;m

[1;41m[1;33m[c1] WARNING:forwarding.l2_multi_syn_mem_corruption:Ignoring port status[1;m

[1;42m[1;37mNo correctness violations![1;m
[1;36m[1;44m00:05.306 00:04.753 Successfully matched event CheckInvariants:e150[1;m
[1;36m[1;36mRound 37[1;37m[1;m
[1;36mForwarding dataplane event[1;m
[1;41m[1;33m[c1] INFO:openflow.discovery:link detected: 00-00-00-00-00-02.3 -> 00-00-00-00-00-01.3[1;m

[1;42m[1;37mNo correctness violations![1;m
[1;36m[1;44m00:05.410 00:04.856 Successfully matched event CheckInvariants:e153[1;m
[1;36m[1;36mRound 38[1;37m[1;m
[1;42m[1;37mNo correctness violations![1;m
[1;36m[1;44m00:05.518 00:04.962 Successfully matched event CheckInvariants:e159[1;m
[1;36m[1;36mRound 39[1;37m[1;m
[1;42m[1;37mNo correctness violations![1;m
[1;36m[1;44m00:05.622 00:05.064 Successfully matched event CheckInvariants:e161[1;m
[1;36m[1;36mRound 40[1;37m[1;m
[1;36mForwarding dataplane event[1;m
[1;42m[1;37mNo correctness violations![1;m
[1;36m[1;44m00:05.724 00:05.166 Successfully matched event CheckInvariants:e163[1;m
[1;36m[1;36mRound 41[1;37m[1;m
[1;42m[1;37mNo correctness violations![1;m
[1;36m[1;44m00:05.826 00:05.267 Successfully matched event CheckInvariants:e164[1;m
[1;36m[1;36mRound 42[1;37m[1;m
[1;42m[1;37mNo correctness violations![1;m
[1;36m[1;44m00:05.930 00:05.369 Successfully matched event CheckInvariants:e166[1;m
[1;36m[1;36mRound 43[1;37m[1;m
[1;36mForwarding dataplane event[1;m
[1;36mCutting link (4:3) -> (1:1)[1;m
[1;36m[1;44m00:06.035 00:05.472 Successfully matched event LinkFailure:e169[1;m
[1;36m[1;36mRound 44[1;37m[1;m
[1;42m[1;37mNo correctness violations![1;m
[1;36m[1;44m00:06.036 00:05.473 Successfully matched event CheckInvariants:e170[1;m
[1;41m[1;33m[c1] WARNING:forwarding.l2_multi_syn_mem_corruption:Ignoring port status[1;m

[1;42m[1;37mNo correctness violations![1;m
[1;36m[1;44m00:06.144 00:05.581 Successfully matched event CheckInvariants:e177[1;m
[1;36m[1;36mRound 45[1;37m[1;m
[1;42m[1;37mNo correctness violations![1;m
[1;36m[1;44m00:06.247 00:05.683 Successfully matched event CheckInvariants:e179[1;m
[1;36m[1;36mRound 46[1;37m[1;m
[1;36mForwarding dataplane event[1;m
[1;42m[1;37mNo correctness violations![1;m
[1;36m[1;44m00:06.352 00:05.786 Successfully matched event CheckInvariants:e182[1;m
[1;36m[1;36mRound 47[1;37m[1;m
[1;42m[1;37mNo correctness violations![1;m
[1;36m[1;44m00:06.459 00:05.893 Successfully matched event CheckInvariants:e188[1;m
[1;36m[1;36mRound 48[1;37m[1;m
[1;42m[1;37mNo correctness violations![1;m
[1;36m[1;44m00:06.563 00:05.995 Successfully matched event CheckInvariants:e190[1;m
[1;36m[1;36mRound 49[1;37m[1;m
[1;36mForwarding dataplane event[1;m
[1;42m[1;37mNo correctness violations![1;m
[1;36m[1;44m00:06.667 00:06.098 Successfully matched event CheckInvariants:e193[1;m
[1;36m[1;36mRound 50[1;37m[1;m
[1;42m[1;37mNo correctness violations![1;m
[1;36m[1;44m00:06.775 00:06.205 Successfully matched event CheckInvariants:e199[1;m
[1;36m[1;36mRound 51[1;37m[1;m
[1;42m[1;37mNo correctness violations![1;m
[1;36m[1;44m00:06.879 00:06.307 Successfully matched event CheckInvariants:e201[1;m
[1;36m[1;36mRound 52[1;37m[1;m
[1;36mForwarding dataplane event[1;m
[1;42m[1;37mNo correctness violations![1;m
[1;36m[1;44m00:06.981 00:06.409 Successfully matched event CheckInvariants:e203[1;m
[1;36m[1;36mRound 53[1;37m[1;m
[1;42m[1;37mNo correctness violations![1;m
[1;36m[1;44m00:07.083 00:06.509 Successfully matched event CheckInvariants:e204[1;m
[1;36m[1;36mRound 54[1;37m[1;m
[1;42m[1;37mNo correctness violations![1;m
[1;36m[1;44m00:07.186 00:06.611 Successfully matched event CheckInvariants:e206[1;m
[1;36m[1;36mRound 55[1;37m[1;m
[1;36mForwarding dataplane event[1;m
[1;42m[1;37mNo correctness violations![1;m
[1;36m[1;44m00:07.288 00:06.712 Successfully matched event CheckInvariants:e207[1;m
[1;36m[1;36mRound 56[1;37m[1;m
[1;42m[1;37mNo correctness violations![1;m
[1;36m[1;44m00:07.390 00:06.813 Successfully matched event CheckInvariants:e208[1;m
[1;36m[1;36mRound 57[1;37m[1;m
[1;42m[1;37mNo correctness violations![1;m
[1;36m[1;44m00:07.493 00:06.914 Successfully matched event CheckInvariants:e210[1;m
[1;36m[1;36mRound 58[1;37m[1;m
[1;36mForwarding dataplane event[1;m
[1;42m[1;37mNo correctness violations![1;m
[1;36m[1;44m00:07.595 00:07.015 Successfully matched event CheckInvariants:e211[1;m
[1;36m[1;36mRound 59[1;37m[1;m
[1;42m[1;37mNo correctness violations![1;m
[1;36m[1;44m00:07.697 00:07.116 Successfully matched event CheckInvariants:e212[1;m
[1;36m[1;36mRound 60[1;37m[1;m
[1;42m[1;37mNo correctness violations![1;m
[1;36m[1;44m00:07.800 00:07.217 Successfully matched event CheckInvariants:e214[1;m
[1;36m[1;36mRound 61[1;37m[1;m
[1;36mForwarding dataplane event[1;m
[1;42m[1;37mNo correctness violations![1;m
[1;36m[1;44m00:07.901 00:07.318 Successfully matched event CheckInvariants:e215[1;m
[1;36m[1;36mRound 62[1;37m[1;m
[1;42m[1;37mNo correctness violations![1;m
[1;36m[1;44m00:08.003 00:07.418 Successfully matched event CheckInvariants:e216[1;m
[1;36m[1;36mRound 63[1;37m[1;m
[1;42m[1;37mNo correctness violations![1;m
[1;36m[1;44m00:08.106 00:07.520 Successfully matched event CheckInvariants:e218[1;m
[1;36m[1;36mRound 64[1;37m[1;m
[1;36mForwarding dataplane event[1;m
[1;42m[1;37mNo correctness violations![1;m
[1;36m[1;44m00:08.208 00:07.621 Successfully matched event CheckInvariants:e220[1;m
[1;36m[1;36mRound 65[1;37m[1;m
[1;42m[1;37mNo correctness violations![1;m
[1;36m[1;44m00:08.310 00:07.722 Successfully matched event CheckInvariants:e221[1;m
[1;36m[1;36mRound 66[1;37m[1;m
[1;42m[1;37mNo correctness violations![1;m
[1;36m[1;44m00:08.412 00:07.823 Successfully matched event CheckInvariants:e223[1;m
[1;36m[1;36mRound 67[1;37m[1;m
[1;36mForwarding dataplane event[1;m
[1;42m[1;37mNo correctness violations![1;m
[1;36m[1;44m00:08.515 00:07.924 Successfully matched event CheckInvariants:e226[1;m
[1;36m[1;36mRound 68[1;37m[1;m
[1;42m[1;37mNo correctness violations![1;m
[1;36m[1;44m00:08.618 00:08.025 Successfully matched event CheckInvariants:e228[1;m
[1;36m[1;36mRound 69[1;37m[1;m
[1;42m[1;37mNo correctness violations![1;m
[1;36m[1;44m00:08.717 00:08.124 Successfully matched event CheckInvariants:e230[1;m
[1;36m[1;36mRound 70[1;37m[1;m
[1;36mForwarding dataplane event[1;m
[1;42m[1;37mNo correctness violations![1;m
[1;36m[1;44m00:08.820 00:08.225 Successfully matched event CheckInvariants:e233[1;m
[1;36m[1;36mRound 71[1;37m[1;m
[1;42m[1;37mNo correctness violations![1;m
[1;36m[1;44m00:08.923 00:08.326 Successfully matched event CheckInvariants:e235[1;m
[1;36m[1;36mRound 72[1;37m[1;m
[1;42m[1;37mNo correctness violations![1;m
[1;36m[1;44m00:09.025 00:08.427 Successfully matched event CheckInvariants:e236[1;m
[1;36m[1;36mRound 73[1;37m[1;m
[1;36mForwarding dataplane event[1;m
[1;42m[1;37mNo correctness violations![1;m
[1;36m[1;44m00:09.126 00:08.528 Successfully matched event CheckInvariants:e238[1;m
[1;36m[1;36mRound 74[1;37m[1;m
[1;42m[1;37mNo correctness violations![1;m
[1;36m[1;44m00:09.229 00:08.630 Successfully matched event CheckInvariants:e241[1;m
[1;36m[1;36mRound 75[1;37m[1;m
[1;36mRestoring link (3:1) -> (4:1)[1;m
[1;36m[1;44m00:09.332 00:08.731 Successfully matched event LinkRecovery:e243[1;m
[1;36m[1;36mRound 76[1;37m[1;m
[1;36mForwarding dataplane event[1;m
[1;42m[1;37mNo correctness violations![1;m
[1;36m[1;44m00:09.333 00:08.731 Successfully matched event CheckInvariants:e244[1;m
[1;41m[1;33m[c1] WARNING:forwarding.l2_multi_syn_mem_corruption:Ignoring port status[1;m

[1;42m[1;37mNo correctness violations![1;m
[1;36m[1;44m00:09.436 00:08.833 Successfully matched event CheckInvariants:e247[1;m
[1;36m[1;36mRound 77[1;37m[1;m
[1;42m[1;37mNo correctness violations![1;m
[1;36m[1;44m00:09.538 00:08.934 Successfully matched event CheckInvariants:e249[1;m
[1;36m[1;36mRound 78[1;37m[1;m
[1;42m[1;37mNo correctness violations![1;m
[1;36m[1;44m00:09.640 00:09.034 Successfully matched event CheckInvariants:e250[1;m
[1;36m[1;36mRound 79[1;37m[1;m
[1;36mForwarding dataplane event[1;m
[1;42m[1;37mNo correctness violations![1;m
[1;36m[1;44m00:09.742 00:09.136 Successfully matched event CheckInvariants:e252[1;m
[1;36m[1;36mRound 80[1;37m[1;m
[1;42m[1;37mNo correctness violations![1;m
[1;36m[1;44m00:09.845 00:09.237 Successfully matched event CheckInvariants:e255[1;m
[1;36m[1;36mRound 81[1;37m[1;m
[1;42m[1;37mNo correctness violations![1;m
[1;36m[1;44m00:09.947 00:09.338 Successfully matched event CheckInvariants:e257[1;m
[1;36m[1;36mRound 82[1;37m[1;m
[1;36mForwarding dataplane event[1;m
[1;42m[1;37mNo correctness violations![1;m
[1;36m[1;44m00:10.049 00:09.439 Successfully matched event CheckInvariants:e259[1;m
[1;36m[1;36mRound 83[1;37m[1;m
[1;42m[1;37mNo correctness violations![1;m
[1;36m[1;44m00:10.152 00:09.541 Successfully matched event CheckInvariants:e262[1;m
[1;36m[1;36mRound 84[1;37m[1;m
[1;42m[1;37mNo correctness violations![1;m
[1;36m[1;44m00:10.255 00:09.643 Successfully matched event CheckInvariants:e264[1;m
[1;36m[1;36mRound 85[1;37m[1;m
[1;36mForwarding dataplane event[1;m
[1;42m[1;37mNo correctness violations![1;m
[1;36m[1;44m00:10.359 00:09.745 Successfully matched event CheckInvariants:e266[1;m
[1;36m[1;36mRound 86[1;37m[1;m
[1;42m[1;37mNo correctness violations![1;m
[1;36m[1;44m00:10.461 00:09.846 Successfully matched event CheckInvariants:e267[1;m
[1;36m[1;36mRound 87[1;37m[1;m
[1;42m[1;37mNo correctness violations![1;m
[1;36m[1;44m00:10.563 00:09.947 Successfully matched event CheckInvariants:e268[1;m
[1;36m[1;36mRound 88[1;37m[1;m
[1;36mForwarding dataplane event[1;m
[1;42m[1;37mNo correctness violations![1;m
[1;36m[1;44m00:10.665 00:10.049 Successfully matched event CheckInvariants:e270[1;m
[1;36m[1;36mRound 89[1;37m[1;m
[1;42m[1;37mNo correctness violations![1;m
[1;36m[1;44m00:10.769 00:10.151 Successfully matched event CheckInvariants:e272[1;m
[1;36m[1;36mRound 90[1;37m[1;m
[1;42m[1;37mNo correctness violations![1;m
[1;36m[1;44m00:10.871 00:10.252 Successfully matched event CheckInvariants:e273[1;m
[1;36m[1;36mRound 91[1;37m[1;m
[1;36mForwarding dataplane event[1;m
[1;42m[1;37mNo correctness violations![1;m
[1;36m[1;44m00:10.974 00:10.354 Successfully matched event CheckInvariants:e275[1;m
[1;36m[1;36mRound 92[1;37m[1;m
[1;36mCutting link (2:2) -> (3:2)[1;m
[1;36m[1;44m00:11.079 00:10.457 Successfully matched event LinkFailure:e278[1;m
[1;36m[1;36mRound 93[1;37m[1;m
[1;42m[1;37mNo correctness violations![1;m
[1;36m[1;44m00:11.080 00:10.458 Successfully matched event CheckInvariants:e279[1;m
[1;41m[1;33m[c1] WARNING:forwarding.l2_multi_syn_mem_corruption:Ignoring port status[1;m

[1;42m[1;37mNo correctness violations![1;m
[1;36m[1;44m00:11.184 00:10.560 Successfully matched event CheckInvariants:e282[1;m
[1;36m[1;36mRound 94[1;37m[1;m
[1;36mForwarding dataplane event[1;m
[1;42m[1;37mNo correctness violations![1;m
[1;36m[1;44m00:11.288 00:10.663 Successfully matched event CheckInvariants:e284[1;m
[1;36m[1;36mRound 95[1;37m[1;m
[1;42m[1;37mNo correctness violations![1;m
[1;36m[1;44m00:11.390 00:10.764 Successfully matched event CheckInvariants:e285[1;m
[1;36m[1;36mRound 96[1;37m[1;m
[1;42m[1;37mNo correctness violations![1;m
[1;36m[1;44m00:11.484 00:10.865 Successfully matched event CheckInvariants:e286[1;m
[1;36m[1;36mRound 97[1;37m[1;m
[1;36mForwarding dataplane event[1;m
[1;42m[1;37mNo correctness violations![1;m
[1;36m[1;44m00:11.586 00:10.967 Successfully matched event CheckInvariants:e288[1;m
[1;36m[1;36mRound 98[1;37m[1;m
[1;42m[1;37mNo correctness violations![1;m
[1;36m[1;44m00:11.691 00:11.070 Successfully matched event CheckInvariants:e291[1;m
[1;36m[1;36mRound 99[1;37m[1;m
[1;42m[1;37mNo correctness violations![1;m
[1;36m[1;44m00:11.794 00:11.172 Successfully matched event CheckInvariants:e293[1;m
[1;36m[1;36mRound 100[1;37m[1;m
[1;42m[1;37mNo correctness violations![1;m
[1;36m[1;44m00:11.897 00:11.274 Successfully matched event CheckInvariants:e295[1;m
[1;36m[1;36mRound 101[1;37m[1;m
[1;36mForwarding dataplane event[1;m
[1;42m[1;37mNo correctness violations![1;m
[1;36m[1;44m00:12.000 00:11.376 Successfully matched event CheckInvariants:e297[1;m
[1;36m[1;36mRound 102[1;37m[1;m
[1;42m[1;37mNo correctness violations![1;m
[1;36m[1;44m00:12.102 00:11.477 Successfully matched event CheckInvariants:e298[1;m
[1;36m[1;36mRound 103[1;37m[1;m
[1;42m[1;37mNo correctness violations![1;m
[1;36m[1;44m00:12.206 00:11.579 Successfully matched event CheckInvariants:e300[1;m
[1;36m[1;36mRound 104[1;37m[1;m
[1;36mForwarding dataplane event[1;m
[1;42m[1;37mNo correctness violations![1;m
[1;36m[1;44m00:12.310 00:11.682 Successfully matched event CheckInvariants:e303[1;m
[1;36m[1;36mRound 105[1;37m[1;m
[1;42m[1;37mNo correctness violations![1;m
[1;36m[1;44m00:12.414 00:11.784 Successfully matched event CheckInvariants:e305[1;m
[1;36m[1;36mRound 106[1;37m[1;m
[1;42m[1;37mNo correctness violations![1;m
[1;36m[1;44m00:12.510 00:11.879 Successfully matched event CheckInvariants:e307[1;m
[1;36m[1;36mRound 107[1;37m[1;m
[1;36mForwarding dataplane event[1;m
[1;42m[1;37mNo correctness violations![1;m
[1;36m[1;44m00:12.613 00:11.980 Successfully matched event CheckInvariants:e308[1;m
[1;36m[1;36mRound 108[1;37m[1;m
[1;36mCutting link (1:1) -> (4:3)[1;m
[1;36m[1;44m00:12.716 00:12.081 Successfully matched event LinkFailure:e309[1;m
[1;36m[1;36mRound 109[1;37m[1;m
[1;42m[1;37mNo correctness violations![1;m
[1;36m[1;44m00:12.717 00:12.082 Successfully matched event CheckInvariants:e310[1;m
[1;41m[1;33m[c1] WARNING:forwarding.l2_multi_syn_mem_corruption:Port down event, triggering synthetic memory corruption[1;m

[1;42m[1;37mNo correctness violations![1;m
[1;36m[1;44m00:12.820 00:12.184 Successfully matched event CheckInvariants:e312[1;m
[1;36m[1;36mRound 110[1;37m[1;m
[1;36mForwarding dataplane event[1;m
[1;42m[1;37mNo correctness violations![1;m
[1;36m[1;44m00:12.923 00:12.286 Successfully matched event CheckInvariants:e314[1;m
[1;36m[1;36mRound 111[1;37m[1;m
[1;42m[1;37mNo correctness violations![1;m
[1;36m[1;44m00:13.025 00:12.387 Successfully matched event CheckInvariants:e315[1;m
[1;36m[1;36mRound 112[1;37m[1;m
[1;42m[1;37mNo correctness violations![1;m
[1;36m[1;44m00:13.128 00:12.488 Successfully matched event CheckInvariants:e316[1;m
[1;36m[1;36mRound 113[1;37m[1;m
[1;36mForwarding dataplane event[1;m
[1;42m[1;37mNo correctness violations![1;m
[1;36m[1;44m00:13.232 00:12.590 Successfully matched event CheckInvariants:e318[1;m
[1;36m[1;36mRound 114[1;37m[1;m
[1;42m[1;37mNo correctness violations![1;m
[1;36m[1;44m00:13.335 00:12.692 Successfully matched event CheckInvariants:e320[1;m
[1;36m[1;36mRound 115[1;37m[1;m
[1;42m[1;37mNo correctness violations![1;m
[1;36m[1;44m00:13.436 00:12.793 Successfully matched event CheckInvariants:e321[1;m
[1;36m[1;36mRound 116[1;37m[1;m
[1;36mForwarding dataplane event[1;m
[1;42m[1;37mNo correctness violations![1;m
[1;36m[1;44m00:13.540 00:12.895 Successfully matched event CheckInvariants:e323[1;m
[1;36m[1;36mRound 117[1;37m[1;m
[1;42m[1;37mNo correctness violations![1;m
[1;36m[1;44m00:13.642 00:12.997 Successfully matched event CheckInvariants:e324[1;m
[1;36m[1;36mRound 118[1;37m[1;m
[1;42m[1;37mNo correctness violations![1;m
[1;36m[1;44m00:13.744 00:13.098 Successfully matched event CheckInvariants:e325[1;m
[1;36m[1;36mRound 119[1;37m[1;m
[1;36mForwarding dataplane event[1;m
[1;42m[1;37mNo correctness violations![1;m
[1;36m[1;44m00:13.848 00:13.200 Successfully matched event CheckInvariants:e327[1;m
[1;36m[1;36mRound 120[1;37m[1;m
[1;42m[1;37mNo correctness violations![1;m
[1;36m[1;44m00:13.953 00:13.303 Successfully matched event CheckInvariants:e330[1;m
[1;36m[1;36mRound 121[1;37m[1;m
[1;42m[1;37mNo correctness violations![1;m
[1;36m[1;44m00:14.056 00:13.405 Successfully matched event CheckInvariants:e332[1;m
[1;36m[1;36mRound 122[1;37m[1;m
[1;36mForwarding dataplane event[1;m
[1;42m[1;37mNo correctness violations![1;m
[1;36m[1;44m00:14.159 00:13.507 Successfully matched event CheckInvariants:e334[1;m
[1;36m[1;36mRound 123[1;37m[1;m
[1;42m[1;37mNo correctness violations![1;m
[1;36m[1;44m00:14.264 00:13.610 Successfully matched event CheckInvariants:e337[1;m
[1;36m[1;36mRound 124[1;37m[1;m
[1;42m[1;37mNo correctness violations![1;m
[1;36m[1;44m00:14.367 00:13.712 Successfully matched event CheckInvariants:e339[1;m
[1;36m[1;36mRound 125[1;37m[1;m
[1;36mForwarding dataplane event[1;m
[1;42m[1;37mNo correctness violations![1;m
[1;36m[1;44m00:14.471 00:13.815 Successfully matched event CheckInvariants:e341[1;m
[1;36m[1;36mRound 126[1;37m[1;m
[1;42m[1;37mNo correctness violations![1;m
[1;36m[1;44m00:14.574 00:13.916 Successfully matched event CheckInvariants:e343[1;m
[1;36m[1;36mRound 127[1;37m[1;m
[1;42m[1;37mNo correctness violations![1;m
[1;36m[1;44m00:14.676 00:14.017 Successfully matched event CheckInvariants:e344[1;m
[1;36m[1;36mRound 128[1;37m[1;m
[1;36mForwarding dataplane event[1;m
[1;42m[1;37mNo correctness violations![1;m
[1;36m[1;44m00:14.779 00:14.119 Successfully matched event CheckInvariants:e346[1;m
[1;36m[1;36mRound 129[1;37m[1;m
[1;42m[1;37mNo correctness violations![1;m
[1;36m[1;44m00:14.884 00:14.222 Successfully matched event CheckInvariants:e349[1;m
[1;36m[1;36mRound 130[1;37m[1;m
[1;42m[1;37mNo correctness violations![1;m
[1;36m[1;44m00:14.986 00:14.324 Successfully matched event CheckInvariants:e351[1;m
[1;36m[1;36mRound 131[1;37m[1;m
[1;36mForwarding dataplane event[1;m
[1;42m[1;37mNo correctness violations![1;m
[1;36m[1;44m00:15.090 00:14.426 Successfully matched event CheckInvariants:e353[1;m
[1;36m[1;36mRound 132[1;37m[1;m
[1;41m[1;33m[c1] INFO:openflow.discovery:link timeout: 00-00-00-00-00-03.2 -> 00-00-00-00-00-02.2[1;m

[1;41m[1;33m[c1] INFO:openflow.discovery:link timeout: 00-00-00-00-00-03.3 -> 00-00-00-00-00-01.2[1;m

[1;41m[1;33m[c1] INFO:openflow.discovery:link timeout: 00-00-00-00-00-04.3 -> 00-00-00-00-00-01.1[1;m

[1;42m[1;37mNo correctness violations![1;m
[1;36m[1;44m00:15.194 00:14.530 Successfully matched event CheckInvariants:e356[1;m
[1;36m[1;36mRound 133[1;37m[1;m
[1;42m[1;37mNo correctness violations![1;m
[1;36m[1;44m00:15.297 00:14.631 Successfully matched event CheckInvariants:e358[1;m
[1;36m[1;36mRound 134[1;37m[1;m
[1;36mForwarding dataplane event[1;m
[1;42m[1;37mNo correctness violations![1;m
[1;36m[1;44m00:15.401 00:14.734 Successfully matched event CheckInvariants:e360[1;m
[1;36m[1;36mRound 135[1;37m[1;m
[1;42m[1;37mNo correctness violations![1;m
[1;36m[1;44m00:15.503 00:14.835 Successfully matched event CheckInvariants:e361[1;m
[1;36m[1;36mRound 136[1;37m[1;m
[1;42m[1;37mNo correctness violations![1;m
[1;36m[1;44m00:15.604 00:14.936 Successfully matched event CheckInvariants:e362[1;m
[1;36m[1;36mRound 137[1;37m[1;m
[1;36mForwarding dataplane event[1;m
[1;36mCutting link (4:2) -> (2:1)[1;m
[1;36m[1;44m00:15.709 00:15.038 Successfully matched event LinkFailure:e364[1;m
[1;36m[1;36mRound 138[1;37m[1;m
[1;36mRestoring link (4:3) -> (1:1)[1;m
[1;36m[1;44m00:15.709 00:15.039 Successfully matched event LinkRecovery:e365[1;m
[1;42m[1;37mNo correctness violations![1;m
[1;36m[1;44m00:15.710 00:15.039 Successfully matched event CheckInvariants:e366[1;m
[1;41m[1;33m[c1] WARNING:forwarding.l2_multi_syn_mem_corruption:Ignoring port status[1;m

[1;41m[1;33m[c1] WARNING:forwarding.l2_multi_syn_mem_corruption:Ignoring port status[1;m

[1;42m[1;37mNo correctness violations![1;m
[1;36m[1;44m00:15.814 00:15.143 Successfully matched event CheckInvariants:e370[1;m
[1;36m[1;36mRound 139[1;37m[1;m
[1;42m[1;37mNo correctness violations![1;m
[1;36m[1;44m00:15.919 00:15.247 Successfully matched event CheckInvariants:e375[1;m
[1;36m[1;36mRound 140[1;37m[1;m
[1;36mForwarding dataplane event[1;m
[1;36mRestoring link (3:2) -> (2:2)[1;m
[1;36m[1;44m00:16.028 00:15.354 Successfully matched event LinkRecovery:e381[1;m
[1;36m[1;36mRound 141[1;37m[1;m
[1;42m[1;37mNo correctness violations![1;m
[1;36m[1;44m00:16.029 00:15.355 Successfully matched event CheckInvariants:e382[1;m
[1;41m[1;33m[c1] WARNING:forwarding.l2_multi_syn_mem_corruption:Ignoring port status[1;m

[1;42m[1;37mNo correctness violations![1;m
[1;36m[1;44m00:16.134 00:15.459 Successfully matched event CheckInvariants:e386[1;m
[1;36m[1;36mRound 142[1;37m[1;m
[1;42m[1;37mNo correctness violations![1;m
[1;36m[1;44m00:16.237 00:15.560 Successfully matched event CheckInvariants:e388[1;m
[1;36m[1;36mRound 143[1;37m[1;m
[1;36mForwarding dataplane event[1;m
[1;41m[1;33m[c1] INFO:openflow.discovery:link detected: 00-00-00-00-00-03.2 -> 00-00-00-00-00-02.2[1;m

[1;42m[1;37mNo correctness violations![1;m
[1;36m[1;44m00:16.341 00:15.663 Successfully matched event CheckInvariants:e390[1;m
[1;36m[1;36mRound 144[1;37m[1;m
[1;42m[1;37mNo correctness violations![1;m
[1;36m[1;44m00:16.443 00:15.764 Successfully matched event CheckInvariants:e391[1;m
[1;36m[1;36mRound 145[1;37m[1;m
[1;42m[1;37mNo correctness violations![1;m
[1;36m[1;44m00:16.545 00:15.865 Successfully matched event CheckInvariants:e392[1;m
[1;36m[1;36mRound 146[1;37m[1;m
[1;36mForwarding dataplane event[1;m
[1;42m[1;37mNo correctness violations![1;m
[1;36m[1;44m00:16.648 00:15.967 Successfully matched event CheckInvariants:e394[1;m
[1;36m[1;36mRound 147[1;37m[1;m
[1;42m[1;37mNo correctness violations![1;m
[1;36m[1;44m00:16.753 00:16.070 Successfully matched event CheckInvariants:e397[1;m
[1;36m[1;36mRound 148[1;37m[1;m
[1;42m[1;37mNo correctness violations![1;m
[1;36m[1;44m00:16.856 00:16.172 Successfully matched event CheckInvariants:e399[1;m
[1;36m[1;36mRound 149[1;37m[1;m
[1;36mForwarding dataplane event[1;m
[1;36mRestoring link (4:2) -> (2:1)[1;m
[1;36m[1;44m00:16.959 00:16.274 Successfully matched event LinkRecovery:e401[1;m
[1;36m[1;36mRound 150[1;37m[1;m
[1;42m[1;37mNo correctness violations![1;m
[1;36m[1;44m00:16.960 00:16.275 Successfully matched event CheckInvariants:e402[1;m
[1;41m[1;33m[c1] WARNING:forwarding.l2_multi_syn_mem_corruption:Ignoring port status[1;m

[1;42m[1;37mNo correctness violations![1;m
[1;36m[1;44m00:17.064 00:16.377 Successfully matched event CheckInvariants:e405[1;m
[1;36m[1;36mRound 151[1;37m[1;m
[1;36mCutting link (1:3) -> (2:3)[1;m
[1;36m[1;44m00:17.166 00:16.478 Successfully matched event LinkFailure:e406[1;m
[1;36m[1;36mRound 152[1;37m[1;m
[1;36mForwarding dataplane event[1;m
[1;42m[1;37mNo correctness violations![1;m
[1;36m[1;44m00:17.167 00:16.479 Successfully matched event CheckInvariants:e407[1;m
[1;41m[1;33m[c1] WARNING:forwarding.l2_multi_syn_mem_corruption:Ignoring port status[1;m

[1;41m[1;33m[c1] INFO:openflow.discovery:link timeout: 00-00-00-00-00-02.2 -> 00-00-00-00-00-03.2[1;m

[1;41m[1;33m[c1] INFO:openflow.discovery:link timeout: 00-00-00-00-00-01.1 -> 00-00-00-00-00-04.3[1;m

[1;41m[1;33m[c1] INFO:openflow.discovery:link timeout: 00-00-00-00-00-01.3 -> 00-00-00-00-00-02.3[1;m

[1;41m[1;33m[c1] INFO:openflow.discovery:link timeout: 00-00-00-00-00-04.2 -> 00-00-00-00-00-02.1[1;m

[1;41m[1;33m[c1] INFO:openflow.discovery:link timeout: 00-00-00-00-00-01.2 -> 00-00-00-00-00-03.3[1;m

[1;41m[1;33m[c1] INFO:openflow.discovery:link timeout: 00-00-00-00-00-02.1 -> 00-00-00-00-00-04.2[1;m

[1;36mRestoring link (1:3) -> (2:3)[1;m
[1;36m[1;44m00:25.431 00:24.742 Successfully matched event LinkRecovery:e584[1;m
[1;36m[1;36mRound 233[1;37m[1;m
[1;36mForwarding dataplane event[1;m
[1;36mForwarding dataplane event[1;m
[1;36mForwarding dataplane event[1;m
[1;36mForwarding dataplane event[1;m
[1;36mForwarding dataplane event[1;m
[1;36mForwarding dataplane event[1;m
[1;36mForwarding dataplane event[1;m
[1;36mForwarding dataplane event[1;m
[1;36mForwarding dataplane event[1;m
[1;36mForwarding dataplane event[1;m
[1;36mForwarding dataplane event[1;m
[1;36mForwarding dataplane event[1;m
[1;36mForwarding dataplane event[1;m
[1;36mForwarding dataplane event[1;m
[1;36mForwarding dataplane event[1;m
[1;36mForwarding dataplane event[1;m
[1;36mForwarding dataplane event[1;m
[1;36mForwarding dataplane event[1;m
[1;36mForwarding dataplane event[1;m
[1;36mForwarding dataplane event[1;m
[1;36mForwarding dataplane event[1;m
[1;36mForwarding dataplane event[1;m
[1;36mForwarding dataplane event[1;m
[1;36mForwarding dataplane event[1;m
[1;36mForwarding dataplane event[1;m
[1;36mForwarding dataplane event[1;m
[1;41m[1;33m[c1] WARNING:forwarding.l2_multi_syn_mem_corruption:Ignoring port status[1;m

[1;41m[1;33m[c1] INFO:openflow.discovery:link detected: 00-00-00-00-00-04.3 -> 00-00-00-00-00-01.1[1;m

[1;41m[1;33m[c1] INFO:openflow.discovery:link detected: 00-00-00-00-00-01.2 -> 00-00-00-00-00-03.3[1;m

[1;41m[1;33m[c1] INFO:openflow.discovery:link detected: 00-00-00-00-00-02.1 -> 00-00-00-00-00-04.2[1;m

[1;41m[1;33m[c1] INFO:openflow.discovery:link detected: 00-00-00-00-00-04.2 -> 00-00-00-00-00-02.1[1;m

[1;41m[1;33m[c1] INFO:openflow.discovery:link detected: 00-00-00-00-00-01.3 -> 00-00-00-00-00-02.3[1;m

[1;36mRestoring link (2:2) -> (3:2)[1;m
[1;36m[1;44m00:31.673 00:30.981 Successfully matched event LinkRecovery:e728[1;m
[1;36m[1;36mRound 294[1;37m[1;m
[1;36mForwarding dataplane event[1;m
[1;36mForwarding dataplane event[1;m
[1;36mForwarding dataplane event[1;m
[1;36mForwarding dataplane event[1;m
[1;36mForwarding dataplane event[1;m
[1;36mForwarding dataplane event[1;m
[1;36mForwarding dataplane event[1;m
[1;36mForwarding dataplane event[1;m
[1;36mForwarding dataplane event[1;m
[1;36mForwarding dataplane event[1;m
[1;36mForwarding dataplane event[1;m
[1;36mForwarding dataplane event[1;m
[1;36mForwarding dataplane event[1;m
[1;36mForwarding dataplane event[1;m
[1;36mForwarding dataplane event[1;m
[1;36mForwarding dataplane event[1;m
[1;36mForwarding dataplane event[1;m
[1;36mForwarding dataplane event[1;m
[1;36mForwarding dataplane event[1;m
[1;36mForwarding dataplane event[1;m
[1;41m[1;33m[c1] INFO:openflow.discovery:link detected: 00-00-00-00-00-02.2 -> 00-00-00-00-00-03.2[1;m

[1;41m[1;33m[c1] WARNING:forwarding.l2_multi_syn_mem_corruption:Ignoring port status[1;m

[1;36mRestoring link (1:1) -> (4:3)[1;m
[1;36m[1;44m00:32.184 00:31.492 Successfully matched event LinkRecovery:e739[1;m
[1;36m[1;36mRound 299[1;37m[1;m
[1;36mForwarding dataplane event[1;m
[1;36mForwarding dataplane event[1;m
[1;36m[1;36mRound 301[1;37m[1;m
[1;41m[1;33m[c1] WARNING:forwarding.l2_multi_syn_mem_corruption:Invoking controller crash aaaaaargh[1;m

[1;41m[1;37mViolations at end of trace: ['c1'][1;m
[1;42m[1;37mViolation found c1[1;m
[1;36m[1;44mEvent Stats: Events matched: 172, timed out: 0
Matches per event type:
  ConnectToControllers 1
  LinkRecovery 9
  LinkFailure 10
  CheckInvariants 152
Timeouts per event type:
[1;m
[1;36m[1;44mDataplaneDrop Stats: Expected drops (0), Actual drops (0)
Missed Drops (expected if TrafficInjections pruned):[1;m
