X 10
X 4
X 10
X 4
10
4
10
4
10
4
10
4
10
4
10
4
10
4
10
4
10
4
10
4
10
4
10
4
10
4
10
4
10
4
10
4
10
4
10
4
10
4
10
4
10
4
10
4
10
4
10
4
10
4
10
4
10
4
10
4
10
4
10
4
10
4
10
4
10
4
10
4
10
4
10
4
10
4
10
4
10
4
10
4
10
4
10
4
10
4
10
4
10
4
10
4
10
4
10
4
10
4
10
4
10
4
10
4
10
4
10
4
10
4
10
4
10
4
10
4
10
4
10
4
10
4
10
4
10
4
10
4
10
4
10
4
10
4
10
4
10
4
10
4
10
4
10
4
10
4
10
4
10
4
10
4
10
4
10
4
10
4
10
4
10
4
10
4
10
4
10
4
10
4
10
4
10
4
10
4
10
4
10
4
10
4
10
4
10
4
10
4
10
4
10
4
10
4
10
4
10
4
10
4
10
4
10
4
10
4
10
4
10
4
10
4
10
4
10
4
10
4
10
4
10
4
10
4
10
4
10
4
10
4
10
4
10
4
10
4