{"timeout_disallowed": true, "fingerprint": ["ConnectToControllers"], "timed_out": false, "label": "e1", "dependent_labels": [], "time": [1390616566, 187768], "replay_time": [1390625905, 178419], "class": "ConnectToControllers", "round": 0, "prunable": false}
{"pass_through_sends": false, "timeout_disallowed": false, "time": [1390616566, 188736], "controller_id": "c1", "fingerprint": ["ControlMessageReceive", {"class": "ofp_hello"}, 2, ["c", "1"]], "timed_out": false, "dependent_labels": [], "ignore_whitelisted_packets": true, "dpid": 2, "replay_time": [1390625905, 180074], "label": "i2", "class": "ControlMessageReceive", "b64_packet": "AQAACAAAAAM=", "round": 1, "prunable": true}
{"pass_through_sends": false, "timeout_disallowed": false, "time": [1390625905, 180608], "controller_id": "c1", "fingerprint": ["ControlMessageReceive", {"class": "ofp_hello"}, 1, "c1"], "timed_out": false, "dependent_labels": [], "ignore_whitelisted_packets": false, "new_internal_event": true, "dpid": 1, "replay_time": [1390625905, 180630], "label": "i865", "class": "ControlMessageReceive", "b64_packet": "AQAACAAAAAE=", "round": -1, "prunable": true}
{"pass_through_sends": false, "timeout_disallowed": false, "time": [1390625905, 180807], "controller_id": "c1", "fingerprint": ["ControlMessageSend", {"class": "ofp_hello"}, 2, "c1"], "timed_out": false, "dependent_labels": [], "ignore_whitelisted_packets": false, "new_internal_event": true, "dpid": 2, "replay_time": [1390625905, 180826], "label": "i866", "class": "ControlMessageSend", "b64_packet": "AQAACAAAAD0=", "round": -1, "prunable": true}
{"pass_through_sends": false, "timeout_disallowed": false, "time": [1390616566, 189184], "controller_id": "c1", "fingerprint": ["ControlMessageReceive", {"class": "ofp_hello"}, 1, ["c", "1"]], "timed_out": true, "dependent_labels": [], "ignore_whitelisted_packets": true, "dpid": 1, "replay_time": [1390625905, 784143], "label": "i3", "class": "ControlMessageReceive", "b64_packet": "AQAACAAAAAE=", "round": 1, "prunable": true}
{"pass_through_sends": false, "timeout_disallowed": false, "time": [1390625905, 785267], "controller_id": "c1", "fingerprint": ["ControlMessageReceive", {"class": "ofp_features_request"}, 2, "c1"], "timed_out": false, "dependent_labels": [], "ignore_whitelisted_packets": false, "new_internal_event": true, "dpid": 2, "replay_time": [1390625905, 785297], "label": "i867", "class": "ControlMessageReceive", "b64_packet": "AQUACAAAAAU=", "round": -1, "prunable": true}
{"pass_through_sends": false, "timeout_disallowed": false, "time": [1390625905, 785571], "controller_id": "c1", "fingerprint": ["ControlMessageSend", {"class": "ofp_hello"}, 1, "c1"], "timed_out": false, "dependent_labels": [], "ignore_whitelisted_packets": false, "new_internal_event": true, "dpid": 1, "replay_time": [1390625905, 785597], "label": "i868", "class": "ControlMessageSend", "b64_packet": "AQAACAAAAD8=", "round": -1, "prunable": true}
{"pass_through_sends": false, "timeout_disallowed": false, "time": [1390616566, 189396], "controller_id": "c1", "fingerprint": ["ControlMessageSend", {"class": "ofp_hello"}, 2, ["c", "1"]], "timed_out": true, "dependent_labels": [], "ignore_whitelisted_packets": true, "dpid": 2, "replay_time": [1390625906, 388465], "label": "i4", "class": "ControlMessageSend", "b64_packet": "AQAACAAAAAE=", "round": 1, "prunable": true}
{"pass_through_sends": false, "timeout_disallowed": false, "time": [1390625906, 389266], "controller_id": "c1", "fingerprint": ["ControlMessageReceive", {"class": "ofp_features_request"}, 1, "c1"], "timed_out": false, "dependent_labels": [], "ignore_whitelisted_packets": false, "new_internal_event": true, "dpid": 1, "replay_time": [1390625906, 389286], "label": "i869", "class": "ControlMessageReceive", "b64_packet": "AQUACAAAAAc=", "round": -1, "prunable": true}
{"pass_through_sends": false, "timeout_disallowed": false, "time": [1390625906, 389615], "controller_id": "c1", "fingerprint": ["ControlMessageSend", {"datapath_id": 2, "class": "ofp_features_reply"}, 2, "c1"], "timed_out": false, "dependent_labels": [], "ignore_whitelisted_packets": false, "new_internal_event": true, "dpid": 2, "replay_time": [1390625906, 389637], "label": "i870", "class": "ControlMessageSend", "b64_packet": "AQYAgAAAAAUAAAAAAAAAAgAAAGQBAAAAAAAA7wAAB/8AAQAAAAACAWV0aDEAAAAAAAAAAAAAAAAAAAAAAAAAAAAAAAAAAAAAAAAAAAAAAAAAAgAAAAACAmV0aDIAAAAAAAAAAAAAAAAAAAAAAAAAAAAAAAAAAAAAAAAAAAAAAAA=", "round": -1, "prunable": true}
{"pass_through_sends": false, "timeout_disallowed": false, "time": [1390616566, 189612], "controller_id": "c1", "fingerprint": ["ControlMessageSend", {"class": "ofp_hello"}, 1, ["c", "1"]], "timed_out": true, "dependent_labels": [], "ignore_whitelisted_packets": true, "dpid": 1, "replay_time": [1390625906, 995042], "label": "i5", "class": "ControlMessageSend", "b64_packet": "AQAACAAAAAM=", "round": 1, "prunable": true}
{"pass_through_sends": false, "timeout_disallowed": false, "time": [1390625906, 996306], "controller_id": "c1", "fingerprint": ["ControlMessageReceive", {"hard_timeout": 0, "actions": [], "priority": 32768, "idle_timeout": 0, "command": "delete", "out_port": 65535, "flags": 0, "class": "ofp_flow_mod", "match": "x^L,in_port:None"}, 2, "c1"], "timed_out": false, "dependent_labels": [], "ignore_whitelisted_packets": false, "new_internal_event": true, "dpid": 2, "replay_time": [1390625906, 996350], "label": "i871", "class": "ControlMessageReceive", "b64_packet": "AQ4ASAAAAAsAEAAfAAAAAAAAAAAAAAAAAAAAAAAAAAAAAAAAAAAAAAAAAAAAAAAAAAAAAAAAAAAAAwAAAACAAP///////wAA", "round": -1, "prunable": true}
{"pass_through_sends": false, "timeout_disallowed": false, "time": [1390625906, 997059], "controller_id": "c1", "fingerprint": ["ControlMessageReceive", {"class": "ofp_set_config"}, 2, "c1"], "timed_out": false, "dependent_labels": [], "ignore_whitelisted_packets": false, "new_internal_event": true, "dpid": 2, "replay_time": [1390625906, 997080], "label": "i872", "class": "ControlMessageReceive", "b64_packet": "AQkADAAAAAkAAACA", "round": -1, "prunable": true}
{"pass_through_sends": false, "timeout_disallowed": false, "time": [1390625906, 997315], "controller_id": "c1", "fingerprint": ["ControlMessageReceive", {"class": "ofp_barrier_request"}, 2, "c1"], "timed_out": false, "dependent_labels": [], "ignore_whitelisted_packets": false, "new_internal_event": true, "dpid": 2, "replay_time": [1390625906, 997331], "label": "i873", "class": "ControlMessageReceive", "b64_packet": "ARIACAAAAA0=", "round": -1, "prunable": true}
{"pass_through_sends": false, "timeout_disallowed": false, "time": [1390625906, 997602], "controller_id": "c1", "fingerprint": ["ControlMessageSend", {"datapath_id": 1, "class": "ofp_features_reply"}, 1, "c1"], "timed_out": false, "dependent_labels": [], "ignore_whitelisted_packets": false, "new_internal_event": true, "dpid": 1, "replay_time": [1390625906, 997621], "label": "i874", "class": "ControlMessageSend", "b64_packet": "AQYAgAAAAAcAAAAAAAAAAQAAAGQBAAAAAAAA7wAAB/8AAQAAAAABAWV0aDEAAAAAAAAAAAAAAAAAAAAAAAAAAAAAAAAAAAAAAAAAAAAAAAAAAgAAAAABAmV0aDIAAAAAAAAAAAAAAAAAAAAAAAAAAAAAAAAAAAAAAAAAAAAAAAA=", "round": -1, "prunable": true}
{"pass_through_sends": false, "timeout_disallowed": false, "time": [1390616566, 291100], "controller_id": "c1", "fingerprint": ["ControlMessageReceive", {"class": "ofp_features_request"}, 2, ["c", "1"]], "timed_out": true, "dependent_labels": [], "ignore_whitelisted_packets": true, "dpid": 2, "replay_time": [1390625907, 601935], "label": "i6", "class": "ControlMessageReceive", "b64_packet": "AQUACAAAAAU=", "round": 2, "prunable": true}
{"pass_through_sends": false, "timeout_disallowed": false, "time": [1390625907, 602795], "controller_id": "c1", "fingerprint": ["ControlMessageReceive", {"class": "ofp_barrier_request"}, 1, "c1"], "timed_out": false, "dependent_labels": [], "ignore_whitelisted_packets": false, "new_internal_event": true, "dpid": 1, "replay_time": [1390625907, 602822], "label": "i875", "class": "ControlMessageReceive", "b64_packet": "ARIACAAAABM=", "round": -1, "prunable": true}
{"pass_through_sends": false, "timeout_disallowed": false, "time": [1390625907, 603086], "controller_id": "c1", "fingerprint": ["ControlMessageReceive", {"class": "ofp_set_config"}, 1, "c1"], "timed_out": false, "dependent_labels": [], "ignore_whitelisted_packets": false, "new_internal_event": true, "dpid": 1, "replay_time": [1390625907, 603111], "label": "i876", "class": "ControlMessageReceive", "b64_packet": "AQkADAAAAA8AAACA", "round": -1, "prunable": true}
{"pass_through_sends": false, "timeout_disallowed": false, "time": [1390625907, 603528], "controller_id": "c1", "fingerprint": ["ControlMessageReceive", {"hard_timeout": 0, "actions": [], "priority": 32768, "idle_timeout": 0, "command": "delete", "out_port": 65535, "flags": 0, "class": "ofp_flow_mod", "match": "x^L,in_port:None"}, 1, "c1"], "timed_out": false, "dependent_labels": [], "ignore_whitelisted_packets": false, "new_internal_event": true, "dpid": 1, "replay_time": [1390625907, 603549], "label": "i877", "class": "ControlMessageReceive", "b64_packet": "AQ4ASAAAABEAEAAfAAAAAAAAAAAAAAAAAAAAAAAAAAAAAAAAAAAAAAAAAAAAAAAAAAAAAAAAAAAAAwAAAACAAP///////wAA", "round": -1, "prunable": true}
{"pass_through_sends": false, "timeout_disallowed": false, "time": [1390625907, 603904], "controller_id": "c1", "fingerprint": ["ControlMessageSend", {"class": "ofp_barrier_reply"}, 2, "c1"], "timed_out": false, "dependent_labels": [], "ignore_whitelisted_packets": false, "new_internal_event": true, "dpid": 2, "replay_time": [1390625907, 603923], "label": "i878", "class": "ControlMessageSend", "b64_packet": "ARMACAAAAA0=", "round": -1, "prunable": true}
{"pass_through_sends": false, "timeout_disallowed": false, "time": [1390616566, 291533], "controller_id": "c1", "fingerprint": ["ControlMessageReceive", {"class": "ofp_features_request"}, 1, ["c", "1"]], "timed_out": true, "dependent_labels": [], "ignore_whitelisted_packets": true, "dpid": 1, "replay_time": [1390625908, 208593], "label": "i7", "class": "ControlMessageReceive", "b64_packet": "AQUACAAAAAc=", "round": 2, "prunable": true}
{"pass_through_sends": false, "timeout_disallowed": false, "time": [1390625908, 209383], "controller_id": "c1", "fingerprint": ["ControlMessageReceive", {"hard_timeout": 0, "actions": ["output(65533)"], "priority": 32768, "idle_timeout": 0, "command": "add", "out_port": 65535, "flags": 0, "class": "ofp_flow_mod", "match": "dl_dst:01:23:20:00:00:01,dl_type:35020,in_port:None"}, 2, "c1"], "timed_out": false, "dependent_labels": [], "ignore_whitelisted_packets": false, "new_internal_event": true, "dpid": 2, "replay_time": [1390625908, 209406], "label": "i879", "class": "ControlMessageReceive", "b64_packet": "AQ4AUAAAABUAEAAHAAAAAAAAAAABIyAAAAEAAAAAiMwAAAAAAAAAAAAAAAAAAAAAAAAAAAAAAAAAAAAAAACAAP///////wAAAAAACP/9//8=", "round": -1, "prunable": true}
{"pass_through_sends": false, "timeout_disallowed": false, "time": [1390625908, 209740], "controller_id": "c1", "fingerprint": ["ControlMessageSend", {"class": "ofp_barrier_reply"}, 1, "c1"], "timed_out": false, "dependent_labels": [], "ignore_whitelisted_packets": false, "new_internal_event": true, "dpid": 1, "replay_time": [1390625908, 209757], "label": "i880", "class": "ControlMessageSend", "b64_packet": "ARMACAAAABM=", "round": -1, "prunable": true}
{"pass_through_sends": false, "timeout_disallowed": false, "time": [1390616566, 291905], "controller_id": "c1", "fingerprint": ["ControlMessageSend", {"datapath_id": 2, "class": "ofp_features_reply"}, 2, ["c", "1"]], "timed_out": true, "dependent_labels": [], "ignore_whitelisted_packets": true, "dpid": 2, "replay_time": [1390625908, 814345], "label": "i8", "class": "ControlMessageSend", "b64_packet": "AQYAgAAAAAUAAAAAAAAAAgAAAGQBAAAAAAAA7wAAB/8AAQAAAAACAWV0aDEAAAAAAAAAAAAAAAAAAAAAAAAAAAAAAAAAAAAAAAAAAAAAAAAAAgAAAAACAmV0aDIAAAAAAAAAAAAAAAAAAAAAAAAAAAAAAAAAAAAAAAAAAAAAAAA=", "round": 2, "prunable": true}
{"pass_through_sends": false, "timeout_disallowed": false, "time": [1390625908, 815117], "controller_id": "c1", "fingerprint": ["ControlMessageReceive", {"hard_timeout": 0, "actions": ["output(65533)"], "priority": 32768, "idle_timeout": 0, "command": "add", "out_port": 65535, "flags": 0, "class": "ofp_flow_mod", "match": "dl_dst:01:23:20:00:00:01,dl_type:35020,in_port:None"}, 1, "c1"], "timed_out": false, "dependent_labels": [], "ignore_whitelisted_packets": false, "new_internal_event": true, "dpid": 1, "replay_time": [1390625908, 815139], "label": "i881", "class": "ControlMessageReceive", "b64_packet": "AQ4AUAAAABsAEAAHAAAAAAAAAAABIyAAAAEAAAAAiMwAAAAAAAAAAAAAAAAAAAAAAAAAAAAAAAAAAAAAAACAAP///////wAAAAAACP/9//8=", "round": -1, "prunable": true}
{"pass_through_sends": false, "timeout_disallowed": false, "time": [1390616566, 292323], "controller_id": "c1", "fingerprint": ["ControlMessageSend", {"datapath_id": 1, "class": "ofp_features_reply"}, 1, ["c", "1"]], "timed_out": true, "dependent_labels": [], "ignore_whitelisted_packets": true, "dpid": 1, "replay_time": [1390625909, 419639], "label": "i9", "class": "ControlMessageSend", "b64_packet": "AQYAgAAAAAcAAAAAAAAAAQAAAGQBAAAAAAAA7wAAB/8AAQAAAAABAWV0aDEAAAAAAAAAAAAAAAAAAAAAAAAAAAAAAAAAAAAAAAAAAAAAAAAAAgAAAAABAmV0aDIAAAAAAAAAAAAAAAAAAAAAAAAAAAAAAAAAAAAAAAAAAAAAAAA=", "round": 2, "prunable": true}
{"pass_through_sends": false, "timeout_disallowed": false, "time": [1390616566, 394266], "controller_id": "c1", "fingerprint": ["ControlMessageReceive", {"class": "ofp_set_config"}, 1, ["c", "1"]], "timed_out": true, "dependent_labels": [], "ignore_whitelisted_packets": true, "dpid": 1, "replay_time": [1390625910, 66564], "label": "i10", "class": "ControlMessageReceive", "b64_packet": "AQkADAAAAA8AAACA", "round": 3, "prunable": true}
{"pass_through_sends": false, "timeout_disallowed": false, "time": [1390625910, 67543], "controller_id": "c1", "fingerprint": ["ControlMessageReceive", {"in_port": 65535, "data": {"class": "lldp"}, "class": "ofp_packet_out", "actions": ["output(1)"]}, 2, "c1"], "timed_out": false, "dependent_labels": [], "ignore_whitelisted_packets": false, "new_internal_event": true, "dpid": 2, "replay_time": [1390625910, 67576], "label": "i882", "class": "ControlMessageReceive", "b64_packet": "AQ0AQQAAABf///////8ACAAAAAgAAQAAASMgAAABAAAAAAIBiMwCBwdkcGlkOjIEAgIxBgIAeAwGZHBpZDoyAAA=", "round": -1, "prunable": true}
{"pass_through_sends": false, "timeout_disallowed": false, "time": [1390616566, 394905], "controller_id": "c1", "fingerprint": ["ControlMessageReceive", {"class": "ofp_barrier_request"}, 2, ["c", "1"]], "timed_out": true, "dependent_labels": [], "ignore_whitelisted_packets": true, "dpid": 2, "replay_time": [1390625910, 671182], "label": "i11", "class": "ControlMessageReceive", "b64_packet": "ARIACAAAAA0=", "round": 3, "prunable": true}
{"pass_through_sends": false, "timeout_disallowed": false, "time": [1390625910, 672251], "controller_id": "c1", "fingerprint": ["ControlMessageSend", {"data": {"class": "lldp"}, "class": "ofp_packet_in", "in_port": 1}, 1, "c1"], "timed_out": false, "dependent_labels": [], "ignore_whitelisted_packets": false, "new_internal_event": true, "dpid": 1, "replay_time": [1390625910, 672269], "label": "i883", "class": "ControlMessageSend", "b64_packet": "AQoAOwAAAAEAAAABADsAAQEAASMgAAABAAAAAAIBiMwCBwdkcGlkOjIEAgIxBgIAeAwGZHBpZDoyAAA=", "round": -1, "prunable": true}
{"pass_through_sends": false, "timeout_disallowed": false, "time": [1390616566, 395385], "controller_id": "c1", "fingerprint": ["ControlMessageReceive", {"hard_timeout": 0, "actions": [], "priority": 32768, "idle_timeout": 0, "command": "delete", "out_port": 65535, "flags": 0, "class": "ofp_flow_mod", "match": "x^L,in_port:None"}, 1, ["c", "1"]], "timed_out": false, "dependent_labels": [], "ignore_whitelisted_packets": true, "dpid": 1, "replay_time": [1390625910, 674348], "label": "i12", "class": "ControlMessageReceive", "b64_packet": "AQ4ASAAAABEAEAAfAAAAAAAAAAAAAAAAAAAAAAAAAAAAAAAAAAAAAAAAAAAAAAAAAAAAAAAAAAAAAwAAAACAAP///////wAA", "round": 3, "prunable": true}
{"pass_through_sends": false, "timeout_disallowed": false, "time": [1390616566, 395851], "controller_id": "c1", "fingerprint": ["ControlMessageReceive", {"class": "ofp_set_config"}, 2, ["c", "1"]], "timed_out": true, "dependent_labels": [], "ignore_whitelisted_packets": true, "dpid": 2, "replay_time": [1390625911, 316912], "label": "i13", "class": "ControlMessageReceive", "b64_packet": "AQkADAAAAAkAAACA", "round": 3, "prunable": true}
{"pass_through_sends": false, "timeout_disallowed": false, "time": [1390625911, 317714], "controller_id": "c1", "fingerprint": ["ControlMessageReceive", {"in_port": 1, "data": [], "class": "ofp_packet_out", "actions": []}, 1, "c1"], "timed_out": false, "dependent_labels": [], "ignore_whitelisted_packets": false, "new_internal_event": true, "dpid": 1, "replay_time": [1390625911, 317747], "label": "i884", "class": "ControlMessageReceive", "b64_packet": "AQ0AEAAAACMAAAABAAEAAA==", "round": -1, "prunable": true}
{"pass_through_sends": false, "timeout_disallowed": false, "time": [1390625911, 318400], "controller_id": "c1", "fingerprint": ["ControlMessageReceive", {"in_port": 65535, "data": {"class": "lldp"}, "class": "ofp_packet_out", "actions": ["output(2)"]}, 2, "c1"], "timed_out": false, "dependent_labels": [], "ignore_whitelisted_packets": false, "new_internal_event": true, "dpid": 2, "replay_time": [1390625911, 318419], "label": "i885", "class": "ControlMessageReceive", "b64_packet": "AQ0AQQAAABn///////8ACAAAAAgAAgAAASMgAAABAAAAAAICiMwCBwdkcGlkOjIEAgIyBgIAeAwGZHBpZDoyAAA=", "round": -1, "prunable": true}
{"pass_through_sends": false, "timeout_disallowed": false, "time": [1390625911, 318909], "controller_id": "c1", "fingerprint": ["ControlMessageReceive", {"hard_timeout": 0, "actions": [], "priority": 32768, "idle_timeout": 0, "command": "delete", "out_port": 65535, "flags": 0, "class": "ofp_flow_mod", "match": "x^L,in_port:None"}, 2, "c1"], "timed_out": false, "dependent_labels": [], "ignore_whitelisted_packets": false, "new_internal_event": true, "dpid": 2, "replay_time": [1390625911, 318930], "label": "i886", "class": "ControlMessageReceive", "b64_packet": "AQ4ASAAAACEAEAAfAAAAAAAAAAAAAAAAAAAAAAAAAAAAAAAAAAAAAAAAAAAAAAAAAAAAAAAAAAAAAwAAAACAAP///////wAA", "round": -1, "prunable": true}
{"pass_through_sends": false, "timeout_disallowed": false, "time": [1390616566, 396192], "controller_id": "c1", "fingerprint": ["ControlMessageReceive", {"class": "ofp_barrier_request"}, 1, ["c", "1"]], "timed_out": true, "dependent_labels": [], "ignore_whitelisted_packets": true, "dpid": 1, "replay_time": [1390625911, 922692], "label": "i14", "class": "ControlMessageReceive", "b64_packet": "ARIACAAAABM=", "round": 3, "prunable": true}
{"pass_through_sends": false, "timeout_disallowed": false, "time": [1390616566, 396643], "controller_id": "c1", "fingerprint": ["ControlMessageReceive", {"hard_timeout": 0, "actions": [], "priority": 32768, "idle_timeout": 0, "command": "delete", "out_port": 65535, "flags": 0, "class": "ofp_flow_mod", "match": "x^L,in_port:None"}, 2, ["c", "1"]], "timed_out": true, "dependent_labels": [], "ignore_whitelisted_packets": true, "dpid": 2, "replay_time": [1390625912, 567511], "label": "i15", "class": "ControlMessageReceive", "b64_packet": "AQ4ASAAAAAsAEAAfAAAAAAAAAAAAAAAAAAAAAAAAAAAAAAAAAAAAAAAAAAAAAAAAAAAAAAAAAAAAAwAAAACAAP///////wAA", "round": 3, "prunable": true}
{"pass_through_sends": false, "timeout_disallowed": false, "time": [1390625912, 568780], "controller_id": "c1", "fingerprint": ["ControlMessageReceive", {"in_port": 65535, "data": {"class": "lldp"}, "class": "ofp_packet_out", "actions": ["output(1)"]}, 1, "c1"], "timed_out": false, "dependent_labels": [], "ignore_whitelisted_packets": false, "new_internal_event": true, "dpid": 1, "replay_time": [1390625912, 568811], "label": "i887", "class": "ControlMessageReceive", "b64_packet": "AQ0AQQAAAB3///////8ACAAAAAgAAQAAASMgAAABAAAAAAEBiMwCBwdkcGlkOjEEAgIxBgIAeAwGZHBpZDoxAAA=", "round": -1, "prunable": true}
{"pass_through_sends": false, "timeout_disallowed": false, "time": [1390616566, 397090], "controller_id": "c1", "fingerprint": ["ControlMessageSend", {"class": "ofp_barrier_reply"}, 2, ["c", "1"]], "timed_out": true, "dependent_labels": [], "ignore_whitelisted_packets": true, "dpid": 2, "replay_time": [1390625913, 171275], "label": "i16", "class": "ControlMessageSend", "b64_packet": "ARMACAAAAA0=", "round": 3, "prunable": true}
{"pass_through_sends": false, "timeout_disallowed": false, "time": [1390625913, 172271], "controller_id": "c1", "fingerprint": ["ControlMessageSend", {"data": {"class": "lldp"}, "class": "ofp_packet_in", "in_port": 1}, 2, "c1"], "timed_out": false, "dependent_labels": [], "ignore_whitelisted_packets": false, "new_internal_event": true, "dpid": 2, "replay_time": [1390625913, 172307], "label": "i888", "class": "ControlMessageSend", "b64_packet": "AQoAOwAAAAEAAAABADsAAQAAASMgAAABAAAAAAEBiMwCBwdkcGlkOjEEAgIxBgIAeAwGZHBpZDoxAAA=", "round": -1, "prunable": true}
{"pass_through_sends": false, "timeout_disallowed": false, "time": [1390616566, 397290], "controller_id": "c1", "fingerprint": ["ControlMessageSend", {"class": "ofp_barrier_reply"}, 1, ["c", "1"]], "timed_out": true, "dependent_labels": [], "ignore_whitelisted_packets": true, "dpid": 1, "replay_time": [1390625913, 818792], "label": "i17", "class": "ControlMessageSend", "b64_packet": "ARMACAAAABM=", "round": 3, "prunable": true}
{"pass_through_sends": false, "timeout_disallowed": false, "time": [1390625913, 819411], "controller_id": "c1", "fingerprint": ["ControlMessageReceive", {"hard_timeout": 0, "actions": [], "priority": 32768, "idle_timeout": 0, "command": "delete", "out_port": 65535, "flags": 0, "class": "ofp_flow_mod", "match": "x^L,in_port:None"}, 1, "c1"], "timed_out": false, "dependent_labels": [], "ignore_whitelisted_packets": false, "new_internal_event": true, "dpid": 1, "replay_time": [1390625913, 819429], "label": "i889", "class": "ControlMessageReceive", "b64_packet": "AQ4ASAAAACUAEAAfAAAAAAAAAAAAAAAAAAAAAAAAAAAAAAAAAAAAAAAAAAAAAAAAAAAAAAAAAAAAAwAAAACAAP///////wAA", "round": -1, "prunable": true}
{"pass_through_sends": false, "timeout_disallowed": false, "time": [1390625913, 819893], "controller_id": "c1", "fingerprint": ["ControlMessageReceive", {"in_port": 65535, "data": {"class": "lldp"}, "class": "ofp_packet_out", "actions": ["output(2)"]}, 1, "c1"], "timed_out": false, "dependent_labels": [], "ignore_whitelisted_packets": false, "new_internal_event": true, "dpid": 1, "replay_time": [1390625913, 819907], "label": "i890", "class": "ControlMessageReceive", "b64_packet": "AQ0AQQAAAB////////8ACAAAAAgAAgAAASMgAAABAAAAAAECiMwCBwdkcGlkOjEEAgIyBgIAeAwGZHBpZDoxAAA=", "round": -1, "prunable": true}
{"pass_through_sends": false, "timeout_disallowed": false, "time": [1390625913, 820163], "controller_id": "c1", "fingerprint": ["ControlMessageReceive", {"in_port": 1, "data": [], "class": "ofp_packet_out", "actions": []}, 2, "c1"], "timed_out": false, "dependent_labels": [], "ignore_whitelisted_packets": false, "new_internal_event": true, "dpid": 2, "replay_time": [1390625913, 820202], "label": "i891", "class": "ControlMessageReceive", "b64_packet": "AQ0AEAAAACcAAAABAAEAAA==", "round": -1, "prunable": true}
{"pass_through_sends": false, "timeout_disallowed": false, "time": [1390625913, 820469], "controller_id": "c1", "fingerprint": ["ControlMessageReceive", {"hard_timeout": 0, "actions": [], "priority": 32768, "idle_timeout": 0, "command": "delete", "out_port": 65535, "flags": 0, "class": "ofp_flow_mod", "match": "x^L,in_port:None"}, 2, "c1"], "timed_out": false, "dependent_labels": [], "ignore_whitelisted_packets": false, "new_internal_event": true, "dpid": 2, "replay_time": [1390625913, 820484], "label": "i892", "class": "ControlMessageReceive", "b64_packet": "AQ4ASAAAACUAEAAfAAAAAAAAAAAAAAAAAAAAAAAAAAAAAAAAAAAAAAAAAAAAAAAAAAAAAAAAAAAAAwAAAACAAP///////wAA", "round": -1, "prunable": true}
{"pass_through_sends": false, "timeout_disallowed": false, "time": [1390616566, 499238], "controller_id": "c1", "fingerprint": ["ControlMessageReceive", {"hard_timeout": 0, "actions": ["output(65533)"], "priority": 32768, "idle_timeout": 0, "command": "add", "out_port": 65535, "flags": 0, "class": "ofp_flow_mod", "match": "dl_dst:01:23:20:00:00:01,dl_type:35020,in_port:None"}, 2, ["c", "1"]], "timed_out": true, "dependent_labels": [], "ignore_whitelisted_packets": true, "dpid": 2, "replay_time": [1390625914, 422981], "label": "i18", "class": "ControlMessageReceive", "b64_packet": "AQ4AUAAAABUAEAAHAAAAAAAAAAABIyAAAAEAAAAAiMwAAAAAAAAAAAAAAAAAAAAAAAAAAAAAAAAAAAAAAACAAP///////wAAAAAACP/9//8=", "round": 4, "prunable": true}
{"pass_through_sends": false, "timeout_disallowed": false, "time": [1390616566, 500032], "controller_id": "c1", "fingerprint": ["ControlMessageReceive", {"hard_timeout": 0, "actions": ["output(65533)"], "priority": 32768, "idle_timeout": 0, "command": "add", "out_port": 65535, "flags": 0, "class": "ofp_flow_mod", "match": "dl_dst:01:23:20:00:00:01,dl_type:35020,in_port:None"}, 1, ["c", "1"]], "timed_out": true, "dependent_labels": [], "ignore_whitelisted_packets": true, "dpid": 1, "replay_time": [1390625915, 70901], "label": "i19", "class": "ControlMessageReceive", "b64_packet": "AQ4AUAAAABsAEAAHAAAAAAAAAAABIyAAAAEAAAAAiMwAAAAAAAAAAAAAAAAAAAAAAAAAAAAAAAAAAAAAAACAAP///////wAAAAAACP/9//8=", "round": 4, "prunable": true}
{"pass_through_sends": false, "timeout_disallowed": false, "time": [1390625915, 71833], "controller_id": "c1", "fingerprint": ["ControlMessageReceive", {"in_port": 65535, "data": {"class": "lldp"}, "class": "ofp_packet_out", "actions": ["output(1)"]}, 2, "c1"], "timed_out": false, "dependent_labels": [], "ignore_whitelisted_packets": false, "new_internal_event": true, "dpid": 2, "replay_time": [1390625915, 71856], "label": "i893", "class": "ControlMessageReceive", "b64_packet": "AQ0AQQAAABf///////8ACAAAAAgAAQAAASMgAAABAAAAAAIBiMwCBwdkcGlkOjIEAgIxBgIAeAwGZHBpZDoyAAA=", "round": -1, "prunable": true}
{"pass_through_sends": false, "timeout_disallowed": false, "time": [1390616567, 711062], "controller_id": "c1", "fingerprint": ["ControlMessageReceive", {"in_port": 65535, "data": {"class": "lldp"}, "class": "ofp_packet_out", "actions": ["output(1)"]}, 2, ["c", "1"]], "timed_out": false, "dependent_labels": [], "ignore_whitelisted_packets": true, "dpid": 2, "replay_time": [1390625915, 72352], "label": "i20", "class": "ControlMessageReceive", "b64_packet": "AQ0AQQAAABf///////8ACAAAAAgAAQAAASMgAAABAAAAAAIBiMwCBwdkcGlkOjIEAgIxBgIAeAwGZHBpZDoyAAA=", "round": 16, "prunable": true}
{"pass_through_sends": false, "timeout_disallowed": false, "time": [1390625915, 73745], "controller_id": "c1", "fingerprint": ["ControlMessageSend", {"data": {"class": "lldp"}, "class": "ofp_packet_in", "in_port": 1}, 1, "c1"], "timed_out": false, "dependent_labels": [], "ignore_whitelisted_packets": false, "new_internal_event": true, "dpid": 1, "replay_time": [1390625915, 73781], "label": "i894", "class": "ControlMessageSend", "b64_packet": "AQoAOwAAAAIAAAABADsAAQAAASMgAAABAAAAAAIBiMwCBwdkcGlkOjIEAgIxBgIAeAwGZHBpZDoyAAA=", "round": -1, "prunable": true}
{"pass_through_sends": false, "timeout_disallowed": false, "time": [1390616567, 813983], "controller_id": "c1", "fingerprint": ["ControlMessageSend", {"data": {"class": "lldp"}, "class": "ofp_packet_in", "in_port": 1}, 1, ["c", "1"]], "timed_out": false, "dependent_labels": [], "ignore_whitelisted_packets": true, "dpid": 1, "replay_time": [1390625915, 74105], "label": "i22", "class": "ControlMessageSend", "b64_packet": "AQoAOwAAAAEAAAABADsAAQEAASMgAAABAAAAAAIBiMwCBwdkcGlkOjIEAgIxBgIAeAwGZHBpZDoyAAA=", "round": 17, "prunable": true}
{"pass_through_sends": false, "timeout_disallowed": false, "time": [1390616567, 916651], "controller_id": "c1", "fingerprint": ["ControlMessageReceive", {"hard_timeout": 0, "actions": [], "priority": 32768, "idle_timeout": 0, "command": "delete", "out_port": 65535, "flags": 0, "class": "ofp_flow_mod", "match": "x^L,in_port:None"}, 1, ["c", "1"]], "timed_out": true, "dependent_labels": [], "ignore_whitelisted_packets": true, "dpid": 1, "replay_time": [1390625915, 678856], "label": "i23", "class": "ControlMessageReceive", "b64_packet": "AQ4ASAAAACEAEAAfAAAAAAAAAAAAAAAAAAAAAAAAAAAAAAAAAAAAAAAAAAAAAAAAAAAAAAAAAAAAAwAAAACAAP///////wAA", "round": 18, "prunable": true}
{"pass_through_sends": false, "timeout_disallowed": false, "time": [1390625915, 679537], "controller_id": "c1", "fingerprint": ["ControlMessageReceive", {"in_port": 1, "data": [], "class": "ofp_packet_out", "actions": []}, 1, "c1"], "timed_out": false, "dependent_labels": [], "ignore_whitelisted_packets": false, "new_internal_event": true, "dpid": 1, "replay_time": [1390625915, 679560], "label": "i895", "class": "ControlMessageReceive", "b64_packet": "AQ0AEAAAACkAAAABAAEAAA==", "round": -1, "prunable": true}
{"pass_through_sends": false, "timeout_disallowed": false, "time": [1390616567, 917471], "controller_id": "c1", "fingerprint": ["ControlMessageReceive", {"in_port": 1, "data": [], "class": "ofp_packet_out", "actions": []}, 1, ["c", "1"]], "timed_out": false, "dependent_labels": [], "ignore_whitelisted_packets": true, "dpid": 1, "replay_time": [1390625915, 679874], "label": "i24", "class": "ControlMessageReceive", "b64_packet": "AQ0AEAAAACMAAAABAAEAAA==", "round": 18, "prunable": true}
{"pass_through_sends": false, "timeout_disallowed": false, "time": [1390616567, 918676], "controller_id": "c1", "fingerprint": ["ControlMessageReceive", {"hard_timeout": 0, "actions": [], "priority": 32768, "idle_timeout": 0, "command": "delete", "out_port": 65535, "flags": 0, "class": "ofp_flow_mod", "match": "x^L,in_port:None"}, 2, ["c", "1"]], "timed_out": true, "dependent_labels": [], "ignore_whitelisted_packets": true, "dpid": 2, "replay_time": [1390625916, 321926], "label": "i25", "class": "ControlMessageReceive", "b64_packet": "AQ4ASAAAACEAEAAfAAAAAAAAAAAAAAAAAAAAAAAAAAAAAAAAAAAAAAAAAAAAAAAAAAAAAAAAAAAAAwAAAACAAP///////wAA", "round": 18, "prunable": true}
{"pass_through_sends": false, "timeout_disallowed": false, "time": [1390625916, 323052], "controller_id": "c1", "fingerprint": ["ControlMessageReceive", {"in_port": 65535, "data": {"class": "lldp"}, "class": "ofp_packet_out", "actions": ["output(2)"]}, 2, "c1"], "timed_out": false, "dependent_labels": [], "ignore_whitelisted_packets": false, "new_internal_event": true, "dpid": 2, "replay_time": [1390625916, 323101], "label": "i896", "class": "ControlMessageReceive", "b64_packet": "AQ0AQQAAABn///////8ACAAAAAgAAgAAASMgAAABAAAAAAICiMwCBwdkcGlkOjIEAgIyBgIAeAwGZHBpZDoyAAA=", "round": -1, "prunable": true}
{"pass_through_sends": false, "timeout_disallowed": false, "time": [1390616568, 929373], "controller_id": "c1", "fingerprint": ["ControlMessageReceive", {"in_port": 65535, "data": {"class": "lldp"}, "class": "ofp_packet_out", "actions": ["output(2)"]}, 2, ["c", "1"]], "timed_out": false, "dependent_labels": [], "ignore_whitelisted_packets": true, "dpid": 2, "replay_time": [1390625916, 323900], "label": "i26", "class": "ControlMessageReceive", "b64_packet": "AQ0AQQAAABn///////8ACAAAAAgAAgAAASMgAAABAAAAAAICiMwCBwdkcGlkOjIEAgIyBgIAeAwGZHBpZDoyAAA=", "round": 28, "prunable": true}
{"pass_through_sends": false, "timeout_disallowed": false, "time": [1390616570, 246109], "controller_id": "c1", "fingerprint": ["ControlMessageReceive", {"in_port": 65535, "data": {"class": "lldp"}, "class": "ofp_packet_out", "actions": ["output(1)"]}, 1, ["c", "1"]], "timed_out": false, "dependent_labels": [], "ignore_whitelisted_packets": true, "dpid": 1, "replay_time": [1390625916, 325296], "label": "i28", "class": "ControlMessageReceive", "b64_packet": "AQ0AQQAAAB3///////8ACAAAAAgAAQAAASMgAAABAAAAAAEBiMwCBwdkcGlkOjEEAgIxBgIAeAwGZHBpZDoxAAA=", "round": 41, "prunable": true}
{"pass_through_sends": false, "timeout_disallowed": false, "time": [1390616570, 348531], "controller_id": "c1", "fingerprint": ["ControlMessageSend", {"data": {"class": "lldp"}, "class": "ofp_packet_in", "in_port": 1}, 2, ["c", "1"]], "timed_out": false, "dependent_labels": [], "ignore_whitelisted_packets": true, "dpid": 2, "replay_time": [1390625916, 325672], "label": "i30", "class": "ControlMessageSend", "b64_packet": "AQoAOwAAAAEAAAABADsAAQAAASMgAAABAAAAAAEBiMwCBwdkcGlkOjEEAgIxBgIAeAwGZHBpZDoxAAA=", "round": 42, "prunable": true}
{"pass_through_sends": false, "timeout_disallowed": false, "time": [1390616570, 450460], "controller_id": "c1", "fingerprint": ["ControlMessageReceive", {"in_port": 1, "data": [], "class": "ofp_packet_out", "actions": []}, 2, ["c", "1"]], "timed_out": false, "dependent_labels": [], "ignore_whitelisted_packets": true, "dpid": 2, "replay_time": [1390625916, 326001], "label": "i31", "class": "ControlMessageReceive", "b64_packet": "AQ0AEAAAACcAAAABAAEAAA==", "round": 43, "prunable": true}
{"pass_through_sends": false, "timeout_disallowed": false, "time": [1390616570, 451037], "controller_id": "c1", "fingerprint": ["ControlMessageReceive", {"hard_timeout": 0, "actions": [], "priority": 32768, "idle_timeout": 0, "command": "delete", "out_port": 65535, "flags": 0, "class": "ofp_flow_mod", "match": "x^L,in_port:None"}, 1, ["c", "1"]], "timed_out": true, "dependent_labels": [], "ignore_whitelisted_packets": true, "dpid": 1, "replay_time": [1390625916, 929983], "label": "i32", "class": "ControlMessageReceive", "b64_packet": "AQ4ASAAAACUAEAAfAAAAAAAAAAAAAAAAAAAAAAAAAAAAAAAAAAAAAAAAAAAAAAAAAAAAAAAAAAAAAwAAAACAAP///////wAA", "round": 43, "prunable": true}
{"pass_through_sends": false, "timeout_disallowed": false, "time": [1390616570, 451695], "controller_id": "c1", "fingerprint": ["ControlMessageReceive", {"hard_timeout": 0, "actions": [], "priority": 32768, "idle_timeout": 0, "command": "delete", "out_port": 65535, "flags": 0, "class": "ofp_flow_mod", "match": "x^L,in_port:None"}, 2, ["c", "1"]], "timed_out": true, "dependent_labels": [], "ignore_whitelisted_packets": true, "dpid": 2, "replay_time": [1390625917, 573729], "label": "i33", "class": "ControlMessageReceive", "b64_packet": "AQ4ASAAAACUAEAAfAAAAAAAAAAAAAAAAAAAAAAAAAAAAAAAAAAAAAAAAAAAAAAAAAAAAAAAAAAAAAwAAAACAAP///////wAA", "round": 43, "prunable": true}
{"pass_through_sends": false, "timeout_disallowed": false, "time": [1390625917, 574662], "controller_id": "c1", "fingerprint": ["ControlMessageReceive", {"in_port": 65535, "data": {"class": "lldp"}, "class": "ofp_packet_out", "actions": ["output(1)"]}, 1, "c1"], "timed_out": false, "dependent_labels": [], "ignore_whitelisted_packets": false, "new_internal_event": true, "dpid": 1, "replay_time": [1390625917, 574688], "label": "i897", "class": "ControlMessageReceive", "b64_packet": "AQ0AQQAAAB3///////8ACAAAAAgAAQAAASMgAAABAAAAAAEBiMwCBwdkcGlkOjEEAgIxBgIAeAwGZHBpZDoxAAA=", "round": -1, "prunable": true}
{"pass_through_sends": false, "timeout_disallowed": false, "time": [1390616571, 469779], "controller_id": "c1", "fingerprint": ["ControlMessageReceive", {"in_port": 65535, "data": {"class": "lldp"}, "class": "ofp_packet_out", "actions": ["output(2)"]}, 1, ["c", "1"]], "timed_out": false, "dependent_labels": [], "ignore_whitelisted_packets": true, "dpid": 1, "replay_time": [1390625917, 575070], "label": "i42", "class": "ControlMessageReceive", "b64_packet": "AQ0AQQAAAB////////8ACAAAAAgAAgAAASMgAAABAAAAAAECiMwCBwdkcGlkOjEEAgIyBgIAeAwGZHBpZDoxAAA=", "round": 53, "prunable": true}
{"pass_through_sends": false, "timeout_disallowed": false, "time": [1390625917, 575840], "controller_id": "c1", "fingerprint": ["ControlMessageSend", {"data": {"class": "lldp"}, "class": "ofp_packet_in", "in_port": 1}, 2, "c1"], "timed_out": false, "dependent_labels": [], "ignore_whitelisted_packets": false, "new_internal_event": true, "dpid": 2, "replay_time": [1390625917, 575860], "label": "i898", "class": "ControlMessageSend", "b64_packet": "AQoAOwAAAAIAAAABADsAAQAAASMgAAABAAAAAAEBiMwCBwdkcGlkOjEEAgIxBgIAeAwGZHBpZDoxAAA=", "round": -1, "prunable": true}
{"legacy_invariant_check": false, "class": "CheckInvariants", "fingerprint": "N/A", "timed_out": false, "label": "e56", "dependent_labels": [], "invariant_name": "check_for_flow_entry", "invariant_check_name": "check_for_flow_entry", "time": [1390616572, 589142], "replay_time": [1390625918, 696007], "invariant_check": null, "round": 64, "prunable": true}
{"pass_through_sends": false, "timeout_disallowed": false, "time": [1390625918, 696593], "controller_id": "c1", "fingerprint": ["ControlMessageReceive", {"in_port": 65535, "data": {"class": "lldp"}, "class": "ofp_packet_out", "actions": ["output(2)"]}, 1, "c1"], "timed_out": false, "dependent_labels": [], "ignore_whitelisted_packets": false, "new_internal_event": true, "dpid": 1, "replay_time": [1390625918, 696643], "label": "i899", "class": "ControlMessageReceive", "b64_packet": "AQ0AQQAAAB////////8ACAAAAAgAAgAAASMgAAABAAAAAAECiMwCBwdkcGlkOjEEAgIyBgIAeAwGZHBpZDoxAAA=", "round": -1, "prunable": true}
{"pass_through_sends": false, "timeout_disallowed": false, "time": [1390625918, 697239], "controller_id": "c1", "fingerprint": ["ControlMessageReceive", {"in_port": 1, "data": [], "class": "ofp_packet_out", "actions": []}, 2, "c1"], "timed_out": false, "dependent_labels": [], "ignore_whitelisted_packets": false, "new_internal_event": true, "dpid": 2, "replay_time": [1390625918, 697271], "label": "i900", "class": "ControlMessageReceive", "b64_packet": "AQ0AEAAAACsAAAABAAEAAA==", "round": -1, "prunable": true}
{"legacy_invariant_check": false, "class": "CheckInvariants", "fingerprint": "N/A", "timed_out": false, "label": "e58", "dependent_labels": [], "invariant_name": "check_for_flow_entry", "invariant_check_name": "check_for_flow_entry", "time": [1390616572, 691554], "replay_time": [1390625918, 799100], "invariant_check": null, "round": 65, "prunable": true}
{"legacy_invariant_check": false, "class": "CheckInvariants", "fingerprint": "N/A", "timed_out": false, "label": "e61", "dependent_labels": [], "invariant_name": "check_for_flow_entry", "invariant_check_name": "check_for_flow_entry", "time": [1390616572, 793737], "replay_time": [1390625918, 901810], "invariant_check": null, "round": 66, "prunable": true}
{"legacy_invariant_check": false, "class": "CheckInvariants", "fingerprint": "N/A", "timed_out": false, "label": "e63", "dependent_labels": [], "invariant_name": "check_for_flow_entry", "invariant_check_name": "check_for_flow_entry", "time": [1390616572, 895947], "replay_time": [1390625919, 5360], "invariant_check": null, "round": 67, "prunable": true}
{"dependent_labels": [], "class": "TrafficInjection", "fingerprint": ["TrafficInjection", {"interface": {"hw_addr": "12:34:56:78:02:02", "ips": ["10.2.2.2"], "name": "eth2"}, "packet": "EjRWeAECEjRWeAICCABFAABIH/oAAEABQrUKAgICCgECAgAADjdQaW5nUGluZ1BpbmdQaW5nUGluZ1BpbmdQaW5nUGluZ1BpbmdQaW5nUGluZ1Bpbmc="}, null], "timed_out": false, "label": "e64", "dp_event": {"interface": {"hw_addr": "12:34:56:78:02:02", "ips": ["10.2.2.2"], "name": "eth2"}, "packet": "EjRWeAECEjRWeAICCABFAABIH/oAAEABQrUKAgICCgECAgAADjdQaW5nUGluZ1BpbmdQaW5nUGluZ1BpbmdQaW5nUGluZ1BpbmdQaW5nUGluZ1Bpbmc="}, "time": [1390616572, 998247], "replay_time": [1390625919, 108962], "host_id": null, "round": 68, "prunable": true}
{"pass_through_sends": false, "timeout_disallowed": false, "time": [1390625919, 110085], "controller_id": "c1", "fingerprint": ["ControlMessageSend", {"data": {"dl_dst": "12:34:56:78:01:02", "nw_src": "10.2.2.2", "dl_src": "12:34:56:78:02:02", "nw_dst": "10.1.2.2"}, "class": "ofp_packet_in", "in_port": 2}, 2, "c1"], "timed_out": false, "dependent_labels": [], "ignore_whitelisted_packets": false, "new_internal_event": true, "dpid": 2, "replay_time": [1390625919, 110107], "label": "i901", "class": "ControlMessageSend", "b64_packet": "AQoAaAAAAAMAAAABAGgAAgAAEjRWeAECEjRWeAICCABFAABIH/oAAEABQrUKAgICCgECAgAADjdQaW5nUGluZ1BpbmdQaW5nUGluZ1BpbmdQaW5nUGluZ1BpbmdQaW5nUGluZ1Bpbmc=", "round": -1, "prunable": true}
{"legacy_invariant_check": false, "class": "CheckInvariants", "fingerprint": "N/A", "timed_out": false, "label": "e65", "dependent_labels": [], "invariant_name": "check_for_flow_entry", "invariant_check_name": "check_for_flow_entry", "time": [1390616572, 998818], "replay_time": [1390625919, 110548], "invariant_check": null, "round": 68, "prunable": true}
{"legacy_invariant_check": false, "class": "CheckInvariants", "fingerprint": "N/A", "timed_out": false, "label": "e68", "dependent_labels": [], "invariant_name": "check_for_flow_entry", "invariant_check_name": "check_for_flow_entry", "time": [1390616573, 101099], "replay_time": [1390625919, 214110], "invariant_check": null, "round": 69, "prunable": true}
{"pass_through_sends": false, "timeout_disallowed": false, "time": [1390625919, 214877], "controller_id": "c1", "fingerprint": ["ControlMessageReceive", {"in_port": 2, "data": [], "class": "ofp_packet_out", "actions": ["output(65531)"]}, 2, "c1"], "timed_out": false, "dependent_labels": [], "ignore_whitelisted_packets": false, "new_internal_event": true, "dpid": 2, "replay_time": [1390625919, 214905], "label": "i902", "class": "ControlMessageReceive", "b64_packet": "AQ0AGAAAAC0AAAABAAIACAAAAAj/+wAA", "round": -1, "prunable": true}
{"legacy_invariant_check": false, "class": "CheckInvariants", "fingerprint": "N/A", "timed_out": false, "label": "e71", "dependent_labels": [], "invariant_name": "check_for_flow_entry", "invariant_check_name": "check_for_flow_entry", "time": [1390616573, 203712], "replay_time": [1390625919, 317314], "invariant_check": null, "round": 70, "prunable": true}
{"pass_through_sends": false, "timeout_disallowed": false, "time": [1390625919, 318118], "controller_id": "c1", "fingerprint": ["ControlMessageSend", {"data": {"dl_dst": "12:34:56:78:01:02", "nw_src": "10.2.2.2", "dl_src": "12:34:56:78:02:02", "nw_dst": "10.1.2.2"}, "class": "ofp_packet_in", "in_port": 1}, 1, "c1"], "timed_out": false, "dependent_labels": [], "ignore_whitelisted_packets": false, "new_internal_event": true, "dpid": 1, "replay_time": [1390625919, 318154], "label": "i903", "class": "ControlMessageSend", "b64_packet": "AQoAaAAAAAMAAAABAGgAAQAAEjRWeAECEjRWeAICCABFAABIH/oAAEABQrUKAgICCgECAgAADjdQaW5nUGluZ1BpbmdQaW5nUGluZ1BpbmdQaW5nUGluZ1BpbmdQaW5nUGluZ1Bpbmc=", "round": -1, "prunable": true}
{"legacy_invariant_check": false, "class": "CheckInvariants", "fingerprint": "N/A", "timed_out": false, "label": "e75", "dependent_labels": [], "invariant_name": "check_for_flow_entry", "invariant_check_name": "check_for_flow_entry", "time": [1390616573, 409225], "replay_time": [1390625919, 524079], "invariant_check": null, "round": 72, "prunable": true}
{"pass_through_sends": false, "timeout_disallowed": false, "time": [1390625919, 524510], "controller_id": "c1", "fingerprint": ["ControlMessageReceive", {"in_port": 1, "data": [], "class": "ofp_packet_out", "actions": ["output(65531)"]}, 1, "c1"], "timed_out": false, "dependent_labels": [], "ignore_whitelisted_packets": false, "new_internal_event": true, "dpid": 1, "replay_time": [1390625919, 524533], "label": "i904", "class": "ControlMessageReceive", "b64_packet": "AQ0AGAAAAC8AAAABAAEACAAAAAj/+wAA", "round": -1, "prunable": true}
{"pass_through_sends": false, "timeout_disallowed": false, "time": [1390625919, 525010], "controller_id": "c1", "fingerprint": ["ControlMessageReceive", {"in_port": 65535, "data": {"class": "lldp"}, "class": "ofp_packet_out", "actions": ["output(1)"]}, 2, "c1"], "timed_out": false, "dependent_labels": [], "ignore_whitelisted_packets": false, "new_internal_event": true, "dpid": 2, "replay_time": [1390625919, 525029], "label": "i905", "class": "ControlMessageReceive", "b64_packet": "AQ0AQQAAABf///////8ACAAAAAgAAQAAASMgAAABAAAAAAIBiMwCBwdkcGlkOjIEAgIxBgIAeAwGZHBpZDoyAAA=", "round": -1, "prunable": true}
{"legacy_invariant_check": false, "class": "CheckInvariants", "fingerprint": "N/A", "timed_out": false, "label": "e78", "dependent_labels": [], "invariant_name": "check_for_flow_entry", "invariant_check_name": "check_for_flow_entry", "time": [1390616573, 512850], "replay_time": [1390625919, 628373], "invariant_check": null, "round": 73, "prunable": true}
{"pass_through_sends": false, "timeout_disallowed": false, "time": [1390625919, 629949], "controller_id": "c1", "fingerprint": ["ControlMessageSend", {"data": {"class": "lldp"}, "class": "ofp_packet_in", "in_port": 1}, 1, "c1"], "timed_out": false, "dependent_labels": [], "ignore_whitelisted_packets": false, "new_internal_event": true, "dpid": 1, "replay_time": [1390625919, 629982], "label": "i906", "class": "ControlMessageSend", "b64_packet": "AQoAOwAAAAQAAAABADsAAQAAASMgAAABAAAAAAIBiMwCBwdkcGlkOjIEAgIxBgIAeAwGZHBpZDoyAAA=", "round": -1, "prunable": true}
{"legacy_invariant_check": false, "class": "CheckInvariants", "fingerprint": "N/A", "timed_out": false, "label": "e82", "dependent_labels": [], "invariant_name": "check_for_flow_entry", "invariant_check_name": "check_for_flow_entry", "time": [1390616573, 616544], "replay_time": [1390625919, 733443], "invariant_check": null, "round": 74, "prunable": true}
{"pass_through_sends": false, "timeout_disallowed": false, "time": [1390625919, 734481], "controller_id": "c1", "fingerprint": ["ControlMessageReceive", {"in_port": 1, "data": [], "class": "ofp_packet_out", "actions": []}, 1, "c1"], "timed_out": false, "dependent_labels": [], "ignore_whitelisted_packets": false, "new_internal_event": true, "dpid": 1, "replay_time": [1390625919, 734515], "label": "i907", "class": "ControlMessageReceive", "b64_packet": "AQ0AEAAAADEAAAABAAEAAA==", "round": -1, "prunable": true}
{"pass_through_sends": false, "timeout_disallowed": false, "time": [1390625919, 735117], "controller_id": "c1", "fingerprint": ["ControlMessageSend", {"data": {"dl_dst": "12:34:56:78:02:02", "nw_src": "10.1.2.2", "dl_src": "12:34:56:78:01:02", "nw_dst": "10.2.2.2"}, "class": "ofp_packet_in", "in_port": 2}, 1, "c1"], "timed_out": false, "dependent_labels": [], "ignore_whitelisted_packets": false, "new_internal_event": true, "dpid": 1, "replay_time": [1390625919, 735148], "label": "i908", "class": "ControlMessageSend", "b64_packet": "AQoASAAAAAUAAAACAEgAAgAAEjRWeAICEjRWeAECCABFAAAoQcMAAEAGIQcKAQICCgICAgAAAAAAAAAAAAAAAAAAAADn3gAA", "round": -1, "prunable": true}
{"class": "WaitTime", "fingerprint": ["WaitTime"], "timed_out": false, "label": "e84", "wait_time": 1.0, "dependent_labels": [], "time": [1390616573, 616781], "replay_time": [1390625920, 736482], "round": -1, "prunable": true}
{"wait_time": 1.0, "dependent_labels": [], "fingerprint": ["WaitTime"], "time": [1390616573, 616781], "class": "WaitTime", "prunable": true, "timed_out": false, "round": -1, "label": "e909"}
