{"timeout_disallowed": true, "fingerprint": ["ConnectToControllers"], "timed_out": false, "label": "e1", "dependent_labels": [], "time": [1390616566, 187768], "replay_time": [1390625611, 362414], "class": "ConnectToControllers", "round": 0, "prunable": false}
{"pass_through_sends": false, "timeout_disallowed": false, "time": [1390616566, 188736], "controller_id": "c1", "fingerprint": ["ControlMessageReceive", {"class": "ofp_hello"}, 2, ["c", "1"]], "timed_out": false, "dependent_labels": [], "ignore_whitelisted_packets": true, "dpid": 2, "replay_time": [1390625611, 363939], "label": "i2", "class": "ControlMessageReceive", "b64_packet": "AQAACAAAAAM=", "round": 1, "prunable": true}
{"pass_through_sends": false, "timeout_disallowed": false, "time": [1390625611, 364484], "controller_id": "c1", "fingerprint": ["ControlMessageReceive", {"class": "ofp_hello"}, 1, "c1"], "timed_out": false, "dependent_labels": [], "ignore_whitelisted_packets": false, "new_internal_event": true, "dpid": 1, "replay_time": [1390625611, 364503], "label": "i540", "class": "ControlMessageReceive", "b64_packet": "AQAACAAAAAE=", "round": -1, "prunable": true}
{"pass_through_sends": false, "timeout_disallowed": false, "time": [1390625611, 364643], "controller_id": "c1", "fingerprint": ["ControlMessageSend", {"class": "ofp_hello"}, 2, "c1"], "timed_out": false, "dependent_labels": [], "ignore_whitelisted_packets": false, "new_internal_event": true, "dpid": 2, "replay_time": [1390625611, 364657], "label": "i541", "class": "ControlMessageSend", "b64_packet": "AQAACAAAACU=", "round": -1, "prunable": true}
{"pass_through_sends": false, "timeout_disallowed": false, "time": [1390616566, 189184], "controller_id": "c1", "fingerprint": ["ControlMessageReceive", {"class": "ofp_hello"}, 1, ["c", "1"]], "timed_out": true, "dependent_labels": [], "ignore_whitelisted_packets": true, "dpid": 1, "replay_time": [1390625611, 968497], "label": "i3", "class": "ControlMessageReceive", "b64_packet": "AQAACAAAAAE=", "round": 1, "prunable": true}
{"pass_through_sends": false, "timeout_disallowed": false, "time": [1390625611, 969254], "controller_id": "c1", "fingerprint": ["ControlMessageReceive", {"class": "ofp_features_request"}, 2, "c1"], "timed_out": false, "dependent_labels": [], "ignore_whitelisted_packets": false, "new_internal_event": true, "dpid": 2, "replay_time": [1390625611, 969272], "label": "i542", "class": "ControlMessageReceive", "b64_packet": "AQUACAAAAAU=", "round": -1, "prunable": true}
{"pass_through_sends": false, "timeout_disallowed": false, "time": [1390625611, 969441], "controller_id": "c1", "fingerprint": ["ControlMessageSend", {"class": "ofp_hello"}, 1, "c1"], "timed_out": false, "dependent_labels": [], "ignore_whitelisted_packets": false, "new_internal_event": true, "dpid": 1, "replay_time": [1390625611, 969457], "label": "i543", "class": "ControlMessageSend", "b64_packet": "AQAACAAAACc=", "round": -1, "prunable": true}
{"pass_through_sends": false, "timeout_disallowed": false, "time": [1390616566, 189396], "controller_id": "c1", "fingerprint": ["ControlMessageSend", {"class": "ofp_hello"}, 2, ["c", "1"]], "timed_out": true, "dependent_labels": [], "ignore_whitelisted_packets": true, "dpid": 2, "replay_time": [1390625612, 571836], "label": "i4", "class": "ControlMessageSend", "b64_packet": "AQAACAAAAAE=", "round": 1, "prunable": true}
{"pass_through_sends": false, "timeout_disallowed": false, "time": [1390625612, 572719], "controller_id": "c1", "fingerprint": ["ControlMessageReceive", {"class": "ofp_features_request"}, 1, "c1"], "timed_out": false, "dependent_labels": [], "ignore_whitelisted_packets": false, "new_internal_event": true, "dpid": 1, "replay_time": [1390625612, 572746], "label": "i544", "class": "ControlMessageReceive", "b64_packet": "AQUACAAAAAc=", "round": -1, "prunable": true}
{"pass_through_sends": false, "timeout_disallowed": false, "time": [1390625612, 573185], "controller_id": "c1", "fingerprint": ["ControlMessageSend", {"datapath_id": 2, "class": "ofp_features_reply"}, 2, "c1"], "timed_out": false, "dependent_labels": [], "ignore_whitelisted_packets": false, "new_internal_event": true, "dpid": 2, "replay_time": [1390625612, 573213], "label": "i545", "class": "ControlMessageSend", "b64_packet": "AQYAgAAAAAUAAAAAAAAAAgAAAGQBAAAAAAAA7wAAB/8AAQAAAAACAWV0aDEAAAAAAAAAAAAAAAAAAAAAAAAAAAAAAAAAAAAAAAAAAAAAAAAAAgAAAAACAmV0aDIAAAAAAAAAAAAAAAAAAAAAAAAAAAAAAAAAAAAAAAAAAAAAAAA=", "round": -1, "prunable": true}
{"pass_through_sends": false, "timeout_disallowed": false, "time": [1390616566, 189612], "controller_id": "c1", "fingerprint": ["ControlMessageSend", {"class": "ofp_hello"}, 1, ["c", "1"]], "timed_out": true, "dependent_labels": [], "ignore_whitelisted_packets": true, "dpid": 1, "replay_time": [1390625613, 177985], "label": "i5", "class": "ControlMessageSend", "b64_packet": "AQAACAAAAAM=", "round": 1, "prunable": true}
{"pass_through_sends": false, "timeout_disallowed": false, "time": [1390625613, 179105], "controller_id": "c1", "fingerprint": ["ControlMessageReceive", {"hard_timeout": 0, "actions": [], "priority": 32768, "idle_timeout": 0, "command": "delete", "out_port": 65535, "flags": 0, "class": "ofp_flow_mod", "match": "x^L,in_port:None"}, 2, "c1"], "timed_out": false, "dependent_labels": [], "ignore_whitelisted_packets": false, "new_internal_event": true, "dpid": 2, "replay_time": [1390625613, 179142], "label": "i546", "class": "ControlMessageReceive", "b64_packet": "AQ4ASAAAAAsAEAAfAAAAAAAAAAAAAAAAAAAAAAAAAAAAAAAAAAAAAAAAAAAAAAAAAAAAAAAAAAAAAwAAAACAAP///////wAA", "round": -1, "prunable": true}
{"pass_through_sends": false, "timeout_disallowed": false, "time": [1390625613, 179790], "controller_id": "c1", "fingerprint": ["ControlMessageReceive", {"class": "ofp_set_config"}, 2, "c1"], "timed_out": false, "dependent_labels": [], "ignore_whitelisted_packets": false, "new_internal_event": true, "dpid": 2, "replay_time": [1390625613, 179819], "label": "i547", "class": "ControlMessageReceive", "b64_packet": "AQkADAAAAAkAAACA", "round": -1, "prunable": true}
{"pass_through_sends": false, "timeout_disallowed": false, "time": [1390625613, 180157], "controller_id": "c1", "fingerprint": ["ControlMessageReceive", {"class": "ofp_barrier_request"}, 2, "c1"], "timed_out": false, "dependent_labels": [], "ignore_whitelisted_packets": false, "new_internal_event": true, "dpid": 2, "replay_time": [1390625613, 180182], "label": "i548", "class": "ControlMessageReceive", "b64_packet": "ARIACAAAAA0=", "round": -1, "prunable": true}
{"pass_through_sends": false, "timeout_disallowed": false, "time": [1390625613, 180563], "controller_id": "c1", "fingerprint": ["ControlMessageSend", {"datapath_id": 1, "class": "ofp_features_reply"}, 1, "c1"], "timed_out": false, "dependent_labels": [], "ignore_whitelisted_packets": false, "new_internal_event": true, "dpid": 1, "replay_time": [1390625613, 180591], "label": "i549", "class": "ControlMessageSend", "b64_packet": "AQYAgAAAAAcAAAAAAAAAAQAAAGQBAAAAAAAA7wAAB/8AAQAAAAABAWV0aDEAAAAAAAAAAAAAAAAAAAAAAAAAAAAAAAAAAAAAAAAAAAAAAAAAAgAAAAABAmV0aDIAAAAAAAAAAAAAAAAAAAAAAAAAAAAAAAAAAAAAAAAAAAAAAAA=", "round": -1, "prunable": true}
{"pass_through_sends": false, "timeout_disallowed": false, "time": [1390616566, 291100], "controller_id": "c1", "fingerprint": ["ControlMessageReceive", {"class": "ofp_features_request"}, 2, ["c", "1"]], "timed_out": true, "dependent_labels": [], "ignore_whitelisted_packets": true, "dpid": 2, "replay_time": [1390625613, 784961], "label": "i6", "class": "ControlMessageReceive", "b64_packet": "AQUACAAAAAU=", "round": 2, "prunable": true}
{"pass_through_sends": false, "timeout_disallowed": false, "time": [1390625613, 785663], "controller_id": "c1", "fingerprint": ["ControlMessageReceive", {"class": "ofp_barrier_request"}, 1, "c1"], "timed_out": false, "dependent_labels": [], "ignore_whitelisted_packets": false, "new_internal_event": true, "dpid": 1, "replay_time": [1390625613, 785682], "label": "i550", "class": "ControlMessageReceive", "b64_packet": "ARIACAAAABM=", "round": -1, "prunable": true}
{"pass_through_sends": false, "timeout_disallowed": false, "time": [1390625613, 785915], "controller_id": "c1", "fingerprint": ["ControlMessageReceive", {"class": "ofp_set_config"}, 1, "c1"], "timed_out": false, "dependent_labels": [], "ignore_whitelisted_packets": false, "new_internal_event": true, "dpid": 1, "replay_time": [1390625613, 785932], "label": "i551", "class": "ControlMessageReceive", "b64_packet": "AQkADAAAAA8AAACA", "round": -1, "prunable": true}
{"pass_through_sends": false, "timeout_disallowed": false, "time": [1390625613, 786320], "controller_id": "c1", "fingerprint": ["ControlMessageReceive", {"hard_timeout": 0, "actions": [], "priority": 32768, "idle_timeout": 0, "command": "delete", "out_port": 65535, "flags": 0, "class": "ofp_flow_mod", "match": "x^L,in_port:None"}, 1, "c1"], "timed_out": false, "dependent_labels": [], "ignore_whitelisted_packets": false, "new_internal_event": true, "dpid": 1, "replay_time": [1390625613, 786341], "label": "i552", "class": "ControlMessageReceive", "b64_packet": "AQ4ASAAAABEAEAAfAAAAAAAAAAAAAAAAAAAAAAAAAAAAAAAAAAAAAAAAAAAAAAAAAAAAAAAAAAAAAwAAAACAAP///////wAA", "round": -1, "prunable": true}
{"pass_through_sends": false, "timeout_disallowed": false, "time": [1390625613, 786710], "controller_id": "c1", "fingerprint": ["ControlMessageSend", {"class": "ofp_barrier_reply"}, 2, "c1"], "timed_out": false, "dependent_labels": [], "ignore_whitelisted_packets": false, "new_internal_event": true, "dpid": 2, "replay_time": [1390625613, 786728], "label": "i553", "class": "ControlMessageSend", "b64_packet": "ARMACAAAAA0=", "round": -1, "prunable": true}
{"pass_through_sends": false, "timeout_disallowed": false, "time": [1390616566, 291533], "controller_id": "c1", "fingerprint": ["ControlMessageReceive", {"class": "ofp_features_request"}, 1, ["c", "1"]], "timed_out": true, "dependent_labels": [], "ignore_whitelisted_packets": true, "dpid": 1, "replay_time": [1390625614, 390497], "label": "i7", "class": "ControlMessageReceive", "b64_packet": "AQUACAAAAAc=", "round": 2, "prunable": true}
{"pass_through_sends": false, "timeout_disallowed": false, "time": [1390625614, 391319], "controller_id": "c1", "fingerprint": ["ControlMessageReceive", {"hard_timeout": 0, "actions": ["output(65533)"], "priority": 32768, "idle_timeout": 0, "command": "add", "out_port": 65535, "flags": 0, "class": "ofp_flow_mod", "match": "dl_dst:01:23:20:00:00:01,dl_type:35020,in_port:None"}, 2, "c1"], "timed_out": false, "dependent_labels": [], "ignore_whitelisted_packets": false, "new_internal_event": true, "dpid": 2, "replay_time": [1390625614, 391344], "label": "i554", "class": "ControlMessageReceive", "b64_packet": "AQ4AUAAAABUAEAAHAAAAAAAAAAABIyAAAAEAAAAAiMwAAAAAAAAAAAAAAAAAAAAAAAAAAAAAAAAAAAAAAACAAP///////wAAAAAACP/9//8=", "round": -1, "prunable": true}
{"pass_through_sends": false, "timeout_disallowed": false, "time": [1390625614, 391703], "controller_id": "c1", "fingerprint": ["ControlMessageSend", {"class": "ofp_barrier_reply"}, 1, "c1"], "timed_out": false, "dependent_labels": [], "ignore_whitelisted_packets": false, "new_internal_event": true, "dpid": 1, "replay_time": [1390625614, 391722], "label": "i555", "class": "ControlMessageSend", "b64_packet": "ARMACAAAABM=", "round": -1, "prunable": true}
{"pass_through_sends": false, "timeout_disallowed": false, "time": [1390616566, 291905], "controller_id": "c1", "fingerprint": ["ControlMessageSend", {"datapath_id": 2, "class": "ofp_features_reply"}, 2, ["c", "1"]], "timed_out": true, "dependent_labels": [], "ignore_whitelisted_packets": true, "dpid": 2, "replay_time": [1390625614, 996346], "label": "i8", "class": "ControlMessageSend", "b64_packet": "AQYAgAAAAAUAAAAAAAAAAgAAAGQBAAAAAAAA7wAAB/8AAQAAAAACAWV0aDEAAAAAAAAAAAAAAAAAAAAAAAAAAAAAAAAAAAAAAAAAAAAAAAAAAgAAAAACAmV0aDIAAAAAAAAAAAAAAAAAAAAAAAAAAAAAAAAAAAAAAAAAAAAAAAA=", "round": 2, "prunable": true}
{"pass_through_sends": false, "timeout_disallowed": false, "time": [1390625614, 997164], "controller_id": "c1", "fingerprint": ["ControlMessageReceive", {"hard_timeout": 0, "actions": ["output(65533)"], "priority": 32768, "idle_timeout": 0, "command": "add", "out_port": 65535, "flags": 0, "class": "ofp_flow_mod", "match": "dl_dst:01:23:20:00:00:01,dl_type:35020,in_port:None"}, 1, "c1"], "timed_out": false, "dependent_labels": [], "ignore_whitelisted_packets": false, "new_internal_event": true, "dpid": 1, "replay_time": [1390625614, 997189], "label": "i556", "class": "ControlMessageReceive", "b64_packet": "AQ4AUAAAABsAEAAHAAAAAAAAAAABIyAAAAEAAAAAiMwAAAAAAAAAAAAAAAAAAAAAAAAAAAAAAAAAAAAAAACAAP///////wAAAAAACP/9//8=", "round": -1, "prunable": true}
{"pass_through_sends": false, "timeout_disallowed": false, "time": [1390616566, 292323], "controller_id": "c1", "fingerprint": ["ControlMessageSend", {"datapath_id": 1, "class": "ofp_features_reply"}, 1, ["c", "1"]], "timed_out": true, "dependent_labels": [], "ignore_whitelisted_packets": true, "dpid": 1, "replay_time": [1390625615, 600467], "label": "i9", "class": "ControlMessageSend", "b64_packet": "AQYAgAAAAAcAAAAAAAAAAQAAAGQBAAAAAAAA7wAAB/8AAQAAAAABAWV0aDEAAAAAAAAAAAAAAAAAAAAAAAAAAAAAAAAAAAAAAAAAAAAAAAAAAgAAAAABAmV0aDIAAAAAAAAAAAAAAAAAAAAAAAAAAAAAAAAAAAAAAAAAAAAAAAA=", "round": 2, "prunable": true}
{"pass_through_sends": false, "timeout_disallowed": false, "time": [1390616566, 394266], "controller_id": "c1", "fingerprint": ["ControlMessageReceive", {"class": "ofp_set_config"}, 1, ["c", "1"]], "timed_out": true, "dependent_labels": [], "ignore_whitelisted_packets": true, "dpid": 1, "replay_time": [1390625616, 248152], "label": "i10", "class": "ControlMessageReceive", "b64_packet": "AQkADAAAAA8AAACA", "round": 3, "prunable": true}
{"pass_through_sends": false, "timeout_disallowed": false, "time": [1390625616, 249301], "controller_id": "c1", "fingerprint": ["ControlMessageReceive", {"in_port": 65535, "data": {"class": "lldp"}, "class": "ofp_packet_out", "actions": ["output(1)"]}, 2, "c1"], "timed_out": false, "dependent_labels": [], "ignore_whitelisted_packets": false, "new_internal_event": true, "dpid": 2, "replay_time": [1390625616, 249335], "label": "i557", "class": "ControlMessageReceive", "b64_packet": "AQ0AQQAAABf///////8ACAAAAAgAAQAAASMgAAABAAAAAAIBiMwCBwdkcGlkOjIEAgIxBgIAeAwGZHBpZDoyAAA=", "round": -1, "prunable": true}
{"pass_through_sends": false, "timeout_disallowed": false, "time": [1390616566, 394905], "controller_id": "c1", "fingerprint": ["ControlMessageReceive", {"class": "ofp_barrier_request"}, 2, ["c", "1"]], "timed_out": true, "dependent_labels": [], "ignore_whitelisted_packets": true, "dpid": 2, "replay_time": [1390625616, 852059], "label": "i11", "class": "ControlMessageReceive", "b64_packet": "ARIACAAAAA0=", "round": 3, "prunable": true}
{"pass_through_sends": false, "timeout_disallowed": false, "time": [1390625616, 853558], "controller_id": "c1", "fingerprint": ["ControlMessageSend", {"data": {"class": "lldp"}, "class": "ofp_packet_in", "in_port": 1}, 1, "c1"], "timed_out": false, "dependent_labels": [], "ignore_whitelisted_packets": false, "new_internal_event": true, "dpid": 1, "replay_time": [1390625616, 853588], "label": "i558", "class": "ControlMessageSend", "b64_packet": "AQoAOwAAAAEAAAABADsAAQEAASMgAAABAAAAAAIBiMwCBwdkcGlkOjIEAgIxBgIAeAwGZHBpZDoyAAA=", "round": -1, "prunable": true}
{"pass_through_sends": false, "timeout_disallowed": false, "time": [1390616566, 395385], "controller_id": "c1", "fingerprint": ["ControlMessageReceive", {"hard_timeout": 0, "actions": [], "priority": 32768, "idle_timeout": 0, "command": "delete", "out_port": 65535, "flags": 0, "class": "ofp_flow_mod", "match": "x^L,in_port:None"}, 1, ["c", "1"]], "timed_out": false, "dependent_labels": [], "ignore_whitelisted_packets": true, "dpid": 1, "replay_time": [1390625616, 855680], "label": "i12", "class": "ControlMessageReceive", "b64_packet": "AQ4ASAAAABEAEAAfAAAAAAAAAAAAAAAAAAAAAAAAAAAAAAAAAAAAAAAAAAAAAAAAAAAAAAAAAAAAAwAAAACAAP///////wAA", "round": 3, "prunable": true}
{"pass_through_sends": false, "timeout_disallowed": false, "time": [1390616566, 395851], "controller_id": "c1", "fingerprint": ["ControlMessageReceive", {"class": "ofp_set_config"}, 2, ["c", "1"]], "timed_out": true, "dependent_labels": [], "ignore_whitelisted_packets": true, "dpid": 2, "replay_time": [1390625617, 498987], "label": "i13", "class": "ControlMessageReceive", "b64_packet": "AQkADAAAAAkAAACA", "round": 3, "prunable": true}
{"pass_through_sends": false, "timeout_disallowed": false, "time": [1390625617, 499556], "controller_id": "c1", "fingerprint": ["ControlMessageReceive", {"in_port": 1, "data": [], "class": "ofp_packet_out", "actions": []}, 1, "c1"], "timed_out": false, "dependent_labels": [], "ignore_whitelisted_packets": false, "new_internal_event": true, "dpid": 1, "replay_time": [1390625617, 499579], "label": "i559", "class": "ControlMessageReceive", "b64_packet": "AQ0AEAAAACMAAAABAAEAAA==", "round": -1, "prunable": true}
{"pass_through_sends": false, "timeout_disallowed": false, "time": [1390625617, 500013], "controller_id": "c1", "fingerprint": ["ControlMessageReceive", {"in_port": 65535, "data": {"class": "lldp"}, "class": "ofp_packet_out", "actions": ["output(2)"]}, 2, "c1"], "timed_out": false, "dependent_labels": [], "ignore_whitelisted_packets": false, "new_internal_event": true, "dpid": 2, "replay_time": [1390625617, 500033], "label": "i560", "class": "ControlMessageReceive", "b64_packet": "AQ0AQQAAABn///////8ACAAAAAgAAgAAASMgAAABAAAAAAICiMwCBwdkcGlkOjIEAgIyBgIAeAwGZHBpZDoyAAA=", "round": -1, "prunable": true}
{"pass_through_sends": false, "timeout_disallowed": false, "time": [1390625617, 500543], "controller_id": "c1", "fingerprint": ["ControlMessageReceive", {"hard_timeout": 0, "actions": [], "priority": 32768, "idle_timeout": 0, "command": "delete", "out_port": 65535, "flags": 0, "class": "ofp_flow_mod", "match": "x^L,in_port:None"}, 2, "c1"], "timed_out": false, "dependent_labels": [], "ignore_whitelisted_packets": false, "new_internal_event": true, "dpid": 2, "replay_time": [1390625617, 500564], "label": "i561", "class": "ControlMessageReceive", "b64_packet": "AQ4ASAAAACEAEAAfAAAAAAAAAAAAAAAAAAAAAAAAAAAAAAAAAAAAAAAAAAAAAAAAAAAAAAAAAAAAAwAAAACAAP///////wAA", "round": -1, "prunable": true}
{"pass_through_sends": false, "timeout_disallowed": false, "time": [1390616566, 396192], "controller_id": "c1", "fingerprint": ["ControlMessageReceive", {"class": "ofp_barrier_request"}, 1, ["c", "1"]], "timed_out": true, "dependent_labels": [], "ignore_whitelisted_packets": true, "dpid": 1, "replay_time": [1390625618, 103229], "label": "i14", "class": "ControlMessageReceive", "b64_packet": "ARIACAAAABM=", "round": 3, "prunable": true}
{"pass_through_sends": false, "timeout_disallowed": false, "time": [1390616566, 396643], "controller_id": "c1", "fingerprint": ["ControlMessageReceive", {"hard_timeout": 0, "actions": [], "priority": 32768, "idle_timeout": 0, "command": "delete", "out_port": 65535, "flags": 0, "class": "ofp_flow_mod", "match": "x^L,in_port:None"}, 2, ["c", "1"]], "timed_out": true, "dependent_labels": [], "ignore_whitelisted_packets": true, "dpid": 2, "replay_time": [1390625618, 751049], "label": "i15", "class": "ControlMessageReceive", "b64_packet": "AQ4ASAAAAAsAEAAfAAAAAAAAAAAAAAAAAAAAAAAAAAAAAAAAAAAAAAAAAAAAAAAAAAAAAAAAAAAAAwAAAACAAP///////wAA", "round": 3, "prunable": true}
{"pass_through_sends": false, "timeout_disallowed": false, "time": [1390625618, 752219], "controller_id": "c1", "fingerprint": ["ControlMessageReceive", {"in_port": 65535, "data": {"class": "lldp"}, "class": "ofp_packet_out", "actions": ["output(1)"]}, 1, "c1"], "timed_out": false, "dependent_labels": [], "ignore_whitelisted_packets": false, "new_internal_event": true, "dpid": 1, "replay_time": [1390625618, 752250], "label": "i562", "class": "ControlMessageReceive", "b64_packet": "AQ0AQQAAAB3///////8ACAAAAAgAAQAAASMgAAABAAAAAAEBiMwCBwdkcGlkOjEEAgIxBgIAeAwGZHBpZDoxAAA=", "round": -1, "prunable": true}
{"pass_through_sends": false, "timeout_disallowed": false, "time": [1390616566, 397090], "controller_id": "c1", "fingerprint": ["ControlMessageSend", {"class": "ofp_barrier_reply"}, 2, ["c", "1"]], "timed_out": true, "dependent_labels": [], "ignore_whitelisted_packets": true, "dpid": 2, "replay_time": [1390625619, 356544], "label": "i16", "class": "ControlMessageSend", "b64_packet": "ARMACAAAAA0=", "round": 3, "prunable": true}
{"pass_through_sends": false, "timeout_disallowed": false, "time": [1390625619, 357698], "controller_id": "c1", "fingerprint": ["ControlMessageSend", {"data": {"class": "lldp"}, "class": "ofp_packet_in", "in_port": 1}, 2, "c1"], "timed_out": false, "dependent_labels": [], "ignore_whitelisted_packets": false, "new_internal_event": true, "dpid": 2, "replay_time": [1390625619, 357780], "label": "i563", "class": "ControlMessageSend", "b64_packet": "AQoAOwAAAAEAAAABADsAAQAAASMgAAABAAAAAAEBiMwCBwdkcGlkOjEEAgIxBgIAeAwGZHBpZDoxAAA=", "round": -1, "prunable": true}
{"pass_through_sends": false, "timeout_disallowed": false, "time": [1390616566, 397290], "controller_id": "c1", "fingerprint": ["ControlMessageSend", {"class": "ofp_barrier_reply"}, 1, ["c", "1"]], "timed_out": true, "dependent_labels": [], "ignore_whitelisted_packets": true, "dpid": 1, "replay_time": [1390625619, 999431], "label": "i17", "class": "ControlMessageSend", "b64_packet": "ARMACAAAABM=", "round": 3, "prunable": true}
{"pass_through_sends": false, "timeout_disallowed": false, "time": [1390625620, 54], "controller_id": "c1", "fingerprint": ["ControlMessageReceive", {"hard_timeout": 0, "actions": [], "priority": 32768, "idle_timeout": 0, "command": "delete", "out_port": 65535, "flags": 0, "class": "ofp_flow_mod", "match": "x^L,in_port:None"}, 1, "c1"], "timed_out": false, "dependent_labels": [], "ignore_whitelisted_packets": false, "new_internal_event": true, "dpid": 1, "replay_time": [1390625620, 75], "label": "i564", "class": "ControlMessageReceive", "b64_packet": "AQ4ASAAAACUAEAAfAAAAAAAAAAAAAAAAAAAAAAAAAAAAAAAAAAAAAAAAAAAAAAAAAAAAAAAAAAAAAwAAAACAAP///////wAA", "round": -1, "prunable": true}
{"pass_through_sends": false, "timeout_disallowed": false, "time": [1390625620, 610], "controller_id": "c1", "fingerprint": ["ControlMessageReceive", {"in_port": 65535, "data": {"class": "lldp"}, "class": "ofp_packet_out", "actions": ["output(2)"]}, 1, "c1"], "timed_out": false, "dependent_labels": [], "ignore_whitelisted_packets": false, "new_internal_event": true, "dpid": 1, "replay_time": [1390625620, 627], "label": "i565", "class": "ControlMessageReceive", "b64_packet": "AQ0AQQAAAB////////8ACAAAAAgAAgAAASMgAAABAAAAAAECiMwCBwdkcGlkOjEEAgIyBgIAeAwGZHBpZDoxAAA=", "round": -1, "prunable": true}
{"pass_through_sends": false, "timeout_disallowed": false, "time": [1390625620, 885], "controller_id": "c1", "fingerprint": ["ControlMessageReceive", {"in_port": 1, "data": [], "class": "ofp_packet_out", "actions": []}, 2, "c1"], "timed_out": false, "dependent_labels": [], "ignore_whitelisted_packets": false, "new_internal_event": true, "dpid": 2, "replay_time": [1390625620, 901], "label": "i566", "class": "ControlMessageReceive", "b64_packet": "AQ0AEAAAACcAAAABAAEAAA==", "round": -1, "prunable": true}
{"pass_through_sends": false, "timeout_disallowed": false, "time": [1390625620, 1226], "controller_id": "c1", "fingerprint": ["ControlMessageReceive", {"hard_timeout": 0, "actions": [], "priority": 32768, "idle_timeout": 0, "command": "delete", "out_port": 65535, "flags": 0, "class": "ofp_flow_mod", "match": "x^L,in_port:None"}, 2, "c1"], "timed_out": false, "dependent_labels": [], "ignore_whitelisted_packets": false, "new_internal_event": true, "dpid": 2, "replay_time": [1390625620, 1244], "label": "i567", "class": "ControlMessageReceive", "b64_packet": "AQ4ASAAAACUAEAAfAAAAAAAAAAAAAAAAAAAAAAAAAAAAAAAAAAAAAAAAAAAAAAAAAAAAAAAAAAAAAwAAAACAAP///////wAA", "round": -1, "prunable": true}
{"pass_through_sends": false, "timeout_disallowed": false, "time": [1390616566, 499238], "controller_id": "c1", "fingerprint": ["ControlMessageReceive", {"hard_timeout": 0, "actions": ["output(65533)"], "priority": 32768, "idle_timeout": 0, "command": "add", "out_port": 65535, "flags": 0, "class": "ofp_flow_mod", "match": "dl_dst:01:23:20:00:00:01,dl_type:35020,in_port:None"}, 2, ["c", "1"]], "timed_out": true, "dependent_labels": [], "ignore_whitelisted_packets": true, "dpid": 2, "replay_time": [1390625620, 605652], "label": "i18", "class": "ControlMessageReceive", "b64_packet": "AQ4AUAAAABUAEAAHAAAAAAAAAAABIyAAAAEAAAAAiMwAAAAAAAAAAAAAAAAAAAAAAAAAAAAAAAAAAAAAAACAAP///////wAAAAAACP/9//8=", "round": 4, "prunable": true}
{"pass_through_sends": false, "timeout_disallowed": false, "time": [1390616566, 500032], "controller_id": "c1", "fingerprint": ["ControlMessageReceive", {"hard_timeout": 0, "actions": ["output(65533)"], "priority": 32768, "idle_timeout": 0, "command": "add", "out_port": 65535, "flags": 0, "class": "ofp_flow_mod", "match": "dl_dst:01:23:20:00:00:01,dl_type:35020,in_port:None"}, 1, ["c", "1"]], "timed_out": true, "dependent_labels": [], "ignore_whitelisted_packets": true, "dpid": 1, "replay_time": [1390625621, 251980], "label": "i19", "class": "ControlMessageReceive", "b64_packet": "AQ4AUAAAABsAEAAHAAAAAAAAAAABIyAAAAEAAAAAiMwAAAAAAAAAAAAAAAAAAAAAAAAAAAAAAAAAAAAAAACAAP///////wAAAAAACP/9//8=", "round": 4, "prunable": true}
{"pass_through_sends": false, "timeout_disallowed": false, "time": [1390625621, 252779], "controller_id": "c1", "fingerprint": ["ControlMessageReceive", {"in_port": 65535, "data": {"class": "lldp"}, "class": "ofp_packet_out", "actions": ["output(1)"]}, 2, "c1"], "timed_out": false, "dependent_labels": [], "ignore_whitelisted_packets": false, "new_internal_event": true, "dpid": 2, "replay_time": [1390625621, 252800], "label": "i568", "class": "ControlMessageReceive", "b64_packet": "AQ0AQQAAABf///////8ACAAAAAgAAQAAASMgAAABAAAAAAIBiMwCBwdkcGlkOjIEAgIxBgIAeAwGZHBpZDoyAAA=", "round": -1, "prunable": true}
{"pass_through_sends": false, "timeout_disallowed": false, "time": [1390616567, 711062], "controller_id": "c1", "fingerprint": ["ControlMessageReceive", {"in_port": 65535, "data": {"class": "lldp"}, "class": "ofp_packet_out", "actions": ["output(1)"]}, 2, ["c", "1"]], "timed_out": false, "dependent_labels": [], "ignore_whitelisted_packets": true, "dpid": 2, "replay_time": [1390625621, 253138], "label": "i20", "class": "ControlMessageReceive", "b64_packet": "AQ0AQQAAABf///////8ACAAAAAgAAQAAASMgAAABAAAAAAIBiMwCBwdkcGlkOjIEAgIxBgIAeAwGZHBpZDoyAAA=", "round": 16, "prunable": true}
{"pass_through_sends": false, "timeout_disallowed": false, "time": [1390625621, 253890], "controller_id": "c1", "fingerprint": ["ControlMessageSend", {"data": {"class": "lldp"}, "class": "ofp_packet_in", "in_port": 1}, 1, "c1"], "timed_out": false, "dependent_labels": [], "ignore_whitelisted_packets": false, "new_internal_event": true, "dpid": 1, "replay_time": [1390625621, 253908], "label": "i569", "class": "ControlMessageSend", "b64_packet": "AQoAOwAAAAIAAAABADsAAQAAASMgAAABAAAAAAIBiMwCBwdkcGlkOjIEAgIxBgIAeAwGZHBpZDoyAAA=", "round": -1, "prunable": true}
{"pass_through_sends": false, "timeout_disallowed": false, "time": [1390616567, 813983], "controller_id": "c1", "fingerprint": ["ControlMessageSend", {"data": {"class": "lldp"}, "class": "ofp_packet_in", "in_port": 1}, 1, ["c", "1"]], "timed_out": false, "dependent_labels": [], "ignore_whitelisted_packets": true, "dpid": 1, "replay_time": [1390625621, 254219], "label": "i22", "class": "ControlMessageSend", "b64_packet": "AQoAOwAAAAEAAAABADsAAQEAASMgAAABAAAAAAIBiMwCBwdkcGlkOjIEAgIxBgIAeAwGZHBpZDoyAAA=", "round": 17, "prunable": true}
{"pass_through_sends": false, "timeout_disallowed": false, "time": [1390616567, 916651], "controller_id": "c1", "fingerprint": ["ControlMessageReceive", {"hard_timeout": 0, "actions": [], "priority": 32768, "idle_timeout": 0, "command": "delete", "out_port": 65535, "flags": 0, "class": "ofp_flow_mod", "match": "x^L,in_port:None"}, 1, ["c", "1"]], "timed_out": true, "dependent_labels": [], "ignore_whitelisted_packets": true, "dpid": 1, "replay_time": [1390625621, 858919], "label": "i23", "class": "ControlMessageReceive", "b64_packet": "AQ4ASAAAACEAEAAfAAAAAAAAAAAAAAAAAAAAAAAAAAAAAAAAAAAAAAAAAAAAAAAAAAAAAAAAAAAAAwAAAACAAP///////wAA", "round": 18, "prunable": true}
{"pass_through_sends": false, "timeout_disallowed": false, "time": [1390625621, 859646], "controller_id": "c1", "fingerprint": ["ControlMessageReceive", {"in_port": 1, "data": [], "class": "ofp_packet_out", "actions": []}, 1, "c1"], "timed_out": false, "dependent_labels": [], "ignore_whitelisted_packets": false, "new_internal_event": true, "dpid": 1, "replay_time": [1390625621, 859664], "label": "i570", "class": "ControlMessageReceive", "b64_packet": "AQ0AEAAAACkAAAABAAEAAA==", "round": -1, "prunable": true}
{"pass_through_sends": false, "timeout_disallowed": false, "time": [1390616567, 917471], "controller_id": "c1", "fingerprint": ["ControlMessageReceive", {"in_port": 1, "data": [], "class": "ofp_packet_out", "actions": []}, 1, ["c", "1"]], "timed_out": false, "dependent_labels": [], "ignore_whitelisted_packets": true, "dpid": 1, "replay_time": [1390625621, 859929], "label": "i24", "class": "ControlMessageReceive", "b64_packet": "AQ0AEAAAACMAAAABAAEAAA==", "round": 18, "prunable": true}
{"pass_through_sends": false, "timeout_disallowed": false, "time": [1390616567, 918676], "controller_id": "c1", "fingerprint": ["ControlMessageReceive", {"hard_timeout": 0, "actions": [], "priority": 32768, "idle_timeout": 0, "command": "delete", "out_port": 65535, "flags": 0, "class": "ofp_flow_mod", "match": "x^L,in_port:None"}, 2, ["c", "1"]], "timed_out": true, "dependent_labels": [], "ignore_whitelisted_packets": true, "dpid": 2, "replay_time": [1390625622, 502788], "label": "i25", "class": "ControlMessageReceive", "b64_packet": "AQ4ASAAAACEAEAAfAAAAAAAAAAAAAAAAAAAAAAAAAAAAAAAAAAAAAAAAAAAAAAAAAAAAAAAAAAAAAwAAAACAAP///////wAA", "round": 18, "prunable": true}
{"pass_through_sends": false, "timeout_disallowed": false, "time": [1390625622, 503521], "controller_id": "c1", "fingerprint": ["ControlMessageReceive", {"in_port": 65535, "data": {"class": "lldp"}, "class": "ofp_packet_out", "actions": ["output(2)"]}, 2, "c1"], "timed_out": false, "dependent_labels": [], "ignore_whitelisted_packets": false, "new_internal_event": true, "dpid": 2, "replay_time": [1390625622, 503541], "label": "i571", "class": "ControlMessageReceive", "b64_packet": "AQ0AQQAAABn///////8ACAAAAAgAAgAAASMgAAABAAAAAAICiMwCBwdkcGlkOjIEAgIyBgIAeAwGZHBpZDoyAAA=", "round": -1, "prunable": true}
{"pass_through_sends": false, "timeout_disallowed": false, "time": [1390616568, 929373], "controller_id": "c1", "fingerprint": ["ControlMessageReceive", {"in_port": 65535, "data": {"class": "lldp"}, "class": "ofp_packet_out", "actions": ["output(2)"]}, 2, ["c", "1"]], "timed_out": false, "dependent_labels": [], "ignore_whitelisted_packets": true, "dpid": 2, "replay_time": [1390625622, 503828], "label": "i26", "class": "ControlMessageReceive", "b64_packet": "AQ0AQQAAABn///////8ACAAAAAgAAgAAASMgAAABAAAAAAICiMwCBwdkcGlkOjIEAgIyBgIAeAwGZHBpZDoyAAA=", "round": 28, "prunable": true}
{"pass_through_sends": false, "timeout_disallowed": false, "time": [1390616570, 246109], "controller_id": "c1", "fingerprint": ["ControlMessageReceive", {"in_port": 65535, "data": {"class": "lldp"}, "class": "ofp_packet_out", "actions": ["output(1)"]}, 1, ["c", "1"]], "timed_out": false, "dependent_labels": [], "ignore_whitelisted_packets": true, "dpid": 1, "replay_time": [1390625622, 504393], "label": "i28", "class": "ControlMessageReceive", "b64_packet": "AQ0AQQAAAB3///////8ACAAAAAgAAQAAASMgAAABAAAAAAEBiMwCBwdkcGlkOjEEAgIxBgIAeAwGZHBpZDoxAAA=", "round": 41, "prunable": true}
{"pass_through_sends": false, "timeout_disallowed": false, "time": [1390616570, 348531], "controller_id": "c1", "fingerprint": ["ControlMessageSend", {"data": {"class": "lldp"}, "class": "ofp_packet_in", "in_port": 1}, 2, ["c", "1"]], "timed_out": false, "dependent_labels": [], "ignore_whitelisted_packets": true, "dpid": 2, "replay_time": [1390625622, 504721], "label": "i30", "class": "ControlMessageSend", "b64_packet": "AQoAOwAAAAEAAAABADsAAQAAASMgAAABAAAAAAEBiMwCBwdkcGlkOjEEAgIxBgIAeAwGZHBpZDoxAAA=", "round": 42, "prunable": true}
{"pass_through_sends": false, "timeout_disallowed": false, "time": [1390616570, 450460], "controller_id": "c1", "fingerprint": ["ControlMessageReceive", {"in_port": 1, "data": [], "class": "ofp_packet_out", "actions": []}, 2, ["c", "1"]], "timed_out": false, "dependent_labels": [], "ignore_whitelisted_packets": true, "dpid": 2, "replay_time": [1390625622, 505014], "label": "i31", "class": "ControlMessageReceive", "b64_packet": "AQ0AEAAAACcAAAABAAEAAA==", "round": 43, "prunable": true}
{"pass_through_sends": false, "timeout_disallowed": false, "time": [1390616570, 451037], "controller_id": "c1", "fingerprint": ["ControlMessageReceive", {"hard_timeout": 0, "actions": [], "priority": 32768, "idle_timeout": 0, "command": "delete", "out_port": 65535, "flags": 0, "class": "ofp_flow_mod", "match": "x^L,in_port:None"}, 1, ["c", "1"]], "timed_out": true, "dependent_labels": [], "ignore_whitelisted_packets": true, "dpid": 1, "replay_time": [1390625623, 107258], "label": "i32", "class": "ControlMessageReceive", "b64_packet": "AQ4ASAAAACUAEAAfAAAAAAAAAAAAAAAAAAAAAAAAAAAAAAAAAAAAAAAAAAAAAAAAAAAAAAAAAAAAAwAAAACAAP///////wAA", "round": 43, "prunable": true}
{"pass_through_sends": false, "timeout_disallowed": false, "time": [1390616570, 451695], "controller_id": "c1", "fingerprint": ["ControlMessageReceive", {"hard_timeout": 0, "actions": [], "priority": 32768, "idle_timeout": 0, "command": "delete", "out_port": 65535, "flags": 0, "class": "ofp_flow_mod", "match": "x^L,in_port:None"}, 2, ["c", "1"]], "timed_out": true, "dependent_labels": [], "ignore_whitelisted_packets": true, "dpid": 2, "replay_time": [1390625623, 754423], "label": "i33", "class": "ControlMessageReceive", "b64_packet": "AQ4ASAAAACUAEAAfAAAAAAAAAAAAAAAAAAAAAAAAAAAAAAAAAAAAAAAAAAAAAAAAAAAAAAAAAAAAAwAAAACAAP///////wAA", "round": 43, "prunable": true}
{"pass_through_sends": false, "timeout_disallowed": false, "time": [1390625623, 755407], "controller_id": "c1", "fingerprint": ["ControlMessageReceive", {"in_port": 65535, "data": {"class": "lldp"}, "class": "ofp_packet_out", "actions": ["output(1)"]}, 1, "c1"], "timed_out": false, "dependent_labels": [], "ignore_whitelisted_packets": false, "new_internal_event": true, "dpid": 1, "replay_time": [1390625623, 755437], "label": "i572", "class": "ControlMessageReceive", "b64_packet": "AQ0AQQAAAB3///////8ACAAAAAgAAQAAASMgAAABAAAAAAEBiMwCBwdkcGlkOjEEAgIxBgIAeAwGZHBpZDoxAAA=", "round": -1, "prunable": true}
{"pass_through_sends": false, "timeout_disallowed": false, "time": [1390616571, 469779], "controller_id": "c1", "fingerprint": ["ControlMessageReceive", {"in_port": 65535, "data": {"class": "lldp"}, "class": "ofp_packet_out", "actions": ["output(2)"]}, 1, ["c", "1"]], "timed_out": false, "dependent_labels": [], "ignore_whitelisted_packets": true, "dpid": 1, "replay_time": [1390625623, 755922], "label": "i42", "class": "ControlMessageReceive", "b64_packet": "AQ0AQQAAAB////////8ACAAAAAgAAgAAASMgAAABAAAAAAECiMwCBwdkcGlkOjEEAgIyBgIAeAwGZHBpZDoxAAA=", "round": 53, "prunable": true}
{"pass_through_sends": false, "timeout_disallowed": false, "time": [1390625623, 756883], "controller_id": "c1", "fingerprint": ["ControlMessageSend", {"data": {"class": "lldp"}, "class": "ofp_packet_in", "in_port": 1}, 2, "c1"], "timed_out": false, "dependent_labels": [], "ignore_whitelisted_packets": false, "new_internal_event": true, "dpid": 2, "replay_time": [1390625623, 756901], "label": "i573", "class": "ControlMessageSend", "b64_packet": "AQoAOwAAAAIAAAABADsAAQAAASMgAAABAAAAAAEBiMwCBwdkcGlkOjEEAgIxBgIAeAwGZHBpZDoxAAA=", "round": -1, "prunable": true}
{"legacy_invariant_check": false, "class": "CheckInvariants", "fingerprint": "N/A", "timed_out": false, "label": "e68", "dependent_labels": [], "invariant_name": "check_for_flow_entry", "invariant_check_name": "check_for_flow_entry", "time": [1390616573, 101099], "replay_time": [1390625625, 389246], "invariant_check": null, "round": 69, "prunable": true}
{"pass_through_sends": false, "timeout_disallowed": false, "time": [1390625625, 389822], "controller_id": "c1", "fingerprint": ["ControlMessageReceive", {"in_port": 65535, "data": {"class": "lldp"}, "class": "ofp_packet_out", "actions": ["output(2)"]}, 1, "c1"], "timed_out": false, "dependent_labels": [], "ignore_whitelisted_packets": false, "new_internal_event": true, "dpid": 1, "replay_time": [1390625625, 389846], "label": "i574", "class": "ControlMessageReceive", "b64_packet": "AQ0AQQAAAB////////8ACAAAAAgAAgAAASMgAAABAAAAAAECiMwCBwdkcGlkOjEEAgIyBgIAeAwGZHBpZDoxAAA=", "round": -1, "prunable": true}
{"pass_through_sends": false, "timeout_disallowed": false, "time": [1390625625, 390222], "controller_id": "c1", "fingerprint": ["ControlMessageReceive", {"in_port": 1, "data": [], "class": "ofp_packet_out", "actions": []}, 2, "c1"], "timed_out": false, "dependent_labels": [], "ignore_whitelisted_packets": false, "new_internal_event": true, "dpid": 2, "replay_time": [1390625625, 390242], "label": "i575", "class": "ControlMessageReceive", "b64_packet": "AQ0AEAAAACsAAAABAAEAAA==", "round": -1, "prunable": true}
{"legacy_invariant_check": false, "class": "CheckInvariants", "fingerprint": "N/A", "timed_out": false, "label": "e71", "dependent_labels": [], "invariant_name": "check_for_flow_entry", "invariant_check_name": "check_for_flow_entry", "time": [1390616573, 203712], "replay_time": [1390625625, 492463], "invariant_check": null, "round": 70, "prunable": true}
{"legacy_invariant_check": false, "class": "CheckInvariants", "fingerprint": "N/A", "timed_out": false, "label": "e73", "dependent_labels": [], "invariant_name": "check_for_flow_entry", "invariant_check_name": "check_for_flow_entry", "time": [1390616573, 306681], "replay_time": [1390625625, 596908], "invariant_check": null, "round": 71, "prunable": true}
{"legacy_invariant_check": false, "class": "CheckInvariants", "fingerprint": "N/A", "timed_out": false, "label": "e75", "dependent_labels": [], "invariant_name": "check_for_flow_entry", "invariant_check_name": "check_for_flow_entry", "time": [1390616573, 409225], "replay_time": [1390625625, 699795], "invariant_check": null, "round": 72, "prunable": true}
{"pass_through_sends": false, "timeout_disallowed": false, "time": [1390625625, 700242], "controller_id": "c1", "fingerprint": ["ControlMessageReceive", {"in_port": 65535, "data": {"class": "lldp"}, "class": "ofp_packet_out", "actions": ["output(1)"]}, 2, "c1"], "timed_out": false, "dependent_labels": [], "ignore_whitelisted_packets": false, "new_internal_event": true, "dpid": 2, "replay_time": [1390625625, 700263], "label": "i576", "class": "ControlMessageReceive", "b64_packet": "AQ0AQQAAABf///////8ACAAAAAgAAQAAASMgAAABAAAAAAIBiMwCBwdkcGlkOjIEAgIxBgIAeAwGZHBpZDoyAAA=", "round": -1, "prunable": true}
{"legacy_invariant_check": false, "class": "CheckInvariants", "fingerprint": "N/A", "timed_out": false, "label": "e78", "dependent_labels": [], "invariant_name": "check_for_flow_entry", "invariant_check_name": "check_for_flow_entry", "time": [1390616573, 512850], "replay_time": [1390625625, 804530], "invariant_check": null, "round": 73, "prunable": true}
{"pass_through_sends": false, "timeout_disallowed": false, "time": [1390625625, 805393], "controller_id": "c1", "fingerprint": ["ControlMessageSend", {"data": {"class": "lldp"}, "class": "ofp_packet_in", "in_port": 1}, 1, "c1"], "timed_out": false, "dependent_labels": [], "ignore_whitelisted_packets": false, "new_internal_event": true, "dpid": 1, "replay_time": [1390625625, 805423], "label": "i577", "class": "ControlMessageSend", "b64_packet": "AQoAOwAAAAMAAAABADsAAQAAASMgAAABAAAAAAIBiMwCBwdkcGlkOjIEAgIxBgIAeAwGZHBpZDoyAAA=", "round": -1, "prunable": true}
{"legacy_invariant_check": false, "class": "CheckInvariants", "fingerprint": "N/A", "timed_out": false, "label": "e82", "dependent_labels": [], "invariant_name": "check_for_flow_entry", "invariant_check_name": "check_for_flow_entry", "time": [1390616573, 616544], "replay_time": [1390625625, 909282], "invariant_check": null, "round": 74, "prunable": true}
{"pass_through_sends": false, "timeout_disallowed": false, "time": [1390625625, 909709], "controller_id": "c1", "fingerprint": ["ControlMessageReceive", {"in_port": 1, "data": [], "class": "ofp_packet_out", "actions": []}, 1, "c1"], "timed_out": false, "dependent_labels": [], "ignore_whitelisted_packets": false, "new_internal_event": true, "dpid": 1, "replay_time": [1390625625, 909744], "label": "i578", "class": "ControlMessageReceive", "b64_packet": "AQ0AEAAAAC0AAAABAAEAAA==", "round": -1, "prunable": true}
{"class": "WaitTime", "fingerprint": ["WaitTime"], "timed_out": false, "label": "e84", "wait_time": 1.0, "dependent_labels": [], "time": [1390616573, 616781], "replay_time": [1390625626, 905336], "round": -1, "prunable": true}
{"wait_time": 1.0, "dependent_labels": [], "fingerprint": ["WaitTime"], "time": [1390616573, 616781], "class": "WaitTime", "prunable": true, "timed_out": false, "round": -1, "label": "e579"}
