[1;33m[c1] Stop ONOS on all nodes[1;m

[1;33m[c1] nosdev1: Killed existing process (pid: 16708)[1;m

[1;33m[c1] pping ZK..[1;m

[1;33m[c1] ev1: Stopping zookeeper ... STOPPED[1;m

[1;33m[c1] D[1;m

[1;33m[c1] pping Cassandra..[1;m

[1;33m[c1] nosdev1: Killed existing prosess (pid: 11586)[1;m

[1;33m[c1] lled existing prosess (pid: 16708)[1;m

[1;33m[c1] sdev2: Killed existing prosess (pid: 26199)[1;m

[1;33m[c1] eping for 5sec[1;m

[1;33m[c1] enrating conf files for 2-node cluster[1;m

[1;33m[c1] opying confguration files[1;m

[1;33m[c1] opying /mnt/ahassany/vagrant_onosdev/scripts/../conf/zoo.cfg /mnt/ahassany/vagrant_onosdev/scripts/../ONOS/conf[1;m

[1;33m[c1] opying /mnt/ahassany/vagrant_onosdev/scripts/../conf/cassandra.titan /mnt/ahassany/vagrant_onosdev/scripts/../ONOS/conf[1;m

[1;33m[c1] opying /mnt/ahassany/vagrant_onosdev/scripts/../conf/titan-embedded.properties /mnt/ahassany/vagrant_onosdev/scripts/../ONOS/onf[1;m

[1;33m[c1] ying /mnt/ahassany/vagrant_onosdev/scripts/../conf/cassandra.yaml.1 /mnt/ahassany/vagrant_onosdev/scripts/../ONOS/conf[1;m

[1;33m[c1] opying /mnt/ahassany/vagrant_onosdev/scripts/../conf/cassandra.yaml.2 /mnt/ahassany/vagrant_onosdev/scripts/../ONOS/conf[1;m

[1;33m[c1] opying /mnt/ahassany/vagrant_onosdev/scripts/../conf/config.json /mnt/ahassany/vagrant_onosdev/scripts/../ONOS/web[1;m

[1;33m[c1] ying /mnt/ahassany/vagrant_onosdev/scripts/../conf_common/configuration.json /mnt/ahassany/vagrant_onosdev/scripts/../ONOS/web/ons-demo/data[1;m

[1;33m[c1] opying /mnt/ahassany/vagrant_onosdev/scripts/../conf_common/controllers.json /mnt/ahassany/vagrant_onosdev/scripts/../ONOS/web/ons-demo/data[1;m

[1;33m[c1] opying /mnt/ahassany/vagrant_onosdev/scripts/../conf_common/dev_network.py /mnt/ahassany/vagrant_onosdev/scripts/../ONOS/test-network/mininet[1;m

[1;41m[1;33m[c1] cp: cannot stat `/mnt/ahassany/vagrant_onosdev/scripts/../conf_common/dev_network.py': No such file or directory[1;m

[1;33m[c1] opying /mnt/ahassany/vagrant_onosdev/scripts/../conf_common/link.json.dev /mnt/ahassany/vagrant_onosdev/scripts/../ONOS/web/link.json[1;m

[1;41m[1;33m[c1] cp: cannot stat `/mnt/ahassany/vagrant_onosdev/scripts/../conf_common/link.json.dev': No such file or directory[1;m

[1;33m[c1] opying /mnt/ahassany/vagrant_onosdev/scripts/../conf_common/cluster.hosts /mnt/ahassany/vagrant_onosdev/scripts/../ONOS/.cluster.hosts[1;m

[1;33m[c1] opying cassandra.yaml file to all VMs[1;m

[1;33m[c1] ing all data in /var/lib/cassandra/ [Y/n]?[1;m

[1;41m[1;33m[c1] # onosdev2 SSH-2.0-OpenSSH_6.1p1 Debian-4[1;m

[1;41m[1;33m[c1] # onosdev1 SSH-2.0-OpenSSH_6.1p1 Debian-4[1;m

[1;41m[1;33m[c1] # onosdev2 SSH-2.0-OpenSSH_6.1p1 Debian-4[1;m

[1;41m[1;33m[c1] # onosdev1 SSH-2.0-OpenSSH_6.1p1 Debian-4[1;m

[1;33m[c1] tarting ZK..[1;m

[1;33m[c1] nosdev1: Starting Zookeeper[1;m

[1;33m[c1] nosdev1: Starting zookeeper ... STARTED[1;m

[1;33m[c1] tarting Zookeeper[1;m

[1;33m[c1] ev2: Starting zookeeper ... STARTED[1;m

[1;33m[c1] heck status[1;m

[1;33m[c1]  up: 1 up of of 2[1;m

[1;33m[c1] heck status[1;m

[1;33m[c1] verybody's up: 1 up of of 2[1;m

[1;33m[c1] heck status[1;m

[1;33m[c1] s up: 2 up of of 2[1;m

[1;33m[c1] ed[1;m

[1;33m[c1] assandra..[1;m

[1;33m[c1]  node[1;m

[1;33m[c1] nosdev1: rotate log:[1;m

[1;33m[c1] dra[1;m

[1;33m[c1]  start cassandra in rest nodes[1;m

[1;33m[c1] osdev2: rotate log:[1;m

[1;33m[c1] 2: Starting cassandra[1;m

[1;33m[c1] nosdev1: 1 instance of cassandra running[1;m

[1;33m[c1] aiting for everybody's up: 0 up of of 2[1;m

[1;33m[c1] 17587[1;m

[1;33m[c1] nosdev1: 1 instance of cassandra running[1;m

[1;33m[c1] onosdev1: Datacenter: datacenter1[1;m

[1;33m[c1] =======[1;m

[1;33m[c1] ss        Rack        Status State   Load            Owns                Token[1;m

[1;33m[c1] : 192.168.56.11  rack1       Up     Normal  45.95 KB        100.00%             -9223372036854775808[1;m

[1;33m[c1] waiting for everybody's up: 1 up of of 2[1;m

[1;33m[c1] 17587[1;m

[1;33m[c1] nosdev1: 1 instance of cassandra running[1;m

[1;33m[c1] tacenter: datacenter1[1;m

[1;33m[c1] ==[1;m

[1;33m[c1] ev1: Address        Rack        Status State   Load            Owns                Token[1;m

[1;33m[c1] 68.56.11  rack1       Up     Normal  45.95 KB        100.00%             -9223372036854775808[1;m

[1;33m[c1] aiting for everybody's up: 1 up of of 2[1;m

[1;33m[c1] 17587[1;m

[1;33m[c1] nosdev1: 1 instance of cassandra running[1;m

[1;33m[c1] 1:[1;m

[1;33m[c1] dev1: Datacenter: datacenter1[1;m

[1;33m[c1] [1;m

[1;33m[c1] k        Status State   Load            Owns                Token[1;m

[1;33m[c1] sdev1: 192.168.56.11  rack1       Up     Normal  45.95 KB        100.00%             -9223372036854775808[1;m

[1;33m[c1] v1:[1;m

[1;33m[c1] aiting for everybody's up: 1 up of of 2[1;m

[1;33m[c1] 17587[1;m

[1;33m[c1] nosdev1: 1 instance of cassandra running[1;m

[1;33m[c1] nosdev1: Datacenter: datacenter1[1;m

[1;33m[c1] dev1: ==========[1;m

[1;33m[c1] 1: Replicas: 1[1;m

[1;33m[c1] v1:[1;m

[1;33m[c1] ev1: Address        Rack        Status State   Load            Owns                Token[1;m

[1;33m[c1] sdev1: 192.168.56.11  rack1       Up     Normal  45.95 KB        100.00%             -9223372036854775808[1;m

[1;33m[c1] [1;m

[1;33m[c1] aiting for everybody's up: 1 up of of 2[1;m

[1;33m[c1] [1;m

[1;33m[c1] nosdev1: 1 instance of cassandra running[1;m

[1;33m[c1] osdev1:[1;m

[1;33m[c1] sdev1: Datacenter: datacenter1[1;m

[1;33m[c1] ev1: ==========[1;m

[1;33m[c1] dev1: Replicas: 1[1;m

[1;33m[c1] sdev1:[1;m

[1;33m[c1] sdev1: Address        Rack        Status State   Load            Owns                Token[1;m

[1;33m[c1] ev1:[1;m

[1;33m[c1] 1  rack1       Up     Normal  45.95 KB        100.00%             -9223372036854775808[1;m

[1;33m[c1] dev1:[1;m

[1;33m[c1] aiting for everybody's up: 1 up of of 2[1;m

[1;33m[c1] 17587[1;m

[1;33m[c1] nosdev1: 1 instance of cassandra running[1;m

[1;33m[c1] sdev1:[1;m

[1;33m[c1] enter: datacenter1[1;m

[1;33m[c1] =========[1;m

[1;33m[c1] ev1: Replicas: 1[1;m

[1;33m[c1] v1:[1;m

[1;33m[c1] ev1: Address        Rack        Status State   Load            Owns                Token[1;m

[1;33m[c1] :[1;m

[1;33m[c1] sdev1: 192.168.56.11  rack1       Up     Normal  45.95 KB        100.00%             -9223372036854775808[1;m

[1;33m[c1] sdev1:[1;m

[1;33m[c1] aiting for everybody's up: 1 up of of 2[1;m

[1;33m[c1] 17587[1;m

[1;33m[c1] nosdev1: 1 instance of cassandra running[1;m

[1;33m[c1] ev1: Datacenter: datacenter1[1;m

[1;33m[c1]  ==========[1;m

[1;33m[c1] osdev1: Replicas: 1[1;m

[1;33m[c1] dev1:[1;m

[1;33m[c1] dev1: Address        Rack        Status State   Load            Owns                Token[1;m

[1;33m[c1] ev1:[1;m

[1;33m[c1] 2.168.56.11  rack1       Up     Normal  45.95 KB        100.00%             -9223372036854775808[1;m

[1;33m[c1] sdev1:[1;m

[1;33m[c1] aiting for everybody's up: 1 up of of 2[1;m

[1;33m[c1] 17587[1;m

[1;33m[c1] nosdev1: 1 instance of cassandra running[1;m

[1;33m[c1] tacenter: datacenter1[1;m

[1;33m[c1] =====[1;m

[1;33m[c1] osdev1: Address        Rack        Status State   Load            Owns                Token[1;m

[1;33m[c1] nosdev1: 192.168.56.11  rack1       Up     Normal  45.95 KB        100.00%             -9223372036854775808[1;m

[1;33m[c1] [1;m

[1;33m[c1] aiting for everybody's up: 1 up of of 2[1;m

[1;33m[c1] 17587[1;m

[1;33m[c1] nosdev1: 1 instance of cassandra running[1;m

[1;33m[c1] ev1:[1;m

[1;33m[c1] v1: Datacenter: datacenter1[1;m

[1;33m[c1] : ==========[1;m

[1;33m[c1] dev1: Replicas: 1[1;m

[1;33m[c1] [1;m

[1;33m[c1] 1: Address        Rack        Status State   Load            Owns                Token[1;m

[1;33m[c1] ev1:[1;m

[1;33m[c1] sdev1: 192.168.56.11  rack1       Up     Normal  45.95 KB        100.00%             -9223372036854775808[1;m

[1;33m[c1] [1;m

[1;33m[c1] aiting for everybody's up: 1 up of of 2[1;m

[1;33m[c1] 7[1;m

[1;33m[c1] nosdev1: 1 instance of cassandra running[1;m

[1;33m[c1] v1:[1;m

[1;33m[c1] Datacenter: datacenter1[1;m

[1;33m[c1] as: 1[1;m

[1;33m[c1] nosdev1: Address        Rack        Status State   Load            Owns                Token[1;m

[1;33m[c1] 1:[1;m

[1;33m[c1] 2.168.56.11  rack1       Up     Normal  45.95 KB        100.00%             -9223372036854775808[1;m

[1;33m[c1] [1;m

[1;33m[c1] aiting for everybody's up: 1 up of of 2[1;m

[1;33m[c1] 17587[1;m

[1;33m[c1] nosdev1: 1 instance of cassandra running[1;m

[1;33m[c1] atacenter: datacenter1[1;m

[1;33m[c1]  ==========[1;m

[1;33m[c1] ev1: Address        Rack        Status State   Load            Owns                Token[1;m

[1;33m[c1] sdev1: 192.168.56.11  rack1       Up     Normal  45.95 KB        100.00%             -9223372036854775808[1;m

[1;33m[c1] aiting for everybody's up: 1 up of of 2[1;m

[1;33m[c1] 17587[1;m

[1;33m[c1] nosdev1: 1 instance of cassandra running[1;m

[1;33m[c1] v1:[1;m

[1;33m[c1] Datacenter: datacenter1[1;m

[1;33m[c1] dev1: ==========[1;m

[1;33m[c1] osdev1: Replicas: 1[1;m

[1;33m[c1] dev1:[1;m

[1;33m[c1] ack        Status State   Load            Owns                Token[1;m

[1;33m[c1] ev1:[1;m

[1;33m[c1] ev1: 192.168.56.11  rack1       Up     Normal  45.95 KB        100.00%             -9223372036854775808[1;m

[1;33m[c1] dev1:[1;m

[1;33m[c1] ing for everybody's up: 1 up of of 2[1;m

[1;33m[c1] 17587[1;m

[1;33m[c1] nosdev1: 1 instance of cassandra running[1;m

[1;33m[c1] osdev1:[1;m

[1;33m[c1] enter1[1;m

[1;33m[c1] dev1: Replicas: 1[1;m

[1;33m[c1] onosdev1: Address        Rack        Status State   Load            Owns                Token[1;m

[1;33m[c1] onosdev1: 192.168.56.11  rack1       Up     Normal  45.95 KB        100.00%             -9223372036854775808[1;m

[1;33m[c1] aiting for everybody's up: 1 up of of 2[1;m

[1;33m[c1] 17587[1;m

[1;33m[c1] nosdev1: 1 instance of cassandra running[1;m

[1;33m[c1] sdev1:[1;m

[1;33m[c1] : Datacenter: datacenter1[1;m

[1;33m[c1] ev1: ==========[1;m

[1;33m[c1] Replicas: 1[1;m

[1;33m[c1] ev1:[1;m

[1;33m[c1] ev1: Address        Rack        Status State   Load            Owns                Token[1;m

[1;33m[c1] 2.168.56.11  rack1       Up     Normal  45.95 KB        100.00%             -9223372036854775808[1;m

[1;33m[c1] sdev1:[1;m

[1;33m[c1] aiting for everybody's up: 1 up of of 2[1;m

[1;33m[c1] 587[1;m

[1;33m[c1] nosdev1: 1 instance of cassandra running[1;m

[1;33m[c1] dev1:[1;m

[1;33m[c1] sdev1: Datacenter: datacenter1[1;m

[1;33m[c1] ev1: ==========[1;m

[1;33m[c1] v1: Replicas: 1[1;m

[1;33m[c1] 1:[1;m

[1;33m[c1] ev1: Address        Rack        Status State   Load            Owns                Token[1;m

[1;33m[c1] sdev1:[1;m

[1;33m[c1] v1: 192.168.56.11  rack1       Up     Normal  45.95 KB        100.00%             -9223372036854775808[1;m

[1;33m[c1] ev1:[1;m

[1;33m[c1] aiting for everybody's up: 1 up of of 2[1;m

[1;33m[c1] 7587[1;m

[1;33m[c1] nosdev1: 1 instance of cassandra running[1;m

[1;33m[c1] osdev1:[1;m

[1;33m[c1] : Datacenter: datacenter1[1;m

[1;33m[c1] =========[1;m

[1;33m[c1] ev1: Replicas: 1[1;m

[1;33m[c1] onosdev1: Address        Rack        Status State   Load            Owns                Token[1;m

[1;33m[c1] sdev1:[1;m

[1;33m[c1] v1: 192.168.56.11  rack1       Up     Normal  45.95 KB        100.00%             -9223372036854775808[1;m

[1;33m[c1] dev1:[1;m

[1;33m[c1] iting for everybody's up: 1 up of of 2[1;m

[1;33m[c1] 17587[1;m

[1;33m[c1] nosdev1: 1 instance of cassandra running[1;m

[1;33m[c1] ev1: Datacenter: datacenter1[1;m

[1;33m[c1] =========[1;m

[1;33m[c1] nosdev1: Address        Rack        Status State   Load            Owns                Token[1;m

[1;33m[c1] .168.56.11  rack1       Up     Normal  45.95 KB        100.00%             -9223372036854775808[1;m

[1;33m[c1] aiting for everybody's up: 1 up of of 2[1;m

[1;33m[c1] 17587[1;m

[1;33m[c1] nosdev1: 1 instance of cassandra running[1;m

[1;33m[c1]  Datacenter: datacenter1[1;m

[1;33m[c1] dev1: Replicas: 1[1;m

[1;33m[c1] 1: Address        Rack        Status State   Load            Owns                Token[1;m

[1;33m[c1]                                                                           -9223372036854775808[1;m

[1;33m[c1]        Up     Normal  36.74 KB        50.00%              0[1;m

[1;33m[c1] 68.56.11  rack1       Up     Normal  55.26 KB        50.00%              -9223372036854775808[1;m

[1;33m[c1] verybody's up: 2 up of of 2[1;m

[1;33m[c1] [1;m

[1;33m[c1] leeping for 10sec[1;m

[1;33m[c1] tarting ONOS on all nodes[1;m

[1;33m[c1] sdev1: rotate log: ./onos-logs/onos.onosdev1.log[1;m

[1;33m[c1] e log: ./onos-logs/onos.onosdev1.pcap[1;m

[1;33m[c1] dev1: Starting ONOS controller ...[1;m

[1;33m[c1] v1:[1;m

[1;33m[c1] onosdev1: /home/mininet/ONOS[1;m

[1;33m[c1] ting for ONOS to start...[1;m

[1;33m[c1] dev1: .[1;m

[1;33m[c1] osdev2: rotate log: ./onos-logs/onos.onosdev2.log[1;m

[1;33m[c1] dev2: rotate log: ./onos-logs/onos.onosdev2.pcap[1;m

[1;33m[c1] ng ONOS controller ...[1;m

[1;33m[c1] nosdev2: .[1;m

[1;33m[c1] net/ONOS[1;m

[1;33m[c1] ONOS to start...[1;m

[1;33m[c1] nosdev1: killing: /usr/bin/python /home/mininet/ONOS/web/topology_rest.py[1;m

[1;33m[c1] thon /home/mininet/ONOS/web/topology_rest.py[1;m

[1;33m[c1] ing:[1;m

[1;33m[c1] ling: /usr/bin/python /home/mininet/ONOS/web/topology_rest.py[1;m

[1;33m[c1] g: [python][1;m

[1;33m[c1] lling:[1;m

[1;33m[c1] r 40 secs[1;m

[1;33m[c1]  ONOS on all nodes[1;m

[1;33m[c1] nosdev1: Killed existing process (pid: 22431)[1;m

[1;33m[c1]  (pid: 2857)[1;m

[1;33m[c1] emoving all data in db[1;m

[1;33m[c1] tarting ONOS on all nodes[1;m

[1;33m[c1] og: ./onos-logs/onos.onosdev1.log[1;m

[1;33m[c1] osdev1: rotate log: ./onos-logs/onos.onosdev1.pcap[1;m

[1;33m[c1] arting ONOS controller ...[1;m

[1;33m[c1] dev1:[1;m

[1;33m[c1] sdev1: .[1;m

[1;33m[c1] sdev1: /home/mininet/ONOS[1;m

[1;33m[c1] ev1: Waiting for ONOS to start...[1;m

[1;33m[c1] sdev1: .[1;m

[1;33m[c1] nosdev2: rotate log: ./onos-logs/onos.onosdev2.log[1;m

[1;33m[c1] os-logs/onos.onosdev2.pcap[1;m

[1;33m[c1] rting ONOS controller ...[1;m

[1;33m[c1] [1;m

[1;33m[c1] onosdev2: /home/mininet/ONOS[1;m

[1;33m[c1] ng for ONOS to start...[1;m

[1;33m[c1] .[1;m

[1;33m[c1] nosdev1: killing: /usr/bin/python /home/mininet/ONOS/web/topology_rest.py[1;m

[1;33m[c1] /home/mininet/ONOS/web/topology_rest.py[1;m

[1;33m[c1] /topology_rest.py[1;m

[1;33m[c1] ython /home/mininet/ONOS/web/topology_rest.py[1;m

[1;33m[c1] :[1;m

[1;33m[c2] DUMMY COMMAND[1;m

Connecting switch 0 to controller ControllerConfig(start_cmd=' onos stop; zk stop ; cassandra stop; echo "sleeping for 5sec"; sleep 5; /mnt/ahassany/vagrant_onosdev/scripts/conf_setup.sh 2 ; zk start ; cassandra start; echo "sleeping for 10sec"; sleep 10 ; onos start ; echo "sleeping for 40 secs"; sleep 40 ; onos stop; sleep 10; cassandra cleandb; onos start; sleep 40', label='c1', address='192.168.56.11', cwd='/mnt/ahassany/vagrant_onosdev', controller_type='onos', kill_cmd=' ssh onosdev1 "cd ONOS; ./start-onos.sh stop"; echo "killed"; sleep 5', restart_cmd='ssh onosdev1 "cd ONOS; ./start-onos.sh start"; echo "restarted"; sleep 20') - <bound method Simulation.create_connection of <sts.simulation_state.Simulation object at 0x21e4490>>
connect_socket_with_backoff ('192.168.56.11', 6633)
Connecting switch 1 to controller ControllerConfig(start_cmd='echo "DUMMY COMMAND"; sleep 1', label='c2', address='192.168.56.12', cwd='/mnt/ahassany/vagrant_onosdev', controller_type='onos', kill_cmd=' ssh onosdev2 "cd ONOS; ./start-onos.sh stop"; echo "killed"; sleep 5', restart_cmd='ssh onosdev2 "cd ONOS; ./start-onos.sh start"; echo "restarted"; sleep 20') - <bound method Simulation.create_connection of <sts.simulation_state.Simulation object at 0x21e4490>>
connect_socket_with_backoff ('192.168.56.12', 6633)
[1;36m[1;44m00:00.503 00:00.000 Successfully matched event ConnectToControllers:e1[1;m
[1;36m[1;44m00:00.582 00:00.136 Successfully matched event ControlMessageReceive:i2 c c1 -> s 1 [ofp_hello: ][1;m
[1;36m[1;36mRound 1[1;37m[1;m
[1;36m[1;44m00:00.583 00:00.137 Successfully matched event ControlMessageSend:i3 c 1 -> s c1 [ofp_hello: ][1;m
[1;36m[1;44m00:00.597 00:00.238 Successfully matched event ControlMessageReceive:i4 c c1 -> s 1 [ofp_features_request: ][1;m
[1;36m[1;36mRound 2[1;37m[1;m
[1;36m[1;44m00:00.599 00:00.239 Successfully matched event ControlMessageReceive:i5 c c2 -> s 2 [ofp_hello: ][1;m
[1;36m[1;44m00:00.600 00:00.240 Successfully matched event ControlMessageSend:i6 c 2 -> s c2 [ofp_hello: ][1;m
[1;36m[1;44m00:00.601 00:00.240 Successfully matched event ControlMessageSend:i7 c 1 -> s c1 [ofp_features_reply: datapath_id=1][1;m
[1;36m[1;44m00:00.699 00:00.339 Successfully matched event ControlMessageReceive:i8 c c1 -> s 1 [ofp_stats_request: flags=0, type=0][1;m
[1;36m[1;36mRound 3[1;37m[1;m
[1;36m[1;44m00:00.701 00:00.345 Successfully matched event ControlMessageReceive:i9 c c1 -> s 1 [ofp_set_config: ][1;m
[1;36m[1;44m00:00.703 00:00.345 Successfully matched event ControlMessageReceive:i10 c c1 -> s 1 [ofp_get_config_request: ][1;m
[1;36m[1;44m00:00.704 00:00.346 Successfully matched event ControlMessageReceive:i11 c c2 -> s 2 [ofp_features_request: ][1;m
[1;36m[1;44m00:00.705 00:00.346 Successfully matched event ControlMessageSend:i12 c 2 -> s c2 [ofp_features_reply: datapath_id=2][1;m
[1;36m[1;44m00:00.706 00:00.346 Successfully matched event ControlMessageSend:i13 c 1 -> s c1 [ofp_get_config_reply: ][1;m
[1;36m[1;44m00:00.706 00:00.347 Successfully matched event ControlMessageSend:i14 c 1 -> s c1 [ofp_stats_reply: flags=0, type=0][1;m
[1;36m[1;44m00:00.762 00:00.447 Successfully matched event ControlMessageReceive:i15 c c1 -> s 1 [ofp_vendor: ][1;m
[1;36m[1;36mRound 4[1;37m[1;m
[1;36m[1;44m00:00.763 00:00.448 Successfully matched event ControlMessageReceive:i16 c c2 -> s 2 [ofp_set_config: ][1;m
[1;36m[1;44m00:00.764 00:00.448 Successfully matched event ControlMessageReceive:i17 c c2 -> s 2 [ofp_get_config_request: ][1;m
[1;36m[1;44m00:00.764 00:00.449 Successfully matched event ControlMessageSend:i18 c 2 -> s c2 [ofp_get_config_reply: ][1;m
[1;36m[1;44m00:00.764 00:00.449 Successfully matched event ControlMessageSend:i19 c 1 -> s c1 [ofp_vendor: ][1;m
[1;36m[1;44m00:00.835 00:00.549 Successfully matched event ControlMessageReceive:i20 c c1 -> s 1 [ofp_vendor: ][1;m
[1;36m[1;36mRound 5[1;37m[1;m
[1;36m[1;44m00:00.843 00:00.551 Successfully matched event ControlMessageReceive:i21 c c2 -> s 2 [ofp_stats_request: flags=0, type=0][1;m
[1;36m[1;44m00:00.844 00:00.556 Successfully matched event ControlMessageSend:i22 c 2 -> s c2 [ofp_stats_reply: flags=0, type=0][1;m
[1;36m[1;44m00:00.845 00:00.557 Successfully matched event ControlMessageSend:i23 c 1 -> s c1 [ofp_vendor: ][1;m
[1;36m[1;44m00:00.902 00:00.657 Successfully matched event ControlMessageReceive:i24 c c2 -> s 2 [ofp_vendor: ][1;m
[1;36m[1;36mRound 6[1;37m[1;m
[1;36m[1;44m00:00.903 00:00.658 Successfully matched event ControlMessageSend:i25 c 2 -> s c2 [ofp_vendor: ][1;m
[1;36m[1;44m00:00.955 00:00.759 Successfully matched event ControlMessageReceive:i26 c c2 -> s 2 [ofp_vendor: ][1;m
[1;36m[1;36mRound 7[1;37m[1;m
[1;36m[1;44m00:00.955 00:00.760 Successfully matched event ControlMessageSend:i27 c 2 -> s c2 [ofp_vendor: ][1;m
[1;36m[1;44m00:02.264 00:02.066 Successfully matched event TrafficInjection:e28[1;m
[1;36m[1;36mRound 20[1;37m[1;m
[1;36mForwarding dataplane event[1;m
[1;36m[1;44m00:02.366 00:02.167 Successfully matched event DataplanePermit:i29[1;m
[1;36m[1;36mRound 21[1;37m[1;m
[1;36m[1;44m00:02.367 00:02.169 Successfully matched event ControlMessageSend:i30 c 1 -> s c1 [ofp_packet_in: data={u'dl_dst': u'12:34:56:78:02:02', u'nw_src': u'123.123.1.2', u'dl_src': u'12:34:56:78:01:02', u'nw_dst': u'123.123.2.2'}, in_port=2][1;m
[1;36m[1;44m00:02.463 00:02.265 Successfully matched event ControlMessageReceive:i31 c c1 -> s 1 [ofp_packet_out: actions=(u'output(1)',), data={u'class': u'lldp'}, in_port=65535][1;m
[1;36m[1;36mRound 22[1;37m[1;m
[1;36m[1;44m00:02.464 00:02.267 Successfully matched event ControlMessageReceive:i32 c c1 -> s 1 [ofp_packet_out: actions=(u'output(2)',), data={u'class': u'lldp'}, in_port=65535][1;m
[1;36m[1;44m00:02.566 00:02.369 Successfully matched event DataplanePermit:i33[1;m
[1;36m[1;36mRound 23[1;37m[1;m
[1;36m[1;44m00:02.567 00:02.370 Successfully matched event DataplanePermit:i34[1;m
[1;36m[1;44m00:02.740 00:02.371 Successfully matched event ControlMessageReceive:i35 c c1 -> s 1 [ofp_packet_out: actions=(u'output(1)',), data={u'dl_dst': u'12:34:56:78:02:02', u'nw_src': u'123.123.1.2', u'dl_src': u'12:34:56:78:01:02', u'nw_dst': u'123.123.2.2'}, in_port=65535][1;m
[1;36mForwarding dataplane event[1;m
[1;36mForwarding dataplane event[1;m
[1;36mForwarding dataplane event[1;m
[1;36m[1;44m00:02.769 00:02.373 Successfully matched event ControlMessageReceive:i36 c c1 -> s 1 [ofp_stats_request: flags=0, type=1][1;m
[1;36m[1;44m00:02.771 00:02.375 Successfully matched event ControlMessageSend:i37 c 2 -> s c2 [ofp_packet_in: data={u'class': u'lldp'}, in_port=1][1;m
[1;36m[1;44m00:02.772 00:02.375 Successfully matched event ControlMessageSend:i38 c 1 -> s c1 [ofp_stats_reply: flags=0, type=0][1;m
[1;36m[1;44m00:02.867 00:02.470 Successfully matched event DataplanePermit:i40[1;m
[1;36m[1;36mRound 24[1;37m[1;m
[1;36mForwarding dataplane event[1;m
[1;36mForwarding dataplane event[1;m
[1;36m[1;44m00:02.868 00:02.471 Successfully matched event DataplanePermit:i41[1;m
[1;36m[1;44m00:02.919 00:02.472 Successfully matched event ControlMessageReceive:i42 c c1 -> s 1 [ofp_packet_out: actions=(u'output(1)',), data={u'dl_type': 35138}, in_port=65535][1;m
[1;36mForwarding dataplane event[1;m
[1;36m[1;44m00:02.921 00:02.472 Successfully matched event ControlMessageReceive:i43 c c1 -> s 1 [ofp_packet_out: actions=(u'output(2)',), data={u'dl_type': 35138}, in_port=65535][1;m
[1;36mForwarding dataplane event[1;m
[1;36m[1;44m00:02.922 00:02.473 Successfully matched event ControlMessageReceive:i44 c c1 -> s 1 [ofp_packet_out: actions=(u'output(1)',), data={u'class': u'lldp'}, in_port=65535][1;m
[1;36m[1;44m00:02.923 00:02.474 Successfully matched event ControlMessageReceive:i45 c c1 -> s 1 [ofp_packet_out: actions=(u'output(2)',), data={u'class': u'lldp'}, in_port=65535][1;m
[1;36m[1;44m00:02.924 00:02.474 Successfully matched event ControlMessageSend:i46 c 2 -> s c2 [ofp_packet_in: data={u'dl_dst': u'12:34:56:78:02:02', u'nw_src': u'123.123.1.2', u'dl_src': u'12:34:56:78:01:02', u'nw_dst': u'123.123.2.2'}, in_port=1][1;m
[1;35m[1;41m00:03.525 00:02.475 Event timed out ControlMessageSend:i47 c 2 -> s c2 [ofp_packet_in: data={u'dl_dst': u'12:34:56:78:01:02', u'nw_src': u'123.123.2.2', u'dl_src': u'12:34:56:78:02:02', u'nw_dst': u'123.123.1.2'}, in_port=2][1;m
[1;36m[1;44m00:03.627 00:02.576 Successfully matched event DataplanePermit:i48[1;m
[1;36m[1;36mRound 25[1;37m[1;m
[1;36m[1;44m00:03.628 00:02.577 Successfully matched event DataplanePermit:i49[1;m
[1;36m[1;44m00:03.629 00:02.578 Successfully matched event DataplanePermit:i50[1;m
[1;36m[1;44m00:03.629 00:02.579 Successfully matched event DataplanePermit:i51[1;m
[1;36m[1;44m00:03.630 00:02.580 Successfully matched event ControlMessageSend:i52 c 2 -> s c2 [ofp_packet_in: data={u'class': u'lldp'}, in_port=1][1;m
[1;36m[1;44m00:03.631 00:02.580 Successfully matched event ControlMessageSend:i53 c 2 -> s c2 [ofp_packet_in: data={u'dl_type': 35138}, in_port=1][1;m
[1;36m[1;36mRound 40[1;37m[1;m
[1;41m[1;37mViolations at end of trace: ['c2'][1;m
[1;36m[1;44mEvent Stats: Events matched: 51, timed out: 1
Matches per event type:
  ConnectToControllers 1
  TrafficInjection 1
  DataplanePermit 9
  ControlMessageSend 18
  ControlMessageReceive 22
Timeouts per event type:
  ControlMessageSend 1
[1;m
[1;36m[1;44mDataplaneDrop Stats: Expected drops (0), Actual drops (0)
Missed Drops (expected if TrafficInjections pruned):[1;m
