{
  "_iteration": 4,
  "_runtime_stats_path": "experiments/pox_switch_hash_bug_fuzz_fuzzer_mcs/intermcs_4_/runtime_stats.json",
  "ambiguous_counts": {},
  "ambiguous_events": {},
  "buffered_message_receipts": {
    "2": [
      "PendingReceive(dpid=3, controller_id='c1', fingerprint=OFFingerprint{'actions': ('output(3)',), 'data': DPFingerprint{'class': 'lldp'}, 'class': 'ofp_packet_out', 'in_port': 65535})",
      "PendingReceive(dpid=2, controller_id='c1', fingerprint=OFFingerprint{'actions': ('output(3)',), 'data': DPFingerprint{'class': 'lldp'}, 'class': 'ofp_packet_out', 'in_port': 65535})",
      "PendingReceive(dpid=3, controller_id='c1', fingerprint=OFFingerprint{'actions': ('output(2)',), 'data': DPFingerprint{'class': 'lldp'}, 'class': 'ofp_packet_out', 'in_port': 65535})",
      "PendingReceive(dpid=1, controller_id='c1', fingerprint=OFFingerprint{'actions': ('output(1)',), 'data': DPFingerprint{'class': 'lldp'}, 'class': 'ofp_packet_out', 'in_port': 65535})",
      "PendingReceive(dpid=2, controller_id='c1', fingerprint=OFFingerprint{'actions': ('output(4)',), 'data': DPFingerprint{'class': 'lldp'}, 'class': 'ofp_packet_out', 'in_port': 65535})",
      "PendingReceive(dpid=3, controller_id='c1', fingerprint=OFFingerprint{'actions': ('output(4)',), 'data': DPFingerprint{'class': 'lldp'}, 'class': 'ofp_packet_out', 'in_port': 65535})",
      "PendingReceive(dpid=2, controller_id='c1', fingerprint=OFFingerprint{'actions': ('output(2)',), 'data': DPFingerprint{'class': 'lldp'}, 'class': 'ofp_packet_out', 'in_port': 65535})",
      "PendingReceive(dpid=2, controller_id='c1', fingerprint=OFFingerprint{'actions': ('output(1)',), 'data': DPFingerprint{'class': 'lldp'}, 'class': 'ofp_packet_out', 'in_port': 65535})",
      "PendingReceive(dpid=1, controller_id='c1', fingerprint=OFFingerprint{'actions': ('output(2)',), 'data': DPFingerprint{'class': 'lldp'}, 'class': 'ofp_packet_out', 'in_port': 65535})",
      "PendingReceive(dpid=1, controller_id='c1', fingerprint=OFFingerprint{'actions': ('output(3)',), 'data': DPFingerprint{'class': 'lldp'}, 'class': 'ofp_packet_out', 'in_port': 65535})",
      "PendingReceive(dpid=1, controller_id='c1', fingerprint=OFFingerprint{'actions': ('output(4)',), 'data': DPFingerprint{'class': 'lldp'}, 'class': 'ofp_packet_out', 'in_port': 65535})",
      "PendingReceive(dpid=3, controller_id='c1', fingerprint=OFFingerprint{'actions': ('output(1)',), 'data': DPFingerprint{'class': 'lldp'}, 'class': 'ofp_packet_out', 'in_port': 65535})"
    ],
    "3": [
      "PendingReceive(dpid=3, controller_id='c1', fingerprint=OFFingerprint{'actions': ('output(3)',), 'data': DPFingerprint{'class': 'lldp'}, 'class': 'ofp_packet_out', 'in_port': 65535})",
      "PendingReceive(dpid=2, controller_id='c1', fingerprint=OFFingerprint{'actions': ('output(3)',), 'data': DPFingerprint{'class': 'lldp'}, 'class': 'ofp_packet_out', 'in_port': 65535})",
      "PendingReceive(dpid=3, controller_id='c1', fingerprint=OFFingerprint{'actions': ('output(2)',), 'data': DPFingerprint{'class': 'lldp'}, 'class': 'ofp_packet_out', 'in_port': 65535})",
      "PendingReceive(dpid=1, controller_id='c1', fingerprint=OFFingerprint{'actions': ('output(1)',), 'data': DPFingerprint{'class': 'lldp'}, 'class': 'ofp_packet_out', 'in_port': 65535})",
      "PendingReceive(dpid=2, controller_id='c1', fingerprint=OFFingerprint{'actions': ('output(4)',), 'data': DPFingerprint{'class': 'lldp'}, 'class': 'ofp_packet_out', 'in_port': 65535})",
      "PendingReceive(dpid=3, controller_id='c1', fingerprint=OFFingerprint{'actions': ('output(4)',), 'data': DPFingerprint{'class': 'lldp'}, 'class': 'ofp_packet_out', 'in_port': 65535})",
      "PendingReceive(dpid=2, controller_id='c1', fingerprint=OFFingerprint{'actions': ('output(2)',), 'data': DPFingerprint{'class': 'lldp'}, 'class': 'ofp_packet_out', 'in_port': 65535})",
      "PendingReceive(dpid=2, controller_id='c1', fingerprint=OFFingerprint{'actions': ('output(1)',), 'data': DPFingerprint{'class': 'lldp'}, 'class': 'ofp_packet_out', 'in_port': 65535})",
      "PendingReceive(dpid=1, controller_id='c1', fingerprint=OFFingerprint{'actions': ('output(2)',), 'data': DPFingerprint{'class': 'lldp'}, 'class': 'ofp_packet_out', 'in_port': 65535})",
      "PendingReceive(dpid=1, controller_id='c1', fingerprint=OFFingerprint{'actions': ('output(3)',), 'data': DPFingerprint{'class': 'lldp'}, 'class': 'ofp_packet_out', 'in_port': 65535})",
      "PendingReceive(dpid=1, controller_id='c1', fingerprint=OFFingerprint{'actions': ('output(4)',), 'data': DPFingerprint{'class': 'lldp'}, 'class': 'ofp_packet_out', 'in_port': 65535})",
      "PendingReceive(dpid=3, controller_id='c1', fingerprint=OFFingerprint{'actions': ('output(1)',), 'data': DPFingerprint{'class': 'lldp'}, 'class': 'ofp_packet_out', 'in_port': 65535})"
    ],
    "4": [
      "PendingReceive(dpid=3, controller_id='c1', fingerprint=OFFingerprint{'actions': ('output(3)',), 'data': DPFingerprint{'class': 'lldp'}, 'class': 'ofp_packet_out', 'in_port': 65535})",
      "PendingReceive(dpid=2, controller_id='c1', fingerprint=OFFingerprint{'actions': ('output(3)',), 'data': DPFingerprint{'class': 'lldp'}, 'class': 'ofp_packet_out', 'in_port': 65535})",
      "PendingReceive(dpid=3, controller_id='c1', fingerprint=OFFingerprint{'actions': ('output(2)',), 'data': DPFingerprint{'class': 'lldp'}, 'class': 'ofp_packet_out', 'in_port': 65535})",
      "PendingReceive(dpid=1, controller_id='c1', fingerprint=OFFingerprint{'actions': ('output(1)',), 'data': DPFingerprint{'class': 'lldp'}, 'class': 'ofp_packet_out', 'in_port': 65535})",
      "PendingReceive(dpid=2, controller_id='c1', fingerprint=OFFingerprint{'actions': ('output(4)',), 'data': DPFingerprint{'class': 'lldp'}, 'class': 'ofp_packet_out', 'in_port': 65535})",
      "PendingReceive(dpid=3, controller_id='c1', fingerprint=OFFingerprint{'actions': ('output(4)',), 'data': DPFingerprint{'class': 'lldp'}, 'class': 'ofp_packet_out', 'in_port': 65535})",
      "PendingReceive(dpid=2, controller_id='c1', fingerprint=OFFingerprint{'actions': ('output(2)',), 'data': DPFingerprint{'class': 'lldp'}, 'class': 'ofp_packet_out', 'in_port': 65535})",
      "PendingReceive(dpid=2, controller_id='c1', fingerprint=OFFingerprint{'actions': ('output(1)',), 'data': DPFingerprint{'class': 'lldp'}, 'class': 'ofp_packet_out', 'in_port': 65535})",
      "PendingReceive(dpid=1, controller_id='c1', fingerprint=OFFingerprint{'actions': ('output(2)',), 'data': DPFingerprint{'class': 'lldp'}, 'class': 'ofp_packet_out', 'in_port': 65535})",
      "PendingReceive(dpid=1, controller_id='c1', fingerprint=OFFingerprint{'actions': ('output(3)',), 'data': DPFingerprint{'class': 'lldp'}, 'class': 'ofp_packet_out', 'in_port': 65535})",
      "PendingReceive(dpid=1, controller_id='c1', fingerprint=OFFingerprint{'actions': ('output(4)',), 'data': DPFingerprint{'class': 'lldp'}, 'class': 'ofp_packet_out', 'in_port': 65535})",
      "PendingReceive(dpid=3, controller_id='c1', fingerprint=OFFingerprint{'actions': ('output(1)',), 'data': DPFingerprint{'class': 'lldp'}, 'class': 'ofp_packet_out', 'in_port': 65535})"
    ],
    "5": [
      "PendingReceive(dpid=3, controller_id='c1', fingerprint=OFFingerprint{'actions': ('output(3)',), 'data': DPFingerprint{'class': 'lldp'}, 'class': 'ofp_packet_out', 'in_port': 65535})",
      "PendingReceive(dpid=2, controller_id='c1', fingerprint=OFFingerprint{'actions': ('output(3)',), 'data': DPFingerprint{'class': 'lldp'}, 'class': 'ofp_packet_out', 'in_port': 65535})",
      "PendingReceive(dpid=3, controller_id='c1', fingerprint=OFFingerprint{'actions': ('output(2)',), 'data': DPFingerprint{'class': 'lldp'}, 'class': 'ofp_packet_out', 'in_port': 65535})",
      "PendingReceive(dpid=1, controller_id='c1', fingerprint=OFFingerprint{'actions': ('output(1)',), 'data': DPFingerprint{'class': 'lldp'}, 'class': 'ofp_packet_out', 'in_port': 65535})",
      "PendingReceive(dpid=2, controller_id='c1', fingerprint=OFFingerprint{'actions': ('output(4)',), 'data': DPFingerprint{'class': 'lldp'}, 'class': 'ofp_packet_out', 'in_port': 65535})",
      "PendingReceive(dpid=3, controller_id='c1', fingerprint=OFFingerprint{'actions': ('output(4)',), 'data': DPFingerprint{'class': 'lldp'}, 'class': 'ofp_packet_out', 'in_port': 65535})",
      "PendingReceive(dpid=2, controller_id='c1', fingerprint=OFFingerprint{'actions': ('output(2)',), 'data': DPFingerprint{'class': 'lldp'}, 'class': 'ofp_packet_out', 'in_port': 65535})",
      "PendingReceive(dpid=2, controller_id='c1', fingerprint=OFFingerprint{'actions': ('output(1)',), 'data': DPFingerprint{'class': 'lldp'}, 'class': 'ofp_packet_out', 'in_port': 65535})",
      "PendingReceive(dpid=1, controller_id='c1', fingerprint=OFFingerprint{'actions': ('output(2)',), 'data': DPFingerprint{'class': 'lldp'}, 'class': 'ofp_packet_out', 'in_port': 65535})",
      "PendingReceive(dpid=1, controller_id='c1', fingerprint=OFFingerprint{'actions': ('output(3)',), 'data': DPFingerprint{'class': 'lldp'}, 'class': 'ofp_packet_out', 'in_port': 65535})",
      "PendingReceive(dpid=1, controller_id='c1', fingerprint=OFFingerprint{'actions': ('output(4)',), 'data': DPFingerprint{'class': 'lldp'}, 'class': 'ofp_packet_out', 'in_port': 65535})",
      "PendingReceive(dpid=3, controller_id='c1', fingerprint=OFFingerprint{'actions': ('output(1)',), 'data': DPFingerprint{'class': 'lldp'}, 'class': 'ofp_packet_out', 'in_port': 65535})"
    ]
  },
  "config": "SimulationConfig(controller_configs=[ControllerConfig(start_cmd='./pox.py --verbose openflow.of_01 --address=__address__ --port=__port__ openflow.discovery forwarding.l2_multi', label='c1', address='127.0.0.1', cwd='pox_carp')],\n                 topology_class=MeshTopology,\n                 topology_params=\"num_switches=4\",\n                 patch_panel_class=BufferedPatchPanel,\n                 multiplex_sockets=False,\n                 kill_controllers_on_exit=True)",
  "early_internal_events": {
    "2": [],
    "3": [],
    "4": [],
    "5": []
  },
  "initial_verification_runs_needed": 0,
  "iteration_size": {
    "0": 102,
    "1": 54,
    "2": 27,
    "3": 15
  },
  "matched_events": {
    "2": {
      "CheckInvariants": 6,
      "ConnectToControllers": 1,
      "ControlMessageReceive": 25,
      "ControlMessageSend": 60,
      "DataplanePermit": 1,
      "LinkFailure": 24,
      "LinkRecovery": 24
    },
    "3": {
      "CheckInvariants": 3,
      "ConnectToControllers": 1,
      "ControlMessageReceive": 25,
      "ControlMessageSend": 36,
      "DataplanePermit": 1,
      "LinkFailure": 12,
      "LinkRecovery": 12
    },
    "4": {
      "CheckInvariants": 1,
      "ConnectToControllers": 1,
      "ControlMessageReceive": 25,
      "ControlMessageSend": 26,
      "DataplanePermit": 1,
      "LinkFailure": 7,
      "LinkRecovery": 7
    },
    "5": {
      "ConnectToControllers": 1,
      "ControlMessageReceive": 25,
      "ControlMessageSend": 20,
      "DataplanePermit": 1,
      "LinkFailure": 4,
      "LinkRecovery": 4
    }
  },
  "new_internal_events": {
    "2": [],
    "3": [],
    "4": [],
    "5": []
  },
  "original_duration_seconds": 2.1010658740997314,
  "peeker": false,
  "prune_duration_seconds": 0,
  "prune_start_epoch": 1390978935.231792,
  "replay_duration_seconds": 2.702968120574951,
  "replay_end_epoch": 1390978935.231559,
  "replay_start_epoch": 1390978932.528591,
  "subsequence_id": 0,
  "timed_out_events": {
    "2": {
      "ControlMessageSend": 32
    },
    "3": {
      "ControlMessageSend": 56
    },
    "4": {
      "ControlMessageSend": 66
    },
    "5": {
      "ControlMessageSend": 72
    }
  },
  "total_events": 222,
  "total_inputs": 102,
  "total_inputs_replayed": 206,
  "total_replays": 5,
  "violation_found_in_run": {
    "0": 4
  }
}