{"name": null, "timeout_disallowed": false, "fingerprint": ["ControllerStateChange", "%s going up...", "c1"], "controller_id": "c1", "value": ["('POX 0.0.0',)"], "timed_out": false, "dependent_labels": [], "time": [1371927029, 723987], "label": "i1", "class": "ControllerStateChange", "round": -1, "prunable": true}
{"name": null, "timeout_disallowed": false, "fingerprint": ["ControllerStateChange", "Running on %s", "c1"], "controller_id": "c1", "value": ["('CPython (2.7.3/Apr 12 2012 11:28:34)',)"], "timed_out": false, "dependent_labels": [], "time": [1371927029, 725689], "label": "i2", "class": "ControllerStateChange", "round": -1, "prunable": true}
{"name": null, "timeout_disallowed": false, "fingerprint": ["ControllerStateChange", "%s is up.", "c1"], "controller_id": "c1", "value": ["('POX 0.0.0',)"], "timed_out": false, "dependent_labels": [], "time": [1371927029, 727278], "label": "i3", "class": "ControllerStateChange", "round": -1, "prunable": true}
{"name": null, "timeout_disallowed": false, "fingerprint": ["ControllerStateChange", "Listening for connections on ('127.0.0.1', 6633)", "c1"], "controller_id": "c1", "value": ["()"], "timed_out": false, "dependent_labels": [], "time": [1371927029, 730354], "label": "i4", "class": "ControllerStateChange", "round": -1, "prunable": true}
{"fingerprint": ["ConnectToControllers"], "dependent_labels": [], "time": [1371927029, 732991], "timeout_disallowed": false, "prunable": true, "class": "ConnectToControllers", "timed_out": false, "round": -1, "label": "i5"}
{"timeout_disallowed": false, "time": [1371927029, 735460], "controller_id": "c1", "fingerprint": ["ControlMessageReceive", {"class": "ofp_hello"}, 1, ["c", "1"]], "timed_out": false, "dependent_labels": [], "dpid": 1, "label": "i6", "class": "ControlMessageReceive", "round": -1, "prunable": true}
{"timeout_disallowed": false, "time": [1371927029, 735955], "controller_id": "c1", "fingerprint": ["ControlMessageSend", {"class": "ofp_hello"}, 1, ["c", "1"]], "timed_out": false, "dependent_labels": [], "dpid": 1, "label": "i7", "class": "ControlMessageSend", "round": -1, "prunable": true}
{"timeout_disallowed": false, "time": [1371927029, 775613], "controller_id": "c1", "fingerprint": ["ControlMessageReceive", {"class": "ofp_hello"}, 2, ["c", "1"]], "timed_out": false, "dependent_labels": [], "dpid": 2, "label": "i8", "class": "ControlMessageReceive", "round": -1, "prunable": true}
{"timeout_disallowed": false, "time": [1371927029, 776203], "controller_id": "c1", "fingerprint": ["ControlMessageReceive", {"class": "ofp_features_request"}, 1, ["c", "1"]], "timed_out": false, "dependent_labels": [], "dpid": 1, "label": "i9", "class": "ControlMessageReceive", "round": -1, "prunable": true}
{"timeout_disallowed": false, "time": [1371927029, 776643], "controller_id": "c1", "fingerprint": ["ControlMessageSend", {"class": "ofp_hello"}, 2, ["c", "1"]], "timed_out": false, "dependent_labels": [], "dpid": 2, "label": "i10", "class": "ControlMessageSend", "round": -1, "prunable": true}
{"timeout_disallowed": false, "time": [1371927029, 777166], "controller_id": "c1", "fingerprint": ["ControlMessageSend", {"datapath_id": 1, "class": "ofp_features_reply"}, 1, ["c", "1"]], "timed_out": false, "dependent_labels": [], "dpid": 1, "label": "i11", "class": "ControlMessageSend", "round": -1, "prunable": true}
{"timeout_disallowed": false, "time": [1371927029, 778359], "controller_id": "c1", "fingerprint": ["ControlMessageReceive", {"class": "ofp_features_request"}, 2, ["c", "1"]], "timed_out": false, "dependent_labels": [], "dpid": 2, "label": "i12", "class": "ControlMessageReceive", "round": -1, "prunable": true}
{"timeout_disallowed": false, "time": [1371927029, 780934], "controller_id": "c1", "fingerprint": ["ControlMessageReceive", {"class": "ofp_set_config"}, 1, ["c", "1"]], "timed_out": false, "dependent_labels": [], "dpid": 1, "label": "i13", "class": "ControlMessageReceive", "round": -1, "prunable": true}
{"timeout_disallowed": false, "time": [1371927029, 820200], "controller_id": "c1", "fingerprint": ["ControlMessageReceive", {"class": "ofp_barrier_request"}, 1, ["c", "1"]], "timed_out": false, "dependent_labels": [], "dpid": 1, "label": "i14", "class": "ControlMessageReceive", "round": -1, "prunable": true}
{"timeout_disallowed": false, "time": [1371927029, 820923], "controller_id": "c1", "fingerprint": ["ControlMessageReceive", {"hard_timeout": 0, "actions": [], "priority": 32768, "idle_timeout": 0, "command": "delete", "out_port": 65535, "flags": 0, "class": "ofp_flow_mod", "match": "x^L"}, 1, ["c", "1"]], "timed_out": false, "dependent_labels": [], "dpid": 1, "label": "i15", "class": "ControlMessageReceive", "round": -1, "prunable": true}
{"timeout_disallowed": false, "time": [1371927029, 821774], "controller_id": "c1", "fingerprint": ["ControlMessageSend", {"datapath_id": 2, "class": "ofp_features_reply"}, 2, ["c", "1"]], "timed_out": false, "dependent_labels": [], "dpid": 2, "label": "i16", "class": "ControlMessageSend", "round": -1, "prunable": true}
{"timeout_disallowed": false, "time": [1371927029, 822267], "controller_id": "c1", "fingerprint": ["ControlMessageSend", {"class": "ofp_barrier_reply"}, 1, ["c", "1"]], "timed_out": false, "dependent_labels": [], "dpid": 1, "label": "i17", "class": "ControlMessageSend", "round": -1, "prunable": true}
{"name": null, "timeout_disallowed": false, "fingerprint": ["ControllerStateChange", "of_01 %s Connected to %s", "c1"], "controller_id": "c1", "value": ["('[Con 1/1]', '00-00-00-00-00-01')"], "timed_out": false, "dependent_labels": [], "time": [1371927029, 827120], "label": "i18", "class": "ControllerStateChange", "round": -1, "prunable": true}
{"name": null, "timeout_disallowed": false, "fingerprint": ["ControllerStateChange", "Connect %s", "c1"], "controller_id": "c1", "value": ["(<pox.openflow.of_01.Connection object at 0x10afe50>,)"], "timed_out": false, "dependent_labels": [], "time": [1371927029, 829612], "label": "i19", "class": "ControllerStateChange", "round": -1, "prunable": true}
{"name": null, "timeout_disallowed": false, "fingerprint": ["ControllerStateChange", "Installing flow for %s", "c1"], "controller_id": "c1", "value": ["('00-00-00-00-00-01',)"], "timed_out": false, "dependent_labels": [], "time": [1371927029, 831825], "label": "i20", "class": "ControllerStateChange", "round": -1, "prunable": true}
{"timeout_disallowed": false, "time": [1371927029, 864543], "controller_id": "c1", "fingerprint": ["ControlMessageReceive", {"hard_timeout": 0, "actions": ["output(65533)"], "priority": 32768, "idle_timeout": 0, "command": "add", "out_port": 65535, "flags": 0, "class": "ofp_flow_mod", "match": "dl_dst:01:23:20:00:00:01,dl_type:35020"}, 1, ["c", "1"]], "timed_out": false, "dependent_labels": [], "dpid": 1, "label": "i21", "class": "ControlMessageReceive", "round": -1, "prunable": true}
{"timeout_disallowed": false, "time": [1371927029, 865519], "controller_id": "c1", "fingerprint": ["ControlMessageReceive", {"hard_timeout": 0, "actions": [], "priority": 32768, "idle_timeout": 0, "command": "delete", "out_port": 65535, "flags": 0, "class": "ofp_flow_mod", "match": "x^L"}, 2, ["c", "1"]], "timed_out": false, "dependent_labels": [], "dpid": 2, "label": "i22", "class": "ControlMessageReceive", "round": -1, "prunable": true}
{"timeout_disallowed": false, "time": [1371927029, 866296], "controller_id": "c1", "fingerprint": ["ControlMessageReceive", {"class": "ofp_set_config"}, 2, ["c", "1"]], "timed_out": false, "dependent_labels": [], "dpid": 2, "label": "i23", "class": "ControlMessageReceive", "round": -1, "prunable": true}
{"timeout_disallowed": false, "time": [1371927029, 866798], "controller_id": "c1", "fingerprint": ["ControlMessageReceive", {"class": "ofp_barrier_request"}, 2, ["c", "1"]], "timed_out": false, "dependent_labels": [], "dpid": 2, "label": "i24", "class": "ControlMessageReceive", "round": -1, "prunable": true}
{"timeout_disallowed": false, "time": [1371927029, 867253], "controller_id": "c1", "fingerprint": ["ControlMessageSend", {"class": "ofp_barrier_reply"}, 2, ["c", "1"]], "timed_out": false, "dependent_labels": [], "dpid": 2, "label": "i25", "class": "ControlMessageSend", "round": -1, "prunable": true}
{"name": null, "timeout_disallowed": false, "fingerprint": ["ControllerStateChange", "of_01 %s Connected to %s", "c1"], "controller_id": "c1", "value": ["('[Con 2/2]', '00-00-00-00-00-02')"], "timed_out": false, "dependent_labels": [], "time": [1371927029, 869739], "label": "i26", "class": "ControllerStateChange", "round": -1, "prunable": true}
{"name": null, "timeout_disallowed": false, "fingerprint": ["ControllerStateChange", "Connect %s", "c1"], "controller_id": "c1", "value": ["(<pox.openflow.of_01.Connection object at 0x10afe90>,)"], "timed_out": false, "dependent_labels": [], "time": [1371927029, 872307], "label": "i27", "class": "ControllerStateChange", "round": -1, "prunable": true}
{"name": null, "timeout_disallowed": false, "fingerprint": ["ControllerStateChange", "Installing flow for %s", "c1"], "controller_id": "c1", "value": ["('00-00-00-00-00-02',)"], "timed_out": false, "dependent_labels": [], "time": [1371927029, 874448], "label": "i28", "class": "ControllerStateChange", "round": -1, "prunable": true}
{"timeout_disallowed": false, "time": [1371927029, 875079], "controller_id": "c1", "fingerprint": ["ControlMessageReceive", {"hard_timeout": 0, "actions": ["output(65533)"], "priority": 32768, "idle_timeout": 0, "command": "add", "out_port": 65535, "flags": 0, "class": "ofp_flow_mod", "match": "dl_dst:01:23:20:00:00:01,dl_type:35020"}, 2, ["c", "1"]], "timed_out": false, "dependent_labels": [], "dpid": 2, "label": "i29", "class": "ControlMessageReceive", "round": -1, "prunable": true}
{"dependent_labels": [], "class": "TrafficInjection", "fingerprint": ["TrafficInjection", {"interface": {"hw_addr": "12:34:56:78:02:02", "ips": ["123.123.2.2"], "name": "eth2"}, "packet": "////////EjRWeAICCAYAAQgABgQAARI0VngCAnt7AgIAAAAAAAB7ewEC"}], "timed_out": false, "label": "e30", "dp_event": {"interface": {"hw_addr": "12:34:56:78:02:02", "ips": ["123.123.2.2"], "name": "eth2"}, "packet": "////////EjRWeAICCAYAAQgABgQAARI0VngCAnt7AgIAAAAAAAB7ewEC"}, "time": [1371927029, 876340], "host_id": null, "round": -1, "prunable": true}
{"timeout_disallowed": false, "fingerprint": ["DataplanePermit", {"class": "arp"}, "host:[IPAddr('123.123.2.2')]", "12:34:56:78:02:02"], "timed_out": false, "label": "i31", "passive": false, "dependent_labels": [], "time": [1371927029, 877520], "class": "DataplanePermit", "round": -1, "prunable": true}
{"timeout_disallowed": false, "time": [1371927029, 878017], "controller_id": "c1", "fingerprint": ["ControlMessageSend", {"data": {"class": "arp"}, "class": "ofp_packet_in", "in_port": 2}, 2, ["c", "1"]], "timed_out": false, "dependent_labels": [], "dpid": 2, "label": "i32", "class": "ControlMessageSend", "round": -1, "prunable": true}
{"name": null, "timeout_disallowed": false, "fingerprint": ["ControllerStateChange", "Learned %s at %s.%i", "c1"], "controller_id": "c1", "value": ["(EthAddr('12:34:56:78:02:02'), 00-00-00-00-00-02, 2)"], "timed_out": false, "dependent_labels": [], "time": [1371927029, 883775], "label": "i33", "class": "ControllerStateChange", "round": -1, "prunable": true}
{"name": null, "timeout_disallowed": false, "fingerprint": ["ControllerStateChange", "Flood multicast from %s", "c1"], "controller_id": "c1", "value": ["(EthAddr('12:34:56:78:02:02'),)"], "timed_out": false, "dependent_labels": [], "time": [1371927029, 885429], "label": "i34", "class": "ControllerStateChange", "round": -1, "prunable": true}
{"timeout_disallowed": false, "time": [1371927029, 885991], "controller_id": "c1", "fingerprint": ["ControlMessageReceive", {"in_port": 2, "data": [], "class": "ofp_packet_out", "actions": ["output(65531)"]}, 2, ["c", "1"]], "timed_out": false, "dependent_labels": [], "dpid": 2, "label": "i35", "class": "ControlMessageReceive", "round": -1, "prunable": true}
{"timeout_disallowed": false, "fingerprint": ["DataplanePermit", {"class": "arp"}, 2, 1], "timed_out": false, "label": "i36", "passive": false, "dependent_labels": [], "time": [1371927029, 886914], "class": "DataplanePermit", "round": -1, "prunable": true}
{"timeout_disallowed": false, "time": [1371927029, 887455], "controller_id": "c1", "fingerprint": ["ControlMessageSend", {"data": {"class": "arp"}, "class": "ofp_packet_in", "in_port": 1}, 1, ["c", "1"]], "timed_out": false, "dependent_labels": [], "dpid": 1, "label": "i37", "class": "ControlMessageSend", "round": -1, "prunable": true}
{"name": null, "timeout_disallowed": false, "fingerprint": ["ControllerStateChange", "%s moved from %s.%i to %s.%i?", "c1"], "controller_id": "c1", "value": ["(EthAddr('12:34:56:78:02:02'), '00-00-00-00-00-02', 2, '00-00-00-00-00-01', 1)"], "timed_out": false, "dependent_labels": [], "time": [1371927029, 891430], "label": "i38", "class": "ControllerStateChange", "round": -1, "prunable": true}
{"name": null, "timeout_disallowed": false, "fingerprint": ["ControllerStateChange", "Learned %s at %s.%i", "c1"], "controller_id": "c1", "value": ["(EthAddr('12:34:56:78:02:02'), 00-00-00-00-00-01, 1)"], "timed_out": false, "dependent_labels": [], "time": [1371927029, 892971], "label": "i39", "class": "ControllerStateChange", "round": -1, "prunable": true}
{"name": null, "timeout_disallowed": false, "fingerprint": ["ControllerStateChange", "Flood multicast from %s", "c1"], "controller_id": "c1", "value": ["(EthAddr('12:34:56:78:02:02'),)"], "timed_out": false, "dependent_labels": [], "time": [1371927029, 894544], "label": "i40", "class": "ControllerStateChange", "round": -1, "prunable": true}
{"timeout_disallowed": false, "time": [1371927029, 895073], "controller_id": "c1", "fingerprint": ["ControlMessageReceive", {"in_port": 1, "data": [], "class": "ofp_packet_out", "actions": ["output(65531)"]}, 1, ["c", "1"]], "timed_out": false, "dependent_labels": [], "dpid": 1, "label": "i41", "class": "ControlMessageReceive", "round": -1, "prunable": true}
{"timeout_disallowed": false, "fingerprint": ["DataplanePermit", {"class": "arp"}, 1, 2], "timed_out": false, "label": "i42", "passive": false, "dependent_labels": [], "time": [1371927029, 895937], "class": "DataplanePermit", "round": -1, "prunable": true}
{"timeout_disallowed": false, "time": [1371927029, 931967], "controller_id": "c1", "fingerprint": ["ControlMessageReceive", {"in_port": 65535, "data": {"class": "lldp"}, "class": "ofp_packet_out", "actions": ["output(1)"]}, 1, ["c", "1"]], "timed_out": false, "dependent_labels": [], "dpid": 1, "label": "i43", "class": "ControlMessageReceive", "round": -1, "prunable": true}
{"class": "DataplaneDrop", "fingerprint": ["DataplaneDrop", {"class": "lldp"}, 1, 1], "timed_out": false, "label": "e44", "passive": false, "dependent_labels": [], "time": [1371927029, 932559], "round": -1, "prunable": true}
{"legacy_invariant_check": false, "class": "CheckInvariants", "fingerprint": "N/A", "timed_out": false, "label": "e45", "dependent_labels": [], "invariant_name": "check_for_loops_or_connectivity", "invariant_check_name": "check_for_loops_or_connectivity", "time": [1371927029, 934295], "invariant_check": null, "round": -1, "prunable": true}
{"dependent_labels": [], "class": "TrafficInjection", "fingerprint": ["TrafficInjection", {"interface": {"hw_addr": "12:34:56:78:01:02", "ips": ["123.123.1.2"], "name": "eth1"}, "packet": "EjRWeAICEjRWeAECCAYAAQgABgQAAhI0VngBAnt7AQISNFZ4AgJ7ewIC"}], "timed_out": false, "label": "e46", "dp_event": {"interface": {"hw_addr": "12:34:56:78:01:02", "ips": ["123.123.1.2"], "name": "eth1"}, "packet": "EjRWeAICEjRWeAECCAYAAQgABgQAAhI0VngBAnt7AQISNFZ4AgJ7ewIC"}, "time": [1371927029, 934935], "host_id": null, "round": -1, "prunable": true}
{"timeout_disallowed": false, "fingerprint": ["DataplanePermit", {"class": "arp"}, "host:[IPAddr('123.123.1.2')]", "12:34:56:78:01:02"], "timed_out": false, "label": "i47", "passive": false, "dependent_labels": [], "time": [1371927029, 935987], "class": "DataplanePermit", "round": -1, "prunable": true}
{"timeout_disallowed": false, "time": [1371927029, 936479], "controller_id": "c1", "fingerprint": ["ControlMessageSend", {"data": {"class": "arp"}, "class": "ofp_packet_in", "in_port": 2}, 1, ["c", "1"]], "timed_out": false, "dependent_labels": [], "dpid": 1, "label": "i48", "class": "ControlMessageSend", "round": -1, "prunable": true}
{"name": null, "timeout_disallowed": false, "fingerprint": ["ControllerStateChange", "Learned %s at %s.%i", "c1"], "controller_id": "c1", "value": ["(EthAddr('12:34:56:78:01:02'), 00-00-00-00-00-01, 2)"], "timed_out": false, "dependent_labels": [], "time": [1371927029, 940587], "label": "i49", "class": "ControllerStateChange", "round": -1, "prunable": true}
{"name": null, "timeout_disallowed": false, "fingerprint": ["ControllerStateChange", "Installing path for %s -> %s %04x (%i hops)", "c1"], "controller_id": "c1", "value": ["(EthAddr('12:34:56:78:01:02'), EthAddr('12:34:56:78:02:02'), 2054, 1)"], "timed_out": false, "dependent_labels": [], "time": [1371927029, 942170], "label": "i50", "class": "ControllerStateChange", "round": -1, "prunable": true}
{"timeout_disallowed": false, "time": [1371927029, 942928], "controller_id": "c1", "fingerprint": ["ControlMessageReceive", {"hard_timeout": 30, "actions": ["output(1)"], "priority": 32768, "idle_timeout": 10, "command": "add", "out_port": 65535, "flags": 0, "class": "ofp_flow_mod", "match": "dl_src:12:34:56:78:01:02,dl_dst:12:34:56:78:02:02,dl_vlan:65535,dl_vlan_pcp:0,dl_type:2054,nw_proto:2,nw_src:123.123.1.2/32,nw_dst:123.123.2.2/32"}, 1, ["c", "1"]], "timed_out": false, "dependent_labels": [], "dpid": 1, "label": "i51", "class": "ControlMessageReceive", "round": -1, "prunable": true}
{"timeout_disallowed": false, "fingerprint": ["DataplanePermit", {"class": "arp"}, 1, 1], "timed_out": false, "label": "i52", "passive": false, "dependent_labels": [], "time": [1371927029, 944086], "class": "DataplanePermit", "round": -1, "prunable": true}
{"timeout_disallowed": false, "time": [1371927029, 944560], "controller_id": "c1", "fingerprint": ["ControlMessageSend", {"data": {"class": "arp"}, "class": "ofp_packet_in", "in_port": 1}, 2, ["c", "1"]], "timed_out": false, "dependent_labels": [], "dpid": 2, "label": "i53", "class": "ControlMessageSend", "round": -1, "prunable": true}
{"name": null, "timeout_disallowed": false, "fingerprint": ["ControllerStateChange", "%s moved from %s.%i to %s.%i?", "c1"], "controller_id": "c1", "value": ["(EthAddr('12:34:56:78:01:02'), '00-00-00-00-00-01', 2, '00-00-00-00-00-02', 1)"], "timed_out": false, "dependent_labels": [], "time": [1371927029, 948709], "label": "i54", "class": "ControllerStateChange", "round": -1, "prunable": true}
{"name": null, "timeout_disallowed": false, "fingerprint": ["ControllerStateChange", "Learned %s at %s.%i", "c1"], "controller_id": "c1", "value": ["(EthAddr('12:34:56:78:01:02'), 00-00-00-00-00-02, 1)"], "timed_out": false, "dependent_labels": [], "time": [1371927029, 950366], "label": "i55", "class": "ControllerStateChange", "round": -1, "prunable": true}
{"name": null, "timeout_disallowed": false, "fingerprint": ["ControllerStateChange", "Can't get from %s to %s", "c1"], "controller_id": "c1", "value": ["(EthAddr('12:34:56:78:01:02'), EthAddr('12:34:56:78:02:02'))"], "timed_out": false, "dependent_labels": [], "time": [1371927029, 951936], "label": "i56", "class": "ControllerStateChange", "round": -1, "prunable": true}
{"new_ingress_port_no": 3, "class": "HostMigration", "fingerprint": ["HostMigration", 1, 2, 1, 3, "host:[IPAddr('123.123.1.2')]"], "timed_out": false, "label": "e57", "dependent_labels": [], "new_ingress_dpid": 1, "time": [1371927029, 952492], "old_ingress_port_no": 2, "host_id": "host:[IPAddr('123.123.1.2')]", "old_ingress_dpid": 1, "round": -1, "prunable": true}
{"dependent_labels": [], "class": "TrafficInjection", "fingerprint": ["TrafficInjection", {"interface": {"hw_addr": "12:34:56:78:01:02", "ips": ["123.123.1.2"], "name": "eth1"}, "packet": "EjRWeAECEjRWeAECCABFAABI6n4AAEABlzx7ewECe3sBAggABjdQaW5nUGluZ1BpbmdQaW5nUGluZ1BpbmdQaW5nUGluZ1BpbmdQaW5nUGluZ1Bpbmc="}], "timed_out": false, "label": "e58", "dp_event": {"interface": {"hw_addr": "12:34:56:78:01:02", "ips": ["123.123.1.2"], "name": "eth1"}, "packet": "EjRWeAECEjRWeAECCABFAABI6n4AAEABlzx7ewECe3sBAggABjdQaW5nUGluZ1BpbmdQaW5nUGluZ1BpbmdQaW5nUGluZ1BpbmdQaW5nUGluZ1Bpbmc="}, "time": [1371927029, 953207], "host_id": null, "round": -1, "prunable": true}
{"timeout_disallowed": false, "fingerprint": ["DataplanePermit", {"dl_dst": "12:34:56:78:01:02", "nw_src": "123.123.1.2", "dl_src": "12:34:56:78:01:02", "nw_dst": "123.123.1.2"}, "host:[IPAddr('123.123.1.2')]", "12:34:56:78:01:02"], "timed_out": false, "label": "i59", "passive": false, "dependent_labels": [], "time": [1371927029, 954577], "class": "DataplanePermit", "round": -1, "prunable": true}
{"timeout_disallowed": false, "time": [1371927029, 955207], "controller_id": "c1", "fingerprint": ["ControlMessageSend", {"reason": 1, "class": "ofp_port_status", "desc": [2, "00:00:00:00:01:02"]}, 1, ["c", "1"]], "timed_out": false, "dependent_labels": [], "dpid": 1, "label": "i60", "class": "ControlMessageSend", "round": -1, "prunable": true}
{"timeout_disallowed": false, "time": [1371927029, 955849], "controller_id": "c1", "fingerprint": ["ControlMessageSend", {"data": {"dl_dst": "12:34:56:78:01:02", "nw_src": "123.123.1.2", "dl_src": "12:34:56:78:01:02", "nw_dst": "123.123.1.2"}, "class": "ofp_packet_in", "in_port": 3}, 1, ["c", "1"]], "timed_out": false, "dependent_labels": [], "dpid": 1, "label": "i61", "class": "ControlMessageSend", "round": -1, "prunable": true}
{"timeout_disallowed": false, "time": [1371927029, 956598], "controller_id": "c1", "fingerprint": ["ControlMessageSend", {"reason": 0, "class": "ofp_port_status", "desc": [3, "00:00:00:00:01:02"]}, 1, ["c", "1"]], "timed_out": false, "dependent_labels": [], "dpid": 1, "label": "i62", "class": "ControlMessageSend", "round": -1, "prunable": true}
{"name": null, "timeout_disallowed": false, "fingerprint": ["ControllerStateChange", "%s moved from %s.%i to %s.%i?", "c1"], "controller_id": "c1", "value": ["(EthAddr('12:34:56:78:01:02'), '00-00-00-00-00-02', 1, '00-00-00-00-00-01', 3)"], "timed_out": false, "dependent_labels": [], "time": [1371927029, 986572], "label": "i63", "class": "ControllerStateChange", "round": -1, "prunable": true}
{"name": null, "timeout_disallowed": false, "fingerprint": ["ControllerStateChange", "Learned %s at %s.%i", "c1"], "controller_id": "c1", "value": ["(EthAddr('12:34:56:78:01:02'), 00-00-00-00-00-01, 3)"], "timed_out": false, "dependent_labels": [], "time": [1371927029, 989644], "label": "i64", "class": "ControllerStateChange", "round": -1, "prunable": true}
{"name": null, "timeout_disallowed": false, "fingerprint": ["ControllerStateChange", "Installing path for %s -> %s %04x (%i hops)", "c1"], "controller_id": "c1", "value": ["(EthAddr('12:34:56:78:01:02'), EthAddr('12:34:56:78:01:02'), 2048, 1)"], "timed_out": false, "dependent_labels": [], "time": [1371927029, 991341], "label": "i65", "class": "ControllerStateChange", "round": -1, "prunable": true}
{"timeout_disallowed": false, "time": [1371927029, 992195], "controller_id": "c1", "fingerprint": ["ControlMessageReceive", {"hard_timeout": 30, "actions": ["output(3)"], "priority": 32768, "idle_timeout": 10, "command": "add", "out_port": 65535, "flags": 0, "class": "ofp_flow_mod", "match": "dl_src:12:34:56:78:01:02,dl_dst:12:34:56:78:01:02,dl_vlan:65535,dl_vlan_pcp:0,dl_type:2048,nw_tos:0,nw_proto:1,nw_src:123.123.1.2/32,nw_dst:123.123.1.2/32,tp_src:8,tp_dst:0"}, 1, ["c", "1"]], "timed_out": false, "dependent_labels": [], "dpid": 1, "label": "i66", "class": "ControlMessageReceive", "round": -1, "prunable": true}
{"dependent_labels": [], "class": "TrafficInjection", "fingerprint": ["TrafficInjection", {"interface": {"hw_addr": "12:34:56:78:02:02", "ips": ["123.123.2.2"], "name": "eth2"}, "packet": "EjRWeAECEjRWeAICCABFAAAcISgAAEABX797ewICe3sBAggAGS9waW5n"}], "timed_out": false, "label": "e67", "dp_event": {"interface": {"hw_addr": "12:34:56:78:02:02", "ips": ["123.123.2.2"], "name": "eth2"}, "packet": "EjRWeAECEjRWeAICCABFAAAcISgAAEABX797ewICe3sBAggAGS9waW5n"}, "time": [1371927029, 993238], "host_id": null, "round": -1, "prunable": true}
{"class": "DataplaneDrop", "fingerprint": ["DataplaneDrop", {"dl_dst": "12:34:56:78:01:02", "nw_src": "123.123.2.2", "dl_src": "12:34:56:78:02:02", "nw_dst": "123.123.1.2"}, "host:[IPAddr('123.123.2.2')]", "12:34:56:78:02:02"], "timed_out": false, "label": "e68", "passive": false, "dependent_labels": [], "time": [1371927029, 993860], "round": -1, "prunable": true}
{"new_ingress_port_no": 3, "class": "HostMigration", "fingerprint": ["HostMigration", 2, 2, 2, 3, "host:[IPAddr('123.123.2.2')]"], "timed_out": false, "label": "e69", "dependent_labels": [], "new_ingress_dpid": 2, "time": [1371927029, 994568], "old_ingress_port_no": 2, "host_id": "host:[IPAddr('123.123.2.2')]", "old_ingress_dpid": 2, "round": -1, "prunable": true}
{"dependent_labels": [], "class": "TrafficInjection", "fingerprint": ["TrafficInjection", {"interface": {"hw_addr": "12:34:56:78:02:02", "ips": ["123.123.2.2"], "name": "eth2"}, "packet": "EjRWeAICEjRWeAICCABFAABI6oAAAEABlTp7ewICe3sCAggABjdQaW5nUGluZ1BpbmdQaW5nUGluZ1BpbmdQaW5nUGluZ1BpbmdQaW5nUGluZ1Bpbmc="}], "timed_out": false, "label": "e70", "dp_event": {"interface": {"hw_addr": "12:34:56:78:02:02", "ips": ["123.123.2.2"], "name": "eth2"}, "packet": "EjRWeAICEjRWeAICCABFAABI6oAAAEABlTp7ewICe3sCAggABjdQaW5nUGluZ1BpbmdQaW5nUGluZ1BpbmdQaW5nUGluZ1BpbmdQaW5nUGluZ1Bpbmc="}, "time": [1371927029, 995243], "host_id": null, "round": -1, "prunable": true}
{"class": "DataplaneDrop", "fingerprint": ["DataplaneDrop", {"dl_dst": "12:34:56:78:02:02", "nw_src": "123.123.2.2", "dl_src": "12:34:56:78:02:02", "nw_dst": "123.123.2.2"}, "host:[IPAddr('123.123.2.2')]", "12:34:56:78:02:02"], "timed_out": false, "label": "e71", "passive": false, "dependent_labels": [], "time": [1371927029, 995877], "round": -1, "prunable": true}
{"timeout_disallowed": false, "time": [1371927029, 996476], "controller_id": "c1", "fingerprint": ["ControlMessageSend", {"reason": 1, "class": "ofp_port_status", "desc": [2, "00:00:00:00:02:02"]}, 2, ["c", "1"]], "timed_out": false, "dependent_labels": [], "dpid": 2, "label": "i72", "class": "ControlMessageSend", "round": -1, "prunable": true}
{"timeout_disallowed": false, "time": [1371927029, 997044], "controller_id": "c1", "fingerprint": ["ControlMessageSend", {"reason": 0, "class": "ofp_port_status", "desc": [3, "00:00:00:00:02:02"]}, 2, ["c", "1"]], "timed_out": false, "dependent_labels": [], "dpid": 2, "label": "i73", "class": "ControlMessageSend", "round": -1, "prunable": true}
{"legacy_invariant_check": false, "class": "CheckInvariants", "fingerprint": "N/A", "timed_out": false, "label": "e74", "dependent_labels": [], "invariant_name": "check_for_loops_or_connectivity", "invariant_check_name": "check_for_loops_or_connectivity", "time": [1371927030, 1355], "invariant_check": null, "round": -1, "prunable": true}
{"dependent_labels": [], "class": "TrafficInjection", "fingerprint": ["TrafficInjection", {"interface": {"hw_addr": "12:34:56:78:01:02", "ips": ["123.123.1.2"], "name": "eth1"}, "packet": "EjRWeAICEjRWeAECCABFAAAcISkAAEABX757ewECe3sCAgAAISlwb25n"}], "timed_out": false, "label": "e75", "dp_event": {"interface": {"hw_addr": "12:34:56:78:01:02", "ips": ["123.123.1.2"], "name": "eth1"}, "packet": "EjRWeAICEjRWeAECCABFAAAcISkAAEABX757ewECe3sCAgAAISlwb25n"}, "time": [1371927030, 1782], "host_id": null, "round": -1, "prunable": true}
{"timeout_disallowed": false, "fingerprint": ["DataplanePermit", {"dl_dst": "12:34:56:78:02:02", "nw_src": "123.123.1.2", "dl_src": "12:34:56:78:01:02", "nw_dst": "123.123.2.2"}, "host:[IPAddr('123.123.1.2')]", "12:34:56:78:01:02"], "timed_out": false, "label": "i76", "passive": false, "dependent_labels": [], "time": [1371927030, 2576], "class": "DataplanePermit", "round": -1, "prunable": true}
{"timeout_disallowed": false, "time": [1371927030, 2987], "controller_id": "c1", "fingerprint": ["ControlMessageSend", {"data": {"dl_dst": "12:34:56:78:02:02", "nw_src": "123.123.1.2", "dl_src": "12:34:56:78:01:02", "nw_dst": "123.123.2.2"}, "class": "ofp_packet_in", "in_port": 3}, 1, ["c", "1"]], "timed_out": false, "dependent_labels": [], "dpid": 1, "label": "i77", "class": "ControlMessageSend", "round": -1, "prunable": true}
{"name": null, "timeout_disallowed": false, "fingerprint": ["ControllerStateChange", "Installing path for %s -> %s %04x (%i hops)", "c1"], "controller_id": "c1", "value": ["(EthAddr('12:34:56:78:01:02'), EthAddr('12:34:56:78:02:02'), 2048, 1)"], "timed_out": false, "dependent_labels": [], "time": [1371927030, 46795], "label": "i78", "class": "ControllerStateChange", "round": -1, "prunable": true}
{"timeout_disallowed": false, "time": [1371927030, 47674], "controller_id": "c1", "fingerprint": ["ControlMessageReceive", {"hard_timeout": 30, "actions": ["output(1)"], "priority": 32768, "idle_timeout": 10, "command": "add", "out_port": 65535, "flags": 0, "class": "ofp_flow_mod", "match": "dl_src:12:34:56:78:01:02,dl_dst:12:34:56:78:02:02,dl_vlan:65535,dl_vlan_pcp:0,dl_type:2048,nw_tos:0,nw_proto:1,nw_src:123.123.1.2/32,nw_dst:123.123.2.2/32,tp_src:0,tp_dst:0"}, 1, ["c", "1"]], "timed_out": false, "dependent_labels": [], "dpid": 1, "label": "i79", "class": "ControlMessageReceive", "round": -1, "prunable": true}
{"timeout_disallowed": false, "fingerprint": ["DataplanePermit", {"dl_dst": "12:34:56:78:02:02", "nw_src": "123.123.1.2", "dl_src": "12:34:56:78:01:02", "nw_dst": "123.123.2.2"}, 1, 1], "timed_out": false, "label": "i80", "passive": false, "dependent_labels": [], "time": [1371927030, 48960], "class": "DataplanePermit", "round": -1, "prunable": true}
{"timeout_disallowed": false, "time": [1371927030, 49631], "controller_id": "c1", "fingerprint": ["ControlMessageSend", {"data": {"dl_dst": "12:34:56:78:02:02", "nw_src": "123.123.1.2", "dl_src": "12:34:56:78:01:02", "nw_dst": "123.123.2.2"}, "class": "ofp_packet_in", "in_port": 1}, 2, ["c", "1"]], "timed_out": false, "dependent_labels": [], "dpid": 2, "label": "i81", "class": "ControlMessageSend", "round": -1, "prunable": true}
{"name": null, "timeout_disallowed": false, "fingerprint": ["ControllerStateChange", "%s moved from %s.%i to %s.%i?", "c1"], "controller_id": "c1", "value": ["(EthAddr('12:34:56:78:01:02'), '00-00-00-00-00-01', 3, '00-00-00-00-00-02', 1)"], "timed_out": false, "dependent_labels": [], "time": [1371927030, 53894], "label": "i82", "class": "ControllerStateChange", "round": -1, "prunable": true}
{"name": null, "timeout_disallowed": false, "fingerprint": ["ControllerStateChange", "Learned %s at %s.%i", "c1"], "controller_id": "c1", "value": ["(EthAddr('12:34:56:78:01:02'), 00-00-00-00-00-02, 1)"], "timed_out": false, "dependent_labels": [], "time": [1371927030, 55562], "label": "i83", "class": "ControllerStateChange", "round": -1, "prunable": true}
{"name": null, "timeout_disallowed": false, "fingerprint": ["ControllerStateChange", "Can't get from %s to %s", "c1"], "controller_id": "c1", "value": ["(EthAddr('12:34:56:78:01:02'), EthAddr('12:34:56:78:02:02'))"], "timed_out": false, "dependent_labels": [], "time": [1371927030, 57147], "label": "i84", "class": "ControllerStateChange", "round": -1, "prunable": true}
{"name": null, "timeout_disallowed": false, "fingerprint": ["ControllerStateChange", "Dest unreachable (%s -> %s)", "c1"], "controller_id": "c1", "value": ["(EthAddr('12:34:56:78:01:02'), EthAddr('12:34:56:78:02:02'))"], "timed_out": false, "dependent_labels": [], "time": [1371927030, 59350], "label": "i85", "class": "ControllerStateChange", "round": -1, "prunable": true}
{"timeout_disallowed": false, "time": [1371927030, 60139], "controller_id": "c1", "fingerprint": ["ControlMessageReceive", {"in_port": 65535, "data": {"dl_dst": "12:34:56:78:01:02", "nw_src": "123.123.2.2", "dl_src": "00:00:00:00:00:02", "nw_dst": "123.123.1.2"}, "class": "ofp_packet_out", "actions": ["output(1)"]}, 2, ["c", "1"]], "timed_out": false, "dependent_labels": [], "dpid": 2, "label": "i86", "class": "ControlMessageReceive", "round": -1, "prunable": true}
{"timeout_disallowed": false, "fingerprint": ["DataplanePermit", {"dl_dst": "12:34:56:78:01:02", "nw_src": "123.123.2.2", "dl_src": "00:00:00:00:00:02", "nw_dst": "123.123.1.2"}, 2, 1], "timed_out": false, "label": "i87", "passive": false, "dependent_labels": [], "time": [1371927030, 61576], "class": "DataplanePermit", "round": -1, "prunable": true}
{"timeout_disallowed": false, "time": [1371927030, 62241], "controller_id": "c1", "fingerprint": ["ControlMessageSend", {"data": {"dl_dst": "12:34:56:78:01:02", "nw_src": "123.123.2.2", "dl_src": "00:00:00:00:00:02", "nw_dst": "123.123.1.2"}, "class": "ofp_packet_in", "in_port": 1}, 1, ["c", "1"]], "timed_out": false, "dependent_labels": [], "dpid": 1, "label": "i88", "class": "ControlMessageSend", "round": -1, "prunable": true}
{"name": null, "timeout_disallowed": false, "fingerprint": ["ControllerStateChange", "Learned %s at %s.%i", "c1"], "controller_id": "c1", "value": ["(EthAddr('00:00:00:00:00:02'), 00-00-00-00-00-01, 1)"], "timed_out": false, "dependent_labels": [], "time": [1371927030, 66554], "label": "i89", "class": "ControllerStateChange", "round": -1, "prunable": true}
{"name": null, "timeout_disallowed": false, "fingerprint": ["ControllerStateChange", "Can't get from %s to %s", "c1"], "controller_id": "c1", "value": ["(EthAddr('00:00:00:00:00:02'), EthAddr('12:34:56:78:01:02'))"], "timed_out": false, "dependent_labels": [], "time": [1371927030, 68109], "label": "i90", "class": "ControllerStateChange", "round": -1, "prunable": true}
{"name": null, "timeout_disallowed": false, "fingerprint": ["ControllerStateChange", "Dest unreachable (%s -> %s)", "c1"], "controller_id": "c1", "value": ["(EthAddr('00:00:00:00:00:02'), EthAddr('12:34:56:78:01:02'))"], "timed_out": false, "dependent_labels": [], "time": [1371927030, 70195], "label": "i91", "class": "ControllerStateChange", "round": -1, "prunable": true}
{"timeout_disallowed": false, "time": [1371927030, 70986], "controller_id": "c1", "fingerprint": ["ControlMessageReceive", {"in_port": 65535, "data": {"dl_dst": "00:00:00:00:00:02", "nw_src": "123.123.1.2", "dl_src": "00:00:00:00:00:01", "nw_dst": "123.123.2.2"}, "class": "ofp_packet_out", "actions": ["output(1)"]}, 1, ["c", "1"]], "timed_out": false, "dependent_labels": [], "dpid": 1, "label": "i92", "class": "ControlMessageReceive", "round": -1, "prunable": true}
{"timeout_disallowed": false, "fingerprint": ["DataplanePermit", {"dl_dst": "12:34:56:78:02:02", "nw_src": "123.123.2.2", "dl_src": "12:34:56:78:02:02", "nw_dst": "123.123.2.2"}, "host:[IPAddr('123.123.2.2')]", "12:34:56:78:02:02"], "timed_out": true, "label": "i96", "passive": false, "dependent_labels": [], "time": [1371927030, 625280], "class": "DataplanePermit", "round": -1, "prunable": true}
{"timeout_disallowed": false, "time": [1371927031, 255673], "controller_id": "c1", "fingerprint": ["ControlMessageSend", {"reason": 1, "class": "ofp_port_status", "desc": [3, "00:00:00:00:02:02"]}, 2, ["c", "1"]], "timed_out": true, "dependent_labels": [], "dpid": 2, "label": "i97", "class": "ControlMessageSend", "round": -1, "prunable": true}
{"timeout_disallowed": false, "time": [1371927031, 887272], "controller_id": "c1", "fingerprint": ["ControlMessageSend", {"data": {"dl_dst": "12:34:56:78:02:02", "nw_src": "123.123.2.2", "dl_src": "12:34:56:78:02:02", "nw_dst": "123.123.2.2"}, "class": "ofp_packet_in", "in_port": 4}, 1, ["c", "1"]], "timed_out": true, "dependent_labels": [], "dpid": 1, "label": "i98", "class": "ControlMessageSend", "round": -1, "prunable": true}
{"timeout_disallowed": false, "time": [1371927032, 488999], "controller_id": "c1", "fingerprint": ["ControlMessageSend", {"reason": 0, "class": "ofp_port_status", "desc": [4, "00:00:00:00:02:02"]}, 1, ["c", "1"]], "timed_out": true, "dependent_labels": [], "dpid": 1, "label": "i99", "class": "ControlMessageSend", "round": -1, "prunable": true}
{"name": null, "timeout_disallowed": false, "fingerprint": ["ControllerStateChange", "%s moved from %s.%i to %s.%i?", "c1"], "controller_id": "c1", "value": ["(EthAddr('12:34:56:78:02:02'), '00-00-00-00-00-01', 1, '00-00-00-00-00-01', 4)"], "timed_out": true, "dependent_labels": [], "time": [1371927033, 141450], "label": "i100", "class": "ControllerStateChange", "round": -1, "prunable": true}
{"name": null, "timeout_disallowed": false, "fingerprint": ["ControllerStateChange", "Learned %s at %s.%i", "c1"], "controller_id": "c1", "value": ["(EthAddr('12:34:56:78:02:02'), 00-00-00-00-00-01, 4)"], "timed_out": true, "dependent_labels": [], "time": [1371927033, 742833], "label": "i101", "class": "ControllerStateChange", "round": -1, "prunable": true}
{"name": null, "timeout_disallowed": false, "fingerprint": ["ControllerStateChange", "Installing path for %s -> %s %04x (%i hops)", "c1"], "controller_id": "c1", "value": ["(EthAddr('12:34:56:78:02:02'), EthAddr('12:34:56:78:02:02'), 2048, 1)"], "timed_out": true, "dependent_labels": [], "time": [1371927034, 395663], "label": "i102", "class": "ControllerStateChange", "round": -1, "prunable": true}
{"timeout_disallowed": false, "time": [1371927034, 997171], "controller_id": "c1", "fingerprint": ["ControlMessageReceive", {"hard_timeout": 30, "actions": ["output(4)"], "priority": 32768, "idle_timeout": 10, "command": "add", "out_port": 65535, "flags": 0, "class": "ofp_flow_mod", "match": "dl_src:12:34:56:78:02:02,dl_dst:12:34:56:78:02:02,dl_vlan:65535,dl_vlan_pcp:0,dl_type:2048,nw_tos:0,nw_proto:1,nw_src:123.123.2.2/32,nw_dst:123.123.2.2/32,tp_src:8,tp_dst:0"}, 1, ["c", "1"]], "timed_out": true, "dependent_labels": [], "dpid": 1, "label": "i103", "class": "ControlMessageReceive", "round": -1, "prunable": true}
{"class": "DataplaneDrop", "fingerprint": ["DataplaneDrop", {"class": "arp"}, "host:[IPAddr('123.123.2.2')]", "12:34:56:78:02:02"], "timed_out": true, "label": "e105", "passive": false, "dependent_labels": [], "time": [1371927034, 997846], "round": -1, "prunable": true}
{"new_ingress_port_no": 5, "class": "HostMigration", "fingerprint": ["HostMigration", 1, 3, 1, 5, "host:[IPAddr('123.123.1.2')]"], "timed_out": false, "label": "e106", "dependent_labels": [], "new_ingress_dpid": 1, "time": [1371927034, 998411], "old_ingress_port_no": 3, "host_id": "host:[IPAddr('123.123.1.2')]", "old_ingress_dpid": 1, "round": -1, "prunable": true}
{"dependent_labels": [], "class": "TrafficInjection", "fingerprint": ["TrafficInjection", {"interface": {"hw_addr": "12:34:56:78:01:02", "ips": ["123.123.1.2"], "name": "eth1"}, "packet": "EjRWeAECEjRWeAECCABFAABI6o8AAEABlyt7ewECe3sBAggABjdQaW5nUGluZ1BpbmdQaW5nUGluZ1BpbmdQaW5nUGluZ1BpbmdQaW5nUGluZ1Bpbmc="}], "timed_out": false, "label": "e107", "dp_event": {"interface": {"hw_addr": "12:34:56:78:01:02", "ips": ["123.123.1.2"], "name": "eth1"}, "packet": "EjRWeAECEjRWeAECCABFAABI6o8AAEABlyt7ewECe3sBAggABjdQaW5nUGluZ1BpbmdQaW5nUGluZ1BpbmdQaW5nUGluZ1BpbmdQaW5nUGluZ1Bpbmc="}, "time": [1371927034, 999343], "host_id": null, "round": -1, "prunable": true}
{"timeout_disallowed": false, "fingerprint": ["DataplanePermit", {"dl_dst": "12:34:56:78:01:02", "nw_src": "123.123.1.2", "dl_src": "12:34:56:78:01:02", "nw_dst": "123.123.1.2"}, "host:[IPAddr('123.123.1.2')]", "12:34:56:78:01:02"], "timed_out": false, "label": "i108", "passive": false, "dependent_labels": [], "time": [1371927035, 732], "class": "DataplanePermit", "round": -1, "prunable": true}
{"timeout_disallowed": false, "time": [1371927035, 1335], "controller_id": "c1", "fingerprint": ["ControlMessageSend", {"reason": 0, "class": "ofp_port_status", "desc": [5, "00:00:00:00:01:02"]}, 1, ["c", "1"]], "timed_out": false, "dependent_labels": [], "dpid": 1, "label": "i109", "class": "ControlMessageSend", "round": -1, "prunable": true}
{"timeout_disallowed": false, "time": [1371927035, 1893], "controller_id": "c1", "fingerprint": ["ControlMessageSend", {"reason": 1, "class": "ofp_port_status", "desc": [3, "00:00:00:00:01:02"]}, 1, ["c", "1"]], "timed_out": false, "dependent_labels": [], "dpid": 1, "label": "i110", "class": "ControlMessageSend", "round": -1, "prunable": true}
{"class": "DataplaneDrop", "fingerprint": ["DataplaneDrop", {"dl_dst": "12:34:56:78:01:02", "nw_src": "123.123.1.2", "dl_src": "12:34:56:78:01:02", "nw_dst": "123.123.1.2"}, 1, 3], "timed_out": false, "label": "e111", "passive": false, "dependent_labels": [], "time": [1371927035, 2399], "round": -1, "prunable": true}
{"legacy_invariant_check": false, "class": "CheckInvariants", "fingerprint": "N/A", "timed_out": false, "label": "e112", "dependent_labels": [], "invariant_name": "check_for_loops_or_connectivity", "invariant_check_name": "check_for_loops_or_connectivity", "time": [1371927035, 7467], "invariant_check": null, "round": -1, "prunable": true}
{"dependent_labels": [], "class": "TrafficInjection", "fingerprint": ["TrafficInjection", {"interface": {"hw_addr": "12:34:56:78:01:02", "ips": ["123.123.1.2"], "name": "eth1"}, "packet": "EjRWeAICEjRWeAECCAYAAQgABgQAAhI0VngBAnt7AQISNFZ4AgJ7ewIC"}], "timed_out": false, "label": "e113", "dp_event": {"interface": {"hw_addr": "12:34:56:78:01:02", "ips": ["123.123.1.2"], "name": "eth1"}, "packet": "EjRWeAICEjRWeAECCAYAAQgABgQAAhI0VngBAnt7AQISNFZ4AgJ7ewIC"}, "time": [1371927035, 7904], "host_id": null, "round": -1, "prunable": true}
{"class": "DataplaneDrop", "fingerprint": ["DataplaneDrop", {"class": "arp"}, "host:[IPAddr('123.123.1.2')]", "12:34:56:78:01:02"], "timed_out": false, "label": "e114", "passive": false, "dependent_labels": [], "time": [1371927035, 8266], "round": -1, "prunable": true}
{"new_ingress_port_no": 6, "class": "HostMigration", "fingerprint": ["HostMigration", 2, 3, 1, 6, "host:[IPAddr('123.123.2.2')]"], "timed_out": false, "label": "e115", "dependent_labels": [], "new_ingress_dpid": 1, "time": [1371927035, 8618], "old_ingress_port_no": 3, "host_id": "host:[IPAddr('123.123.2.2')]", "old_ingress_dpid": 2, "round": -1, "prunable": true}
{"dependent_labels": [], "class": "TrafficInjection", "fingerprint": ["TrafficInjection", {"interface": {"hw_addr": "12:34:56:78:02:02", "ips": ["123.123.2.2"], "name": "eth2"}, "packet": "EjRWeAICEjRWeAICCABFAABI6pAAAEABlSp7ewICe3sCAggABjdQaW5nUGluZ1BpbmdQaW5nUGluZ1BpbmdQaW5nUGluZ1BpbmdQaW5nUGluZ1Bpbmc="}], "timed_out": false, "label": "e116", "dp_event": {"interface": {"hw_addr": "12:34:56:78:02:02", "ips": ["123.123.2.2"], "name": "eth2"}, "packet": "EjRWeAICEjRWeAICCABFAABI6pAAAEABlSp7ewICe3sCAggABjdQaW5nUGluZ1BpbmdQaW5nUGluZ1BpbmdQaW5nUGluZ1BpbmdQaW5nUGluZ1Bpbmc="}, "time": [1371927035, 9049], "host_id": null, "round": -1, "prunable": true}
{"class": "DataplaneDrop", "fingerprint": ["DataplaneDrop", {"dl_dst": "12:34:56:78:02:02", "nw_src": "123.123.2.2", "dl_src": "12:34:56:78:02:02", "nw_dst": "123.123.2.2"}, "host:[IPAddr('123.123.2.2')]", "12:34:56:78:02:02"], "timed_out": false, "label": "e117", "passive": false, "dependent_labels": [], "time": [1371927035, 9427], "round": -1, "prunable": true}
{"timeout_disallowed": false, "time": [1371927035, 9799], "controller_id": "c1", "fingerprint": ["ControlMessageSend", {"reason": 0, "class": "ofp_port_status", "desc": [6, "00:00:00:00:02:02"]}, 1, ["c", "1"]], "timed_out": false, "dependent_labels": [], "dpid": 1, "label": "i118", "class": "ControlMessageSend", "round": -1, "prunable": true}
{"timeout_disallowed": false, "time": [1371927035, 619162], "controller_id": "c1", "fingerprint": ["ControlMessageSend", {"reason": 1, "class": "ofp_port_status", "desc": [4, "00:00:00:00:02:02"]}, 1, ["c", "1"]], "timed_out": true, "dependent_labels": [], "dpid": 1, "label": "i119", "class": "ControlMessageSend", "round": -1, "prunable": true}
{"new_ingress_port_no": 7, "class": "HostMigration", "fingerprint": ["HostMigration", 1, 6, 1, 7, "host:[IPAddr('123.123.2.2')]"], "timed_out": false, "label": "e120", "dependent_labels": [], "new_ingress_dpid": 1, "time": [1371927035, 620036], "old_ingress_port_no": 6, "host_id": "host:[IPAddr('123.123.2.2')]", "old_ingress_dpid": 1, "round": -1, "prunable": true}
{"dependent_labels": [], "class": "TrafficInjection", "fingerprint": ["TrafficInjection", {"interface": {"hw_addr": "12:34:56:78:02:02", "ips": ["123.123.2.2"], "name": "eth2"}, "packet": "EjRWeAICEjRWeAICCABFAABI6pEAAEABlSl7ewICe3sCAgAADjdQaW5nUGluZ1BpbmdQaW5nUGluZ1BpbmdQaW5nUGluZ1BpbmdQaW5nUGluZ1Bpbmc="}], "timed_out": false, "label": "e121", "dp_event": {"interface": {"hw_addr": "12:34:56:78:02:02", "ips": ["123.123.2.2"], "name": "eth2"}, "packet": "EjRWeAICEjRWeAICCABFAABI6pEAAEABlSl7ewICe3sCAgAADjdQaW5nUGluZ1BpbmdQaW5nUGluZ1BpbmdQaW5nUGluZ1BpbmdQaW5nUGluZ1Bpbmc="}, "time": [1371927035, 620655], "host_id": null, "round": -1, "prunable": true}
{"dependent_labels": [], "class": "TrafficInjection", "fingerprint": ["TrafficInjection", {"interface": {"hw_addr": "12:34:56:78:02:02", "ips": ["123.123.2.2"], "name": "eth2"}, "packet": "EjRWeAECEjRWeAICCABFAAAcISgAAEABX797ewICe3sBAggAGS9waW5n"}], "timed_out": false, "label": "e122", "dp_event": {"interface": {"hw_addr": "12:34:56:78:02:02", "ips": ["123.123.2.2"], "name": "eth2"}, "packet": "EjRWeAECEjRWeAICCABFAAAcISgAAEABX797ewICe3sBAggAGS9waW5n"}, "time": [1371927035, 621479], "host_id": null, "round": -1, "prunable": true}
{"timeout_disallowed": false, "fingerprint": ["DataplanePermit", {"dl_dst": "12:34:56:78:02:02", "nw_src": "123.123.2.2", "dl_src": "12:34:56:78:02:02", "nw_dst": "123.123.2.2"}, "host:[IPAddr('123.123.2.2')]", "12:34:56:78:02:02"], "timed_out": false, "label": "i123", "passive": false, "dependent_labels": [], "time": [1371927035, 622706], "class": "DataplanePermit", "round": -1, "prunable": true}
{"timeout_disallowed": false, "fingerprint": ["DataplanePermit", {"dl_dst": "12:34:56:78:01:02", "nw_src": "123.123.2.2", "dl_src": "12:34:56:78:02:02", "nw_dst": "123.123.1.2"}, "host:[IPAddr('123.123.2.2')]", "12:34:56:78:02:02"], "timed_out": false, "label": "i124", "passive": false, "dependent_labels": [], "time": [1371927035, 623912], "class": "DataplanePermit", "round": -1, "prunable": true}
{"timeout_disallowed": false, "time": [1371927035, 624531], "controller_id": "c1", "fingerprint": ["ControlMessageSend", {"data": {"dl_dst": "12:34:56:78:02:02", "nw_src": "123.123.2.2", "dl_src": "12:34:56:78:02:02", "nw_dst": "123.123.2.2"}, "class": "ofp_packet_in", "in_port": 7}, 1, ["c", "1"]], "timed_out": false, "dependent_labels": [], "dpid": 1, "label": "i125", "class": "ControlMessageSend", "round": -1, "prunable": true}
{"timeout_disallowed": false, "time": [1371927035, 625247], "controller_id": "c1", "fingerprint": ["ControlMessageSend", {"reason": 0, "class": "ofp_port_status", "desc": [7, "00:00:00:00:02:02"]}, 1, ["c", "1"]], "timed_out": false, "dependent_labels": [], "dpid": 1, "label": "i126", "class": "ControlMessageSend", "round": -1, "prunable": true}
{"timeout_disallowed": false, "time": [1371927035, 625765], "controller_id": "c1", "fingerprint": ["ControlMessageSend", {"reason": 1, "class": "ofp_port_status", "desc": [6, "00:00:00:00:02:02"]}, 1, ["c", "1"]], "timed_out": false, "dependent_labels": [], "dpid": 1, "label": "i127", "class": "ControlMessageSend", "round": -1, "prunable": true}
{"timeout_disallowed": false, "time": [1371927035, 626344], "controller_id": "c1", "fingerprint": ["ControlMessageSend", {"data": {"dl_dst": "12:34:56:78:01:02", "nw_src": "123.123.2.2", "dl_src": "12:34:56:78:02:02", "nw_dst": "123.123.1.2"}, "class": "ofp_packet_in", "in_port": 7}, 1, ["c", "1"]], "timed_out": false, "dependent_labels": [], "dpid": 1, "label": "i128", "class": "ControlMessageSend", "round": -1, "prunable": true}
{"name": null, "timeout_disallowed": false, "fingerprint": ["ControllerStateChange", "%s moved from %s.%i to %s.%i?", "c1"], "controller_id": "c1", "value": ["(EthAddr('12:34:56:78:02:02'), '00-00-00-00-00-01', 4, '00-00-00-00-00-01', 7)"], "timed_out": false, "dependent_labels": [], "time": [1371927035, 629723], "label": "i129", "class": "ControllerStateChange", "round": -1, "prunable": true}
{"name": null, "timeout_disallowed": false, "fingerprint": ["ControllerStateChange", "Learned %s at %s.%i", "c1"], "controller_id": "c1", "value": ["(EthAddr('12:34:56:78:02:02'), 00-00-00-00-00-01, 7)"], "timed_out": false, "dependent_labels": [], "time": [1371927035, 632823], "label": "i130", "class": "ControllerStateChange", "round": -1, "prunable": true}
{"name": null, "timeout_disallowed": false, "fingerprint": ["ControllerStateChange", "Installing path for %s -> %s %04x (%i hops)", "c1"], "controller_id": "c1", "value": ["(EthAddr('12:34:56:78:02:02'), EthAddr('12:34:56:78:02:02'), 2048, 1)"], "timed_out": false, "dependent_labels": [], "time": [1371927035, 634620], "label": "i131", "class": "ControllerStateChange", "round": -1, "prunable": true}
{"name": null, "timeout_disallowed": false, "fingerprint": ["ControllerStateChange", "Can't get from %s to %s", "c1"], "controller_id": "c1", "value": ["(EthAddr('12:34:56:78:02:02'), EthAddr('12:34:56:78:01:02'))"], "timed_out": false, "dependent_labels": [], "time": [1371927035, 639631], "label": "i132", "class": "ControllerStateChange", "round": -1, "prunable": true}
{"name": null, "timeout_disallowed": false, "fingerprint": ["ControllerStateChange", "Dest unreachable (%s -> %s)", "c1"], "controller_id": "c1", "value": ["(EthAddr('12:34:56:78:02:02'), EthAddr('12:34:56:78:01:02'))"], "timed_out": false, "dependent_labels": [], "time": [1371927035, 641941], "label": "i133", "class": "ControllerStateChange", "round": -1, "prunable": true}
{"timeout_disallowed": false, "time": [1371927035, 642903], "controller_id": "c1", "fingerprint": ["ControlMessageReceive", {"hard_timeout": 30, "actions": ["output(7)"], "priority": 32768, "idle_timeout": 10, "command": "add", "out_port": 65535, "flags": 0, "class": "ofp_flow_mod", "match": "dl_src:12:34:56:78:02:02,dl_dst:12:34:56:78:02:02,dl_vlan:65535,dl_vlan_pcp:0,dl_type:2048,nw_tos:0,nw_proto:1,nw_src:123.123.2.2/32,nw_dst:123.123.2.2/32,tp_src:0,tp_dst:0"}, 1, ["c", "1"]], "timed_out": false, "dependent_labels": [], "dpid": 1, "label": "i134", "class": "ControlMessageReceive", "round": -1, "prunable": true}
{"timeout_disallowed": false, "time": [1371927035, 644194], "controller_id": "c1", "fingerprint": ["ControlMessageReceive", {"in_port": 65535, "data": {"dl_dst": "12:34:56:78:02:02", "nw_src": "123.123.1.2", "dl_src": "00:00:00:00:00:01", "nw_dst": "123.123.2.2"}, "class": "ofp_packet_out", "actions": ["output(7)"]}, 1, ["c", "1"]], "timed_out": false, "dependent_labels": [], "dpid": 1, "label": "i135", "class": "ControlMessageReceive", "round": -1, "prunable": true}
{"class": "DataplaneDrop", "fingerprint": ["DataplaneDrop", {"dl_dst": "12:34:56:78:02:02", "nw_src": "123.123.1.2", "dl_src": "00:00:00:00:00:01", "nw_dst": "123.123.2.2"}, 1, 7], "timed_out": false, "label": "e136", "passive": false, "dependent_labels": [], "time": [1371927035, 644937], "round": -1, "prunable": true}
{"legacy_invariant_check": false, "class": "CheckInvariants", "fingerprint": "N/A", "timed_out": false, "label": "e137", "dependent_labels": [], "invariant_name": "check_for_loops_or_connectivity", "invariant_check_name": "check_for_loops_or_connectivity", "time": [1371927035, 654636], "invariant_check": null, "round": -1, "prunable": true}
{"dependent_labels": [], "class": "TrafficInjection", "fingerprint": ["TrafficInjection", {"interface": {"hw_addr": "12:34:56:78:01:02", "ips": ["123.123.1.2"], "name": "eth1"}, "packet": "EjRWeAICEjRWeAECCABFAAAcISkAAEABX757ewECe3sCAgAAISlwb25n"}], "timed_out": false, "label": "e138", "dp_event": {"interface": {"hw_addr": "12:34:56:78:01:02", "ips": ["123.123.1.2"], "name": "eth1"}, "packet": "EjRWeAICEjRWeAECCABFAAAcISkAAEABX757ewECe3sCAgAAISlwb25n"}, "time": [1371927035, 655062], "host_id": null, "round": -1, "prunable": true}
{"timeout_disallowed": false, "fingerprint": ["DataplanePermit", {"dl_dst": "12:34:56:78:02:02", "nw_src": "123.123.1.2", "dl_src": "12:34:56:78:01:02", "nw_dst": "123.123.2.2"}, "host:[IPAddr('123.123.1.2')]", "12:34:56:78:01:02"], "timed_out": false, "label": "i139", "passive": false, "dependent_labels": [], "time": [1371927035, 655858], "class": "DataplanePermit", "round": -1, "prunable": true}
{"timeout_disallowed": false, "fingerprint": ["DataplanePermit", {"dl_dst": "12:34:56:78:02:02", "nw_src": "123.123.1.2", "dl_src": "12:34:56:78:01:02", "nw_dst": "123.123.2.2"}, 1, 1], "timed_out": false, "label": "i140", "passive": false, "dependent_labels": [], "time": [1371927035, 656522], "class": "DataplanePermit", "round": -1, "prunable": true}
{"timeout_disallowed": false, "time": [1371927035, 657054], "controller_id": "c1", "fingerprint": ["ControlMessageSend", {"data": {"dl_dst": "12:34:56:78:02:02", "nw_src": "123.123.1.2", "dl_src": "12:34:56:78:01:02", "nw_dst": "123.123.2.2"}, "class": "ofp_packet_in", "in_port": 1}, 2, ["c", "1"]], "timed_out": false, "dependent_labels": [], "dpid": 2, "label": "i141", "class": "ControlMessageSend", "round": -1, "prunable": true}
{"name": null, "timeout_disallowed": false, "fingerprint": ["ControllerStateChange", "Can't get from %s to %s", "c1"], "controller_id": "c1", "value": ["(EthAddr('12:34:56:78:01:02'), EthAddr('12:34:56:78:02:02'))"], "timed_out": false, "dependent_labels": [], "time": [1371927035, 663590], "label": "i142", "class": "ControllerStateChange", "round": -1, "prunable": true}
{"name": null, "timeout_disallowed": false, "fingerprint": ["ControllerStateChange", "Dest unreachable (%s -> %s)", "c1"], "controller_id": "c1", "value": ["(EthAddr('12:34:56:78:01:02'), EthAddr('12:34:56:78:02:02'))"], "timed_out": false, "dependent_labels": [], "time": [1371927035, 665170], "label": "i143", "class": "ControllerStateChange", "round": -1, "prunable": true}
{"timeout_disallowed": false, "time": [1371927035, 700221], "controller_id": "c1", "fingerprint": ["ControlMessageReceive", {"in_port": 65535, "data": {"dl_dst": "12:34:56:78:01:02", "nw_src": "123.123.2.2", "dl_src": "00:00:00:00:00:02", "nw_dst": "123.123.1.2"}, "class": "ofp_packet_out", "actions": ["output(1)"]}, 2, ["c", "1"]], "timed_out": false, "dependent_labels": [], "dpid": 2, "label": "i144", "class": "ControlMessageReceive", "round": -1, "prunable": true}
{"timeout_disallowed": false, "fingerprint": ["DataplanePermit", {"dl_dst": "12:34:56:78:01:02", "nw_src": "123.123.2.2", "dl_src": "00:00:00:00:00:02", "nw_dst": "123.123.1.2"}, 2, 1], "timed_out": false, "label": "i145", "passive": false, "dependent_labels": [], "time": [1371927035, 701708], "class": "DataplanePermit", "round": -1, "prunable": true}
{"timeout_disallowed": false, "time": [1371927035, 702515], "controller_id": "c1", "fingerprint": ["ControlMessageReceive", {"in_port": 65535, "data": {"class": "lldp"}, "class": "ofp_packet_out", "actions": ["output(1)"]}, 2, ["c", "1"]], "timed_out": false, "dependent_labels": [], "dpid": 2, "label": "i146", "class": "ControlMessageReceive", "round": -1, "prunable": true}
{"timeout_disallowed": false, "time": [1371927035, 703243], "controller_id": "c1", "fingerprint": ["ControlMessageSend", {"data": {"dl_dst": "12:34:56:78:01:02", "nw_src": "123.123.2.2", "dl_src": "00:00:00:00:00:02", "nw_dst": "123.123.1.2"}, "class": "ofp_packet_in", "in_port": 1}, 1, ["c", "1"]], "timed_out": false, "dependent_labels": [], "dpid": 1, "label": "i147", "class": "ControlMessageSend", "round": -1, "prunable": true}
{"name": null, "timeout_disallowed": false, "fingerprint": ["ControllerStateChange", "Can't get from %s to %s", "c1"], "controller_id": "c1", "value": ["(EthAddr('00:00:00:00:00:02'), EthAddr('12:34:56:78:01:02'))"], "timed_out": false, "dependent_labels": [], "time": [1371927035, 706484], "label": "i148", "class": "ControllerStateChange", "round": -1, "prunable": true}
{"name": null, "timeout_disallowed": false, "fingerprint": ["ControllerStateChange", "Dest unreachable (%s -> %s)", "c1"], "controller_id": "c1", "value": ["(EthAddr('00:00:00:00:00:02'), EthAddr('12:34:56:78:01:02'))"], "timed_out": false, "dependent_labels": [], "time": [1371927035, 708607], "label": "i149", "class": "ControllerStateChange", "round": -1, "prunable": true}
{"timeout_disallowed": false, "fingerprint": ["DataplanePermit", {"class": "lldp"}, 2, 1], "timed_out": false, "label": "i150", "passive": false, "dependent_labels": [], "time": [1371927035, 709464], "class": "DataplanePermit", "round": -1, "prunable": true}
{"timeout_disallowed": false, "time": [1371927035, 710565], "controller_id": "c1", "fingerprint": ["ControlMessageReceive", {"in_port": 65535, "data": {"dl_dst": "00:00:00:00:00:02", "nw_src": "123.123.1.2", "dl_src": "00:00:00:00:00:01", "nw_dst": "123.123.2.2"}, "class": "ofp_packet_out", "actions": ["output(1)"]}, 1, ["c", "1"]], "timed_out": false, "dependent_labels": [], "dpid": 1, "label": "i151", "class": "ControlMessageReceive", "round": -1, "prunable": true}
{"timeout_disallowed": false, "time": [1371927035, 711359], "controller_id": "c1", "fingerprint": ["ControlMessageSend", {"data": {"class": "lldp"}, "class": "ofp_packet_in", "in_port": 1}, 1, ["c", "1"]], "timed_out": false, "dependent_labels": [], "dpid": 1, "label": "i152", "class": "ControlMessageSend", "round": -1, "prunable": true}
{"name": null, "timeout_disallowed": false, "fingerprint": ["ControllerStateChange", "link detected: %s.%i -> %s.%i", "c1"], "controller_id": "c1", "value": ["('00-00-00-00-00-02', 1, '00-00-00-00-00-01', 1)"], "timed_out": false, "dependent_labels": [], "time": [1371927035, 714665], "label": "i153", "class": "ControllerStateChange", "round": -1, "prunable": true}
{"name": null, "timeout_disallowed": false, "fingerprint": ["ControllerStateChange", "Unlearned %s", "c1"], "controller_id": "c1", "value": ["(EthAddr('00:00:00:00:00:02'),)"], "timed_out": false, "dependent_labels": [], "time": [1371927035, 715716], "label": "i154", "class": "ControllerStateChange", "round": -1, "prunable": true}
{"name": null, "timeout_disallowed": false, "fingerprint": ["ControllerStateChange", "Unlearned %s", "c1"], "controller_id": "c1", "value": ["(EthAddr('12:34:56:78:01:02'),)"], "timed_out": false, "dependent_labels": [], "time": [1371927035, 716814], "label": "i155", "class": "ControllerStateChange", "round": -1, "prunable": true}
{"class": "DataplaneDrop", "fingerprint": ["DataplaneDrop", {"dl_dst": "00:00:00:00:00:02", "nw_src": "123.123.1.2", "dl_src": "00:00:00:00:00:01", "nw_dst": "123.123.2.2"}, 1, 1], "timed_out": false, "label": "e156", "passive": false, "dependent_labels": [], "time": [1371927035, 717034], "round": -1, "prunable": true}
{"timeout_disallowed": false, "time": [1371927035, 751706], "controller_id": "c1", "fingerprint": ["ControlMessageReceive", {"hard_timeout": 0, "actions": [], "priority": 32768, "idle_timeout": 0, "command": "delete", "out_port": 65535, "flags": 0, "class": "ofp_flow_mod", "match": "x^L"}, 2, ["c", "1"]], "timed_out": false, "dependent_labels": [], "dpid": 2, "label": "i157", "class": "ControlMessageReceive", "round": -1, "prunable": true}
{"timeout_disallowed": false, "time": [1371927035, 752296], "controller_id": "c1", "fingerprint": ["ControlMessageReceive", {"hard_timeout": 0, "actions": [], "priority": 32768, "idle_timeout": 0, "command": "delete", "out_port": 65535, "flags": 0, "class": "ofp_flow_mod", "match": "x^L"}, 1, ["c", "1"]], "timed_out": false, "dependent_labels": [], "dpid": 1, "label": "i158", "class": "ControlMessageReceive", "round": -1, "prunable": true}
{"timeout_disallowed": false, "time": [1371927035, 752797], "controller_id": "c1", "fingerprint": ["ControlMessageReceive", {"in_port": 1, "data": [], "class": "ofp_packet_out", "actions": []}, 1, ["c", "1"]], "timed_out": false, "dependent_labels": [], "dpid": 1, "label": "i159", "class": "ControlMessageReceive", "round": -1, "prunable": true}
{"dependent_labels": [], "class": "TrafficInjection", "fingerprint": ["TrafficInjection", {"interface": {"hw_addr": "12:34:56:78:02:02", "ips": ["123.123.2.2"], "name": "eth2"}, "packet": "////////EjRWeAICCAYAAQgABgQAARI0VngCAnt7AgIAAAAAAAB7ewEC"}], "timed_out": false, "label": "e160", "dp_event": {"interface": {"hw_addr": "12:34:56:78:02:02", "ips": ["123.123.2.2"], "name": "eth2"}, "packet": "////////EjRWeAICCAYAAQgABgQAARI0VngCAnt7AgIAAAAAAAB7ewEC"}, "time": [1371927035, 753357], "host_id": null, "round": -1, "prunable": true}
{"class": "DataplaneDrop", "fingerprint": ["DataplaneDrop", {"class": "arp"}, "host:[IPAddr('123.123.2.2')]", "12:34:56:78:02:02"], "timed_out": false, "label": "e161", "passive": false, "dependent_labels": [], "time": [1371927035, 753722], "round": -1, "prunable": true}
{"timeout_disallowed": false, "time": [1371927035, 754150], "controller_id": "c1", "fingerprint": ["ControlMessageReceive", {"in_port": 65535, "data": {"class": "lldp"}, "class": "ofp_packet_out", "actions": ["output(1)"]}, 1, ["c", "1"]], "timed_out": false, "dependent_labels": [], "dpid": 1, "label": "i162", "class": "ControlMessageReceive", "round": -1, "prunable": true}
{"timeout_disallowed": false, "fingerprint": ["DataplanePermit", {"class": "lldp"}, 1, 1], "timed_out": false, "label": "i163", "passive": false, "dependent_labels": [], "time": [1371927035, 754825], "class": "DataplanePermit", "round": -1, "prunable": true}
{"timeout_disallowed": false, "time": [1371927035, 755243], "controller_id": "c1", "fingerprint": ["ControlMessageSend", {"data": {"class": "lldp"}, "class": "ofp_packet_in", "in_port": 1}, 2, ["c", "1"]], "timed_out": false, "dependent_labels": [], "dpid": 2, "label": "i164", "class": "ControlMessageSend", "round": -1, "prunable": true}
{"name": null, "timeout_disallowed": false, "fingerprint": ["ControllerStateChange", "link detected: %s.%i -> %s.%i", "c1"], "controller_id": "c1", "value": ["('00-00-00-00-00-01', 1, '00-00-00-00-00-02', 1)"], "timed_out": false, "dependent_labels": [], "time": [1371927035, 757947], "label": "i165", "class": "ControllerStateChange", "round": -1, "prunable": true}
{"timeout_disallowed": false, "time": [1371927035, 795691], "controller_id": "c1", "fingerprint": ["ControlMessageReceive", {"in_port": 1, "data": [], "class": "ofp_packet_out", "actions": []}, 2, ["c", "1"]], "timed_out": false, "dependent_labels": [], "dpid": 2, "label": "i166", "class": "ControlMessageReceive", "round": -1, "prunable": true}
{"timeout_disallowed": false, "time": [1371927035, 796151], "controller_id": "c1", "fingerprint": ["ControlMessageReceive", {"hard_timeout": 0, "actions": [], "priority": 32768, "idle_timeout": 0, "command": "delete", "out_port": 65535, "flags": 0, "class": "ofp_flow_mod", "match": "x^L"}, 2, ["c", "1"]], "timed_out": false, "dependent_labels": [], "dpid": 2, "label": "i167", "class": "ControlMessageReceive", "round": -1, "prunable": true}
{"timeout_disallowed": false, "time": [1371927035, 796738], "controller_id": "c1", "fingerprint": ["ControlMessageReceive", {"hard_timeout": 0, "actions": [], "priority": 32768, "idle_timeout": 0, "command": "delete", "out_port": 65535, "flags": 0, "class": "ofp_flow_mod", "match": "x^L"}, 1, ["c", "1"]], "timed_out": false, "dependent_labels": [], "dpid": 1, "label": "i168", "class": "ControlMessageReceive", "round": -1, "prunable": true}
{"legacy_invariant_check": false, "class": "CheckInvariants", "fingerprint": "N/A", "timed_out": false, "label": "e169", "dependent_labels": [], "invariant_name": "check_for_loops_or_connectivity", "invariant_check_name": "check_for_loops_or_connectivity", "time": [1371927035, 803578], "invariant_check": null, "round": -1, "prunable": true}
{"dependent_labels": [], "class": "TrafficInjection", "fingerprint": ["TrafficInjection", {"interface": {"hw_addr": "12:34:56:78:01:02", "ips": ["123.123.1.2"], "name": "eth1"}, "packet": "EjRWeAICEjRWeAECCAYAAQgABgQAAhI0VngBAnt7AQISNFZ4AgJ7ewIC"}], "timed_out": false, "label": "e170", "dp_event": {"interface": {"hw_addr": "12:34:56:78:01:02", "ips": ["123.123.1.2"], "name": "eth1"}, "packet": "EjRWeAICEjRWeAECCAYAAQgABgQAAhI0VngBAnt7AQISNFZ4AgJ7ewIC"}, "time": [1371927035, 804007], "host_id": null, "round": -1, "prunable": true}
{"timeout_disallowed": false, "fingerprint": ["DataplanePermit", {"class": "arp"}, "host:[IPAddr('123.123.1.2')]", "12:34:56:78:01:02"], "timed_out": false, "label": "i171", "passive": false, "dependent_labels": [], "time": [1371927035, 804687], "class": "DataplanePermit", "round": -1, "prunable": true}
{"timeout_disallowed": false, "fingerprint": ["DataplanePermit", {"class": "arp"}, 1, 1], "timed_out": false, "label": "i172", "passive": false, "dependent_labels": [], "time": [1371927035, 805494], "class": "DataplanePermit", "round": -1, "prunable": true}
{"timeout_disallowed": false, "time": [1371927035, 805985], "controller_id": "c1", "fingerprint": ["ControlMessageSend", {"data": {"class": "arp"}, "class": "ofp_packet_in", "in_port": 1}, 2, ["c", "1"]], "timed_out": false, "dependent_labels": [], "dpid": 2, "label": "i173", "class": "ControlMessageSend", "round": -1, "prunable": true}
{"new_ingress_port_no": 4, "class": "HostMigration", "fingerprint": ["HostMigration", 1, 7, 2, 4, "host:[IPAddr('123.123.2.2')]"], "timed_out": false, "label": "e174", "dependent_labels": [], "new_ingress_dpid": 2, "time": [1371927035, 806705], "old_ingress_port_no": 7, "host_id": "host:[IPAddr('123.123.2.2')]", "old_ingress_dpid": 1, "round": -1, "prunable": true}
{"dependent_labels": [], "class": "TrafficInjection", "fingerprint": ["TrafficInjection", {"interface": {"hw_addr": "12:34:56:78:02:02", "ips": ["123.123.2.2"], "name": "eth2"}, "packet": "EjRWeAICEjRWeAICCABFAABI6qMAAEABlRd7ewICe3sCAgAADjdQaW5nUGluZ1BpbmdQaW5nUGluZ1BpbmdQaW5nUGluZ1BpbmdQaW5nUGluZ1Bpbmc="}], "timed_out": false, "label": "e175", "dp_event": {"interface": {"hw_addr": "12:34:56:78:02:02", "ips": ["123.123.2.2"], "name": "eth2"}, "packet": "EjRWeAICEjRWeAICCABFAABI6qMAAEABlRd7ewICe3sCAgAADjdQaW5nUGluZ1BpbmdQaW5nUGluZ1BpbmdQaW5nUGluZ1BpbmdQaW5nUGluZ1Bpbmc="}, "time": [1371927035, 807395], "host_id": null, "round": -1, "prunable": true}
{"name": null, "timeout_disallowed": false, "fingerprint": ["ControllerStateChange", "Learned %s at %s.%i", "c1"], "controller_id": "c1", "value": ["(EthAddr('12:34:56:78:01:02'), 00-00-00-00-00-02, 1)"], "timed_out": false, "dependent_labels": [], "time": [1371927035, 811650], "label": "i176", "class": "ControllerStateChange", "round": -1, "prunable": true}
{"name": null, "timeout_disallowed": false, "fingerprint": ["ControllerStateChange", "Installing path for %s -> %s %04x (%i hops)", "c1"], "controller_id": "c1", "value": ["(EthAddr('12:34:56:78:01:02'), EthAddr('12:34:56:78:02:02'), 2054, 2)"], "timed_out": false, "dependent_labels": [], "time": [1371927035, 812948], "label": "i177", "class": "ControllerStateChange", "round": -1, "prunable": true}
{"timeout_disallowed": false, "fingerprint": ["DataplanePermit", {"dl_dst": "12:34:56:78:02:02", "nw_src": "123.123.2.2", "dl_src": "12:34:56:78:02:02", "nw_dst": "123.123.2.2"}, "host:[IPAddr('123.123.2.2')]", "12:34:56:78:02:02"], "timed_out": false, "label": "i178", "passive": false, "dependent_labels": [], "time": [1371927035, 813543], "class": "DataplanePermit", "round": -1, "prunable": true}
{"timeout_disallowed": false, "time": [1371927035, 848271], "controller_id": "c1", "fingerprint": ["ControlMessageReceive", {"hard_timeout": 30, "actions": ["output(1)"], "priority": 32768, "idle_timeout": 10, "command": "add", "out_port": 65535, "flags": 0, "class": "ofp_flow_mod", "match": "dl_src:12:34:56:78:01:02,dl_dst:12:34:56:78:02:02,dl_vlan:65535,dl_vlan_pcp:0,dl_type:2054,nw_proto:2,nw_src:123.123.1.2/32,nw_dst:123.123.2.2/32"}, 2, ["c", "1"]], "timed_out": false, "dependent_labels": [], "dpid": 2, "label": "i179", "class": "ControlMessageReceive", "round": -1, "prunable": true}
{"timeout_disallowed": false, "time": [1371927035, 848984], "controller_id": "c1", "fingerprint": ["ControlMessageReceive", {"hard_timeout": 30, "actions": ["output(7)"], "priority": 32768, "idle_timeout": 10, "command": "add", "out_port": 65535, "flags": 0, "class": "ofp_flow_mod", "match": "dl_src:12:34:56:78:01:02,dl_dst:12:34:56:78:02:02,dl_vlan:65535,dl_vlan_pcp:0,dl_type:2054,nw_proto:2,nw_src:123.123.1.2/32,nw_dst:123.123.2.2/32"}, 1, ["c", "1"]], "timed_out": false, "dependent_labels": [], "dpid": 1, "label": "i180", "class": "ControlMessageReceive", "round": -1, "prunable": true}
{"timeout_disallowed": false, "time": [1371927035, 849485], "controller_id": "c1", "fingerprint": ["ControlMessageSend", {"reason": 0, "class": "ofp_port_status", "desc": [4, "00:00:00:00:02:02"]}, 2, ["c", "1"]], "timed_out": false, "dependent_labels": [], "dpid": 2, "label": "i181", "class": "ControlMessageSend", "round": -1, "prunable": true}
{"timeout_disallowed": false, "time": [1371927035, 849832], "controller_id": "c1", "fingerprint": ["ControlMessageSend", {"reason": 1, "class": "ofp_port_status", "desc": [7, "00:00:00:00:02:02"]}, 1, ["c", "1"]], "timed_out": false, "dependent_labels": [], "dpid": 1, "label": "i182", "class": "ControlMessageSend", "round": -1, "prunable": true}
{"timeout_disallowed": false, "time": [1371927035, 850220], "controller_id": "c1", "fingerprint": ["ControlMessageSend", {"data": {"dl_dst": "12:34:56:78:02:02", "nw_src": "123.123.2.2", "dl_src": "12:34:56:78:02:02", "nw_dst": "123.123.2.2"}, "class": "ofp_packet_in", "in_port": 4}, 2, ["c", "1"]], "timed_out": false, "dependent_labels": [], "dpid": 2, "label": "i183", "class": "ControlMessageSend", "round": -1, "prunable": true}
{"name": null, "timeout_disallowed": false, "fingerprint": ["ControllerStateChange", "%s moved from %s.%i to %s.%i?", "c1"], "controller_id": "c1", "value": ["(EthAddr('12:34:56:78:02:02'), '00-00-00-00-00-01', 7, '00-00-00-00-00-02', 4)"], "timed_out": false, "dependent_labels": [], "time": [1371927035, 853560], "label": "i184", "class": "ControllerStateChange", "round": -1, "prunable": true}
{"name": null, "timeout_disallowed": false, "fingerprint": ["ControllerStateChange", "Learned %s at %s.%i", "c1"], "controller_id": "c1", "value": ["(EthAddr('12:34:56:78:02:02'), 00-00-00-00-00-02, 4)"], "timed_out": false, "dependent_labels": [], "time": [1371927035, 855407], "label": "i185", "class": "ControllerStateChange", "round": -1, "prunable": true}
{"name": null, "timeout_disallowed": false, "fingerprint": ["ControllerStateChange", "Installing path for %s -> %s %04x (%i hops)", "c1"], "controller_id": "c1", "value": ["(EthAddr('12:34:56:78:02:02'), EthAddr('12:34:56:78:02:02'), 2048, 1)"], "timed_out": false, "dependent_labels": [], "time": [1371927035, 856483], "label": "i186", "class": "ControllerStateChange", "round": -1, "prunable": true}
{"timeout_disallowed": false, "time": [1371927035, 857022], "controller_id": "c1", "fingerprint": ["ControlMessageReceive", {"hard_timeout": 30, "actions": ["output(4)"], "priority": 32768, "idle_timeout": 10, "command": "add", "out_port": 65535, "flags": 0, "class": "ofp_flow_mod", "match": "dl_src:12:34:56:78:02:02,dl_dst:12:34:56:78:02:02,dl_vlan:65535,dl_vlan_pcp:0,dl_type:2048,nw_tos:0,nw_proto:1,nw_src:123.123.2.2/32,nw_dst:123.123.2.2/32,tp_src:0,tp_dst:0"}, 2, ["c", "1"]], "timed_out": false, "dependent_labels": [], "dpid": 2, "label": "i187", "class": "ControlMessageReceive", "round": -1, "prunable": true}
{"dependent_labels": [], "class": "TrafficInjection", "fingerprint": ["TrafficInjection", {"interface": {"hw_addr": "12:34:56:78:02:02", "ips": ["123.123.2.2"], "name": "eth2"}, "packet": "EjRWeAECEjRWeAICCABFAAAcISgAAEABX797ewICe3sBAggAGS9waW5n"}], "timed_out": false, "label": "e188", "dp_event": {"interface": {"hw_addr": "12:34:56:78:02:02", "ips": ["123.123.2.2"], "name": "eth2"}, "packet": "EjRWeAECEjRWeAICCABFAAAcISgAAEABX797ewICe3sBAggAGS9waW5n"}, "time": [1371927035, 857690], "host_id": null, "round": -1, "prunable": true}
{"timeout_disallowed": false, "fingerprint": ["DataplanePermit", {"dl_dst": "12:34:56:78:01:02", "nw_src": "123.123.2.2", "dl_src": "12:34:56:78:02:02", "nw_dst": "123.123.1.2"}, "host:[IPAddr('123.123.2.2')]", "12:34:56:78:02:02"], "timed_out": false, "label": "i189", "passive": false, "dependent_labels": [], "time": [1371927035, 858483], "class": "DataplanePermit", "round": -1, "prunable": true}
{"timeout_disallowed": false, "time": [1371927035, 858899], "controller_id": "c1", "fingerprint": ["ControlMessageSend", {"data": {"dl_dst": "12:34:56:78:01:02", "nw_src": "123.123.2.2", "dl_src": "12:34:56:78:02:02", "nw_dst": "123.123.1.2"}, "class": "ofp_packet_in", "in_port": 4}, 2, ["c", "1"]], "timed_out": false, "dependent_labels": [], "dpid": 2, "label": "i190", "class": "ControlMessageSend", "round": -1, "prunable": true}
{"name": null, "timeout_disallowed": false, "fingerprint": ["ControllerStateChange", "Installing path for %s -> %s %04x (%i hops)", "c1"], "controller_id": "c1", "value": ["(EthAddr('12:34:56:78:02:02'), EthAddr('12:34:56:78:01:02'), 2048, 1)"], "timed_out": false, "dependent_labels": [], "time": [1371927035, 893448], "label": "i191", "class": "ControllerStateChange", "round": -1, "prunable": true}
{"timeout_disallowed": false, "time": [1371927035, 893977], "controller_id": "c1", "fingerprint": ["ControlMessageReceive", {"hard_timeout": 30, "actions": ["output(1)"], "priority": 32768, "idle_timeout": 10, "command": "add", "out_port": 65535, "flags": 0, "class": "ofp_flow_mod", "match": "dl_src:12:34:56:78:02:02,dl_dst:12:34:56:78:01:02,dl_vlan:65535,dl_vlan_pcp:0,dl_type:2048,nw_tos:0,nw_proto:1,nw_src:123.123.2.2/32,nw_dst:123.123.1.2/32,tp_src:8,tp_dst:0"}, 2, ["c", "1"]], "timed_out": false, "dependent_labels": [], "dpid": 2, "label": "i192", "class": "ControlMessageReceive", "round": -1, "prunable": true}
{"timeout_disallowed": false, "fingerprint": ["DataplanePermit", {"dl_dst": "12:34:56:78:01:02", "nw_src": "123.123.2.2", "dl_src": "12:34:56:78:02:02", "nw_dst": "123.123.1.2"}, 2, 1], "timed_out": false, "label": "i193", "passive": false, "dependent_labels": [], "time": [1371927035, 894874], "class": "DataplanePermit", "round": -1, "prunable": true}
{"timeout_disallowed": false, "time": [1371927035, 895301], "controller_id": "c1", "fingerprint": ["ControlMessageSend", {"data": {"dl_dst": "12:34:56:78:01:02", "nw_src": "123.123.2.2", "dl_src": "12:34:56:78:02:02", "nw_dst": "123.123.1.2"}, "class": "ofp_packet_in", "in_port": 1}, 1, ["c", "1"]], "timed_out": false, "dependent_labels": [], "dpid": 1, "label": "i194", "class": "ControlMessageSend", "round": -1, "prunable": true}
{"new_ingress_port_no": 8, "class": "HostMigration", "fingerprint": ["HostMigration", 1, 5, 1, 8, "host:[IPAddr('123.123.1.2')]"], "timed_out": false, "label": "e195", "dependent_labels": [], "new_ingress_dpid": 1, "time": [1371927035, 895823], "old_ingress_port_no": 5, "host_id": "host:[IPAddr('123.123.1.2')]", "old_ingress_dpid": 1, "round": -1, "prunable": true}
{"dependent_labels": [], "class": "TrafficInjection", "fingerprint": ["TrafficInjection", {"interface": {"hw_addr": "12:34:56:78:01:02", "ips": ["123.123.1.2"], "name": "eth1"}, "packet": "EjRWeAECEjRWeAECCABFAABI6qcAAEABlxN7ewECe3sBAgAADjdQaW5nUGluZ1BpbmdQaW5nUGluZ1BpbmdQaW5nUGluZ1BpbmdQaW5nUGluZ1Bpbmc="}], "timed_out": false, "label": "e196", "dp_event": {"interface": {"hw_addr": "12:34:56:78:01:02", "ips": ["123.123.1.2"], "name": "eth1"}, "packet": "EjRWeAECEjRWeAECCABFAABI6qcAAEABlxN7ewECe3sBAgAADjdQaW5nUGluZ1BpbmdQaW5nUGluZ1BpbmdQaW5nUGluZ1BpbmdQaW5nUGluZ1Bpbmc="}, "time": [1371927035, 896268], "host_id": null, "round": -1, "prunable": true}
{"name": null, "timeout_disallowed": false, "fingerprint": ["ControllerStateChange", "Packet from %s arrived at %s.%i without flow", "c1"], "controller_id": "c1", "value": ["(EthAddr('12:34:56:78:02:02'), '00-00-00-00-00-01', 1)"], "timed_out": false, "dependent_labels": [], "time": [1371927035, 899756], "label": "i197", "class": "ControllerStateChange", "round": -1, "prunable": true}
{"name": null, "timeout_disallowed": false, "fingerprint": ["ControllerStateChange", "Installing path for %s -> %s %04x (%i hops)", "c1"], "controller_id": "c1", "value": ["(EthAddr('12:34:56:78:02:02'), EthAddr('12:34:56:78:01:02'), 2048, 2)"], "timed_out": false, "dependent_labels": [], "time": [1371927035, 900766], "label": "i198", "class": "ControllerStateChange", "round": -1, "prunable": true}
{"timeout_disallowed": false, "fingerprint": ["DataplanePermit", {"dl_dst": "12:34:56:78:01:02", "nw_src": "123.123.1.2", "dl_src": "12:34:56:78:01:02", "nw_dst": "123.123.1.2"}, "host:[IPAddr('123.123.1.2')]", "12:34:56:78:01:02"], "timed_out": false, "label": "i199", "passive": false, "dependent_labels": [], "time": [1371927035, 901470], "class": "DataplanePermit", "round": -1, "prunable": true}
{"timeout_disallowed": false, "time": [1371927035, 936309], "controller_id": "c1", "fingerprint": ["ControlMessageReceive", {"hard_timeout": 30, "actions": ["output(1)"], "priority": 32768, "idle_timeout": 10, "command": "add", "out_port": 65535, "flags": 0, "class": "ofp_flow_mod", "match": "dl_src:12:34:56:78:02:02,dl_dst:12:34:56:78:01:02,dl_vlan:65535,dl_vlan_pcp:0,dl_type:2048,nw_tos:0,nw_proto:1,nw_src:123.123.2.2/32,nw_dst:123.123.1.2/32,tp_src:8,tp_dst:0"}, 1, ["c", "1"]], "timed_out": false, "dependent_labels": [], "dpid": 1, "label": "i200", "class": "ControlMessageReceive", "round": -1, "prunable": true}
{"timeout_disallowed": false, "time": [1371927035, 937015], "controller_id": "c1", "fingerprint": ["ControlMessageReceive", {"hard_timeout": 30, "actions": ["output(1)"], "priority": 32768, "idle_timeout": 10, "command": "add", "out_port": 65535, "flags": 0, "class": "ofp_flow_mod", "match": "dl_src:12:34:56:78:02:02,dl_dst:12:34:56:78:01:02,dl_vlan:65535,dl_vlan_pcp:0,dl_type:2048,nw_tos:0,nw_proto:1,nw_src:123.123.2.2/32,nw_dst:123.123.1.2/32,tp_src:8,tp_dst:0"}, 2, ["c", "1"]], "timed_out": false, "dependent_labels": [], "dpid": 2, "label": "i201", "class": "ControlMessageReceive", "round": -1, "prunable": true}
{"timeout_disallowed": false, "time": [1371927035, 937535], "controller_id": "c1", "fingerprint": ["ControlMessageSend", {"reason": 1, "class": "ofp_port_status", "desc": [5, "00:00:00:00:01:02"]}, 1, ["c", "1"]], "timed_out": false, "dependent_labels": [], "dpid": 1, "label": "i202", "class": "ControlMessageSend", "round": -1, "prunable": true}
{"timeout_disallowed": false, "time": [1371927035, 937920], "controller_id": "c1", "fingerprint": ["ControlMessageSend", {"data": {"dl_dst": "12:34:56:78:01:02", "nw_src": "123.123.1.2", "dl_src": "12:34:56:78:01:02", "nw_dst": "123.123.1.2"}, "class": "ofp_packet_in", "in_port": 8}, 1, ["c", "1"]], "timed_out": false, "dependent_labels": [], "dpid": 1, "label": "i203", "class": "ControlMessageSend", "round": -1, "prunable": true}
{"timeout_disallowed": false, "time": [1371927035, 938376], "controller_id": "c1", "fingerprint": ["ControlMessageSend", {"reason": 0, "class": "ofp_port_status", "desc": [8, "00:00:00:00:01:02"]}, 1, ["c", "1"]], "timed_out": false, "dependent_labels": [], "dpid": 1, "label": "i204", "class": "ControlMessageSend", "round": -1, "prunable": true}
{"name": null, "timeout_disallowed": false, "fingerprint": ["ControllerStateChange", "%s moved from %s.%i to %s.%i?", "c1"], "controller_id": "c1", "value": ["(EthAddr('12:34:56:78:01:02'), '00-00-00-00-00-02', 1, '00-00-00-00-00-01', 8)"], "timed_out": false, "dependent_labels": [], "time": [1371927035, 940935], "label": "i205", "class": "ControllerStateChange", "round": -1, "prunable": true}
{"name": null, "timeout_disallowed": false, "fingerprint": ["ControllerStateChange", "Learned %s at %s.%i", "c1"], "controller_id": "c1", "value": ["(EthAddr('12:34:56:78:01:02'), 00-00-00-00-00-01, 8)"], "timed_out": false, "dependent_labels": [], "time": [1371927035, 942884], "label": "i206", "class": "ControllerStateChange", "round": -1, "prunable": true}
{"name": null, "timeout_disallowed": false, "fingerprint": ["ControllerStateChange", "Installing path for %s -> %s %04x (%i hops)", "c1"], "controller_id": "c1", "value": ["(EthAddr('12:34:56:78:01:02'), EthAddr('12:34:56:78:01:02'), 2048, 1)"], "timed_out": false, "dependent_labels": [], "time": [1371927035, 943941], "label": "i207", "class": "ControllerStateChange", "round": -1, "prunable": true}
{"timeout_disallowed": false, "time": [1371927035, 944550], "controller_id": "c1", "fingerprint": ["ControlMessageReceive", {"hard_timeout": 30, "actions": ["output(8)"], "priority": 32768, "idle_timeout": 10, "command": "add", "out_port": 65535, "flags": 0, "class": "ofp_flow_mod", "match": "dl_src:12:34:56:78:01:02,dl_dst:12:34:56:78:01:02,dl_vlan:65535,dl_vlan_pcp:0,dl_type:2048,nw_tos:0,nw_proto:1,nw_src:123.123.1.2/32,nw_dst:123.123.1.2/32,tp_src:0,tp_dst:0"}, 1, ["c", "1"]], "timed_out": false, "dependent_labels": [], "dpid": 1, "label": "i208", "class": "ControlMessageReceive", "round": -1, "prunable": true}
{"legacy_invariant_check": false, "class": "CheckInvariants", "fingerprint": "N/A", "timed_out": false, "label": "e209", "dependent_labels": [], "invariant_name": "check_for_loops_or_connectivity", "invariant_check_name": "check_for_loops_or_connectivity", "time": [1371927035, 964277], "invariant_check": null, "round": -1, "prunable": true}
{"fingerprint": ["InvariantViolation"], "dependent_labels": [], "time": [1371927036, 483286], "violations": ["{'hs_history': [x^L, dl_src:12:34:56:78:02:02,dl_dst:12:34:56:78:01:02,dl_vlan:65535,dl_vlan_pcp:0,dl_type:2048,nw_tos:0,nw_proto:1,nw_src:123.123.2.2/32,nw_dst:123.123.1.2/32,tp_src:8,tp_dst:0], 'hdr': dl_src:12:34:56:78:02:02,dl_dst:12:34:56:78:01:02,dl_vlan:65535,dl_vlan_pcp:0,dl_type:2048,nw_tos:0,nw_proto:1,nw_src:123.123.2.2/32,nw_dst:123.123.1.2/32,tp_src:8,tp_dst:0, 'visits': [100001, 200001], 'port': 100001}", "{'hs_history': [x^L, dl_src:12:34:56:78:02:02,dl_dst:12:34:56:78:01:02,dl_vlan:65535,dl_vlan_pcp:0,dl_type:2048,nw_tos:0,nw_proto:1,nw_src:123.123.2.2/32,nw_dst:123.123.1.2/32,tp_src:8,tp_dst:0], 'hdr': dl_src:12:34:56:78:02:02,dl_dst:12:34:56:78:01:02,dl_vlan:65535,dl_vlan_pcp:0,dl_type:2048,nw_tos:0,nw_proto:1,nw_src:123.123.2.2/32,nw_dst:123.123.1.2/32,tp_src:8,tp_dst:0, 'visits': [200001, 100001], 'port': 200001}"], "prunable": true, "class": "InvariantViolation", "timed_out": false, "round": -1, "label": "e215"}
{"wait_time": 1.0, "dependent_labels": [], "fingerprint": ["WaitTime"], "time": [1371927036, 483286], "class": "WaitTime", "prunable": true, "timed_out": false, "round": -1, "label": "e216"}
