2014-06-05 15:11:47,907 INFO [main] n.f.c.m.FloodlightModuleLoader [FloodlightModuleLoader.java:170] Loading modules from file ./conf/onos.properties
2014-06-05 15:11:47,922 DEBUG [main] n.f.c.m.FloodlightModuleLoader [FloodlightModuleLoader.java:206] Starting module loader
2014-06-05 15:11:47,956 DEBUG [main] n.f.c.m.FloodlightModuleLoader [FloodlightModuleLoader.java:95] Found module net.floodlightcontroller.core.FloodlightProvider
2014-06-05 15:11:48,025 DEBUG [main] n.f.c.m.FloodlightModuleLoader [FloodlightModuleLoader.java:95] Found module net.onrc.onos.ofcontroller.floodlightlistener.NetworkGraphPublisher
2014-06-05 15:11:48,077 DEBUG [main] n.f.c.m.FloodlightModuleLoader [FloodlightModuleLoader.java:95] Found module net.onrc.onos.ofcontroller.linkdiscovery.internal.LinkDiscoveryManager
2014-06-05 15:11:48,088 DEBUG [main] n.f.c.m.FloodlightModuleLoader [FloodlightModuleLoader.java:95] Found module net.floodlightcontroller.topology.TopologyManager
2014-06-05 15:11:48,159 DEBUG [main] n.f.c.m.FloodlightModuleLoader [FloodlightModuleLoader.java:95] Found module net.floodlightcontroller.forwarding.Forwarding
2014-06-05 15:11:48,165 DEBUG [main] n.f.c.m.FloodlightModuleLoader [FloodlightModuleLoader.java:95] Found module net.floodlightcontroller.restserver.RestApiServer
2014-06-05 15:11:48,171 DEBUG [main] n.f.c.m.FloodlightModuleLoader [FloodlightModuleLoader.java:95] Found module net.floodlightcontroller.threadpool.ThreadPool
2014-06-05 15:11:48,201 DEBUG [main] n.f.c.m.FloodlightModuleLoader [FloodlightModuleLoader.java:95] Found module net.floodlightcontroller.ui.web.StaticWebRoutable
2014-06-05 15:11:48,270 DEBUG [main] n.f.c.m.FloodlightModuleLoader [FloodlightModuleLoader.java:95] Found module net.floodlightcontroller.devicemanager.internal.DefaultEntityClassifier
2014-06-05 15:11:48,273 DEBUG [main] n.f.c.m.FloodlightModuleLoader [FloodlightModuleLoader.java:88] Could not find module: net.floodlightcontroller.core.module.IFloodlightModule: Provider net.floodlightcontroller.devicemanager.test.MockDeviceManager not found
2014-06-05 15:11:48,274 DEBUG [main] n.f.c.m.FloodlightModuleLoader [FloodlightModuleLoader.java:88] Could not find module: net.floodlightcontroller.core.module.IFloodlightModule: Provider net.floodlightcontroller.core.test.MockFloodlightProvider not found
2014-06-05 15:11:48,276 DEBUG [main] n.f.c.m.FloodlightModuleLoader [FloodlightModuleLoader.java:88] Could not find module: net.floodlightcontroller.core.module.IFloodlightModule: Provider net.floodlightcontroller.core.test.MockThreadPoolService not found
2014-06-05 15:11:50,323 DEBUG [main] n.f.c.m.FloodlightModuleLoader [FloodlightModuleLoader.java:95] Found module net.onrc.onos.datagrid.HazelcastDatagrid
2014-06-05 15:11:51,019 DEBUG [main] n.f.c.m.FloodlightModuleLoader [FloodlightModuleLoader.java:95] Found module net.onrc.onos.ofcontroller.flowmanager.FlowManager
2014-06-05 15:11:52,049 DEBUG [main] n.o.o.g.GraphDBConnection [GraphDBConnection.java:59] GraphDBConnection::Setting Config File 
2014-06-05 15:11:52,050 DEBUG [main] n.f.c.m.FloodlightModuleLoader [FloodlightModuleLoader.java:95] Found module net.onrc.onos.ofcontroller.flowprogrammer.FlowProgrammer
2014-06-05 15:11:52,110 DEBUG [main] n.f.c.m.FloodlightModuleLoader [FloodlightModuleLoader.java:95] Found module net.onrc.onos.ofcontroller.topology.TopologyManager
2014-06-05 15:11:52,236 DEBUG [main] n.f.c.m.FloodlightModuleLoader [FloodlightModuleLoader.java:95] Found module net.onrc.onos.ofcontroller.bgproute.BgpRoute
2014-06-05 15:11:52,261 DEBUG [main] n.f.c.m.FloodlightModuleLoader [FloodlightModuleLoader.java:95] Found module net.onrc.onos.registry.controller.ZookeeperRegistry
2014-06-05 15:11:52,265 DEBUG [main] n.f.c.m.FloodlightModuleLoader [FloodlightModuleLoader.java:95] Found module net.onrc.onos.registry.controller.StandaloneRegistry
2014-06-05 15:11:52,281 DEBUG [main] n.f.c.m.FloodlightModuleLoader [FloodlightModuleLoader.java:95] Found module net.onrc.onos.ofcontroller.forwarding.Forwarding
2014-06-05 15:11:52,306 DEBUG [main] n.f.c.m.FloodlightModuleLoader [FloodlightModuleLoader.java:95] Found module net.onrc.onos.ofcontroller.proxyarp.ProxyArpManager
2014-06-05 15:11:52,309 DEBUG [main] n.f.c.m.FloodlightModuleLoader [FloodlightModuleLoader.java:95] Found module net.onrc.onos.ofcontroller.core.config.DefaultConfiguration
2014-06-05 15:11:52,316 DEBUG [main] n.f.c.m.FloodlightModuleLoader [FloodlightModuleLoader.java:95] Found module net.onrc.onos.ofcontroller.devicemanager.OnosDeviceManager
2014-06-05 15:11:52,317 DEBUG [main] n.f.c.m.FloodlightModuleLoader [FloodlightModuleLoader.java:416] Setting net.floodlightcontroller.threadpool.ThreadPool@6e9d5246  as provider for net.floodlightcontroller.threadpool.IThreadPoolService
2014-06-05 15:11:52,317 DEBUG [main] n.f.c.m.FloodlightModuleLoader [FloodlightModuleLoader.java:416] Setting net.onrc.onos.ofcontroller.core.config.DefaultConfiguration@799405a  as provider for net.onrc.onos.ofcontroller.core.config.IConfigInfoService
2014-06-05 15:11:52,317 DEBUG [main] n.f.c.m.FloodlightModuleLoader [FloodlightModuleLoader.java:416] Setting net.floodlightcontroller.restserver.RestApiServer@612b1ff9  as provider for net.floodlightcontroller.restserver.IRestApiService
2014-06-05 15:11:52,346 DEBUG [main] n.f.c.m.FloodlightModuleLoader [FloodlightModuleLoader.java:416] Setting net.floodlightcontroller.core.internal.Controller@16c8b5a6  as provider for net.floodlightcontroller.core.IFloodlightProviderService
2014-06-05 15:11:52,346 DEBUG [main] n.f.c.m.FloodlightModuleLoader [FloodlightModuleLoader.java:416] Setting net.onrc.onos.datagrid.HazelcastDatagrid@5675d228  as provider for net.onrc.onos.datagrid.IDatagridService
2014-06-05 15:11:52,347 DEBUG [main] n.f.c.m.FloodlightModuleLoader [FloodlightModuleLoader.java:416] Setting net.onrc.onos.ofcontroller.flowprogrammer.FlowSynchronizer@530db0f9  as provider for net.onrc.onos.ofcontroller.flowprogrammer.IFlowSyncService
2014-06-05 15:11:52,347 DEBUG [main] n.f.c.m.FloodlightModuleLoader [FloodlightModuleLoader.java:416] Setting net.onrc.onos.ofcontroller.flowprogrammer.FlowPusher@27ddd608  as provider for net.onrc.onos.ofcontroller.flowprogrammer.IFlowPusherService
2014-06-05 15:11:52,347 DEBUG [main] n.f.c.m.FloodlightModuleLoader [FloodlightModuleLoader.java:416] Setting net.onrc.onos.registry.controller.ZookeeperRegistry@33573e93  as provider for net.onrc.onos.registry.controller.IControllerRegistryService
2014-06-05 15:11:52,347 DEBUG [main] n.f.c.m.FloodlightModuleLoader [FloodlightModuleLoader.java:416] Setting net.onrc.onos.ofcontroller.linkdiscovery.internal.LinkDiscoveryManager@1ea65bf0  as provider for net.onrc.onos.ofcontroller.linkdiscovery.ILinkDiscoveryService
2014-06-05 15:11:52,347 DEBUG [main] n.f.c.m.FloodlightModuleLoader [FloodlightModuleLoader.java:416] Setting net.onrc.onos.ofcontroller.floodlightlistener.NetworkGraphPublisher@6e75bb62  as provider for net.onrc.onos.ofcontroller.floodlightlistener.INetworkGraphService
2014-06-05 15:11:52,348 DEBUG [main] n.f.c.m.FloodlightModuleLoader [FloodlightModuleLoader.java:416] Setting net.onrc.onos.ofcontroller.flowmanager.FlowManager@5b25daf5  as provider for net.onrc.onos.ofcontroller.flowmanager.IFlowService
2014-06-05 15:11:52,348 DEBUG [main] n.f.c.m.FloodlightModuleLoader [FloodlightModuleLoader.java:416] Setting net.onrc.onos.ofcontroller.topology.TopologyManager@521e980f  as provider for net.onrc.onos.ofcontroller.topology.ITopologyNetService
2014-06-05 15:11:52,348 DEBUG [main] n.f.c.m.FloodlightModuleLoader [FloodlightModuleLoader.java:416] Setting net.floodlightcontroller.topology.TopologyManager@59ac5471  as provider for net.floodlightcontroller.routing.IRoutingService
2014-06-05 15:11:52,349 DEBUG [main] n.f.c.m.FloodlightModuleLoader [FloodlightModuleLoader.java:416] Setting net.floodlightcontroller.topology.TopologyManager@59ac5471  as provider for net.floodlightcontroller.topology.ITopologyService
2014-06-05 15:11:52,349 DEBUG [main] n.f.c.m.FloodlightModuleLoader [FloodlightModuleLoader.java:416] Setting net.onrc.onos.ofcontroller.proxyarp.ProxyArpManager@23c01b1a  as provider for net.onrc.onos.ofcontroller.proxyarp.IProxyArpService
2014-06-05 15:11:52,349 DEBUG [main] n.f.c.m.FloodlightModuleLoader [FloodlightModuleLoader.java:416] Setting net.onrc.onos.ofcontroller.devicemanager.OnosDeviceManager@63eea083  as provider for net.onrc.onos.ofcontroller.devicemanager.IOnosDeviceService
2014-06-05 15:11:52,349 DEBUG [main] n.f.c.m.FloodlightModuleLoader [FloodlightModuleLoader.java:416] Setting net.onrc.onos.ofcontroller.forwarding.Forwarding@65716a7e  as provider for net.onrc.onos.ofcontroller.forwarding.IForwardingService
2014-06-05 15:11:52,349 DEBUG [main] n.f.c.m.FloodlightModuleLoader [FloodlightModuleLoader.java:439] Initializing net.floodlightcontroller.threadpool.ThreadPool
2014-06-05 15:11:52,350 DEBUG [main] n.f.c.m.FloodlightModuleLoader [FloodlightModuleLoader.java:439] Initializing net.onrc.onos.ofcontroller.core.config.DefaultConfiguration
2014-06-05 15:11:52,350 DEBUG [main] n.f.c.m.FloodlightModuleLoader [FloodlightModuleLoader.java:439] Initializing net.floodlightcontroller.restserver.RestApiServer
2014-06-05 15:11:52,350 DEBUG [main] n.f.r.RestApiServer [RestApiServer.java:187] REST port set to 8080
2014-06-05 15:11:52,350 DEBUG [main] n.f.c.m.FloodlightModuleLoader [FloodlightModuleLoader.java:439] Initializing net.floodlightcontroller.core.FloodlightProvider
2014-06-05 15:11:52,376 DEBUG [main] n.f.c.i.Controller [Controller.java:1761] OpenFlow port set to 6633
2014-06-05 15:11:52,376 DEBUG [main] n.f.c.i.Controller [Controller.java:1766] Number of worker threads set to 16
2014-06-05 15:11:52,377 DEBUG [main] n.f.c.i.Controller [Controller.java:1781] ControllerId set to onosdev1
2014-06-05 15:11:52,423 DEBUG [main] n.f.c.m.FloodlightModuleLoader [FloodlightModuleLoader.java:439] Initializing net.floodlightcontroller.ui.web.StaticWebRoutable
2014-06-05 15:11:52,424 DEBUG [main] n.f.c.m.FloodlightModuleLoader [FloodlightModuleLoader.java:439] Initializing net.onrc.onos.datagrid.HazelcastDatagrid
2014-06-05 15:11:52,448 INFO [main] c.h.c.FileSystemXmlConfig [Slf4jFactory.java:47] Configuring Hazelcast from '/vagrant/ONOS/conf/hazelcast.xml'.
2014-06-05 15:11:52,545 DEBUG [main] n.f.c.m.FloodlightModuleLoader [FloodlightModuleLoader.java:439] Initializing net.onrc.onos.ofcontroller.flowprogrammer.FlowProgrammer
2014-06-05 15:11:53,325 DEBUG [main] n.f.c.m.FloodlightModuleLoader [FloodlightModuleLoader.java:439] Initializing net.onrc.onos.registry.controller.ZookeeperRegistry
2014-06-05 15:11:53,326 INFO [main] n.o.o.r.c.ZookeeperRegistry [ZookeeperRegistry.java:474] Initialising the Zookeeper Registry - Zookeeper connection required
2014-06-05 15:11:53,326 INFO [main] n.o.o.r.c.ZookeeperRegistry [ZookeeperRegistry.java:482] Setting Zookeeper connection string to localhost:2181
2014-06-05 15:11:53,444 INFO [main] c.n.c.f.i.CuratorFrameworkImpl [CuratorFrameworkImpl.java:220] Starting
2014-06-05 15:11:53,445 DEBUG [main] c.n.c.CuratorZookeeperClient [CuratorZookeeperClient.java:173] Starting
2014-06-05 15:11:53,448 DEBUG [main] c.n.c.ConnectionState [ConnectionState.java:98] Starting
2014-06-05 15:11:53,449 DEBUG [main] c.n.c.ConnectionState [ConnectionState.java:199] reset
2014-06-05 15:11:53,541 INFO [main-EventThread] c.n.c.f.s.ConnectionStateManager [ConnectionStateManager.java:151] State change: CONNECTED
2014-06-05 15:11:53,547 WARN [ConnectionStateManager-0] c.n.c.f.s.ConnectionStateManager [ConnectionStateManager.java:169] There are no ConnectionStateListeners registered.
2014-06-05 15:11:53,969 DEBUG [main] n.f.c.m.FloodlightModuleLoader [FloodlightModuleLoader.java:439] Initializing net.onrc.onos.ofcontroller.linkdiscovery.internal.LinkDiscoveryManager
2014-06-05 15:11:54,015 DEBUG [main] n.f.c.m.FloodlightModuleLoader [FloodlightModuleLoader.java:439] Initializing net.onrc.onos.ofcontroller.floodlightlistener.NetworkGraphPublisher
2014-06-05 15:11:54,016 DEBUG [main] n.o.o.g.GraphDBConnection [GraphDBConnection.java:59] GraphDBConnection::Setting Config File /tmp/cassandra.titan
2014-06-05 15:11:54,715 INFO [main] c.t.t.d.Backend [Backend.java:148] Initiated backend operations thread pool of size 2
2014-06-05 15:11:59,474 DEBUG [main] n.o.o.o.f.NetworkGraphPublisher [NetworkGraphPublisher.java:470] Initializing NetworkGraphPublisher module with /tmp/cassandra.titan
2014-06-05 15:11:59,476 DEBUG [main] n.f.c.m.FloodlightModuleLoader [FloodlightModuleLoader.java:439] Initializing net.onrc.onos.ofcontroller.flowmanager.FlowManager
2014-06-05 15:11:59,477 DEBUG [main] n.f.c.m.FloodlightModuleLoader [FloodlightModuleLoader.java:439] Initializing net.onrc.onos.ofcontroller.topology.TopologyManager
2014-06-05 15:11:59,480 DEBUG [main] n.f.c.m.FloodlightModuleLoader [FloodlightModuleLoader.java:439] Initializing net.floodlightcontroller.topology.TopologyManager
2014-06-05 15:11:59,570 DEBUG [main] n.f.c.m.FloodlightModuleLoader [FloodlightModuleLoader.java:439] Initializing net.onrc.onos.ofcontroller.proxyarp.ProxyArpManager
2014-06-05 15:11:59,637 DEBUG [main] n.f.c.m.FloodlightModuleLoader [FloodlightModuleLoader.java:439] Initializing net.onrc.onos.ofcontroller.devicemanager.OnosDeviceManager
2014-06-05 15:11:59,641 DEBUG [main] n.f.c.m.FloodlightModuleLoader [FloodlightModuleLoader.java:439] Initializing net.onrc.onos.ofcontroller.forwarding.Forwarding
2014-06-05 15:11:59,649 DEBUG [main] n.f.c.m.FloodlightModuleLoader [FloodlightModuleLoader.java:453] Starting net.floodlightcontroller.threadpool.ThreadPool
2014-06-05 15:11:59,653 DEBUG [main] n.f.c.m.FloodlightModuleLoader [FloodlightModuleLoader.java:453] Starting net.onrc.onos.ofcontroller.core.config.DefaultConfiguration
2014-06-05 15:11:59,656 DEBUG [main] n.f.c.m.FloodlightModuleLoader [FloodlightModuleLoader.java:453] Starting net.floodlightcontroller.restserver.RestApiServer
2014-06-05 15:11:59,657 DEBUG [main] n.f.c.m.FloodlightModuleLoader [FloodlightModuleLoader.java:453] Starting net.floodlightcontroller.core.FloodlightProvider
2014-06-05 15:12:00,062 DEBUG [main] n.f.c.m.FloodlightModuleLoader [FloodlightModuleLoader.java:453] Starting net.floodlightcontroller.ui.web.StaticWebRoutable
2014-06-05 15:12:00,065 DEBUG [main] n.f.c.m.FloodlightModuleLoader [FloodlightModuleLoader.java:453] Starting net.onrc.onos.datagrid.HazelcastDatagrid
2014-06-05 15:12:00,813 INFO [main] c.h.i.DefaultAddressPicker [Slf4jFactory.java:47] Prefer IPv4 stack is true.
2014-06-05 15:12:00,835 DEBUG [main] c.h.i.DefaultAddressPicker [Slf4jFactory.java:41] inet reuseAddress:true
2014-06-05 15:12:00,838 DEBUG [main] c.h.i.DefaultAddressPicker [Slf4jFactory.java:41] Trying to bind inet socket address:0.0.0.0/0.0.0.0:5701
2014-06-05 15:12:00,841 DEBUG [main] c.h.i.DefaultAddressPicker [Slf4jFactory.java:41] Bind successful to inet socket address:0.0.0.0/0.0.0.0:5701
2014-06-05 15:12:00,853 INFO [main] c.h.i.DefaultAddressPicker [Slf4jFactory.java:47] Picked Address[192.168.56.11]:5701, using socket ServerSocket[addr=/0.0.0.0,localport=5701], bind any local is true
2014-06-05 15:12:00,857 DEBUG [main] c.h.i.DefaultAddressPicker [Slf4jFactory.java:41] Using public address the same as the bind address. Address[192.168.56.11]:5701
2014-06-05 15:12:01,245 DEBUG [main] c.h.c.ClusterService [Slf4jFactory.java:81] [192.168.56.11]:5701 [dev] Updating members -> [Member [192.168.56.11]:5701 this]
2014-06-05 15:12:01,297 INFO [main] c.h.system [Slf4jFactory.java:83] [192.168.56.11]:5701 [dev] Hazelcast Community Edition 3.0.2 (20130906) starting at Address[192.168.56.11]:5701
2014-06-05 15:12:01,302 INFO [main] c.h.system [Slf4jFactory.java:83] [192.168.56.11]:5701 [dev] Copyright (C) 2008-2013 Hazelcast.com
2014-06-05 15:12:01,315 INFO [main] c.h.i.Node [Slf4jFactory.java:83] [192.168.56.11]:5701 [dev] Creating MulticastJoiner
2014-06-05 15:12:01,337 INFO [main] c.h.c.LifecycleService [Slf4jFactory.java:83] [192.168.56.11]:5701 [dev] Address[192.168.56.11]:5701 is STARTING
2014-06-05 15:12:01,337 DEBUG [main] c.h.i.Node [Slf4jFactory.java:81] [192.168.56.11]:5701 [dev] We are asked to start and completelyShutdown is false
2014-06-05 15:12:01,340 DEBUG [main] c.h.s.i.ServiceManager [Slf4jFactory.java:81] [192.168.56.11]:5701 [dev] Registering core services...
2014-06-05 15:12:01,340 DEBUG [main] c.h.s.i.ServiceManager [Slf4jFactory.java:81] [192.168.56.11]:5701 [dev] Registering service: 'hz:core:clusterService'
2014-06-05 15:12:01,345 DEBUG [main] c.h.s.i.ServiceManager [Slf4jFactory.java:81] [192.168.56.11]:5701 [dev] Registering service: 'hz:core:partitionService'
2014-06-05 15:12:01,349 DEBUG [main] c.h.s.i.ServiceManager [Slf4jFactory.java:81] [192.168.56.11]:5701 [dev] Registering service: 'hz:core:proxyService'
2014-06-05 15:12:01,350 DEBUG [main] c.h.s.i.ServiceManager [Slf4jFactory.java:81] [192.168.56.11]:5701 [dev] Registering service: 'hz:core:txManagerService'
2014-06-05 15:12:01,352 DEBUG [main] c.h.s.i.ServiceManager [Slf4jFactory.java:81] [192.168.56.11]:5701 [dev] Registering service: 'hz:core:clientEngine'
2014-06-05 15:12:01,353 DEBUG [main] c.h.s.i.ServiceManager [Slf4jFactory.java:81] [192.168.56.11]:5701 [dev] Registering default services...
2014-06-05 15:12:01,417 DEBUG [main] c.h.s.i.ServiceManager [Slf4jFactory.java:81] [192.168.56.11]:5701 [dev] Registering service: 'hz:impl:mapService'
2014-06-05 15:12:01,457 DEBUG [main] c.h.s.i.ServiceManager [Slf4jFactory.java:81] [192.168.56.11]:5701 [dev] Registering service: 'hz:impl:lockService'
2014-06-05 15:12:01,483 DEBUG [main] c.h.s.i.ServiceManager [Slf4jFactory.java:81] [192.168.56.11]:5701 [dev] Registering service: 'hz:impl:queueService'
2014-06-05 15:12:01,497 DEBUG [main] c.h.s.i.ServiceManager [Slf4jFactory.java:81] [192.168.56.11]:5701 [dev] Registering service: 'hz:impl:topicService'
2014-06-05 15:12:01,507 DEBUG [main] c.h.s.i.ServiceManager [Slf4jFactory.java:81] [192.168.56.11]:5701 [dev] Registering service: 'hz:impl:collectionService'
2014-06-05 15:12:01,515 DEBUG [main] c.h.s.i.ServiceManager [Slf4jFactory.java:81] [192.168.56.11]:5701 [dev] Registering service: 'hz:impl:executorService'
2014-06-05 15:12:01,525 DEBUG [main] c.h.s.i.ServiceManager [Slf4jFactory.java:81] [192.168.56.11]:5701 [dev] Registering service: 'hz:impl:atomicLongService'
2014-06-05 15:12:01,533 DEBUG [main] c.h.s.i.ServiceManager [Slf4jFactory.java:81] [192.168.56.11]:5701 [dev] Registering service: 'hz:impl:countDownLatchService'
2014-06-05 15:12:01,542 DEBUG [main] c.h.s.i.ServiceManager [Slf4jFactory.java:81] [192.168.56.11]:5701 [dev] Registering service: 'hz:impl:semaphoreService'
2014-06-05 15:12:01,548 DEBUG [main] c.h.s.i.ServiceManager [Slf4jFactory.java:81] [192.168.56.11]:5701 [dev] Registering service: 'hz:impl:idGeneratorService'
2014-06-05 15:12:01,549 DEBUG [main] c.h.s.i.ServiceManager [Slf4jFactory.java:81] [192.168.56.11]:5701 [dev] Initializing service -> PartitionManager[0] {

migrationQ: 0
}
2014-06-05 15:12:01,563 DEBUG [main] c.h.s.i.ServiceManager [Slf4jFactory.java:81] [192.168.56.11]:5701 [dev] Initializing service -> ClusterService{address=Address[192.168.56.11]:5701}
2014-06-05 15:12:01,579 DEBUG [main] c.h.s.i.ServiceManager [Slf4jFactory.java:81] [192.168.56.11]:5701 [dev] Initializing service -> com.hazelcast.concurrent.atomiclong.AtomicLongService@31eb3d60
2014-06-05 15:12:01,579 DEBUG [main] c.h.s.i.ServiceManager [Slf4jFactory.java:81] [192.168.56.11]:5701 [dev] Initializing service -> com.hazelcast.concurrent.countdownlatch.CountDownLatchService@4b0a833a
2014-06-05 15:12:01,581 DEBUG [main] c.h.s.i.ServiceManager [Slf4jFactory.java:81] [192.168.56.11]:5701 [dev] Initializing service -> com.hazelcast.transaction.impl.TransactionManagerServiceImpl@1f2d7b53
2014-06-05 15:12:01,582 DEBUG [main] c.h.s.i.ServiceManager [Slf4jFactory.java:81] [192.168.56.11]:5701 [dev] Initializing service -> com.hazelcast.concurrent.semaphore.SemaphoreService@62fb9622
2014-06-05 15:12:01,583 DEBUG [main] c.h.s.i.ServiceManager [Slf4jFactory.java:81] [192.168.56.11]:5701 [dev] Initializing service -> com.hazelcast.collection.CollectionService@733dc4f2
2014-06-05 15:12:01,591 DEBUG [main] c.h.s.i.ServiceManager [Slf4jFactory.java:81] [192.168.56.11]:5701 [dev] Initializing service -> com.hazelcast.map.MapService@3536a242
2014-06-05 15:12:01,601 DEBUG [main] c.h.s.i.ServiceManager [Slf4jFactory.java:81] [192.168.56.11]:5701 [dev] Initializing service -> com.hazelcast.client.ClientEngineImpl@7d47e16a
2014-06-05 15:12:01,603 DEBUG [main] c.h.s.i.ServiceManager [Slf4jFactory.java:81] [192.168.56.11]:5701 [dev] Initializing service -> com.hazelcast.topic.TopicService@7a203667
2014-06-05 15:12:01,604 DEBUG [main] c.h.s.i.ServiceManager [Slf4jFactory.java:81] [192.168.56.11]:5701 [dev] Initializing service -> com.hazelcast.concurrent.idgen.IdGeneratorService@58d3e2d4
2014-06-05 15:12:01,605 DEBUG [main] c.h.s.i.ServiceManager [Slf4jFactory.java:81] [192.168.56.11]:5701 [dev] Initializing service -> com.hazelcast.queue.QueueService@3ed0f9db
2014-06-05 15:12:01,608 DEBUG [main] c.h.s.i.ServiceManager [Slf4jFactory.java:81] [192.168.56.11]:5701 [dev] Initializing service -> com.hazelcast.executor.DistributedExecutorService@9c3b915
2014-06-05 15:12:01,609 DEBUG [main] c.h.s.i.ServiceManager [Slf4jFactory.java:81] [192.168.56.11]:5701 [dev] Initializing service -> com.hazelcast.concurrent.lock.LockServiceImpl@10ac16b5
2014-06-05 15:12:01,629 DEBUG [main] c.h.n.TcpIpConnectionManager [Slf4jFactory.java:81] [192.168.56.11]:5701 [dev] Starting ConnectionManager and IO selectors.
2014-06-05 15:12:01,686 DEBUG [main] c.h.i.Node [Slf4jFactory.java:81] [192.168.56.11]:5701 [dev] Adding ShutdownHook
2014-06-05 15:12:01,689 DEBUG [main] c.h.i.Node [Slf4jFactory.java:81] [192.168.56.11]:5701 [dev] finished starting threads, calling join
2014-06-05 15:12:01,689 DEBUG [hz._hzInstance_1_dev.IO.thread-Acceptor] c.h.n.SocketAcceptor [Slf4jFactory.java:81] [192.168.56.11]:5701 [dev] Starting SocketAcceptor on sun.nio.ch.ServerSocketChannelImpl[/0.0.0.0:5701]
2014-06-05 15:12:04,804 DEBUG [main] c.h.c.MulticastJoiner [Slf4jFactory.java:81] [192.168.56.11]:5701 [dev] Joining to master node: null
2014-06-05 15:12:04,804 DEBUG [main] c.h.i.Node [Slf4jFactory.java:81] [192.168.56.11]:5701 [dev] This node is being set as the master
2014-06-05 15:12:04,805 INFO [main] c.h.c.MulticastJoiner [Slf4jFactory.java:83] [192.168.56.11]:5701 [dev] 


Members [1] {
	Member [192.168.56.11]:5701 this
}

2014-06-05 15:12:04,829 DEBUG [main] c.h.i.Node [Slf4jFactory.java:81] [192.168.56.11]:5701 [dev] Starting health monitor
2014-06-05 15:12:04,842 INFO [main] c.h.c.LifecycleService [Slf4jFactory.java:83] [192.168.56.11]:5701 [dev] Address[192.168.56.11]:5701 is STARTED
2014-06-05 15:12:04,889 DEBUG [main] n.f.c.m.FloodlightModuleLoader [FloodlightModuleLoader.java:453] Starting net.onrc.onos.ofcontroller.flowprogrammer.FlowProgrammer
2014-06-05 15:12:04,898 DEBUG [main] n.f.c.m.FloodlightModuleLoader [FloodlightModuleLoader.java:453] Starting net.onrc.onos.registry.controller.ZookeeperRegistry
2014-06-05 15:12:04,924 DEBUG [pool-8-thread-1] n.o.o.r.c.ZookeeperRegistry [ZookeeperRegistry.java:179] Cluster leadership changed, now true
2014-06-05 15:12:04,932 DEBUG [main] n.f.c.m.FloodlightModuleLoader [FloodlightModuleLoader.java:453] Starting net.onrc.onos.ofcontroller.linkdiscovery.internal.LinkDiscoveryManager
2014-06-05 15:12:04,971 WARN [main] n.o.o.o.l.i.LinkDiscoveryManager [LinkDiscoveryManager.java:790] WWWWWW2: Setting Controller long TLV value to: 518452033748959256
2014-06-05 15:12:04,972 DEBUG [main] n.f.c.m.FloodlightModuleLoader [FloodlightModuleLoader.java:453] Starting net.onrc.onos.ofcontroller.floodlightlistener.NetworkGraphPublisher
2014-06-05 15:12:04,972 DEBUG [main] n.o.o.o.f.NetworkGraphPublisher [NetworkGraphPublisher.java:483] Adding EventListener
2014-06-05 15:12:04,976 DEBUG [main] n.o.o.g.GraphDBConnection [GraphDBConnection.java:139] Registered listener class net.onrc.onos.graph.LocalTopologyEventListener
2014-06-05 15:12:04,980 DEBUG [main] n.f.c.m.FloodlightModuleLoader [FloodlightModuleLoader.java:453] Starting net.onrc.onos.ofcontroller.flowmanager.FlowManager
2014-06-05 15:12:05,973 DEBUG [main] n.f.c.m.FloodlightModuleLoader [FloodlightModuleLoader.java:453] Starting net.onrc.onos.ofcontroller.topology.TopologyManager
2014-06-05 15:12:05,976 INFO [FlowEventHandler 48] c.h.p.PartitionService [Slf4jFactory.java:83] [192.168.56.11]:5701 [dev] Initializing cluster partition table first arrangement...
2014-06-05 15:12:05,991 DEBUG [main] n.f.c.m.FloodlightModuleLoader [FloodlightModuleLoader.java:453] Starting net.floodlightcontroller.topology.TopologyManager
2014-06-05 15:12:06,026 DEBUG [main] n.f.c.m.FloodlightModuleLoader [FloodlightModuleLoader.java:453] Starting net.onrc.onos.ofcontroller.proxyarp.ProxyArpManager
2014-06-05 15:12:06,027 INFO [main] n.o.o.o.p.ProxyArpManager [ProxyArpManager.java:184] vlan set to 0
2014-06-05 15:12:06,058 DEBUG [main] n.f.c.m.FloodlightModuleLoader [FloodlightModuleLoader.java:453] Starting net.onrc.onos.ofcontroller.devicemanager.OnosDeviceManager
2014-06-05 15:12:06,059 DEBUG [main] n.f.c.m.FloodlightModuleLoader [FloodlightModuleLoader.java:453] Starting net.onrc.onos.ofcontroller.forwarding.Forwarding
2014-06-05 15:12:06,059 DEBUG [main] n.f.r.RestApiServer [RestApiServer.java:137] REST API routables: CoreWebRoutable (/wm/floodlight/core), OnosInternalWebRoutable (/wm/onos/internal), StaticWebRoutable (/wm/floodlight/ui/), DatagridWebRoutable (/wm/onos/datagrid), FlowProgrammerWebRoutable (/wm/onos/flowprogrammer), RegistryWebRoutable (/wm/onos/registry), LinkDiscoveryWebRoutable (/wm/onos/linkdiscovery), FlowWebRoutable (/wm/onos/flows), OnosTopologyWebRoutable (/wm/onos/topology), TopologyWebRoutable (/wm/floodlight/topology), ArpWebRoutable (/wm/arp), 
2014-06-05 15:12:06,620 DEBUG [main] n.f.c.i.Controller [Controller.java:1490] OFListeners for PACKET_IN: linkdiscovery,onosdevicemanager,proxyarpmanager,onosforwarding,topology,
2014-06-05 15:12:06,620 DEBUG [main] n.f.c.i.Controller [Controller.java:1490] OFListeners for BARRIER_REPLY: flowpusher,
2014-06-05 15:12:06,620 DEBUG [main] n.f.c.i.Controller [Controller.java:1490] OFListeners for FLOW_REMOVED: FlowProgrammer,
2014-06-05 15:12:06,620 DEBUG [main] n.f.c.i.Controller [Controller.java:1490] OFListeners for PORT_STATUS: linkdiscovery,
2014-06-05 15:12:06,747 INFO [main] n.f.c.i.Controller [Controller.java:1724] Listening for switch connections on 0.0.0.0/0.0.0.0:6633
2014-06-05 15:12:17,133 INFO [New I/O server worker #1-1] n.f.c.i.Controller [Controller.java:364] New switch connection from /192.168.56.1:58535
2014-06-05 15:12:19,953 DEBUG [pool-2-thread-6] n.o.o.o.l.i.LinkDiscoveryManager [LinkDiscoveryManager.java:350] Sending LLDP out on all ports.
2014-06-05 15:12:20,099 DEBUG [New I/O server worker #1-1] n.f.c.i.Controller [Controller.java:568] Sending FEATURES_REQUEST to OFSwitchImpl [/192.168.56.1:58535 DPID[?]]
2014-06-05 15:12:23,095 DEBUG [New I/O server worker #1-1] n.f.c.i.Controller [Controller.java:578] Sending CONFIG_REQUEST to OFSwitchImpl [/192.168.56.1:58535 DPID[00:00:00:00:00:00:00:01]]
2014-06-05 15:12:26,099 DEBUG [New I/O server worker #1-1] n.f.c.i.Controller [Controller.java:605] Handshake with OFSwitchImpl [/192.168.56.1:58535 DPID[00:00:00:00:00:00:00:01]] complete
2014-06-05 15:12:26,100 DEBUG [New I/O server worker #1-1] n.f.c.i.Controller [Controller.java:619] Setting new switch 00:00:00:00:00:00:00:01 to SLAVE
2014-06-05 15:12:26,108 DEBUG [Thread-2] n.f.c.i.RoleChanger [RoleChanger.java:278] Sending NxRoleRequest to OFSwitchImpl [/192.168.56.1:58535 DPID[00:00:00:00:00:00:00:01]]
2014-06-05 15:12:26,115 INFO [New I/O server worker #1-1] n.o.o.r.c.ZookeeperRegistry [ZookeeperRegistry.java:200] Requesting control for 00:00:00:00:00:00:00:01
2014-06-05 15:12:26,143 DEBUG [pool-8-thread-1] n.o.o.r.c.ZookeeperRegistry [ZookeeperRegistry.java:102] Switch leadership changed for 00:00:00:00:00:00:00:01, now true
2014-06-05 15:12:26,144 INFO [pool-8-thread-1] n.f.c.i.Controller [Controller.java:301] Role change callback for switch 00:00:00:00:00:00:00:01, hasControl true
2014-06-05 15:12:26,144 DEBUG [pool-8-thread-1] n.f.c.i.Controller [Controller.java:334] Sending role request MASTER msg to OFSwitchImpl [/192.168.56.1:58535 DPID[00:00:00:00:00:00:00:01]]
2014-06-05 15:12:26,146 DEBUG [Thread-2] n.f.c.i.RoleChanger [RoleChanger.java:278] Sending NxRoleRequest to OFSwitchImpl [/192.168.56.1:58535 DPID[00:00:00:00:00:00:00:01]]
2014-06-05 15:12:29,424 DEBUG [hz.ShutdownThread] c.h.i.Node [Slf4jFactory.java:81] [192.168.56.11]:5701 [dev] ** we are being asked to shutdown when active = true
2014-06-05 15:12:29,425 DEBUG [hz.ShutdownThread] c.h.i.Node [Slf4jFactory.java:81] [192.168.56.11]:5701 [dev] Shutting down client command service
2014-06-05 15:12:29,426 DEBUG [hz.ShutdownThread] c.h.i.Node [Slf4jFactory.java:81] [192.168.56.11]:5701 [dev] Shutting down node engine
2014-06-05 15:12:29,426 DEBUG [hz.ShutdownThread] c.h.s.NodeEngine [Slf4jFactory.java:81] [192.168.56.11]:5701 [dev] Shutting down services...
2014-06-05 15:12:29,427 DEBUG [hz.ShutdownThread] c.h.s.WaitNotifyService [Slf4jFactory.java:81] [192.168.56.11]:5701 [dev] Stopping tasks...
2014-06-05 15:12:29,428 DEBUG [hz.ShutdownThread] c.h.s.i.ServiceManager [Slf4jFactory.java:81] [192.168.56.11]:5701 [dev] Stopping services...
2014-06-05 15:12:29,429 DEBUG [hz.ShutdownThread] c.h.s.i.ServiceManager [Slf4jFactory.java:81] [192.168.56.11]:5701 [dev] Shutting down service -> com.hazelcast.concurrent.lock.LockServiceImpl@10ac16b5
2014-06-05 15:12:29,429 DEBUG [New I/O server worker #1-1] n.f.c.i.Controller [Controller.java:717] Handling role reply for role SLAVE from OFSwitchImpl [/192.168.56.1:58535 DPID[00:00:00:00:00:00:00:01]]. Controller's role is MASTER 
2014-06-05 15:12:29,435 DEBUG [New I/O server worker #1-1] n.f.c.i.OFSwitchImpl [OFSwitchImpl.java:741] Received role reply message from OFSwitchImpl [/192.168.56.1:58535 DPID[00:00:00:00:00:00:00:01]], setting role to SLAVE
2014-06-05 15:12:29,436 DEBUG [hz.ShutdownThread] c.h.s.i.ServiceManager [Slf4jFactory.java:81] [192.168.56.11]:5701 [dev] Shutting down service -> com.hazelcast.executor.DistributedExecutorService@9c3b915
2014-06-05 15:12:29,437 DEBUG [hz.ShutdownThread] c.h.s.i.ServiceManager [Slf4jFactory.java:81] [192.168.56.11]:5701 [dev] Shutting down service -> com.hazelcast.queue.QueueService@3ed0f9db
2014-06-05 15:12:29,437 DEBUG [hz.ShutdownThread] c.h.s.i.ServiceManager [Slf4jFactory.java:81] [192.168.56.11]:5701 [dev] Shutting down service -> com.hazelcast.concurrent.idgen.IdGeneratorService@58d3e2d4
2014-06-05 15:12:29,437 DEBUG [hz.ShutdownThread] c.h.s.i.ServiceManager [Slf4jFactory.java:81] [192.168.56.11]:5701 [dev] Shutting down service -> com.hazelcast.topic.TopicService@7a203667
2014-06-05 15:12:29,437 DEBUG [hz.ShutdownThread] c.h.s.i.ServiceManager [Slf4jFactory.java:81] [192.168.56.11]:5701 [dev] Shutting down service -> com.hazelcast.map.MapService@3536a242
2014-06-05 15:12:29,459 DEBUG [hz.ShutdownThread] c.h.s.i.ServiceManager [Slf4jFactory.java:81] [192.168.56.11]:5701 [dev] Shutting down service -> com.hazelcast.collection.CollectionService@733dc4f2
2014-06-05 15:12:29,462 DEBUG [hz.ShutdownThread] c.h.s.i.ServiceManager [Slf4jFactory.java:81] [192.168.56.11]:5701 [dev] Shutting down service -> com.hazelcast.concurrent.semaphore.SemaphoreService@62fb9622
2014-06-05 15:12:29,465 DEBUG [hz.ShutdownThread] c.h.s.i.ServiceManager [Slf4jFactory.java:81] [192.168.56.11]:5701 [dev] Shutting down service -> com.hazelcast.transaction.impl.TransactionManagerServiceImpl@1f2d7b53
2014-06-05 15:12:29,469 DEBUG [hz.ShutdownThread] c.h.s.i.ServiceManager [Slf4jFactory.java:81] [192.168.56.11]:5701 [dev] Shutting down service -> com.hazelcast.concurrent.countdownlatch.CountDownLatchService@4b0a833a
2014-06-05 15:12:29,469 DEBUG [hz.ShutdownThread] c.h.s.i.ServiceManager [Slf4jFactory.java:81] [192.168.56.11]:5701 [dev] Shutting down service -> com.hazelcast.concurrent.atomiclong.AtomicLongService@31eb3d60
2014-06-05 15:12:29,472 DEBUG [hz.ShutdownThread] c.h.s.i.ServiceManager [Slf4jFactory.java:81] [192.168.56.11]:5701 [dev] Shutting down service -> PartitionManager[271] {

migrationQ: 0
}
2014-06-05 15:12:29,473 DEBUG [hz.ShutdownThread] c.h.p.PartitionService [Slf4jFactory.java:81] [192.168.56.11]:5701 [dev] Shutting down the partition service
2014-06-05 15:12:29,475 DEBUG [hz.ShutdownThread] c.h.s.i.ServiceManager [Slf4jFactory.java:81] [192.168.56.11]:5701 [dev] Shutting down service -> ClusterService{address=Address[192.168.56.11]:5701}
2014-06-05 15:12:29,476 DEBUG [hz.ShutdownThread] c.h.s.i.ServiceManager [Slf4jFactory.java:81] [192.168.56.11]:5701 [dev] Shutting down service -> com.hazelcast.client.ClientEngineImpl@7d47e16a
2014-06-05 15:12:29,477 DEBUG [hz.ShutdownThread] c.h.s.ExecutionService [Slf4jFactory.java:81] [192.168.56.11]:5701 [dev] Stopping executors...
2014-06-05 15:12:29,476 DEBUG [hz._hzInstance_1_dev.migration] c.h.p.PartitionService [Slf4jFactory.java:81] [192.168.56.11]:5701 [dev] MigrationThread is interrupted: null
2014-06-05 15:12:29,479 DEBUG [hz.ShutdownThread] c.h.s.EventService [Slf4jFactory.java:81] [192.168.56.11]:5701 [dev] Stopping event executor...
2014-06-05 15:12:29,480 DEBUG [hz.ShutdownThread] c.h.s.OperationService [Slf4jFactory.java:81] [192.168.56.11]:5701 [dev] Stopping operation threads...
2014-06-05 15:12:29,481 DEBUG [hz.ShutdownThread] c.h.i.Node [Slf4jFactory.java:81] [192.168.56.11]:5701 [dev] Shutting down multicast service
2014-06-05 15:12:29,490 DEBUG [hz.ShutdownThread] c.h.i.Node [Slf4jFactory.java:81] [192.168.56.11]:5701 [dev] Shutting down connection manager
2014-06-05 15:12:29,493 DEBUG [hz.ShutdownThread] c.h.n.TcpIpConnectionManager [Slf4jFactory.java:81] [192.168.56.11]:5701 [dev] Stopping ConnectionManager
2014-06-05 15:12:29,494 DEBUG [hz.ShutdownThread] c.h.n.TcpIpConnectionManager [Slf4jFactory.java:81] [192.168.56.11]:5701 [dev] Shutting down SocketAcceptor thread.
2014-06-05 15:12:29,495 DEBUG [hz._hzInstance_1_dev.IO.thread-Acceptor] c.h.n.SocketAcceptor [Slf4jFactory.java:81] [192.168.56.11]:5701 [dev] Closing selector hz._hzInstance_1_dev.IO.thread-Acceptor
2014-06-05 15:12:29,497 DEBUG [hz.ShutdownThread] c.h.n.TcpIpConnectionManager [Slf4jFactory.java:81] [192.168.56.11]:5701 [dev] Shutting down IO selectors... Total: 3
2014-06-05 15:12:29,500 DEBUG [hz._hzInstance_1_dev.IO.thread-in-0] c.h.n.InSelectorImpl [Slf4jFactory.java:81] [192.168.56.11]:5701 [dev] hz._hzInstance_1_dev.IO.thread-in-0 is interrupted!
2014-06-05 15:12:29,502 DEBUG [hz._hzInstance_1_dev.IO.thread-in-0] c.h.n.InSelectorImpl [Slf4jFactory.java:81] [192.168.56.11]:5701 [dev] Closing selector hz._hzInstance_1_dev.IO.thread-in-0
2014-06-05 15:12:29,501 DEBUG [hz._hzInstance_1_dev.IO.thread-out-0] c.h.n.OutSelectorImpl [Slf4jFactory.java:81] [192.168.56.11]:5701 [dev] hz._hzInstance_1_dev.IO.thread-out-0 is interrupted!
2014-06-05 15:12:29,504 DEBUG [hz._hzInstance_1_dev.IO.thread-out-0] c.h.n.OutSelectorImpl [Slf4jFactory.java:81] [192.168.56.11]:5701 [dev] Closing selector hz._hzInstance_1_dev.IO.thread-out-0
2014-06-05 15:12:29,501 DEBUG [hz._hzInstance_1_dev.IO.thread-out-2] c.h.n.OutSelectorImpl [Slf4jFactory.java:81] [192.168.56.11]:5701 [dev] hz._hzInstance_1_dev.IO.thread-out-2 is interrupted!
2014-06-05 15:12:29,508 DEBUG [hz._hzInstance_1_dev.IO.thread-out-2] c.h.n.OutSelectorImpl [Slf4jFactory.java:81] [192.168.56.11]:5701 [dev] Closing selector hz._hzInstance_1_dev.IO.thread-out-2
2014-06-05 15:12:29,501 DEBUG [hz._hzInstance_1_dev.IO.thread-in-2] c.h.n.InSelectorImpl [Slf4jFactory.java:81] [192.168.56.11]:5701 [dev] hz._hzInstance_1_dev.IO.thread-in-2 is interrupted!
2014-06-05 15:12:29,510 DEBUG [hz._hzInstance_1_dev.IO.thread-in-2] c.h.n.InSelectorImpl [Slf4jFactory.java:81] [192.168.56.11]:5701 [dev] Closing selector hz._hzInstance_1_dev.IO.thread-in-2
2014-06-05 15:12:29,501 DEBUG [hz._hzInstance_1_dev.IO.thread-out-1] c.h.n.OutSelectorImpl [Slf4jFactory.java:81] [192.168.56.11]:5701 [dev] hz._hzInstance_1_dev.IO.thread-out-1 is interrupted!
2014-06-05 15:12:29,513 DEBUG [hz._hzInstance_1_dev.IO.thread-out-1] c.h.n.OutSelectorImpl [Slf4jFactory.java:81] [192.168.56.11]:5701 [dev] Closing selector hz._hzInstance_1_dev.IO.thread-out-1
2014-06-05 15:12:29,501 DEBUG [hz._hzInstance_1_dev.IO.thread-in-1] c.h.n.InSelectorImpl [Slf4jFactory.java:81] [192.168.56.11]:5701 [dev] hz._hzInstance_1_dev.IO.thread-in-1 is interrupted!
2014-06-05 15:12:29,517 DEBUG [hz._hzInstance_1_dev.IO.thread-in-1] c.h.n.InSelectorImpl [Slf4jFactory.java:81] [192.168.56.11]:5701 [dev] Closing selector hz._hzInstance_1_dev.IO.thread-in-1
2014-06-05 15:12:29,501 DEBUG [hz.ShutdownThread] c.h.n.TcpIpConnectionManager [Slf4jFactory.java:81] [192.168.56.11]:5701 [dev] Closing server socket channel: sun.nio.ch.ServerSocketChannelImpl[/0.0.0.0:5701]
2014-06-05 15:12:29,519 INFO [hz.ShutdownThread] c.h.initializer [Slf4jFactory.java:83] [192.168.56.11]:5701 [dev] Destroying node initializer.
2014-06-05 15:12:29,520 DEBUG [hz.ShutdownThread] c.h.i.Node [Slf4jFactory.java:81] [192.168.56.11]:5701 [dev] Shutting down thread hz._hzInstance_1_dev.HealthMonitor
2014-06-05 15:12:29,521 INFO [hz.ShutdownThread] c.h.i.Node [Slf4jFactory.java:83] [192.168.56.11]:5701 [dev] Hazelcast Shutdown is completed in 97 ms.
