2014-06-05 15:06:52,367 INFO [main] n.f.c.m.FloodlightModuleLoader [FloodlightModuleLoader.java:170] Loading modules from file ./conf/onos.properties
2014-06-05 15:06:52,372 DEBUG [main] n.f.c.m.FloodlightModuleLoader [FloodlightModuleLoader.java:206] Starting module loader
2014-06-05 15:06:52,406 DEBUG [main] n.f.c.m.FloodlightModuleLoader [FloodlightModuleLoader.java:95] Found module net.floodlightcontroller.core.FloodlightProvider
2014-06-05 15:06:52,463 DEBUG [main] n.f.c.m.FloodlightModuleLoader [FloodlightModuleLoader.java:95] Found module net.onrc.onos.ofcontroller.floodlightlistener.NetworkGraphPublisher
2014-06-05 15:06:52,506 DEBUG [main] n.f.c.m.FloodlightModuleLoader [FloodlightModuleLoader.java:95] Found module net.onrc.onos.ofcontroller.linkdiscovery.internal.LinkDiscoveryManager
2014-06-05 15:06:52,515 DEBUG [main] n.f.c.m.FloodlightModuleLoader [FloodlightModuleLoader.java:95] Found module net.floodlightcontroller.topology.TopologyManager
2014-06-05 15:06:52,577 DEBUG [main] n.f.c.m.FloodlightModuleLoader [FloodlightModuleLoader.java:95] Found module net.floodlightcontroller.forwarding.Forwarding
2014-06-05 15:06:52,582 DEBUG [main] n.f.c.m.FloodlightModuleLoader [FloodlightModuleLoader.java:95] Found module net.floodlightcontroller.restserver.RestApiServer
2014-06-05 15:06:52,587 DEBUG [main] n.f.c.m.FloodlightModuleLoader [FloodlightModuleLoader.java:95] Found module net.floodlightcontroller.threadpool.ThreadPool
2014-06-05 15:06:52,614 DEBUG [main] n.f.c.m.FloodlightModuleLoader [FloodlightModuleLoader.java:95] Found module net.floodlightcontroller.ui.web.StaticWebRoutable
2014-06-05 15:06:52,679 DEBUG [main] n.f.c.m.FloodlightModuleLoader [FloodlightModuleLoader.java:95] Found module net.floodlightcontroller.devicemanager.internal.DefaultEntityClassifier
2014-06-05 15:06:52,682 DEBUG [main] n.f.c.m.FloodlightModuleLoader [FloodlightModuleLoader.java:88] Could not find module: net.floodlightcontroller.core.module.IFloodlightModule: Provider net.floodlightcontroller.devicemanager.test.MockDeviceManager not found
2014-06-05 15:06:52,683 DEBUG [main] n.f.c.m.FloodlightModuleLoader [FloodlightModuleLoader.java:88] Could not find module: net.floodlightcontroller.core.module.IFloodlightModule: Provider net.floodlightcontroller.core.test.MockFloodlightProvider not found
2014-06-05 15:06:52,684 DEBUG [main] n.f.c.m.FloodlightModuleLoader [FloodlightModuleLoader.java:88] Could not find module: net.floodlightcontroller.core.module.IFloodlightModule: Provider net.floodlightcontroller.core.test.MockThreadPoolService not found
2014-06-05 15:06:54,440 DEBUG [main] n.f.c.m.FloodlightModuleLoader [FloodlightModuleLoader.java:95] Found module net.onrc.onos.datagrid.HazelcastDatagrid
2014-06-05 15:06:55,203 DEBUG [main] n.f.c.m.FloodlightModuleLoader [FloodlightModuleLoader.java:95] Found module net.onrc.onos.ofcontroller.flowmanager.FlowManager
2014-06-05 15:06:56,174 DEBUG [main] n.o.o.g.GraphDBConnection [GraphDBConnection.java:59] GraphDBConnection::Setting Config File 
2014-06-05 15:06:56,174 DEBUG [main] n.f.c.m.FloodlightModuleLoader [FloodlightModuleLoader.java:95] Found module net.onrc.onos.ofcontroller.flowprogrammer.FlowProgrammer
2014-06-05 15:06:56,239 DEBUG [main] n.f.c.m.FloodlightModuleLoader [FloodlightModuleLoader.java:95] Found module net.onrc.onos.ofcontroller.topology.TopologyManager
2014-06-05 15:06:56,327 DEBUG [main] n.f.c.m.FloodlightModuleLoader [FloodlightModuleLoader.java:95] Found module net.onrc.onos.ofcontroller.bgproute.BgpRoute
2014-06-05 15:06:56,348 DEBUG [main] n.f.c.m.FloodlightModuleLoader [FloodlightModuleLoader.java:95] Found module net.onrc.onos.registry.controller.ZookeeperRegistry
2014-06-05 15:06:56,351 DEBUG [main] n.f.c.m.FloodlightModuleLoader [FloodlightModuleLoader.java:95] Found module net.onrc.onos.registry.controller.StandaloneRegistry
2014-06-05 15:06:56,365 DEBUG [main] n.f.c.m.FloodlightModuleLoader [FloodlightModuleLoader.java:95] Found module net.onrc.onos.ofcontroller.forwarding.Forwarding
2014-06-05 15:06:56,391 DEBUG [main] n.f.c.m.FloodlightModuleLoader [FloodlightModuleLoader.java:95] Found module net.onrc.onos.ofcontroller.proxyarp.ProxyArpManager
2014-06-05 15:06:56,396 DEBUG [main] n.f.c.m.FloodlightModuleLoader [FloodlightModuleLoader.java:95] Found module net.onrc.onos.ofcontroller.core.config.DefaultConfiguration
2014-06-05 15:06:56,404 DEBUG [main] n.f.c.m.FloodlightModuleLoader [FloodlightModuleLoader.java:95] Found module net.onrc.onos.ofcontroller.devicemanager.OnosDeviceManager
2014-06-05 15:06:56,405 DEBUG [main] n.f.c.m.FloodlightModuleLoader [FloodlightModuleLoader.java:416] Setting net.floodlightcontroller.threadpool.ThreadPool@6e9d5246  as provider for net.floodlightcontroller.threadpool.IThreadPoolService
2014-06-05 15:06:56,405 DEBUG [main] n.f.c.m.FloodlightModuleLoader [FloodlightModuleLoader.java:416] Setting net.onrc.onos.ofcontroller.core.config.DefaultConfiguration@799405a  as provider for net.onrc.onos.ofcontroller.core.config.IConfigInfoService
2014-06-05 15:06:56,406 DEBUG [main] n.f.c.m.FloodlightModuleLoader [FloodlightModuleLoader.java:416] Setting net.floodlightcontroller.restserver.RestApiServer@612b1ff9  as provider for net.floodlightcontroller.restserver.IRestApiService
2014-06-05 15:06:56,432 DEBUG [main] n.f.c.m.FloodlightModuleLoader [FloodlightModuleLoader.java:416] Setting net.floodlightcontroller.core.internal.Controller@16c8b5a6  as provider for net.floodlightcontroller.core.IFloodlightProviderService
2014-06-05 15:06:56,433 DEBUG [main] n.f.c.m.FloodlightModuleLoader [FloodlightModuleLoader.java:416] Setting net.onrc.onos.datagrid.HazelcastDatagrid@5675d228  as provider for net.onrc.onos.datagrid.IDatagridService
2014-06-05 15:06:56,433 DEBUG [main] n.f.c.m.FloodlightModuleLoader [FloodlightModuleLoader.java:416] Setting net.onrc.onos.ofcontroller.flowprogrammer.FlowSynchronizer@530db0f9  as provider for net.onrc.onos.ofcontroller.flowprogrammer.IFlowSyncService
2014-06-05 15:06:56,433 DEBUG [main] n.f.c.m.FloodlightModuleLoader [FloodlightModuleLoader.java:416] Setting net.onrc.onos.ofcontroller.flowprogrammer.FlowPusher@27ddd608  as provider for net.onrc.onos.ofcontroller.flowprogrammer.IFlowPusherService
2014-06-05 15:06:56,434 DEBUG [main] n.f.c.m.FloodlightModuleLoader [FloodlightModuleLoader.java:416] Setting net.onrc.onos.registry.controller.ZookeeperRegistry@33573e93  as provider for net.onrc.onos.registry.controller.IControllerRegistryService
2014-06-05 15:06:56,434 DEBUG [main] n.f.c.m.FloodlightModuleLoader [FloodlightModuleLoader.java:416] Setting net.onrc.onos.ofcontroller.linkdiscovery.internal.LinkDiscoveryManager@1ea65bf0  as provider for net.onrc.onos.ofcontroller.linkdiscovery.ILinkDiscoveryService
2014-06-05 15:06:56,434 DEBUG [main] n.f.c.m.FloodlightModuleLoader [FloodlightModuleLoader.java:416] Setting net.onrc.onos.ofcontroller.floodlightlistener.NetworkGraphPublisher@6e75bb62  as provider for net.onrc.onos.ofcontroller.floodlightlistener.INetworkGraphService
2014-06-05 15:06:56,434 DEBUG [main] n.f.c.m.FloodlightModuleLoader [FloodlightModuleLoader.java:416] Setting net.onrc.onos.ofcontroller.flowmanager.FlowManager@5b25daf5  as provider for net.onrc.onos.ofcontroller.flowmanager.IFlowService
2014-06-05 15:06:56,435 DEBUG [main] n.f.c.m.FloodlightModuleLoader [FloodlightModuleLoader.java:416] Setting net.onrc.onos.ofcontroller.topology.TopologyManager@521e980f  as provider for net.onrc.onos.ofcontroller.topology.ITopologyNetService
2014-06-05 15:06:56,435 DEBUG [main] n.f.c.m.FloodlightModuleLoader [FloodlightModuleLoader.java:416] Setting net.floodlightcontroller.topology.TopologyManager@59ac5471  as provider for net.floodlightcontroller.routing.IRoutingService
2014-06-05 15:06:56,435 DEBUG [main] n.f.c.m.FloodlightModuleLoader [FloodlightModuleLoader.java:416] Setting net.floodlightcontroller.topology.TopologyManager@59ac5471  as provider for net.floodlightcontroller.topology.ITopologyService
2014-06-05 15:06:56,435 DEBUG [main] n.f.c.m.FloodlightModuleLoader [FloodlightModuleLoader.java:416] Setting net.onrc.onos.ofcontroller.proxyarp.ProxyArpManager@23c01b1a  as provider for net.onrc.onos.ofcontroller.proxyarp.IProxyArpService
2014-06-05 15:06:56,436 DEBUG [main] n.f.c.m.FloodlightModuleLoader [FloodlightModuleLoader.java:416] Setting net.onrc.onos.ofcontroller.devicemanager.OnosDeviceManager@63eea083  as provider for net.onrc.onos.ofcontroller.devicemanager.IOnosDeviceService
2014-06-05 15:06:56,436 DEBUG [main] n.f.c.m.FloodlightModuleLoader [FloodlightModuleLoader.java:416] Setting net.onrc.onos.ofcontroller.forwarding.Forwarding@65716a7e  as provider for net.onrc.onos.ofcontroller.forwarding.IForwardingService
2014-06-05 15:06:56,436 DEBUG [main] n.f.c.m.FloodlightModuleLoader [FloodlightModuleLoader.java:439] Initializing net.floodlightcontroller.threadpool.ThreadPool
2014-06-05 15:06:56,436 DEBUG [main] n.f.c.m.FloodlightModuleLoader [FloodlightModuleLoader.java:439] Initializing net.onrc.onos.ofcontroller.core.config.DefaultConfiguration
2014-06-05 15:06:56,436 DEBUG [main] n.f.c.m.FloodlightModuleLoader [FloodlightModuleLoader.java:439] Initializing net.floodlightcontroller.restserver.RestApiServer
2014-06-05 15:06:56,437 DEBUG [main] n.f.r.RestApiServer [RestApiServer.java:187] REST port set to 8080
2014-06-05 15:06:56,437 DEBUG [main] n.f.c.m.FloodlightModuleLoader [FloodlightModuleLoader.java:439] Initializing net.floodlightcontroller.core.FloodlightProvider
2014-06-05 15:06:56,461 DEBUG [main] n.f.c.i.Controller [Controller.java:1761] OpenFlow port set to 6633
2014-06-05 15:06:56,462 DEBUG [main] n.f.c.i.Controller [Controller.java:1766] Number of worker threads set to 16
2014-06-05 15:06:56,462 DEBUG [main] n.f.c.i.Controller [Controller.java:1781] ControllerId set to onosdev2
2014-06-05 15:06:56,503 DEBUG [main] n.f.c.m.FloodlightModuleLoader [FloodlightModuleLoader.java:439] Initializing net.floodlightcontroller.ui.web.StaticWebRoutable
2014-06-05 15:06:56,503 DEBUG [main] n.f.c.m.FloodlightModuleLoader [FloodlightModuleLoader.java:439] Initializing net.onrc.onos.datagrid.HazelcastDatagrid
2014-06-05 15:06:56,535 INFO [main] c.h.c.FileSystemXmlConfig [Slf4jFactory.java:47] Configuring Hazelcast from '/vagrant/ONOS/conf/hazelcast.xml'.
2014-06-05 15:06:56,636 DEBUG [main] n.f.c.m.FloodlightModuleLoader [FloodlightModuleLoader.java:439] Initializing net.onrc.onos.ofcontroller.flowprogrammer.FlowProgrammer
2014-06-05 15:06:57,363 DEBUG [main] n.f.c.m.FloodlightModuleLoader [FloodlightModuleLoader.java:439] Initializing net.onrc.onos.registry.controller.ZookeeperRegistry
2014-06-05 15:06:57,363 INFO [main] n.o.o.r.c.ZookeeperRegistry [ZookeeperRegistry.java:474] Initialising the Zookeeper Registry - Zookeeper connection required
2014-06-05 15:06:57,363 INFO [main] n.o.o.r.c.ZookeeperRegistry [ZookeeperRegistry.java:482] Setting Zookeeper connection string to localhost:2181
2014-06-05 15:06:57,480 INFO [main] c.n.c.f.i.CuratorFrameworkImpl [CuratorFrameworkImpl.java:220] Starting
2014-06-05 15:06:57,481 DEBUG [main] c.n.c.CuratorZookeeperClient [CuratorZookeeperClient.java:173] Starting
2014-06-05 15:06:57,484 DEBUG [main] c.n.c.ConnectionState [ConnectionState.java:98] Starting
2014-06-05 15:06:57,485 DEBUG [main] c.n.c.ConnectionState [ConnectionState.java:199] reset
2014-06-05 15:06:57,568 INFO [main-EventThread] c.n.c.f.s.ConnectionStateManager [ConnectionStateManager.java:151] State change: CONNECTED
2014-06-05 15:06:57,572 WARN [ConnectionStateManager-0] c.n.c.f.s.ConnectionStateManager [ConnectionStateManager.java:169] There are no ConnectionStateListeners registered.
2014-06-05 15:06:57,997 DEBUG [main] n.f.c.m.FloodlightModuleLoader [FloodlightModuleLoader.java:439] Initializing net.onrc.onos.ofcontroller.linkdiscovery.internal.LinkDiscoveryManager
2014-06-05 15:06:58,035 DEBUG [main] n.f.c.m.FloodlightModuleLoader [FloodlightModuleLoader.java:439] Initializing net.onrc.onos.ofcontroller.floodlightlistener.NetworkGraphPublisher
2014-06-05 15:06:58,042 DEBUG [main] n.o.o.g.GraphDBConnection [GraphDBConnection.java:59] GraphDBConnection::Setting Config File /tmp/cassandra.titan
2014-06-05 15:06:58,798 INFO [main] c.t.t.d.Backend [Backend.java:148] Initiated backend operations thread pool of size 2
2014-06-05 15:07:04,219 DEBUG [main] n.o.o.o.f.NetworkGraphPublisher [NetworkGraphPublisher.java:470] Initializing NetworkGraphPublisher module with /tmp/cassandra.titan
2014-06-05 15:07:04,220 DEBUG [main] n.f.c.m.FloodlightModuleLoader [FloodlightModuleLoader.java:439] Initializing net.onrc.onos.ofcontroller.flowmanager.FlowManager
2014-06-05 15:07:04,221 DEBUG [main] n.f.c.m.FloodlightModuleLoader [FloodlightModuleLoader.java:439] Initializing net.onrc.onos.ofcontroller.topology.TopologyManager
2014-06-05 15:07:04,225 DEBUG [main] n.f.c.m.FloodlightModuleLoader [FloodlightModuleLoader.java:439] Initializing net.floodlightcontroller.topology.TopologyManager
2014-06-05 15:07:04,289 DEBUG [main] n.f.c.m.FloodlightModuleLoader [FloodlightModuleLoader.java:439] Initializing net.onrc.onos.ofcontroller.proxyarp.ProxyArpManager
2014-06-05 15:07:04,393 DEBUG [main] n.f.c.m.FloodlightModuleLoader [FloodlightModuleLoader.java:439] Initializing net.onrc.onos.ofcontroller.devicemanager.OnosDeviceManager
2014-06-05 15:07:04,394 DEBUG [main] n.f.c.m.FloodlightModuleLoader [FloodlightModuleLoader.java:439] Initializing net.onrc.onos.ofcontroller.forwarding.Forwarding
2014-06-05 15:07:04,399 DEBUG [main] n.f.c.m.FloodlightModuleLoader [FloodlightModuleLoader.java:453] Starting net.floodlightcontroller.threadpool.ThreadPool
2014-06-05 15:07:04,400 DEBUG [main] n.f.c.m.FloodlightModuleLoader [FloodlightModuleLoader.java:453] Starting net.onrc.onos.ofcontroller.core.config.DefaultConfiguration
2014-06-05 15:07:04,401 DEBUG [main] n.f.c.m.FloodlightModuleLoader [FloodlightModuleLoader.java:453] Starting net.floodlightcontroller.restserver.RestApiServer
2014-06-05 15:07:04,403 DEBUG [main] n.f.c.m.FloodlightModuleLoader [FloodlightModuleLoader.java:453] Starting net.floodlightcontroller.core.FloodlightProvider
2014-06-05 15:07:04,845 DEBUG [main] n.f.c.m.FloodlightModuleLoader [FloodlightModuleLoader.java:453] Starting net.floodlightcontroller.ui.web.StaticWebRoutable
2014-06-05 15:07:04,845 DEBUG [main] n.f.c.m.FloodlightModuleLoader [FloodlightModuleLoader.java:453] Starting net.onrc.onos.datagrid.HazelcastDatagrid
2014-06-05 15:07:05,689 INFO [main] c.h.i.DefaultAddressPicker [Slf4jFactory.java:47] Prefer IPv4 stack is true.
2014-06-05 15:07:05,726 DEBUG [main] c.h.i.DefaultAddressPicker [Slf4jFactory.java:41] inet reuseAddress:true
2014-06-05 15:07:05,729 DEBUG [main] c.h.i.DefaultAddressPicker [Slf4jFactory.java:41] Trying to bind inet socket address:0.0.0.0/0.0.0.0:5701
2014-06-05 15:07:05,731 DEBUG [main] c.h.i.DefaultAddressPicker [Slf4jFactory.java:41] Bind successful to inet socket address:0.0.0.0/0.0.0.0:5701
2014-06-05 15:07:05,733 INFO [main] c.h.i.DefaultAddressPicker [Slf4jFactory.java:47] Picked Address[192.168.56.12]:5701, using socket ServerSocket[addr=/0.0.0.0,localport=5701], bind any local is true
2014-06-05 15:07:05,737 DEBUG [main] c.h.i.DefaultAddressPicker [Slf4jFactory.java:41] Using public address the same as the bind address. Address[192.168.56.12]:5701
2014-06-05 15:07:06,268 DEBUG [main] c.h.c.ClusterService [Slf4jFactory.java:81] [192.168.56.12]:5701 [dev] Updating members -> [Member [192.168.56.12]:5701 this]
2014-06-05 15:07:06,337 INFO [main] c.h.system [Slf4jFactory.java:83] [192.168.56.12]:5701 [dev] Hazelcast Community Edition 3.0.2 (20130906) starting at Address[192.168.56.12]:5701
2014-06-05 15:07:06,341 INFO [main] c.h.system [Slf4jFactory.java:83] [192.168.56.12]:5701 [dev] Copyright (C) 2008-2013 Hazelcast.com
2014-06-05 15:07:06,361 INFO [main] c.h.i.Node [Slf4jFactory.java:83] [192.168.56.12]:5701 [dev] Creating MulticastJoiner
2014-06-05 15:07:06,386 INFO [main] c.h.c.LifecycleService [Slf4jFactory.java:83] [192.168.56.12]:5701 [dev] Address[192.168.56.12]:5701 is STARTING
2014-06-05 15:07:06,389 DEBUG [main] c.h.i.Node [Slf4jFactory.java:81] [192.168.56.12]:5701 [dev] We are asked to start and completelyShutdown is false
2014-06-05 15:07:06,391 DEBUG [main] c.h.s.i.ServiceManager [Slf4jFactory.java:81] [192.168.56.12]:5701 [dev] Registering core services...
2014-06-05 15:07:06,393 DEBUG [main] c.h.s.i.ServiceManager [Slf4jFactory.java:81] [192.168.56.12]:5701 [dev] Registering service: 'hz:core:clusterService'
2014-06-05 15:07:06,401 DEBUG [main] c.h.s.i.ServiceManager [Slf4jFactory.java:81] [192.168.56.12]:5701 [dev] Registering service: 'hz:core:partitionService'
2014-06-05 15:07:06,402 DEBUG [main] c.h.s.i.ServiceManager [Slf4jFactory.java:81] [192.168.56.12]:5701 [dev] Registering service: 'hz:core:proxyService'
2014-06-05 15:07:06,405 DEBUG [main] c.h.s.i.ServiceManager [Slf4jFactory.java:81] [192.168.56.12]:5701 [dev] Registering service: 'hz:core:txManagerService'
2014-06-05 15:07:06,406 DEBUG [main] c.h.s.i.ServiceManager [Slf4jFactory.java:81] [192.168.56.12]:5701 [dev] Registering service: 'hz:core:clientEngine'
2014-06-05 15:07:06,409 DEBUG [main] c.h.s.i.ServiceManager [Slf4jFactory.java:81] [192.168.56.12]:5701 [dev] Registering default services...
2014-06-05 15:07:06,514 DEBUG [main] c.h.s.i.ServiceManager [Slf4jFactory.java:81] [192.168.56.12]:5701 [dev] Registering service: 'hz:impl:mapService'
2014-06-05 15:07:06,548 DEBUG [main] c.h.s.i.ServiceManager [Slf4jFactory.java:81] [192.168.56.12]:5701 [dev] Registering service: 'hz:impl:lockService'
2014-06-05 15:07:06,555 DEBUG [main] c.h.s.i.ServiceManager [Slf4jFactory.java:81] [192.168.56.12]:5701 [dev] Registering service: 'hz:impl:queueService'
2014-06-05 15:07:06,559 DEBUG [main] c.h.s.i.ServiceManager [Slf4jFactory.java:81] [192.168.56.12]:5701 [dev] Registering service: 'hz:impl:topicService'
2014-06-05 15:07:06,562 DEBUG [main] c.h.s.i.ServiceManager [Slf4jFactory.java:81] [192.168.56.12]:5701 [dev] Registering service: 'hz:impl:collectionService'
2014-06-05 15:07:06,563 DEBUG [main] c.h.s.i.ServiceManager [Slf4jFactory.java:81] [192.168.56.12]:5701 [dev] Registering service: 'hz:impl:executorService'
2014-06-05 15:07:06,565 DEBUG [main] c.h.s.i.ServiceManager [Slf4jFactory.java:81] [192.168.56.12]:5701 [dev] Registering service: 'hz:impl:atomicLongService'
2014-06-05 15:07:06,567 DEBUG [main] c.h.s.i.ServiceManager [Slf4jFactory.java:81] [192.168.56.12]:5701 [dev] Registering service: 'hz:impl:countDownLatchService'
2014-06-05 15:07:06,569 DEBUG [main] c.h.s.i.ServiceManager [Slf4jFactory.java:81] [192.168.56.12]:5701 [dev] Registering service: 'hz:impl:semaphoreService'
2014-06-05 15:07:06,570 DEBUG [main] c.h.s.i.ServiceManager [Slf4jFactory.java:81] [192.168.56.12]:5701 [dev] Registering service: 'hz:impl:idGeneratorService'
2014-06-05 15:07:06,571 DEBUG [main] c.h.s.i.ServiceManager [Slf4jFactory.java:81] [192.168.56.12]:5701 [dev] Initializing service -> PartitionManager[0] {

migrationQ: 0
}
2014-06-05 15:07:06,571 DEBUG [main] c.h.s.i.ServiceManager [Slf4jFactory.java:81] [192.168.56.12]:5701 [dev] Initializing service -> ClusterService{address=Address[192.168.56.12]:5701}
2014-06-05 15:07:06,574 DEBUG [main] c.h.s.i.ServiceManager [Slf4jFactory.java:81] [192.168.56.12]:5701 [dev] Initializing service -> com.hazelcast.concurrent.atomiclong.AtomicLongService@1f2d7b53
2014-06-05 15:07:06,574 DEBUG [main] c.h.s.i.ServiceManager [Slf4jFactory.java:81] [192.168.56.12]:5701 [dev] Initializing service -> com.hazelcast.concurrent.countdownlatch.CountDownLatchService@62fb9622
2014-06-05 15:07:06,575 DEBUG [main] c.h.s.i.ServiceManager [Slf4jFactory.java:81] [192.168.56.12]:5701 [dev] Initializing service -> com.hazelcast.transaction.impl.TransactionManagerServiceImpl@733dc4f2
2014-06-05 15:07:06,575 DEBUG [main] c.h.s.i.ServiceManager [Slf4jFactory.java:81] [192.168.56.12]:5701 [dev] Initializing service -> com.hazelcast.concurrent.semaphore.SemaphoreService@5c4d26f9
2014-06-05 15:07:06,575 DEBUG [main] c.h.s.i.ServiceManager [Slf4jFactory.java:81] [192.168.56.12]:5701 [dev] Initializing service -> com.hazelcast.collection.CollectionService@4d39d4c6
2014-06-05 15:07:06,577 DEBUG [main] c.h.s.i.ServiceManager [Slf4jFactory.java:81] [192.168.56.12]:5701 [dev] Initializing service -> com.hazelcast.map.MapService@435d9842
2014-06-05 15:07:06,578 DEBUG [main] c.h.s.i.ServiceManager [Slf4jFactory.java:81] [192.168.56.12]:5701 [dev] Initializing service -> com.hazelcast.client.ClientEngineImpl@58d3e2d4
2014-06-05 15:07:06,579 DEBUG [main] c.h.s.i.ServiceManager [Slf4jFactory.java:81] [192.168.56.12]:5701 [dev] Initializing service -> com.hazelcast.topic.TopicService@3ed0f9db
2014-06-05 15:07:06,580 DEBUG [main] c.h.s.i.ServiceManager [Slf4jFactory.java:81] [192.168.56.12]:5701 [dev] Initializing service -> com.hazelcast.concurrent.idgen.IdGeneratorService@9c3b915
2014-06-05 15:07:06,581 DEBUG [main] c.h.s.i.ServiceManager [Slf4jFactory.java:81] [192.168.56.12]:5701 [dev] Initializing service -> com.hazelcast.queue.QueueService@10ac16b5
2014-06-05 15:07:06,581 DEBUG [main] c.h.s.i.ServiceManager [Slf4jFactory.java:81] [192.168.56.12]:5701 [dev] Initializing service -> com.hazelcast.executor.DistributedExecutorService@1206cda0
2014-06-05 15:07:06,581 DEBUG [main] c.h.s.i.ServiceManager [Slf4jFactory.java:81] [192.168.56.12]:5701 [dev] Initializing service -> com.hazelcast.concurrent.lock.LockServiceImpl@7ca5cc9e
2014-06-05 15:07:06,585 DEBUG [main] c.h.n.TcpIpConnectionManager [Slf4jFactory.java:81] [192.168.56.12]:5701 [dev] Starting ConnectionManager and IO selectors.
2014-06-05 15:07:06,629 DEBUG [main] c.h.i.Node [Slf4jFactory.java:81] [192.168.56.12]:5701 [dev] Adding ShutdownHook
2014-06-05 15:07:06,631 DEBUG [main] c.h.i.Node [Slf4jFactory.java:81] [192.168.56.12]:5701 [dev] finished starting threads, calling join
2014-06-05 15:07:06,631 DEBUG [hz._hzInstance_1_dev.IO.thread-Acceptor] c.h.n.SocketAcceptor [Slf4jFactory.java:81] [192.168.56.12]:5701 [dev] Starting SocketAcceptor on sun.nio.ch.ServerSocketChannelImpl[/0.0.0.0:5701]
2014-06-05 15:07:09,858 DEBUG [main] c.h.c.MulticastJoiner [Slf4jFactory.java:81] [192.168.56.12]:5701 [dev] Joining to master node: null
2014-06-05 15:07:09,859 DEBUG [main] c.h.i.Node [Slf4jFactory.java:81] [192.168.56.12]:5701 [dev] This node is being set as the master
2014-06-05 15:07:09,859 INFO [main] c.h.c.MulticastJoiner [Slf4jFactory.java:83] [192.168.56.12]:5701 [dev] 


Members [1] {
	Member [192.168.56.12]:5701 this
}

2014-06-05 15:07:09,889 DEBUG [main] c.h.i.Node [Slf4jFactory.java:81] [192.168.56.12]:5701 [dev] Starting health monitor
2014-06-05 15:07:09,912 INFO [main] c.h.c.LifecycleService [Slf4jFactory.java:83] [192.168.56.12]:5701 [dev] Address[192.168.56.12]:5701 is STARTED
2014-06-05 15:07:09,957 DEBUG [main] n.f.c.m.FloodlightModuleLoader [FloodlightModuleLoader.java:453] Starting net.onrc.onos.ofcontroller.flowprogrammer.FlowProgrammer
2014-06-05 15:07:09,964 DEBUG [main] n.f.c.m.FloodlightModuleLoader [FloodlightModuleLoader.java:453] Starting net.onrc.onos.registry.controller.ZookeeperRegistry
2014-06-05 15:07:09,992 DEBUG [pool-8-thread-1] n.o.o.r.c.ZookeeperRegistry [ZookeeperRegistry.java:179] Cluster leadership changed, now true
2014-06-05 15:07:09,999 DEBUG [main] n.f.c.m.FloodlightModuleLoader [FloodlightModuleLoader.java:453] Starting net.onrc.onos.ofcontroller.linkdiscovery.internal.LinkDiscoveryManager
2014-06-05 15:07:10,031 WARN [main] n.o.o.o.l.i.LinkDiscoveryManager [LinkDiscoveryManager.java:790] WWWWWW2: Setting Controller long TLV value to: 443175442348285297
2014-06-05 15:07:10,031 DEBUG [main] n.f.c.m.FloodlightModuleLoader [FloodlightModuleLoader.java:453] Starting net.onrc.onos.ofcontroller.floodlightlistener.NetworkGraphPublisher
2014-06-05 15:07:10,032 DEBUG [main] n.o.o.o.f.NetworkGraphPublisher [NetworkGraphPublisher.java:483] Adding EventListener
2014-06-05 15:07:10,036 DEBUG [main] n.o.o.g.GraphDBConnection [GraphDBConnection.java:139] Registered listener class net.onrc.onos.graph.LocalTopologyEventListener
2014-06-05 15:07:10,040 DEBUG [main] n.f.c.m.FloodlightModuleLoader [FloodlightModuleLoader.java:453] Starting net.onrc.onos.ofcontroller.flowmanager.FlowManager
2014-06-05 15:07:10,735 DEBUG [main] n.f.c.m.FloodlightModuleLoader [FloodlightModuleLoader.java:453] Starting net.onrc.onos.ofcontroller.topology.TopologyManager
2014-06-05 15:07:10,737 INFO [FlowEventHandler 48] c.h.p.PartitionService [Slf4jFactory.java:83] [192.168.56.12]:5701 [dev] Initializing cluster partition table first arrangement...
2014-06-05 15:07:10,741 DEBUG [main] n.f.c.m.FloodlightModuleLoader [FloodlightModuleLoader.java:453] Starting net.floodlightcontroller.topology.TopologyManager
2014-06-05 15:07:10,767 DEBUG [main] n.f.c.m.FloodlightModuleLoader [FloodlightModuleLoader.java:453] Starting net.onrc.onos.ofcontroller.proxyarp.ProxyArpManager
2014-06-05 15:07:10,768 INFO [main] n.o.o.o.p.ProxyArpManager [ProxyArpManager.java:184] vlan set to 0
2014-06-05 15:07:10,797 DEBUG [main] n.f.c.m.FloodlightModuleLoader [FloodlightModuleLoader.java:453] Starting net.onrc.onos.ofcontroller.devicemanager.OnosDeviceManager
2014-06-05 15:07:10,798 DEBUG [main] n.f.c.m.FloodlightModuleLoader [FloodlightModuleLoader.java:453] Starting net.onrc.onos.ofcontroller.forwarding.Forwarding
2014-06-05 15:07:10,798 DEBUG [main] n.f.r.RestApiServer [RestApiServer.java:137] REST API routables: CoreWebRoutable (/wm/floodlight/core), OnosInternalWebRoutable (/wm/onos/internal), StaticWebRoutable (/wm/floodlight/ui/), DatagridWebRoutable (/wm/onos/datagrid), FlowProgrammerWebRoutable (/wm/onos/flowprogrammer), RegistryWebRoutable (/wm/onos/registry), LinkDiscoveryWebRoutable (/wm/onos/linkdiscovery), FlowWebRoutable (/wm/onos/flows), OnosTopologyWebRoutable (/wm/onos/topology), TopologyWebRoutable (/wm/floodlight/topology), ArpWebRoutable (/wm/arp), 
2014-06-05 15:07:11,325 DEBUG [main] n.f.c.i.Controller [Controller.java:1490] OFListeners for FLOW_REMOVED: FlowProgrammer,
2014-06-05 15:07:11,325 DEBUG [main] n.f.c.i.Controller [Controller.java:1490] OFListeners for PACKET_IN: linkdiscovery,onosdevicemanager,proxyarpmanager,onosforwarding,topology,
2014-06-05 15:07:11,325 DEBUG [main] n.f.c.i.Controller [Controller.java:1490] OFListeners for PORT_STATUS: linkdiscovery,
2014-06-05 15:07:11,326 DEBUG [main] n.f.c.i.Controller [Controller.java:1490] OFListeners for BARRIER_REPLY: flowpusher,
2014-06-05 15:07:11,441 INFO [main] n.f.c.i.Controller [Controller.java:1724] Listening for switch connections on 0.0.0.0/0.0.0.0:6633
2014-06-05 15:07:21,663 INFO [New I/O server worker #1-1] n.f.c.i.Controller [Controller.java:364] New switch connection from /192.168.56.1:58466
2014-06-05 15:07:24,912 DEBUG [hz.ShutdownThread] c.h.i.Node [Slf4jFactory.java:81] [192.168.56.12]:5701 [dev] ** we are being asked to shutdown when active = true
2014-06-05 15:07:24,914 DEBUG [hz.ShutdownThread] c.h.i.Node [Slf4jFactory.java:81] [192.168.56.12]:5701 [dev] Shutting down client command service
2014-06-05 15:07:24,914 DEBUG [hz.ShutdownThread] c.h.i.Node [Slf4jFactory.java:81] [192.168.56.12]:5701 [dev] Shutting down node engine
2014-06-05 15:07:24,914 DEBUG [hz.ShutdownThread] c.h.s.NodeEngine [Slf4jFactory.java:81] [192.168.56.12]:5701 [dev] Shutting down services...
2014-06-05 15:07:24,915 DEBUG [hz.ShutdownThread] c.h.s.WaitNotifyService [Slf4jFactory.java:81] [192.168.56.12]:5701 [dev] Stopping tasks...
2014-06-05 15:07:24,916 DEBUG [hz.ShutdownThread] c.h.s.i.ServiceManager [Slf4jFactory.java:81] [192.168.56.12]:5701 [dev] Stopping services...
2014-06-05 15:07:24,917 DEBUG [hz.ShutdownThread] c.h.s.i.ServiceManager [Slf4jFactory.java:81] [192.168.56.12]:5701 [dev] Shutting down service -> com.hazelcast.concurrent.lock.LockServiceImpl@7ca5cc9e
2014-06-05 15:07:24,925 DEBUG [hz.ShutdownThread] c.h.s.i.ServiceManager [Slf4jFactory.java:81] [192.168.56.12]:5701 [dev] Shutting down service -> com.hazelcast.executor.DistributedExecutorService@1206cda0
2014-06-05 15:07:24,925 DEBUG [hz.ShutdownThread] c.h.s.i.ServiceManager [Slf4jFactory.java:81] [192.168.56.12]:5701 [dev] Shutting down service -> com.hazelcast.queue.QueueService@10ac16b5
2014-06-05 15:07:24,926 DEBUG [hz.ShutdownThread] c.h.s.i.ServiceManager [Slf4jFactory.java:81] [192.168.56.12]:5701 [dev] Shutting down service -> com.hazelcast.concurrent.idgen.IdGeneratorService@9c3b915
2014-06-05 15:07:24,926 DEBUG [hz.ShutdownThread] c.h.s.i.ServiceManager [Slf4jFactory.java:81] [192.168.56.12]:5701 [dev] Shutting down service -> com.hazelcast.topic.TopicService@3ed0f9db
2014-06-05 15:07:24,929 DEBUG [hz.ShutdownThread] c.h.s.i.ServiceManager [Slf4jFactory.java:81] [192.168.56.12]:5701 [dev] Shutting down service -> com.hazelcast.map.MapService@435d9842
2014-06-05 15:07:24,954 DEBUG [hz.ShutdownThread] c.h.s.i.ServiceManager [Slf4jFactory.java:81] [192.168.56.12]:5701 [dev] Shutting down service -> com.hazelcast.collection.CollectionService@4d39d4c6
2014-06-05 15:07:24,956 DEBUG [hz.ShutdownThread] c.h.s.i.ServiceManager [Slf4jFactory.java:81] [192.168.56.12]:5701 [dev] Shutting down service -> com.hazelcast.concurrent.semaphore.SemaphoreService@5c4d26f9
2014-06-05 15:07:24,957 DEBUG [hz.ShutdownThread] c.h.s.i.ServiceManager [Slf4jFactory.java:81] [192.168.56.12]:5701 [dev] Shutting down service -> com.hazelcast.transaction.impl.TransactionManagerServiceImpl@733dc4f2
2014-06-05 15:07:24,957 DEBUG [hz.ShutdownThread] c.h.s.i.ServiceManager [Slf4jFactory.java:81] [192.168.56.12]:5701 [dev] Shutting down service -> com.hazelcast.concurrent.countdownlatch.CountDownLatchService@62fb9622
2014-06-05 15:07:24,960 DEBUG [hz.ShutdownThread] c.h.s.i.ServiceManager [Slf4jFactory.java:81] [192.168.56.12]:5701 [dev] Shutting down service -> com.hazelcast.concurrent.atomiclong.AtomicLongService@1f2d7b53
2014-06-05 15:07:24,961 DEBUG [hz.ShutdownThread] c.h.s.i.ServiceManager [Slf4jFactory.java:81] [192.168.56.12]:5701 [dev] Shutting down service -> PartitionManager[271] {

migrationQ: 0
}
2014-06-05 15:07:24,964 DEBUG [hz.ShutdownThread] c.h.p.PartitionService [Slf4jFactory.java:81] [192.168.56.12]:5701 [dev] Shutting down the partition service
2014-06-05 15:07:24,965 DEBUG [hz.ShutdownThread] c.h.s.i.ServiceManager [Slf4jFactory.java:81] [192.168.56.12]:5701 [dev] Shutting down service -> ClusterService{address=Address[192.168.56.12]:5701}
2014-06-05 15:07:24,966 DEBUG [hz.ShutdownThread] c.h.s.i.ServiceManager [Slf4jFactory.java:81] [192.168.56.12]:5701 [dev] Shutting down service -> com.hazelcast.client.ClientEngineImpl@58d3e2d4
2014-06-05 15:07:24,966 DEBUG [hz.ShutdownThread] c.h.s.ExecutionService [Slf4jFactory.java:81] [192.168.56.12]:5701 [dev] Stopping executors...
2014-06-05 15:07:24,965 DEBUG [hz._hzInstance_1_dev.migration] c.h.p.PartitionService [Slf4jFactory.java:81] [192.168.56.12]:5701 [dev] MigrationThread is interrupted: null
2014-06-05 15:07:24,968 DEBUG [hz.ShutdownThread] c.h.s.EventService [Slf4jFactory.java:81] [192.168.56.12]:5701 [dev] Stopping event executor...
2014-06-05 15:07:24,969 DEBUG [hz.ShutdownThread] c.h.s.OperationService [Slf4jFactory.java:81] [192.168.56.12]:5701 [dev] Stopping operation threads...
2014-06-05 15:07:24,975 DEBUG [hz.ShutdownThread] c.h.i.Node [Slf4jFactory.java:81] [192.168.56.12]:5701 [dev] Shutting down multicast service
2014-06-05 15:07:24,985 DEBUG [hz.ShutdownThread] c.h.i.Node [Slf4jFactory.java:81] [192.168.56.12]:5701 [dev] Shutting down connection manager
2014-06-05 15:07:24,985 DEBUG [hz.ShutdownThread] c.h.n.TcpIpConnectionManager [Slf4jFactory.java:81] [192.168.56.12]:5701 [dev] Stopping ConnectionManager
2014-06-05 15:07:24,985 DEBUG [hz.ShutdownThread] c.h.n.TcpIpConnectionManager [Slf4jFactory.java:81] [192.168.56.12]:5701 [dev] Shutting down SocketAcceptor thread.
2014-06-05 15:07:24,987 DEBUG [hz._hzInstance_1_dev.IO.thread-Acceptor] c.h.n.SocketAcceptor [Slf4jFactory.java:81] [192.168.56.12]:5701 [dev] Closing selector hz._hzInstance_1_dev.IO.thread-Acceptor
2014-06-05 15:07:24,989 DEBUG [hz.ShutdownThread] c.h.n.TcpIpConnectionManager [Slf4jFactory.java:81] [192.168.56.12]:5701 [dev] Shutting down IO selectors... Total: 3
2014-06-05 15:07:24,997 DEBUG [hz._hzInstance_1_dev.IO.thread-in-0] c.h.n.InSelectorImpl [Slf4jFactory.java:81] [192.168.56.12]:5701 [dev] hz._hzInstance_1_dev.IO.thread-in-0 is interrupted!
2014-06-05 15:07:24,997 DEBUG [hz._hzInstance_1_dev.IO.thread-in-0] c.h.n.InSelectorImpl [Slf4jFactory.java:81] [192.168.56.12]:5701 [dev] Closing selector hz._hzInstance_1_dev.IO.thread-in-0
2014-06-05 15:07:24,999 DEBUG [hz._hzInstance_1_dev.IO.thread-out-1] c.h.n.OutSelectorImpl [Slf4jFactory.java:81] [192.168.56.12]:5701 [dev] hz._hzInstance_1_dev.IO.thread-out-1 is interrupted!
2014-06-05 15:07:25,000 DEBUG [hz._hzInstance_1_dev.IO.thread-out-1] c.h.n.OutSelectorImpl [Slf4jFactory.java:81] [192.168.56.12]:5701 [dev] Closing selector hz._hzInstance_1_dev.IO.thread-out-1
2014-06-05 15:07:24,999 DEBUG [hz._hzInstance_1_dev.IO.thread-out-2] c.h.n.OutSelectorImpl [Slf4jFactory.java:81] [192.168.56.12]:5701 [dev] hz._hzInstance_1_dev.IO.thread-out-2 is interrupted!
2014-06-05 15:07:25,005 DEBUG [hz._hzInstance_1_dev.IO.thread-out-2] c.h.n.OutSelectorImpl [Slf4jFactory.java:81] [192.168.56.12]:5701 [dev] Closing selector hz._hzInstance_1_dev.IO.thread-out-2
2014-06-05 15:07:24,999 DEBUG [hz._hzInstance_1_dev.IO.thread-in-2] c.h.n.InSelectorImpl [Slf4jFactory.java:81] [192.168.56.12]:5701 [dev] hz._hzInstance_1_dev.IO.thread-in-2 is interrupted!
2014-06-05 15:07:25,006 DEBUG [hz._hzInstance_1_dev.IO.thread-in-2] c.h.n.InSelectorImpl [Slf4jFactory.java:81] [192.168.56.12]:5701 [dev] Closing selector hz._hzInstance_1_dev.IO.thread-in-2
2014-06-05 15:07:24,999 DEBUG [hz.ShutdownThread] c.h.n.TcpIpConnectionManager [Slf4jFactory.java:81] [192.168.56.12]:5701 [dev] Closing server socket channel: sun.nio.ch.ServerSocketChannelImpl[/0.0.0.0:5701]
2014-06-05 15:07:25,013 INFO [hz.ShutdownThread] c.h.initializer [Slf4jFactory.java:83] [192.168.56.12]:5701 [dev] Destroying node initializer.
2014-06-05 15:07:25,016 DEBUG [hz.ShutdownThread] c.h.i.Node [Slf4jFactory.java:81] [192.168.56.12]:5701 [dev] Shutting down thread hz._hzInstance_1_dev.IO.thread-out-0
2014-06-05 15:07:25,017 DEBUG [hz.ShutdownThread] c.h.i.Node [Slf4jFactory.java:81] [192.168.56.12]:5701 [dev] Shutting down thread hz._hzInstance_1_dev.IO.thread-in-1
2014-06-05 15:07:25,019 DEBUG [hz.ShutdownThread] c.h.i.Node [Slf4jFactory.java:81] [192.168.56.12]:5701 [dev] Shutting down thread hz._hzInstance_1_dev.HealthMonitor
2014-06-05 15:07:25,019 INFO [hz.ShutdownThread] c.h.i.Node [Slf4jFactory.java:83] [192.168.56.12]:5701 [dev] Hazelcast Shutdown is completed in 107 ms.
2014-06-05 15:07:24,998 DEBUG [hz._hzInstance_1_dev.IO.thread-in-1] c.h.n.InSelectorImpl [Slf4jFactory.java:81] [192.168.56.12]:5701 [dev] hz._hzInstance_1_dev.IO.thread-in-1 is interrupted!
